{
    "1001": {
        "Id": 1001,
        "NameTextMapHash": 3755037976,
        "RankLevel": 1,
        "Icon": "UI_ItemIcon_Recipe_1002",
        "DescTextMapHash": 108104714,
        "EffectDesc": [
            3777358629,
            2048687225,
            3505947766,
            4105485103
        ],
        "FoodType": "COOK_FOOD_HEAL",
        "CookMethod": "COOK_METHOD_BAKE",
        "IsDefaultUnlocked": true,
        "MaxProficiency": 5,
        "QualityOutputVec": [
            {
                "Id": 108011,
                "Count": 1
            },
            {
                "Id": 108012,
                "Count": 1
            },
            {
                "Id": 108013,
                "Count": 1
            }
        ],
        "InputVec": [
            {
                "Id": 100011,
                "Count": 1
            },
            {
                "Id": 100064,
                "Count": 1
            },
            {},
            {},
            {}
        ],
        "QteParam": "0.63,0.4",
        "QteQualityWeightVec": [
            0,
            0,
            100
        ]
    },
    "1003": {
        "Id": 1003,
        "NameTextMapHash": 3908313952,
        "RankLevel": 1,
        "Icon": "UI_ItemIcon_Recipe_2001",
        "DescTextMapHash": 678354210,
        "EffectDesc": [
            3277042901,
            1302395425,
            1442391822,
            649770735
        ],
        "FoodType": "COOK_FOOD_HEAL",
        "CookMethod": "COOK_METHOD_BAKE",
        "IsDefaultUnlocked": true,
        "MaxProficiency": 5,
        "QualityOutputVec": [
            {
                "Id": 108004,
                "Count": 1
            },
            {
                "Id": 108005,
                "Count": 1
            },
            {
                "Id": 108006,
                "Count": 1
            }
        ],
        "InputVec": [
            {
                "Id": 100062,
                "Count": 1
            },
            {},
            {},
            {},
            {}
        ],
        "QteParam": "0.52,0.4",
        "QteQualityWeightVec": [
            0,
            0,
            100
        ]
    },
    "1004": {
        "Id": 1004,
        "NameTextMapHash": 1915770008,
        "RankLevel": 1,
        "Icon": "UI_ItemIcon_Recipe_3001",
        "DescTextMapHash": 1753605034,
        "EffectDesc": [
            3136799197,
            2503351705,
            1881966790,
            2293374967
        ],
        "FoodType": "COOK_FOOD_HEAL",
        "CookMethod": "COOK_METHOD_BAKE",
        "IsDefaultUnlocked": true,
        "MaxProficiency": 5,
        "QualityOutputVec": [
            {
                "Id": 108007,
                "Count": 1
            },
            {
                "Id": 108008,
                "Count": 1
            },
            {
                "Id": 108009,
                "Count": 1
            }
        ],
        "InputVec": [
            {
                "Id": 100061,
                "Count": 2
            },
            {},
            {},
            {},
            {}
        ],
        "QteParam": "0.77,0.4",
        "QteQualityWeightVec": [
            0,
            0,
            100
        ]
    },
    "1005": {
        "Id": 1005,
        "NameTextMapHash": 942628784,
        "RankLevel": 1,
        "Icon": "UI_ItemIcon_Recipe_3002",
        "DescTextMapHash": 2323462586,
        "EffectDesc": [
            1294574693,
            2101749145,
            3326645430,
            1477603575
        ],
        "FoodType": "COOK_FOOD_HEAL",
        "CookMethod": "COOK_METHOD_BOIL",
        "IsDefaultUnlocked": true,
        "MaxProficiency": 5,
        "QualityOutputVec": [
            {
                "Id": 108019,
                "Count": 1
            },
            {
                "Id": 108020,
                "Count": 1
            },
            {
                "Id": 108021,
                "Count": 1
            }
        ],
        "InputVec": [
            {
                "Id": 100014,
                "Count": 1
            },
            {
                "Id": 100016,
                "Count": 1
            },
            {},
            {},
            {}
        ],
        "QteParam": "0.8,0.4",
        "QteQualityWeightVec": [
            0,
            0,
            100
        ]
    },
    "1006": {
        "Id": 1006,
        "NameTextMapHash": 4128572800,
        "RankLevel": 1,
        "Icon": "UI_ItemIcon_108096",
        "DescTextMapHash": 813304538,
        "EffectDesc": [
            3513118981,
            889415737,
            948922518,
            2903483887
        ],
        "FoodType": "COOK_FOOD_HEAL",
        "CookMethod": "COOK_METHOD_BAKE",
        "IsDefaultUnlocked": true,
        "MaxProficiency": 5,
        "QualityOutputVec": [
            {
                "Id": 108095,
                "Count": 1
            },
            {
                "Id": 108096,
                "Count": 1
            },
            {
                "Id": 108097,
                "Count": 1
            }
        ],
        "InputVec": [
            {
                "Id": 100084,
                "Count": 1
            },
            {
                "Id": 100077,
                "Count": 1
            },
            {},
            {},
            {}
        ],
        "QteParam": "0.4,0.4",
        "QteQualityWeightVec": [
            0,
            0,
            100
        ]
    },
    "1007": {
        "Id": 1007,
        "NameTextMapHash": 3984520800,
        "RankLevel": 1,
        "Icon": "UI_ItemIcon_108226",
        "DescTextMapHash": 2433132450,
        "EffectDesc": [
            4150012253,
            746137129,
            333150278,
            1984795567
        ],
        "FoodType": "COOK_FOOD_HEAL",
        "CookMethod": "COOK_METHOD_BAKE",
        "MaxProficiency": 5,
        "QualityOutputVec": [
            {
                "Id": 108225,
                "Count": 1
            },
            {
                "Id": 108226,
                "Count": 1
            },
            {
                "Id": 108227,
                "Count": 1
            }
        ],
        "InputVec": [
            {
                "Id": 100016,
                "Count": 1
            },
            {
                "Id": 110006,
                "Count": 1
            },
            {},
            {},
            {}
        ],
        "QteParam": "0.4,0.4",
        "QteQualityWeightVec": [
            0,
            0,
            100
        ]
    },
    "1101": {
        "Id": 1101,
        "NameTextMapHash": 2376368912,
        "RankLevel": 1,
        "Icon": "UI_ItemIcon_108093",
        "DescTextMapHash": 3619433970,
        "EffectDesc": [
            2058344077,
            1146820897,
            1825028958,
            2904151447
        ],
        "FoodType": "COOK_FOOD_HEAL",
        "CookMethod": "COOK_METHOD_BAKE",
        "MaxProficiency": 5,
        "QualityOutputVec": [
            {
                "Id": 108092,
                "Count": 1
            },
            {
                "Id": 108093,
                "Count": 1
            },
            {
                "Id": 108094,
                "Count": 1
            }
        ],
        "InputVec": [
            {
                "Id": 100061,
                "Count": 1
            },
            {
                "Id": 110001,
                "Count": 1
            },
            {},
            {},
            {}
        ],
        "QteParam": "0.48,0.4",
        "QteQualityWeightVec": [
            0,
            0,
            100
        ]
    },
    "1102": {
        "Id": 1102,
        "NameTextMapHash": 2711069136,
        "RankLevel": 1,
        "Icon": "UI_ItemIcon_108099",
        "DescTextMapHash": 1804774450,
        "EffectDesc": [
            3258403333,
            582609369,
            2333385446,
            1658276735
        ],
        "FoodType": "COOK_FOOD_HEAL",
        "CookMethod": "COOK_METHOD_FRY",
        "MaxProficiency": 5,
        "QualityOutputVec": [
            {
                "Id": 108098,
                "Count": 1
            },
            {
                "Id": 108099,
                "Count": 1
            },
            {
                "Id": 108100,
                "Count": 1
            }
        ],
        "InputVec": [
            {
                "Id": 100061,
                "Count": 1
            },
            {
                "Id": 100027,
                "Count": 1
            },
            {},
            {},
            {}
        ],
        "QteParam": "0.7,0.4",
        "QteQualityWeightVec": [
            0,
            0,
            100
        ]
    },
    "1103": {
        "Id": 1103,
        "NameTextMapHash": 3566956816,
        "RankLevel": 1,
        "Icon": "UI_ItemIcon_108108",
        "DescTextMapHash": 3705270682,
        "EffectDesc": [
            2509227869,
            788132489,
            159992982,
            356219199
        ],
        "FoodType": "COOK_FOOD_HEAL",
        "CookMethod": "COOK_METHOD_BAKE",
        "MaxProficiency": 5,
        "QualityOutputVec": [
            {
                "Id": 108107,
                "Count": 1
            },
            {
                "Id": 108108,
                "Count": 1
            },
            {
                "Id": 108109,
                "Count": 1
            }
        ],
        "InputVec": [
            {
                "Id": 100084,
                "Count": 1
            },
            {
                "Id": 100077,
                "Count": 1
            },
            {},
            {},
            {}
        ],
        "QteParam": "0.63,0.4",
        "QteQualityWeightVec": [
            0,
            0,
            100
        ]
    },
    "2001": {
        "Id": 2001,
        "NameTextMapHash": 3826793904,
        "RankLevel": 2,
        "Icon": "UI_ItemIcon_Recipe_1003",
        "DescTextMapHash": 3286985874,
        "EffectDesc": [
            1866629885,
            3240536537,
            645304078,
            2569000423
        ],
        "FoodType": "COOK_FOOD_HEAL",
        "CookMethod": "COOK_METHOD_BOIL",
        "MaxProficiency": 10,
        "QualityOutputVec": [
            {
                "Id": 108015,
                "Count": 1
            },
            {
                "Id": 108016,
                "Count": 1
            },
            {
                "Id": 108017,
                "Count": 1
            }
        ],
        "InputVec": [
            {
                "Id": 110001,
                "Count": 2
            },
            {
                "Id": 100061,
                "Count": 2
            },
            {
                "Id": 100079,
                "Count": 1
            },
            {},
            {}
        ],
        "QteParam": "0.65,0.35",
        "QteQualityWeightVec": [
            0,
            0,
            100
        ]
    },
    "2002": {
        "Id": 2002,
        "NameTextMapHash": 3983445808,
        "RankLevel": 2,
        "Icon": "UI_ItemIcon_Recipe_1004",
        "DescTextMapHash": 372082930,
        "EffectDesc": [
            3869493309,
            2222960097,
            410047742,
            3623051615
        ],
        "FoodType": "COOK_FOOD_HEAL",
        "CookMethod": "COOK_METHOD_STEAM",
        "IsDefaultUnlocked": true,
        "MaxProficiency": 10,
        "QualityOutputVec": [
            {
                "Id": 108031,
                "Count": 1
            },
            {
                "Id": 108032,
                "Count": 1
            },
            {
                "Id": 108033,
                "Count": 1
            }
        ],
        "InputVec": [
            {
                "Id": 100064,
                "Count": 2
            },
            {
                "Id": 100012,
                "Count": 2
            },
            {},
            {},
            {}
        ],
        "QteParam": "0.65,0.35",
        "QteQualityWeightVec": [
            0,
            0,
            100
        ]
    },
    "2003": {
        "Id": 2003,
        "NameTextMapHash": 3320078776,
        "RankLevel": 2,
        "Icon": "UI_ItemIcon_Recipe_2002",
        "DescTextMapHash": 2499450170,
        "EffectDesc": [
            1263907109,
            225125121,
            2490169782,
            3379200775
        ],
        "FoodType": "COOK_FOOD_FUNCTION",
        "CookMethod": "COOK_METHOD_STEAM",
        "MaxProficiency": 10,
        "QualityOutputVec": [
            {
                "Id": 108034,
                "Count": 1
            },
            {
                "Id": 108035,
                "Count": 1
            },
            {
                "Id": 108036,
                "Count": 1
            }
        ],
        "InputVec": [
            {
                "Id": 110003,
                "Count": 1
            },
            {
                "Id": 100076,
                "Count": 1
            },
            {
                "Id": 100018,
                "Count": 1
            },
            {},
            {}
        ],
        "QteParam": "0.55,0.35",
        "QteQualityWeightVec": [
            0,
            0,
            100
        ]
    },
    "2004": {
        "Id": 2004,
        "NameTextMapHash": 3161603856,
        "RankLevel": 2,
        "Icon": "UI_ItemIcon_Recipe_2003",
        "DescTextMapHash": 545665914,
        "EffectDesc": [
            3378792541,
            3640978977,
            4227247238,
            832572839
        ],
        "FoodType": "COOK_FOOD_FUNCTION",
        "CookMethod": "COOK_METHOD_BOIL",
        "MaxProficiency": 10,
        "QualityOutputVec": [
            {
                "Id": 108037,
                "Count": 1
            },
            {
                "Id": 108038,
                "Count": 1
            },
            {
                "Id": 108039,
                "Count": 1
            }
        ],
        "InputVec": [
            {
                "Id": 100061,
                "Count": 2
            },
            {
                "Id": 110002,
                "Count": 2
            },
            {
                "Id": 100015,
                "Count": 1
            },
            {},
            {}
        ],
        "QteParam": "0.55,0.35",
        "QteQualityWeightVec": [
            0,
            0,
            100
        ]
    },
    "2005": {
        "Id": 2005,
        "NameTextMapHash": 3810630240,
        "RankLevel": 2,
        "Icon": "UI_ItemIcon_Recipe_4001",
        "DescTextMapHash": 2561720146,
        "EffectDesc": [
            3262173373,
            589495969,
            928548390,
            4194435815
        ],
        "FoodType": "COOK_FOOD_HEAL",
        "CookMethod": "COOK_METHOD_BAKE",
        "MaxProficiency": 10,
        "QualityOutputVec": [
            {
                "Id": 108022,
                "Count": 1
            },
            {
                "Id": 108023,
                "Count": 1
            },
            {
                "Id": 108024,
                "Count": 1
            }
        ],
        "InputVec": [
            {
                "Id": 100051,
                "Count": 3
            },
            {
                "Id": 110001,
                "Count": 2
            },
            {
                "Id": 100062,
                "Count": 1
            },
            {},
            {}
        ],
        "QteParam": "0.4,0.35",
        "QteQualityWeightVec": [
            0,
            0,
            100
        ]
    },
    "2006": {
        "Id": 2006,
        "NameTextMapHash": 1947768664,
        "RankLevel": 2,
        "Icon": "UI_ItemIcon_Recipe_4002",
        "DescTextMapHash": 2562114610,
        "EffectDesc": [
            1563345757,
            911446009,
            4126578494,
            287554135
        ],
        "FoodType": "COOK_FOOD_ATTACK",
        "CookMethod": "COOK_METHOD_BAKE",
        "IsDefaultUnlocked": true,
        "MaxProficiency": 10,
        "QualityOutputVec": [
            {
                "Id": 108025,
                "Count": 1
            },
            {
                "Id": 108026,
                "Count": 1
            },
            {
                "Id": 108027,
                "Count": 1
            }
        ],
        "InputVec": [
            {
                "Id": 110001,
                "Count": 3
            },
            {
                "Id": 100014,
                "Count": 2
            },
            {
                "Id": 100077,
                "Count": 1
            },
            {},
            {}
        ],
        "QteParam": "0.4,0.35",
        "QteQualityWeightVec": [
            0,
            0,
            100
        ]
    },
    "2007": {
        "Id": 2007,
        "NameTextMapHash": 3016112712,
        "RankLevel": 2,
        "Icon": "UI_ItemIcon_Recipe_4003",
        "DescTextMapHash": 3201586994,
        "EffectDesc": [
            124385373,
            821093969,
            3030098046,
            1782059983
        ],
        "FoodType": "COOK_FOOD_ATTACK",
        "CookMethod": "COOK_METHOD_BOIL",
        "IsDefaultUnlocked": true,
        "MaxProficiency": 10,
        "QualityOutputVec": [
            {
                "Id": 108028,
                "Count": 1
            },
            {
                "Id": 108029,
                "Count": 1
            },
            {
                "Id": 108030,
                "Count": 1
            }
        ],
        "InputVec": [
            {
                "Id": 100018,
                "Count": 2
            },
            {
                "Id": 100001,
                "Count": 2
            },
            {
                "Id": 100062,
                "Count": 1
            },
            {
                "Id": 100080,
                "Count": 1
            },
            {}
        ],
        "QteParam": "0.4,0.35",
        "QteQualityWeightVec": [
            0,
            0,
            100
        ]
    },
    "2008": {
        "Id": 2008,
        "NameTextMapHash": 2512996856,
        "RankLevel": 2,
        "Icon": "UI_ItemIcon_Recipe_1001",
        "DescTextMapHash": 2159575650,
        "EffectDesc": [
            946192957,
            860986273,
            201671206,
            649963679
        ],
        "FoodType": "COOK_FOOD_DEFENSE",
        "CookMethod": "COOK_METHOD_BAKE",
        "IsDefaultUnlocked": true,
        "MaxProficiency": 10,
        "QualityOutputVec": [
            {
                "Id": 108001,
                "Count": 1
            },
            {
                "Id": 108002,
                "Count": 1
            },
            {
                "Id": 108003,
                "Count": 1
            }
        ],
        "InputVec": [
            {
                "Id": 110001,
                "Count": 3
            },
            {
                "Id": 100079,
                "Count": 2
            },
            {
                "Id": 100076,
                "Count": 1
            },
            {
                "Id": 100078,
                "Count": 1
            },
            {}
        ],
        "QteParam": "0.63,0.35",
        "QteQualityWeightVec": [
            0,
            0,
            100
        ]
    },
    "2009": {
        "Id": 2009,
        "NameTextMapHash": 1279455264,
        "RankLevel": 2,
        "Icon": "UI_ItemIcon_108205",
        "DescTextMapHash": 659578210,
        "EffectDesc": [
            2530572461,
            1353327385,
            115574614,
            305658183
        ],
        "FoodType": "COOK_FOOD_FUNCTION",
        "CookMethod": "COOK_METHOD_BOIL",
        "MaxProficiency": 10,
        "QualityOutputVec": [
            {
                "Id": 108204,
                "Count": 1
            },
            {
                "Id": 108205,
                "Count": 1
            },
            {
                "Id": 108206,
                "Count": 1
            }
        ],
        "InputVec": [
            {
                "Id": 100094,
                "Count": 2
            },
            {
                "Id": 100013,
                "Count": 2
            },
            {
                "Id": 100079,
                "Count": 1
            },
            {},
            {}
        ],
        "QteParam": "0.63,0.35",
        "QteQualityWeightVec": [
            0,
            0,
            100
        ]
    },
    "2010": {
        "Id": 2010,
        "NameTextMapHash": 1470723400,
        "RankLevel": 3,
        "Icon": "UI_ItemIcon_108242",
        "DescTextMapHash": 4113894738,
        "EffectDesc": [
            2803371853,
            1766609793,
            1831623078,
            849664967
        ],
        "FoodType": "COOK_FOOD_ATTACK",
        "CookMethod": "COOK_METHOD_BOIL",
        "MaxProficiency": 15,
        "QualityOutputVec": [
            {
                "Id": 108241,
                "Count": 1
            },
            {
                "Id": 108242,
                "Count": 1
            },
            {
                "Id": 108243,
                "Count": 1
            }
        ],
        "InputVec": [
            {
                "Id": 100080,
                "Count": 6
            },
            {
                "Id": 110002,
                "Count": 4
            },
            {
                "Id": 100077,
                "Count": 3
            },
            {},
            {}
        ],
        "QteParam": "0.63,0.35",
        "QteQualityWeightVec": [
            0,
            0,
            100
        ]
    },
    "2101": {
        "Id": 2101,
        "NameTextMapHash": 3117860336,
        "RankLevel": 2,
        "Icon": "UI_ItemIcon_100428",
        "DescTextMapHash": 3195974058,
        "EffectDesc": [
            2442180133,
            1895677609,
            4042411166,
            2308413287
        ],
        "FoodType": "COOK_FOOD_ATTACK",
        "CookMethod": "COOK_METHOD_STEAM",
        "MaxProficiency": 10,
        "QualityOutputVec": [
            {
                "Id": 108080,
                "Count": 1
            },
            {
                "Id": 108081,
                "Count": 1
            },
            {
                "Id": 108082,
                "Count": 1
            }
        ],
        "InputVec": [
            {
                "Id": 100078,
                "Count": 3
            },
            {
                "Id": 110006,
                "Count": 1
            },
            {
                "Id": 100089,
                "Count": 1
            },
            {},
            {}
        ],
        "QteParam": "0.38,0.35",
        "QteQualityWeightVec": [
            0,
            0,
            100
        ]
    },
    "2102": {
        "Id": 2102,
        "NameTextMapHash": 1816326712,
        "RankLevel": 2,
        "Icon": "UI_ItemIcon_108084",
        "DescTextMapHash": 2155366442,
        "EffectDesc": [
            1532744645,
            2557687065,
            2783043006,
            4051069295
        ],
        "FoodType": "COOK_FOOD_ATTACK",
        "CookMethod": "COOK_METHOD_FRY",
        "MaxProficiency": 10,
        "QualityOutputVec": [
            {
                "Id": 108083,
                "Count": 1
            },
            {
                "Id": 108084,
                "Count": 1
            },
            {
                "Id": 108085,
                "Count": 1
            }
        ],
        "InputVec": [
            {
                "Id": 100064,
                "Count": 2
            },
            {
                "Id": 100027,
                "Count": 1
            },
            {
                "Id": 100077,
                "Count": 1
            },
            {},
            {}
        ],
        "QteParam": "0.7,0.35",
        "QteQualityWeightVec": [
            0,
            0,
            100
        ]
    },
    "2103": {
        "Id": 2103,
        "NameTextMapHash": 1288948872,
        "RankLevel": 2,
        "Icon": "UI_ItemIcon_108087",
        "DescTextMapHash": 3011047370,
        "EffectDesc": [
            888137701,
            1324885153,
            799299758,
            1798166071
        ],
        "FoodType": "COOK_FOOD_DEFENSE",
        "CookMethod": "COOK_METHOD_BOIL",
        "MaxProficiency": 10,
        "QualityOutputVec": [
            {
                "Id": 108086,
                "Count": 1
            },
            {
                "Id": 108087,
                "Count": 1
            },
            {
                "Id": 108088,
                "Count": 1
            }
        ],
        "InputVec": [
            {
                "Id": 100015,
                "Count": 2
            },
            {
                "Id": 100088,
                "Count": 2
            },
            {
                "Id": 100026,
                "Count": 1
            },
            {},
            {}
        ],
        "QteParam": "0.72,0.35",
        "QteQualityWeightVec": [
            0,
            0,
            100
        ]
    },
    "2104": {
        "Id": 2104,
        "NameTextMapHash": 1818174392,
        "RankLevel": 2,
        "Icon": "UI_ItemIcon_108090",
        "DescTextMapHash": 606617554,
        "EffectDesc": [
            270762493,
            547486929,
            4177761646,
            2623684327
        ],
        "FoodType": "COOK_FOOD_HEAL",
        "CookMethod": "COOK_METHOD_STEAM",
        "MaxProficiency": 10,
        "QualityOutputVec": [
            {
                "Id": 108089,
                "Count": 1
            },
            {
                "Id": 108090,
                "Count": 1
            },
            {
                "Id": 108091,
                "Count": 1
            }
        ],
        "InputVec": [
            {
                "Id": 100063,
                "Count": 2
            },
            {
                "Id": 100061,
                "Count": 2
            },
            {},
            {},
            {}
        ],
        "QteParam": "0.45,0.35",
        "QteQualityWeightVec": [
            0,
            0,
            100
        ]
    },
    "2105": {
        "Id": 2105,
        "NameTextMapHash": 1887732288,
        "RankLevel": 2,
        "Icon": "UI_ItemIcon_108105",
        "DescTextMapHash": 636394546,
        "EffectDesc": [
            2911866869,
            3229264921,
            1873608438,
            3115329879
        ],
        "FoodType": "COOK_FOOD_HEAL",
        "CookMethod": "COOK_METHOD_STEAM",
        "MaxProficiency": 10,
        "QualityOutputVec": [
            {
                "Id": 108104,
                "Count": 1
            },
            {
                "Id": 108105,
                "Count": 1
            },
            {
                "Id": 108106,
                "Count": 1
            }
        ],
        "InputVec": [
            {
                "Id": 100092,
                "Count": 3
            },
            {
                "Id": 100093,
                "Count": 3
            },
            {
                "Id": 100013,
                "Count": 2
            },
            {},
            {}
        ],
        "QteParam": "0.72,0.35",
        "QteQualityWeightVec": [
            0,
            0,
            100
        ]
    },
    "2106": {
        "Id": 2106,
        "NameTextMapHash": 2944873232,
        "RankLevel": 2,
        "Icon": "UI_ItemIcon_108120",
        "DescTextMapHash": 1073633434,
        "EffectDesc": [
            2779673637,
            3160951313,
            3287083686,
            1340084207
        ],
        "FoodType": "COOK_FOOD_FUNCTION",
        "CookMethod": "COOK_METHOD_STEAM",
        "MaxProficiency": 10,
        "QualityOutputVec": [
            {
                "Id": 108119,
                "Count": 1
            },
            {
                "Id": 108120,
                "Count": 1
            },
            {
                "Id": 108121,
                "Count": 1
            }
        ],
        "InputVec": [
            {
                "Id": 100026,
                "Count": 1
            },
            {
                "Id": 100062,
                "Count": 1
            },
            {
                "Id": 110006,
                "Count": 1
            },
            {},
            {}
        ],
        "QteParam": "0.4,0.35",
        "QteQualityWeightVec": [
            0,
            0,
            100
        ]
    },
    "2107": {
        "Id": 2107,
        "NameTextMapHash": 3787944112,
        "RankLevel": 3,
        "Icon": "UI_ItemIcon_108126",
        "DescTextMapHash": 3614201898,
        "EffectDesc": [
            4032119581,
            1648957001,
            2354157734,
            1467662159
        ],
        "FoodType": "COOK_FOOD_HEAL",
        "CookMethod": "COOK_METHOD_STEAM",
        "MaxProficiency": 15,
        "QualityOutputVec": [
            {
                "Id": 108125,
                "Count": 1
            },
            {
                "Id": 108126,
                "Count": 1
            },
            {
                "Id": 108127,
                "Count": 1
            }
        ],
        "InputVec": [
            {
                "Id": 100093,
                "Count": 5
            },
            {
                "Id": 100080,
                "Count": 4
            },
            {
                "Id": 110001,
                "Count": 3
            },
            {},
            {}
        ],
        "QteParam": "0.5,0.27",
        "QteQualityWeightVec": [
            0,
            0,
            100
        ]
    },
    "2108": {
        "Id": 2108,
        "NameTextMapHash": 781693360,
        "RankLevel": 2,
        "Icon": "UI_ItemIcon_108142",
        "DescTextMapHash": 3868669818,
        "EffectDesc": [
            1371618597,
            3634075521,
            2655164814,
            4069957271
        ],
        "FoodType": "COOK_FOOD_FUNCTION",
        "CookMethod": "COOK_METHOD_STEAM",
        "MaxProficiency": 10,
        "QualityOutputVec": [
            {
                "Id": 108141,
                "Count": 1
            },
            {
                "Id": 108142,
                "Count": 1
            },
            {
                "Id": 108143,
                "Count": 1
            }
        ],
        "InputVec": [
            {
                "Id": 100011,
                "Count": 3
            },
            {
                "Id": 100061,
                "Count": 2
            },
            {
                "Id": 110001,
                "Count": 2
            },
            {},
            {}
        ],
        "QteParam": "0.63,0.35",
        "QteQualityWeightVec": [
            0,
            0,
            100
        ]
    },
    "2109": {
        "Id": 2109,
        "NameTextMapHash": 1659175328,
        "RankLevel": 2,
        "Icon": "UI_ItemIcon_108189",
        "DescTextMapHash": 511154386,
        "EffectDesc": [
            1155856493,
            1465478905,
            4186117302,
            1710645263
        ],
        "FoodType": "COOK_FOOD_HEAL",
        "CookMethod": "COOK_METHOD_BOIL",
        "MaxProficiency": 10,
        "QualityOutputVec": [
            {
                "Id": 108188,
                "Count": 1
            },
            {
                "Id": 108189,
                "Count": 1
            },
            {
                "Id": 108190,
                "Count": 1
            }
        ],
        "InputVec": [
            {
                "Id": 100063,
                "Count": 2
            },
            {
                "Id": 100015,
                "Count": 2
            },
            {},
            {},
            {}
        ],
        "QteParam": "0.4,0.35",
        "QteQualityWeightVec": [
            0,
            0,
            100
        ]
    },
    "2110": {
        "Id": 2110,
        "NameTextMapHash": 67165728,
        "RankLevel": 2,
        "Icon": "UI_ItemIcon_108192",
        "DescTextMapHash": 554557178,
        "EffectDesc": [
            3829825381,
            1280026249,
            1966673254,
            153946855
        ],
        "FoodType": "COOK_FOOD_ATTACK",
        "CookMethod": "COOK_METHOD_FRY",
        "MaxProficiency": 10,
        "QualityOutputVec": [
            {
                "Id": 108191,
                "Count": 1
            },
            {
                "Id": 108192,
                "Count": 1
            },
            {
                "Id": 108193,
                "Count": 1
            }
        ],
        "InputVec": [
            {
                "Id": 100080,
                "Count": 2
            },
            {
                "Id": 100034,
                "Count": 1
            },
            {
                "Id": 100063,
                "Count": 1
            },
            {},
            {}
        ],
        "QteParam": "0.63,0.35",
        "QteQualityWeightVec": [
            0,
            0,
            100
        ]
    },
    "2111": {
        "Id": 2111,
        "NameTextMapHash": 1148732520,
        "RankLevel": 2,
        "Icon": "UI_ItemIcon_108229",
        "DescTextMapHash": 2128013802,
        "EffectDesc": [
            899139133,
            3815483745,
            1262744854,
            248444631
        ],
        "FoodType": "COOK_FOOD_ATTACK",
        "CookMethod": "COOK_METHOD_FRY",
        "MaxProficiency": 10,
        "QualityOutputVec": [
            {
                "Id": 108228,
                "Count": 1
            },
            {
                "Id": 108229,
                "Count": 1
            },
            {
                "Id": 108230,
                "Count": 1
            }
        ],
        "InputVec": [
            {
                "Id": 100016,
                "Count": 4
            },
            {
                "Id": 100027,
                "Count": 1
            },
            {},
            {},
            {}
        ],
        "QteParam": "0.63,0.35",
        "QteQualityWeightVec": [
            0,
            0,
            100
        ]
    },
    "2112": {
        "Id": 2112,
        "NameTextMapHash": 879430664,
        "RankLevel": 2,
        "Icon": "UI_ItemIcon_108177",
        "DescTextMapHash": 3302782810,
        "EffectDesc": [
            2646041221,
            2055897289,
            1749046782,
            1195030519
        ],
        "FoodType": "COOK_FOOD_HEAL",
        "CookMethod": "COOK_METHOD_BOIL",
        "MaxProficiency": 10,
        "QualityOutputVec": [
            {
                "Id": 108176,
                "Count": 1
            },
            {
                "Id": 108177,
                "Count": 1
            },
            {
                "Id": 108178,
                "Count": 1
            }
        ],
        "InputVec": [
            {
                "Id": 100074,
                "Count": 1
            },
            {
                "Id": 100088,
                "Count": 1
            },
            {},
            {},
            {}
        ],
        "QteParam": "0.63,0.35",
        "QteQualityWeightVec": [
            0,
            0,
            100
        ]
    },
    "2113": {
        "Id": 2113,
        "NameTextMapHash": 3745655912,
        "RankLevel": 2,
        "Icon": "UI_ItemIcon_108186",
        "DescTextMapHash": 3577556266,
        "EffectDesc": [
            3218321253,
            2766501121,
            2582296486,
            3044011231
        ],
        "FoodType": "COOK_FOOD_HEAL",
        "CookMethod": "COOK_METHOD_FRY",
        "MaxProficiency": 10,
        "QualityOutputVec": [
            {
                "Id": 108185,
                "Count": 1
            },
            {
                "Id": 108186,
                "Count": 1
            },
            {
                "Id": 108187,
                "Count": 1
            }
        ],
        "InputVec": [
            {
                "Id": 100084,
                "Count": 2
            },
            {
                "Id": 100092,
                "Count": 2
            },
            {
                "Id": 100015,
                "Count": 2
            },
            {},
            {}
        ],
        "QteParam": "0.63,0.35",
        "QteQualityWeightVec": [
            0,
            0,
            100
        ]
    },
    "3001": {
        "Id": 3001,
        "NameTextMapHash": 3687633104,
        "RankLevel": 3,
        "Icon": "UI_ItemIcon_Recipe_1006",
        "DescTextMapHash": 1702888666,
        "EffectDesc": [
            1552544101,
            1033451297,
            1121489702,
            3748080407
        ],
        "FoodType": "COOK_FOOD_DEFENSE",
        "CookMethod": "COOK_METHOD_BOIL",
        "MaxProficiency": 15,
        "QualityOutputVec": [
            {
                "Id": 108049,
                "Count": 1
            },
            {
                "Id": 108050,
                "Count": 1
            },
            {
                "Id": 108051,
                "Count": 1
            }
        ],
        "InputVec": [
            {
                "Id": 100073,
                "Count": 4
            },
            {
                "Id": 100056,
                "Count": 1
            },
            {
                "Id": 100016,
                "Count": 2
            },
            {},
            {}
        ],
        "QteParam": "0.7,0.27",
        "QteQualityWeightVec": [
            0,
            0,
            100
        ]
    },
    "3002": {
        "Id": 3002,
        "NameTextMapHash": 3151949784,
        "RankLevel": 3,
        "Icon": "UI_ItemIcon_Recipe_1007",
        "DescTextMapHash": 2162101098,
        "EffectDesc": [
            1514059253,
            318976169,
            420536438,
            2580900999
        ],
        "FoodType": "COOK_FOOD_ATTACK",
        "CookMethod": "COOK_METHOD_BAKE",
        "MaxProficiency": 15,
        "QualityOutputVec": [
            {
                "Id": 108052,
                "Count": 1
            },
            {
                "Id": 108053,
                "Count": 1
            },
            {
                "Id": 108054,
                "Count": 1
            }
        ],
        "InputVec": [
            {
                "Id": 100063,
                "Count": 3
            },
            {
                "Id": 110001,
                "Count": 3
            },
            {
                "Id": 100020,
                "Count": 2
            },
            {
                "Id": 110004,
                "Count": 2
            },
            {}
        ],
        "QteParam": "0.7,0.27",
        "QteQualityWeightVec": [
            0,
            0,
            100
        ]
    },
    "3003": {
        "Id": 3003,
        "NameTextMapHash": 3277541528,
        "RankLevel": 3,
        "Icon": "UI_ItemIcon_Recipe_2004",
        "DescTextMapHash": 544289474,
        "EffectDesc": [
            1463867749,
            1504435417,
            3290333542,
            252978087
        ],
        "FoodType": "COOK_FOOD_ATTACK",
        "CookMethod": "COOK_METHOD_STEAM",
        "MaxProficiency": 15,
        "QualityOutputVec": [
            {
                "Id": 108059,
                "Count": 1
            },
            {
                "Id": 108060,
                "Count": 1
            },
            {
                "Id": 108061,
                "Count": 1
            }
        ],
        "InputVec": [
            {
                "Id": 110005,
                "Count": 1
            },
            {
                "Id": 110010,
                "Count": 1
            },
            {
                "Id": 110011,
                "Count": 1
            },
            {
                "Id": 100016,
                "Count": 1
            },
            {}
        ],
        "QteParam": "0.5,0.27",
        "QteQualityWeightVec": [
            0,
            0,
            100
        ]
    },
    "3004": {
        "Id": 3004,
        "NameTextMapHash": 622254280,
        "RankLevel": 3,
        "Icon": "UI_ItemIcon_Recipe_2005",
        "DescTextMapHash": 1065475194,
        "EffectDesc": [
            4060175661,
            1736820289,
            611679926,
            3729396639
        ],
        "FoodType": "COOK_FOOD_FUNCTION",
        "CookMethod": "COOK_METHOD_BOIL",
        "MaxProficiency": 15,
        "QualityOutputVec": [
            {
                "Id": 108062,
                "Count": 1
            },
            {
                "Id": 108063,
                "Count": 1
            },
            {
                "Id": 108064,
                "Count": 1
            }
        ],
        "InputVec": [
            {
                "Id": 100061,
                "Count": 3
            },
            {
                "Id": 100013,
                "Count": 2
            },
            {
                "Id": 110006,
                "Count": 2
            },
            {},
            {}
        ],
        "QteParam": "0.5,0.27",
        "QteQualityWeightVec": [
            0,
            0,
            100
        ]
    },
    "3005": {
        "Id": 3005,
        "NameTextMapHash": 1443071056,
        "RankLevel": 3,
        "Icon": "UI_ItemIcon_Recipe_2006",
        "DescTextMapHash": 1389363882,
        "EffectDesc": [
            3399127477,
            3943194177,
            2679163726,
            3643340223
        ],
        "FoodType": "COOK_FOOD_HEAL",
        "CookMethod": "COOK_METHOD_STEAM",
        "MaxProficiency": 15,
        "QualityOutputVec": [
            {
                "Id": 108065,
                "Count": 1
            },
            {
                "Id": 108066,
                "Count": 1
            },
            {
                "Id": 108067,
                "Count": 1
            }
        ],
        "InputVec": [
            {
                "Id": 100074,
                "Count": 1
            },
            {
                "Id": 110005,
                "Count": 1
            },
            {
                "Id": 110002,
                "Count": 1
            },
            {
                "Id": 100018,
                "Count": 1
            },
            {}
        ],
        "QteParam": "0.5,0.27",
        "QteQualityWeightVec": [
            0,
            0,
            100
        ]
    },
    "3006": {
        "Id": 3006,
        "NameTextMapHash": 3890736800,
        "RankLevel": 3,
        "Icon": "UI_ItemIcon_Recipe_1005",
        "DescTextMapHash": 1069464722,
        "EffectDesc": [
            2446409573,
            1517734985,
            1452744662,
            2928832279
        ],
        "FoodType": "COOK_FOOD_HEAL",
        "CookMethod": "COOK_METHOD_BAKE",
        "MaxProficiency": 15,
        "QualityOutputVec": [
            {
                "Id": 108041,
                "Count": 1
            },
            {
                "Id": 108042,
                "Count": 1
            },
            {
                "Id": 108043,
                "Count": 1
            }
        ],
        "InputVec": [
            {
                "Id": 100011,
                "Count": 4
            },
            {
                "Id": 110001,
                "Count": 3
            },
            {
                "Id": 100018,
                "Count": 2
            },
            {
                "Id": 110009,
                "Count": 1
            },
            {}
        ],
        "QteParam": "0.7,0.27",
        "QteQualityWeightVec": [
            0,
            0,
            100
        ]
    },
    "3007": {
        "Id": 3007,
        "NameTextMapHash": 3199568744,
        "RankLevel": 3,
        "Icon": "UI_ItemIcon_Recipe_3003",
        "DescTextMapHash": 2943330466,
        "EffectDesc": [
            3318986957,
            3394780297,
            2965183518,
            3924966695
        ],
        "FoodType": "COOK_FOOD_HEAL",
        "CookMethod": "COOK_METHOD_BAKE",
        "MaxProficiency": 15,
        "QualityOutputVec": [
            {
                "Id": 108045,
                "Count": 1
            },
            {
                "Id": 108046,
                "Count": 1
            },
            {
                "Id": 108047,
                "Count": 1
            }
        ],
        "InputVec": [
            {
                "Id": 100020,
                "Count": 2
            },
            {
                "Id": 100080,
                "Count": 1
            },
            {
                "Id": 110008,
                "Count": 1
            },
            {},
            {}
        ],
        "QteParam": "0.85,0.27",
        "QteQualityWeightVec": [
            0,
            0,
            100
        ]
    },
    "3008": {
        "Id": 3008,
        "NameTextMapHash": 3553084808,
        "RankLevel": 3,
        "Icon": "UI_ItemIcon_Recipe_3004",
        "DescTextMapHash": 4017772082,
        "EffectDesc": [
            32767365,
            1503963577,
            941588230,
            3273117639
        ],
        "FoodType": "COOK_FOOD_ATTACK",
        "CookMethod": "COOK_METHOD_STEAM",
        "MaxProficiency": 15,
        "QualityOutputVec": [
            {
                "Id": 108055,
                "Count": 1
            },
            {
                "Id": 108056,
                "Count": 1
            },
            {
                "Id": 108057,
                "Count": 1
            }
        ],
        "InputVec": [
            {
                "Id": 100061,
                "Count": 3
            },
            {
                "Id": 100080,
                "Count": 3
            },
            {
                "Id": 100055,
                "Count": 1
            },
            {
                "Id": 110009,
                "Count": 1
            },
            {}
        ],
        "QteParam": "0.85,0.27",
        "QteQualityWeightVec": [
            0,
            0,
            100
        ]
    },
    "3009": {
        "Id": 3009,
        "NameTextMapHash": 234476240,
        "RankLevel": 3,
        "Icon": "UI_ItemIcon_108111",
        "DescTextMapHash": 2930284858,
        "EffectDesc": [
            2653589805,
            3415453281,
            3531494606,
            2604185487
        ],
        "FoodType": "COOK_FOOD_FUNCTION",
        "CookMethod": "COOK_METHOD_FRY",
        "MaxProficiency": 15,
        "QualityOutputVec": [
            {
                "Id": 108110,
                "Count": 1
            },
            {
                "Id": 108111,
                "Count": 1
            },
            {
                "Id": 108112,
                "Count": 1
            }
        ],
        "InputVec": [
            {
                "Id": 100013,
                "Count": 4
            },
            {
                "Id": 100080,
                "Count": 4
            },
            {
                "Id": 100076,
                "Count": 4
            },
            {},
            {}
        ],
        "QteParam": "0.45,0.27",
        "QteQualityWeightVec": [
            0,
            0,
            100
        ]
    },
    "3010": {
        "Id": 3010,
        "NameTextMapHash": 2200331960,
        "RankLevel": 3,
        "Icon": "UI_ItemIcon_108168",
        "DescTextMapHash": 456914666,
        "EffectDesc": [
            3077671893,
            3445588665,
            3835535470,
            3113136159
        ],
        "FoodType": "COOK_FOOD_ATTACK",
        "CookMethod": "COOK_METHOD_FRY",
        "MaxProficiency": 15,
        "QualityOutputVec": [
            {
                "Id": 108167,
                "Count": 1
            },
            {
                "Id": 108168,
                "Count": 1
            },
            {
                "Id": 108169,
                "Count": 1
            }
        ],
        "InputVec": [
            {
                "Id": 100062,
                "Count": 4
            },
            {
                "Id": 110001,
                "Count": 3
            },
            {
                "Id": 110005,
                "Count": 1
            },
            {},
            {}
        ],
        "QteParam": "0.45,0.27",
        "QteQualityWeightVec": [
            0,
            0,
            100
        ]
    },
    "3011": {
        "Id": 3011,
        "NameTextMapHash": 3633491368,
        "RankLevel": 3,
        "Icon": "UI_ItemIcon_108171",
        "DescTextMapHash": 1152856994,
        "EffectDesc": [
            3728046949,
            801284713,
            581348638,
            3638611359
        ],
        "FoodType": "COOK_FOOD_HEAL",
        "CookMethod": "COOK_METHOD_FRY",
        "MaxProficiency": 15,
        "QualityOutputVec": [
            {
                "Id": 108170,
                "Count": 1
            },
            {
                "Id": 108171,
                "Count": 1
            },
            {
                "Id": 108172,
                "Count": 1
            }
        ],
        "InputVec": [
            {
                "Id": 100061,
                "Count": 3
            },
            {
                "Id": 100001,
                "Count": 3
            },
            {
                "Id": 110004,
                "Count": 1
            },
            {
                "Id": 100077,
                "Count": 1
            },
            {}
        ],
        "QteParam": "0.45,0.27",
        "QteQualityWeightVec": [
            0,
            0,
            100
        ]
    },
    "3012": {
        "Id": 3012,
        "NameTextMapHash": 2268068896,
        "RankLevel": 3,
        "Icon": "UI_ItemIcon_108208",
        "DescTextMapHash": 579184034,
        "EffectDesc": [
            286130573,
            2825020505,
            3025097246,
            1233495087
        ],
        "FoodType": "COOK_FOOD_DEFENSE",
        "CookMethod": "COOK_METHOD_BAKE",
        "MaxProficiency": 15,
        "QualityOutputVec": [
            {
                "Id": 108207,
                "Count": 1
            },
            {
                "Id": 108208,
                "Count": 1
            },
            {
                "Id": 108209,
                "Count": 1
            }
        ],
        "InputVec": [
            {
                "Id": 110004,
                "Count": 3
            },
            {
                "Id": 100084,
                "Count": 3
            },
            {
                "Id": 100075,
                "Count": 1
            },
            {
                "Id": 100055,
                "Count": 1
            },
            {}
        ],
        "QteParam": "0.45,0.27",
        "QteQualityWeightVec": [
            0,
            0,
            100
        ]
    },
    "3013": {
        "Id": 3013,
        "NameTextMapHash": 1297228784,
        "RankLevel": 3,
        "Icon": "UI_ItemIcon_108223",
        "DescTextMapHash": 4171728490,
        "EffectDesc": [
            600503853,
            1683378585,
            969685374,
            916630223
        ],
        "FoodType": "COOK_FOOD_HEAL",
        "CookMethod": "COOK_METHOD_BAKE",
        "MaxProficiency": 15,
        "QualityOutputVec": [
            {
                "Id": 108222,
                "Count": 1
            },
            {
                "Id": 108223,
                "Count": 1
            },
            {
                "Id": 108224,
                "Count": 1
            }
        ],
        "InputVec": [
            {
                "Id": 100016,
                "Count": 4
            },
            {
                "Id": 100093,
                "Count": 4
            },
            {
                "Id": 100080,
                "Count": 3
            },
            {
                "Id": 100051,
                "Count": 2
            },
            {}
        ],
        "QteParam": "0.45,0.27",
        "QteQualityWeightVec": [
            0,
            0,
            100
        ]
    },
    "3014": {
        "Id": 3014,
        "NameTextMapHash": 1554725832,
        "RankLevel": 3,
        "Icon": "UI_ItemIcon_108239",
        "DescTextMapHash": 2973067482,
        "EffectDesc": [
            1403224005,
            93099329,
            998342566,
            3182336103
        ],
        "FoodType": "COOK_FOOD_HEAL",
        "CookMethod": "COOK_METHOD_BAKE",
        "MaxProficiency": 15,
        "QualityOutputVec": [
            {
                "Id": 108238,
                "Count": 1
            },
            {
                "Id": 108239,
                "Count": 1
            },
            {
                "Id": 108240,
                "Count": 1
            }
        ],
        "InputVec": [
            {
                "Id": 100064,
                "Count": 4
            },
            {
                "Id": 110001,
                "Count": 2
            },
            {
                "Id": 100018,
                "Count": 2
            },
            {
                "Id": 110004,
                "Count": 2
            },
            {}
        ],
        "QteParam": "0.45,0.27",
        "QteQualityWeightVec": [
            0,
            0,
            100
        ]
    },
    "3101": {
        "Id": 3101,
        "NameTextMapHash": 1621938840,
        "RankLevel": 3,
        "Icon": "UI_ItemIcon_108072",
        "DescTextMapHash": 2177781010,
        "EffectDesc": [
            1052716653,
            2635651417,
            3231120302,
            3382302111
        ],
        "FoodType": "COOK_FOOD_FUNCTION",
        "CookMethod": "COOK_METHOD_BAKE",
        "MaxProficiency": 15,
        "QualityOutputVec": [
            {
                "Id": 108071,
                "Count": 1
            },
            {
                "Id": 108072,
                "Count": 1
            },
            {
                "Id": 108073,
                "Count": 1
            }
        ],
        "InputVec": [
            {
                "Id": 100061,
                "Count": 3
            },
            {
                "Id": 100084,
                "Count": 3
            },
            {
                "Id": 110001,
                "Count": 3
            },
            {
                "Id": 100075,
                "Count": 2
            },
            {}
        ],
        "QteParam": "0.63,0.27",
        "QteQualityWeightVec": [
            0,
            0,
            100
        ]
    },
    "3102": {
        "Id": 3102,
        "NameTextMapHash": 3663660088,
        "RankLevel": 3,
        "Icon": "UI_ItemIcon_108075",
        "DescTextMapHash": 3714601098,
        "EffectDesc": [
            1283045989,
            845601753,
            505905398,
            655832807
        ],
        "FoodType": "COOK_FOOD_HEAL",
        "CookMethod": "COOK_METHOD_BOIL",
        "MaxProficiency": 15,
        "QualityOutputVec": [
            {
                "Id": 108074,
                "Count": 1
            },
            {
                "Id": 108075,
                "Count": 1
            },
            {
                "Id": 108076,
                "Count": 1
            }
        ],
        "InputVec": [
            {
                "Id": 100084,
                "Count": 3
            },
            {
                "Id": 100027,
                "Count": 1
            },
            {
                "Id": 100075,
                "Count": 1
            },
            {
                "Id": 100034,
                "Count": 1
            },
            {}
        ],
        "QteParam": "0.4,0.27",
        "QteQualityWeightVec": [
            0,
            0,
            100
        ]
    },
    "3103": {
        "Id": 3103,
        "NameTextMapHash": 1897768416,
        "RankLevel": 3,
        "Icon": "UI_ItemIcon_108078",
        "DescTextMapHash": 3807900666,
        "EffectDesc": [
            2727592749,
            3332512649,
            1110183910,
            3014194679
        ],
        "FoodType": "COOK_FOOD_HEAL",
        "CookMethod": "COOK_METHOD_FRY",
        "MaxProficiency": 15,
        "QualityOutputVec": [
            {
                "Id": 108077,
                "Count": 1
            },
            {
                "Id": 108078,
                "Count": 1
            },
            {
                "Id": 108079,
                "Count": 1
            }
        ],
        "InputVec": [
            {
                "Id": 100084,
                "Count": 4
            },
            {
                "Id": 100079,
                "Count": 2
            },
            {
                "Id": 110001,
                "Count": 2
            },
            {
                "Id": 110006,
                "Count": 1
            },
            {}
        ],
        "QteParam": "0.45,0.27",
        "QteQualityWeightVec": [
            0,
            0,
            100
        ]
    },
    "3104": {
        "Id": 3104,
        "NameTextMapHash": 4195020824,
        "RankLevel": 3,
        "Icon": "UI_ItemIcon_108129",
        "DescTextMapHash": 3126908538,
        "EffectDesc": [
            483615877,
            1053834041,
            1121304958,
            124861055
        ],
        "FoodType": "COOK_FOOD_ATTACK",
        "CookMethod": "COOK_METHOD_FRY",
        "MaxProficiency": 15,
        "QualityOutputVec": [
            {
                "Id": 108128,
                "Count": 1
            },
            {
                "Id": 108129,
                "Count": 1
            },
            {
                "Id": 108130,
                "Count": 1
            }
        ],
        "InputVec": [
            {
                "Id": 100011,
                "Count": 3
            },
            {
                "Id": 100026,
                "Count": 2
            },
            {
                "Id": 100027,
                "Count": 1
            },
            {
                "Id": 100018,
                "Count": 1
            },
            {}
        ],
        "QteParam": "0.45,0.27",
        "QteQualityWeightVec": [
            0,
            0,
            100
        ]
    },
    "3105": {
        "Id": 3105,
        "NameTextMapHash": 412783744,
        "RankLevel": 3,
        "Icon": "UI_ItemIcon_108132",
        "DescTextMapHash": 391319386,
        "EffectDesc": [
            4223430021,
            4004853873,
            59029758,
            274390111
        ],
        "FoodType": "COOK_FOOD_ATTACK",
        "CookMethod": "COOK_METHOD_FRY",
        "MaxProficiency": 15,
        "QualityOutputVec": [
            {
                "Id": 108131,
                "Count": 1
            },
            {
                "Id": 108132,
                "Count": 1
            },
            {
                "Id": 108133,
                "Count": 1
            }
        ],
        "InputVec": [
            {
                "Id": 100061,
                "Count": 3
            },
            {
                "Id": 100084,
                "Count": 3
            },
            {
                "Id": 100092,
                "Count": 3
            },
            {
                "Id": 100088,
                "Count": 1
            },
            {}
        ],
        "QteParam": "0.5,0.27",
        "QteQualityWeightVec": [
            0,
            0,
            100
        ]
    },
    "3106": {
        "Id": 3106,
        "NameTextMapHash": 2714249528,
        "RankLevel": 3,
        "Icon": "UI_ItemIcon_108153",
        "DescTextMapHash": 2927696842,
        "EffectDesc": [
            2994467197,
            4252604305,
            3046297830,
            123980135
        ],
        "FoodType": "COOK_FOOD_HEAL",
        "CookMethod": "COOK_METHOD_FRY",
        "MaxProficiency": 15,
        "QualityOutputVec": [
            {
                "Id": 108152,
                "Count": 1
            },
            {
                "Id": 108153,
                "Count": 1
            },
            {
                "Id": 108154,
                "Count": 1
            }
        ],
        "InputVec": [
            {
                "Id": 100061,
                "Count": 2
            },
            {
                "Id": 110005,
                "Count": 2
            },
            {
                "Id": 100091,
                "Count": 1
            },
            {},
            {}
        ],
        "QteParam": "0.5,0.27",
        "QteQualityWeightVec": [
            0,
            0,
            100
        ]
    },
    "3107": {
        "Id": 3107,
        "NameTextMapHash": 397935120,
        "RankLevel": 3,
        "Icon": "UI_ItemIcon_108156",
        "DescTextMapHash": 4170375026,
        "EffectDesc": [
            1003024813,
            385221993,
            947188270,
            2355094543
        ],
        "FoodType": "COOK_FOOD_DEFENSE",
        "CookMethod": "COOK_METHOD_FRY",
        "MaxProficiency": 15,
        "QualityOutputVec": [
            {
                "Id": 108155,
                "Count": 1
            },
            {
                "Id": 108156,
                "Count": 1
            },
            {
                "Id": 108157,
                "Count": 1
            }
        ],
        "InputVec": [
            {
                "Id": 110005,
                "Count": 2
            },
            {
                "Id": 100064,
                "Count": 2
            },
            {
                "Id": 100091,
                "Count": 1
            },
            {
                "Id": 100011,
                "Count": 1
            },
            {}
        ],
        "QteParam": "0.5,0.27",
        "QteQualityWeightVec": [
            0,
            0,
            100
        ]
    },
    "3108": {
        "Id": 3108,
        "NameTextMapHash": 1619565648,
        "RankLevel": 3,
        "Icon": "UI_ItemIcon_108162",
        "DescTextMapHash": 3900444082,
        "EffectDesc": [
            1490221877,
            2378595209,
            4277021510,
            1268923767
        ],
        "FoodType": "COOK_FOOD_DEFENSE",
        "CookMethod": "COOK_METHOD_FRY",
        "MaxProficiency": 15,
        "QualityOutputVec": [
            {
                "Id": 108161,
                "Count": 1
            },
            {
                "Id": 108162,
                "Count": 1
            },
            {
                "Id": 108163,
                "Count": 1
            }
        ],
        "InputVec": [
            {
                "Id": 100089,
                "Count": 4
            },
            {
                "Id": 110001,
                "Count": 2
            },
            {
                "Id": 110004,
                "Count": 2
            },
            {
                "Id": 110006,
                "Count": 1
            },
            {}
        ],
        "QteParam": "0.5,0.27",
        "QteQualityWeightVec": [
            0,
            0,
            100
        ]
    },
    "3109": {
        "Id": 3109,
        "NameTextMapHash": 3148532368,
        "RankLevel": 3,
        "Icon": "UI_ItemIcon_108202",
        "DescTextMapHash": 2661890354,
        "EffectDesc": [
            1627425717,
            54847825,
            977129118,
            2252128255
        ],
        "FoodType": "COOK_FOOD_HEAL",
        "CookMethod": "COOK_METHOD_FRY",
        "MaxProficiency": 15,
        "QualityOutputVec": [
            {
                "Id": 108201,
                "Count": 1
            },
            {
                "Id": 108202,
                "Count": 1
            },
            {
                "Id": 108203,
                "Count": 1
            }
        ],
        "InputVec": [
            {
                "Id": 100092,
                "Count": 4
            },
            {
                "Id": 100026,
                "Count": 2
            },
            {
                "Id": 100013,
                "Count": 2
            },
            {
                "Id": 100051,
                "Count": 2
            },
            {}
        ],
        "QteParam": "0.45,0.27",
        "QteQualityWeightVec": [
            0,
            0,
            100
        ]
    },
    "3110": {
        "Id": 3110,
        "NameTextMapHash": 3071649696,
        "RankLevel": 3,
        "Icon": "UI_ItemIcon_108211",
        "DescTextMapHash": 2721887674,
        "EffectDesc": [
            4108344973,
            3028621393,
            3016494870,
            994326087
        ],
        "FoodType": "COOK_FOOD_ATTACK",
        "CookMethod": "COOK_METHOD_BAKE",
        "MaxProficiency": 15,
        "QualityOutputVec": [
            {
                "Id": 108210,
                "Count": 1
            },
            {
                "Id": 108211,
                "Count": 1
            },
            {
                "Id": 108212,
                "Count": 1
            }
        ],
        "InputVec": [
            {
                "Id": 100032,
                "Count": 2
            },
            {
                "Id": 100092,
                "Count": 2
            },
            {
                "Id": 110005,
                "Count": 1
            },
            {
                "Id": 100027,
                "Count": 1
            },
            {}
        ],
        "QteParam": "0.45,0.27",
        "QteQualityWeightVec": [
            0,
            0,
            100
        ]
    },
    "3111": {
        "Id": 3111,
        "NameTextMapHash": 375455576,
        "RankLevel": 3,
        "Icon": "UI_ItemIcon_108180",
        "DescTextMapHash": 2113318834,
        "EffectDesc": [
            1120093437,
            3959287193,
            4036961438,
            175794175
        ],
        "FoodType": "COOK_FOOD_HEAL",
        "CookMethod": "COOK_METHOD_STEAM",
        "MaxProficiency": 15,
        "QualityOutputVec": [
            {
                "Id": 108179,
                "Count": 1
            },
            {
                "Id": 108180,
                "Count": 1
            },
            {
                "Id": 108181,
                "Count": 1
            }
        ],
        "InputVec": [
            {
                "Id": 100084,
                "Count": 4
            },
            {
                "Id": 100093,
                "Count": 2
            },
            {
                "Id": 100062,
                "Count": 2
            },
            {
                "Id": 110001,
                "Count": 1
            },
            {}
        ],
        "QteParam": "0.5,0.27",
        "QteQualityWeightVec": [
            0,
            0,
            100
        ]
    },
    "3112": {
        "Id": 3112,
        "NameTextMapHash": 304995192,
        "RankLevel": 3,
        "Icon": "UI_ItemIcon_108232",
        "DescTextMapHash": 4127331514,
        "EffectDesc": [
            2052037309,
            788370905,
            2537444614,
            2132745119
        ],
        "FoodType": "COOK_FOOD_FUNCTION",
        "CookMethod": "COOK_METHOD_STEAM",
        "MaxProficiency": 15,
        "QualityOutputVec": [
            {
                "Id": 108231,
                "Count": 1
            },
            {
                "Id": 108232,
                "Count": 1
            },
            {
                "Id": 108233,
                "Count": 1
            }
        ],
        "InputVec": [
            {
                "Id": 100016,
                "Count": 4
            },
            {
                "Id": 100061,
                "Count": 3
            },
            {
                "Id": 100027,
                "Count": 1
            },
            {},
            {}
        ],
        "QteParam": "0.5,0.27",
        "QteQualityWeightVec": [
            0,
            0,
            100
        ]
    },
    "3113": {
        "Id": 3113,
        "NameTextMapHash": 1069920952,
        "RankLevel": 3,
        "Icon": "UI_ItemIcon_108183",
        "DescTextMapHash": 24535746,
        "EffectDesc": [
            2981964653,
            2075637777,
            1505515846,
            1807094439
        ],
        "FoodType": "COOK_FOOD_ATTACK",
        "CookMethod": "COOK_METHOD_FRY",
        "MaxProficiency": 15,
        "QualityOutputVec": [
            {
                "Id": 108182,
                "Count": 1
            },
            {
                "Id": 108183,
                "Count": 1
            },
            {
                "Id": 108184,
                "Count": 1
            }
        ],
        "InputVec": [
            {
                "Id": 110005,
                "Count": 2
            },
            {
                "Id": 100063,
                "Count": 2
            },
            {
                "Id": 100015,
                "Count": 1
            },
            {
                "Id": 100077,
                "Count": 1
            },
            {}
        ],
        "QteParam": "0.5,0.27",
        "QteQualityWeightVec": [
            0,
            0,
            100
        ]
    },
    "4001": {
        "Id": 4001,
        "NameTextMapHash": 3644462440,
        "RankLevel": 4,
        "Icon": "UI_ItemIcon_108165",
        "DescTextMapHash": 984486938,
        "EffectDesc": [
            320439053,
            1592717289,
            3135047014,
            1074438823
        ],
        "FoodType": "COOK_FOOD_DEFENSE",
        "CookMethod": "COOK_METHOD_STEAM",
        "MaxProficiency": 20,
        "QualityOutputVec": [
            {
                "Id": 108164,
                "Count": 1
            },
            {
                "Id": 108165,
                "Count": 1
            },
            {
                "Id": 108166,
                "Count": 1
            }
        ],
        "InputVec": [
            {
                "Id": 100061,
                "Count": 4
            },
            {
                "Id": 100062,
                "Count": 4
            },
            {
                "Id": 110004,
                "Count": 3
            },
            {
                "Id": 110001,
                "Count": 2
            },
            {}
        ],
        "QteParam": "0.3,0.22",
        "QteQualityWeightVec": [
            0,
            0,
            100
        ]
    },
    "4002": {
        "Id": 4002,
        "NameTextMapHash": 901779496,
        "RankLevel": 4,
        "Icon": "UI_ItemIcon_108236",
        "DescTextMapHash": 1726123034,
        "EffectDesc": [
            2260266853,
            1757973657,
            238646534,
            3855860903
        ],
        "FoodType": "COOK_FOOD_ATTACK",
        "CookMethod": "COOK_METHOD_STEAM",
        "MaxProficiency": 20,
        "QualityOutputVec": [
            {
                "Id": 108235,
                "Count": 1
            },
            {
                "Id": 108236,
                "Count": 1
            },
            {
                "Id": 108237,
                "Count": 1
            }
        ],
        "InputVec": [
            {
                "Id": 100064,
                "Count": 4
            },
            {
                "Id": 110004,
                "Count": 4
            },
            {
                "Id": 100077,
                "Count": 3
            },
            {
                "Id": 110001,
                "Count": 3
            },
            {}
        ],
        "QteParam": "0.3,0.22",
        "QteQualityWeightVec": [
            0,
            0,
            100
        ]
    },
    "4101": {
        "Id": 4101,
        "NameTextMapHash": 2559312488,
        "RankLevel": 4,
        "Icon": "UI_ItemIcon_Recipe_4004",
        "DescTextMapHash": 748213378,
        "EffectDesc": [
            3459256397,
            2177654697,
            1690604046,
            1100584719
        ],
        "FoodType": "COOK_FOOD_ATTACK",
        "CookMethod": "COOK_METHOD_STEAM",
        "MaxProficiency": 20,
        "QualityOutputVec": [
            {
                "Id": 108068,
                "Count": 1
            },
            {
                "Id": 108069,
                "Count": 1
            },
            {
                "Id": 108070,
                "Count": 1
            }
        ],
        "InputVec": [
            {
                "Id": 100026,
                "Count": 3
            },
            {
                "Id": 100027,
                "Count": 2
            },
            {
                "Id": 100018,
                "Count": 2
            },
            {
                "Id": 110005,
                "Count": 1
            },
            {}
        ],
        "QteParam": "0.3,0.22",
        "QteQualityWeightVec": [
            0,
            0,
            100
        ]
    },
    "4102": {
        "Id": 4102,
        "NameTextMapHash": 1431862960,
        "RankLevel": 4,
        "Icon": "UI_ItemIcon_108102",
        "DescTextMapHash": 1035762138,
        "EffectDesc": [
            1131151445,
            2285168409,
            2457403390,
            1969311959
        ],
        "FoodType": "COOK_FOOD_DEFENSE",
        "CookMethod": "COOK_METHOD_STEAM",
        "MaxProficiency": 20,
        "QualityOutputVec": [
            {
                "Id": 108101,
                "Count": 1
            },
            {
                "Id": 108102,
                "Count": 1
            },
            {
                "Id": 108103,
                "Count": 1
            }
        ],
        "InputVec": [
            {
                "Id": 100062,
                "Count": 5
            },
            {
                "Id": 110001,
                "Count": 5
            },
            {
                "Id": 100073,
                "Count": 4
            },
            {
                "Id": 100075,
                "Count": 2
            },
            {}
        ],
        "QteParam": "0.6,0.22",
        "QteQualityWeightVec": [
            0,
            0,
            100
        ]
    },
    "4103": {
        "Id": 4103,
        "NameTextMapHash": 1004248456,
        "RankLevel": 4,
        "Icon": "UI_ItemIcon_108159",
        "DescTextMapHash": 2435695474,
        "EffectDesc": [
            749724725,
            2491028385,
            514840838,
            99276991
        ],
        "FoodType": "COOK_FOOD_ATTACK",
        "CookMethod": "COOK_METHOD_STEAM",
        "MaxProficiency": 20,
        "QualityOutputVec": [
            {
                "Id": 108158,
                "Count": 1
            },
            {
                "Id": 108159,
                "Count": 1
            },
            {
                "Id": 108160,
                "Count": 1
            }
        ],
        "InputVec": [
            {
                "Id": 100061,
                "Count": 4
            },
            {
                "Id": 110006,
                "Count": 2
            },
            {
                "Id": 100031,
                "Count": 1
            },
            {
                "Id": 100063,
                "Count": 1
            },
            {}
        ],
        "QteParam": "0.6,0.22",
        "QteQualityWeightVec": [
            0,
            0,
            100
        ]
    },
    "5101": {
        "Id": 5101,
        "NameTextMapHash": 2535717720,
        "RankLevel": 5,
        "Icon": "UI_ItemIcon_108123",
        "DescTextMapHash": 3785660866,
        "EffectDesc": [
            1022833117,
            3090219849,
            3779451422,
            4255144839
        ],
        "FoodType": "COOK_FOOD_ATTACK",
        "CookMethod": "COOK_METHOD_BOIL",
        "MaxProficiency": 25,
        "QualityOutputVec": [
            {
                "Id": 108122,
                "Count": 1
            },
            {
                "Id": 108123,
                "Count": 1
            },
            {
                "Id": 108124,
                "Count": 1
            }
        ],
        "InputVec": [
            {
                "Id": 110005,
                "Count": 4
            },
            {
                "Id": 100073,
                "Count": 3
            },
            {
                "Id": 100093,
                "Count": 3
            },
            {
                "Id": 100063,
                "Count": 3
            },
            {}
        ],
        "QteParam": "0.63,0.17",
        "QteQualityWeightVec": [
            0,
            0,
            100
        ]
    }
}