{
    "1": {
        "Id": 1,
        "CityId": 1,
        "MonsterIdList": [
            23030101,
            23040101
        ],
        "GroupIdList": [
            133001229,
            133002243,
            133003412,
            133004217,
            133102520,
            133103376,
            133105009,
            133105223,
            133106094,
            133008640
        ],
        "RewardPreviewId": 15503,
        "MapMarkCreateType": "NerverCreate",
        "MapMarkCreateCondition": {},
        "MonsterCategory": "Elite",
        "NameTextMapHash": 2116056172,
        "Icon": "UI_MonsterIcon_Fatuus_Summoner_01",
        "DescTextMapHash": 2873961103,
        "LockDescTextMapHash": 1425803254,
        "OccupiedQuestIdList": []
    },
    "2": {
        "Id": 2,
        "CityId": 1,
        "MonsterIdList": [
            22010101,
            22010201,
            22010301
        ],
        "GroupIdList": [
            133004369,
            133102573,
            133103031,
            133103326,
            133103327,
            133103331,
            133104441,
            133105113,
            133001090,
            133001430,
            133106234,
            133106084,
            133103342,
            133103424,
            133106113
        ],
        "RewardPreviewId": 15501,
        "MapMarkCreateType": "NerverCreate",
        "MapMarkCreateCondition": {},
        "MonsterCategory": "Elite",
        "NameTextMapHash": 1211246492,
        "Icon": "UI_MonsterIcon_Abyss_Water_01",
        "DescTextMapHash": 3160129879,
        "LockDescTextMapHash": 371397750,
        "OccupiedQuestIdList": []
    },
    "3": {
        "Id": 3,
        "CityId": 1,
        "MonsterIdList": [
            24010101,
            24010301
        ],
        "GroupIdList": [
            133003317,
            133004131,
            133007059,
            133104031,
            133105049,
            133106088,
            133104490,
            133107035,
            133008584
        ],
        "RewardPreviewId": 15504,
        "MapMarkCreateType": "NerverCreate",
        "MapMarkCreateCondition": {},
        "MonsterCategory": "Elite",
        "NameTextMapHash": 7930300,
        "Icon": "UI_MonsterIcon_Defender_Noner_01",
        "DescTextMapHash": 3599879231,
        "LockDescTextMapHash": 4016562134,
        "OccupiedQuestIdList": []
    },
    "4": {
        "Id": 4,
        "CityId": 1,
        "MonsterIdList": [
            21020101,
            21020201,
            21020301,
            21020601,
            21020601
        ],
        "GroupIdList": [
            133007239,
            133102337,
            133102619,
            133102734,
            133103328,
            133003097,
            133004018,
            133007201,
            133104363,
            133008209
        ],
        "RewardPreviewId": 15500,
        "MapMarkCreateType": "NerverCreate",
        "MapMarkCreateCondition": {},
        "MonsterCategory": "Elite",
        "NameTextMapHash": 3562720660,
        "Icon": "UI_MonsterIcon_Brute_None_01",
        "DescTextMapHash": 2163980335,
        "LockDescTextMapHash": 914927254,
        "OccupiedQuestIdList": []
    },
    "5": {
        "Id": 5,
        "CityId": 1,
        "MonsterIdList": [
            23010101,
            23010201,
            23010301,
            23010401,
            23010501,
            23010601
        ],
        "GroupIdList": [
            133001233,
            133001406,
            133002297,
            133102676,
            133106124,
            133106249,
            133107116
        ],
        "RewardPreviewId": 16007,
        "MapMarkCreateType": "NerverCreate",
        "MapMarkCreateCondition": {},
        "MonsterCategory": "Common",
        "NameTextMapHash": 1740952220,
        "Icon": "UI_MonsterIcon_Skirmisher_Male_Standard_Rifle_Fire_01",
        "DescTextMapHash": 1364422791,
        "LockDescTextMapHash": 1462432238,
        "OccupiedQuestIdList": []
    },
    "6": {
        "Id": 6,
        "CityId": 1,
        "MonsterIdList": [
            20040101
        ],
        "GroupIdList": [
            133001313
        ],
        "RewardPreviewId": 15100,
        "MapMarkCreateType": "ExtraConditions",
        "MapMarkCreateCondition": {
            "ConditionType": "PlayerLevelGE",
            "ConditionParam": 20
        },
        "MonsterCategory": "Boss",
        "NameTextMapHash": 2296454212,
        "Icon": "UI_MonsterIcon_Effigy_Electric",
        "DescTextMapHash": 622146887,
        "LockDescTextMapHash": 4000482334,
        "OccupiedQuestIdList": []
    },
    "7": {
        "Id": 7,
        "CityId": 1,
        "MonsterIdList": [
            20040201
        ],
        "GroupIdList": [
            133003482
        ],
        "RewardPreviewId": 15110,
        "MapMarkCreateType": "ExtraConditions",
        "MapMarkCreateCondition": {
            "ConditionType": "PlayerLevelGE",
            "ConditionParam": 20
        },
        "MonsterCategory": "Boss",
        "NameTextMapHash": 3813394428,
        "Icon": "UI_MonsterIcon_Effigy_Wind",
        "DescTextMapHash": 1898332639,
        "LockDescTextMapHash": 1756062334,
        "OccupiedQuestIdList": []
    },
    "8": {
        "Id": 8,
        "CityId": 1,
        "MonsterIdList": [
            26020101
        ],
        "GroupIdList": [
            133003543
        ],
        "RewardPreviewId": 15130,
        "MapMarkCreateType": "ExtraConditions",
        "MapMarkCreateCondition": {
            "ConditionType": "PlayerLevelGE",
            "ConditionParam": 20
        },
        "MonsterCategory": "Boss",
        "NameTextMapHash": 525736108,
        "Icon": "UI_MonsterIcon_Regisvine_Ice",
        "DescTextMapHash": 894077983,
        "LockDescTextMapHash": 927437942,
        "OccupiedQuestIdList": []
    },
    "9": {
        "Id": 9,
        "CityId": 1,
        "MonsterIdList": [
            29020102
        ],
        "GroupIdList": [
            133002259
        ],
        "UnlockParentQuestId": 454,
        "RewardPreviewId": 15010,
        "MapMarkCreateCondition": {},
        "MonsterCategory": "Boss",
        "NameTextMapHash": 2324314052,
        "Icon": "UI_MonsterIcon_LupiBoreas",
        "DescTextMapHash": 2964908743,
        "LockDescTextMapHash": 1361566470,
        "OccupiedQuestIdList": [
            800206,
            800207,
            800208,
            800209
        ]
    },
    "10": {
        "Id": 10,
        "CityId": 1,
        "MonsterIdList": [
            23020101
        ],
        "GroupIdList": [
            133104268,
            133105259,
            133106110,
            133106135,
            133106143,
            133106147
        ],
        "RewardPreviewId": 15502,
        "MapMarkCreateType": "NerverCreate",
        "MapMarkCreateCondition": {},
        "MonsterCategory": "Elite",
        "NameTextMapHash": 1030983868,
        "Icon": "UI_MonsterIcon_Fatuus_Fire_01",
        "DescTextMapHash": 1163312791,
        "LockDescTextMapHash": 3576467670,
        "OccupiedQuestIdList": []
    },
    "11": {
        "Id": 11,
        "CityId": 1,
        "MonsterIdList": [
            24010201
        ],
        "GroupIdList": [
            133103325,
            133105219,
            133106087,
            133106148,
            133107040
        ],
        "RewardPreviewId": 15504,
        "MapMarkCreateType": "NerverCreate",
        "MapMarkCreateCondition": {},
        "MonsterCategory": "Elite",
        "NameTextMapHash": 243568684,
        "Icon": "UI_MonsterIcon_Formathr_None",
        "DescTextMapHash": 3684190943,
        "LockDescTextMapHash": 973997142,
        "OccupiedQuestIdList": []
    },
    "12": {
        "Id": 12,
        "CityId": 1,
        "MonsterIdList": [
            26010101,
            26010201
        ],
        "GroupIdList": [
            133002398,
            133102643,
            133104322,
            133104338,
            133105222,
            133107062
        ],
        "RewardPreviewId": 16008,
        "MapMarkCreateType": "NerverCreate",
        "MapMarkCreateCondition": {},
        "MonsterCategory": "Common",
        "NameTextMapHash": 562652100,
        "Icon": "UI_MonsterIcon_Mimik_Ice",
        "DescTextMapHash": 3558974463,
        "LockDescTextMapHash": 3262262566,
        "OccupiedQuestIdList": []
    },
    "13": {
        "Id": 13,
        "CityId": 1,
        "MonsterIdList": [
            20040301
        ],
        "GroupIdList": [
            133108020
        ],
        "RewardPreviewId": 15120,
        "MapMarkCreateType": "ExtraConditions",
        "MapMarkCreateCondition": {
            "ConditionType": "PlayerLevelGE",
            "ConditionParam": 20
        },
        "MonsterCategory": "Boss",
        "NameTextMapHash": 2498400124,
        "Icon": "UI_MonsterIcon_Effigy_Rock",
        "DescTextMapHash": 2273147727,
        "LockDescTextMapHash": 3627861054,
        "OccupiedQuestIdList": []
    },
    "14": {
        "Id": 14,
        "CityId": 1,
        "MonsterIdList": [
            20050101
        ],
        "GroupIdList": [
            133102769
        ],
        "RewardPreviewId": 15150,
        "MapMarkCreateType": "ExtraConditions",
        "MapMarkCreateCondition": {
            "ConditionType": "PlayerLevelGE",
            "ConditionParam": 20
        },
        "MonsterCategory": "Boss",
        "NameTextMapHash": 859677348,
        "Icon": "UI_MonsterIcon_Oceanid",
        "DescTextMapHash": 2848133519,
        "LockDescTextMapHash": 2573390758,
        "OccupiedQuestIdList": []
    },
    "15": {
        "Id": 15,
        "CityId": 1,
        "MonsterIdList": [
            26020201
        ],
        "GroupIdList": [
            133104394
        ],
        "RewardPreviewId": 15140,
        "MapMarkCreateType": "ExtraConditions",
        "MapMarkCreateCondition": {
            "ConditionType": "PlayerLevelGE",
            "ConditionParam": 20
        },
        "MonsterCategory": "Boss",
        "NameTextMapHash": 3427645324,
        "Icon": "UI_MonsterIcon_Regisvine_Fire",
        "DescTextMapHash": 3116937319,
        "LockDescTextMapHash": 1179122462,
        "OccupiedQuestIdList": []
    },
    "16": {
        "Id": 16,
        "CityId": 1,
        "MonsterIdList": [
            26030101
        ],
        "GroupIdList": [
            133102504,
            133102056,
            133106215,
            133103542,
            133103541,
            133106305,
            133106306
        ],
        "RewardPreviewId": 15505,
        "MapMarkCreateType": "NerverCreate",
        "MapMarkCreateCondition": {},
        "MonsterCategory": "Elite",
        "NameTextMapHash": 888016324,
        "Icon": "UI_MonsterIcon_Wyrm_Rock",
        "DescTextMapHash": 4137825743,
        "LockDescTextMapHash": 3126765454,
        "OccupiedQuestIdList": []
    },
    "17": {
        "Id": 17,
        "CityId": 1,
        "MonsterIdList": [
            21010401,
            21010501,
            21010901,
            21011001
        ],
        "GroupIdList": [
            133001021,
            133001359,
            133001369,
            133002296,
            133002327,
            133004289,
            133004299,
            133004308,
            133007020,
            133007022
        ],
        "RewardPreviewId": 16005,
        "MapMarkCreateType": "NerverCreate",
        "MapMarkCreateCondition": {},
        "MonsterCategory": "Common",
        "NameTextMapHash": 605593892,
        "Icon": "UI_MonsterIcon_Hili_Electric_Range",
        "DescTextMapHash": 4268108703,
        "LockDescTextMapHash": 598432798,
        "OccupiedQuestIdList": []
    },
    "18": {
        "Id": 18,
        "CityId": 1,
        "MonsterIdList": [
            21010101,
            21010201,
            21010301,
            21010601,
            21010701,
            21011201,
            21011301,
            21011401
        ],
        "GroupIdList": [
            133001097,
            133001254,
            133002346,
            133102540,
            133102512,
            133105153,
            133105131,
            133105145,
            133106108,
            133108043,
            133107054,
            133002426,
            133008517,
            133105327
        ],
        "RewardPreviewId": 16004,
        "MapMarkCreateType": "NerverCreate",
        "MapMarkCreateCondition": {},
        "MonsterCategory": "Common",
        "NameTextMapHash": 1978754172,
        "Icon": "UI_MonsterIcon_Hili_None_01",
        "DescTextMapHash": 3867846519,
        "LockDescTextMapHash": 1600128438,
        "OccupiedQuestIdList": []
    },
    "19": {
        "Id": 19,
        "CityId": 1,
        "MonsterIdList": [
            21030101,
            21030201,
            21030301,
            21030401,
            21030501
        ],
        "GroupIdList": [
            133002342,
            133004289,
            133007021,
            133007022,
            133007134,
            133007144,
            133007145,
            133007164,
            133007197,
            133007198,
            133007238,
            133008435
        ],
        "RewardPreviewId": 16006,
        "MapMarkCreateType": "NerverCreate",
        "MapMarkCreateCondition": {},
        "MonsterCategory": "Common",
        "NameTextMapHash": 3793925636,
        "Icon": "UI_MonsterIcon_Shaman_Wind_01",
        "DescTextMapHash": 2152833887,
        "LockDescTextMapHash": 482563934,
        "OccupiedQuestIdList": []
    },
    "20": {
        "Id": 20,
        "CityId": 1,
        "MonsterIdList": [
            20010101,
            20010201,
            20010301,
            20010401,
            20010501,
            20010601,
            20010701,
            20010801,
            20010901,
            20011001,
            20011101,
            20011201,
            20011301,
            20011401,
            20011501
        ],
        "GroupIdList": [
            133001358,
            133001369,
            133002316,
            133003524,
            133004026,
            133004246,
            133004308,
            133102643,
            133102740,
            133103382,
            133003326,
            133103421,
            133106216,
            133106242,
            133108097
        ],
        "RewardPreviewId": 16000,
        "MapMarkCreateType": "NerverCreate",
        "MapMarkCreateCondition": {},
        "MonsterCategory": "Common",
        "NameTextMapHash": 3463468772,
        "Icon": "UI_MonsterIcon_Slime_Water_03",
        "DescTextMapHash": 2182239071,
        "LockDescTextMapHash": 3727808190,
        "OccupiedQuestIdList": []
    },
    "21": {
        "Id": 21,
        "CityId": 1,
        "MonsterIdList": [
            25010201,
            25010301,
            25010401,
            25010501,
            25010601,
            25010701,
            25020201,
            25030201,
            25030301,
            25060101,
            25070101
        ],
        "GroupIdList": [
            133102652,
            133102672,
            133102721,
            133103349,
            133103383,
            133103384,
            133106223,
            133104552,
            133106044
        ],
        "RewardPreviewId": 16003,
        "MapMarkCreateType": "NerverCreate",
        "MapMarkCreateCondition": {},
        "MonsterCategory": "Common",
        "NameTextMapHash": 1142558500,
        "Icon": "UI_MonsterIcon_Thoarder_Male_Rogue_01",
        "DescTextMapHash": 798059871,
        "LockDescTextMapHash": 2221217286,
        "OccupiedQuestIdList": []
    },
    "22": {
        "Id": 22,
        "CityId": 1,
        "MonsterIdList": [
            21020501,
            21020401
        ],
        "GroupIdList": [
            133104304
        ],
        "RewardPreviewId": 15506,
        "MapMarkCreateType": "NerverCreate",
        "MapMarkCreateCondition": {},
        "MonsterCategory": "Elite",
        "NameTextMapHash": 1609885756,
        "Icon": "UI_MonsterIcon_Brute_Rock_None",
        "DescTextMapHash": 1276916615,
        "LockDescTextMapHash": 2099514902,
        "OccupiedQuestIdList": []
    },
    "23": {
        "Id": 23,
        "CityId": 1,
        "MonsterIdList": [
            26050101,
            26050201,
            26050301,
            26050401
        ],
        "GroupIdList": [
            133103640
        ],
        "RewardPreviewId": 15160,
        "MapMarkCreateType": "ExtraConditions",
        "MapMarkCreateCondition": {
            "ConditionType": "PlayerLevelGE",
            "ConditionParam": 20
        },
        "MonsterCategory": "Boss",
        "NameTextMapHash": 3797091836,
        "Icon": "UI_MonsterIcon_Drake_Primo_Rock",
        "DescTextMapHash": 1184710679,
        "LockDescTextMapHash": 3121213006,
        "OccupiedQuestIdList": []
    },
    "24": {
        "Id": 24,
        "CityId": 1,
        "MonsterIdList": [
            26040101,
            26040102,
            26040103,
            26040104
        ],
        "GroupIdList": [
            133101249,
            133101250,
            133103645,
            133103646,
            133103647,
            133103648,
            133103649,
            133104150
        ],
        "RewardPreviewId": 15509,
        "MapMarkCreateType": "NerverCreate",
        "MapMarkCreateCondition": {},
        "MonsterCategory": "Elite",
        "NameTextMapHash": 3727063148,
        "Icon": "UI_MonsterIcon_Drake_Rock",
        "DescTextMapHash": 10157591,
        "LockDescTextMapHash": 889747054,
        "OccupiedQuestIdList": []
    },
    "25": {
        "Id": 25,
        "CityId": 1,
        "MonsterIdList": [
            20040501
        ],
        "GroupIdList": [
            133008657
        ],
        "UnlockParentQuestId": 70145,
        "RewardPreviewId": 15170,
        "MapMarkCreateCondition": {},
        "MonsterCategory": "Boss",
        "NameTextMapHash": 2071681052,
        "Icon": "UI_MonsterIcon_Effigy_Ice",
        "DescTextMapHash": 3070647783,
        "LockDescTextMapHash": 3493708718,
        "OccupiedQuestIdList": []
    }
}