{
    "GROW_CURVE_ATTACK_101": [
        1.0,
        1.0759999752044678,
        1.1519999504089355,
        1.2280000448226929,
        1.3029999732971191,
        1.378999948501587,
        1.4539999961853027,
        1.5290000438690186,
        1.6039999723434448,
        1.6790000200271606,
        1.753999948501587,
        1.8279999494552612,
        1.902999997138977,
        1.9769999980926514,
        2.0510001182556152,
        2.125,
        2.1989998817443848,
        2.2730000019073486,
        2.3469998836517334,
        2.4200000762939453,
        2.493000030517578,
        2.566999912261963,
        2.640000104904175,
        2.7130000591278076,
        2.7860000133514404,
        2.8589999675750732,
        2.930999994277954,
        3.003999948501587,
        3.0759999752044678,
        3.1480000019073486,
        3.2209999561309814,
        3.2929999828338623,
        3.365000009536743,
        3.437000036239624,
        3.507999897003174,
        3.5799999237060547,
        3.6519999504089355,
        3.7230000495910645,
        3.7939999103546143,
        3.865999937057495,
        3.937000036239624,
        4.007999897003174,
        4.078999996185303,
        4.150000095367432,
        4.2210001945495605,
        4.290999889373779,
        4.361999988555908,
        4.433000087738037,
        4.502999782562256,
        4.573999881744385,
        4.644000053405762,
        4.714000225067139,
        4.783999919891357,
        4.855000019073486,
        4.925000190734863,
        4.994999885559082,
        5.065000057220459,
        5.133999824523926,
        5.203999996185303,
        5.27400016784668,
        5.343999862670898,
        5.413000106811523,
        5.482999801635742,
        5.552000045776367,
        5.622000217437744,
        5.690999984741211,
        5.761000156402588,
        5.829999923706055,
        5.89900016784668,
        5.9679999351501465,
        6.038000106811523,
        6.10699987411499,
        6.176000118255615,
        6.244999885559082,
        6.314000129699707,
        6.382999897003174,
        6.452000141143799,
        6.520999908447266,
        6.590000152587891,
        6.658999919891357,
        6.7270002365112305,
        6.796000003814697,
        6.864999771118164,
        6.934000015258789,
        7.002999782562256,
        7.071000099182129,
        7.139999866485596,
        7.209000110626221,
        7.2769999504089355,
        7.3460001945495605,
        7.414999961853027,
        7.482999801635742,
        7.552000045776367,
        7.620999813079834,
        7.689000129699707,
        7.757999897003174,
        7.827000141143799,
        7.894999980926514,
        7.964000225067139,
        8.032999992370605
    ],
    "GROW_CURVE_ATTACK_102": [
        1.0,
        1.0809999704360962,
        1.1619999408721924,
        1.24399995803833,
        1.3250000476837158,
        1.406999945640564,
        1.4889999628067017,
        1.5700000524520874,
        1.6519999504089355,
        1.7339999675750732,
        1.815999984741211,
        1.8980000019073486,
        1.9809999465942383,
        2.062999963760376,
        2.1449999809265137,
        2.2269999980926514,
        2.309999942779541,
        2.3919999599456787,
        2.4739999771118164,
        2.556999921798706,
        2.6389999389648438,
        2.7219998836517334,
        2.803999900817871,
        2.88700008392334,
        2.9690001010894775,
        3.052000045776367,
        3.134000062942505,
        3.2170000076293945,
        3.2990000247955322,
        3.381999969482422,
        3.4639999866485596,
        3.546999931335449,
        3.628999948501587,
        3.7119998931884766,
        3.7939999103546143,
        3.877000093460083,
        3.9590001106262207,
        4.041999816894531,
        4.124000072479248,
        4.205999851226807,
        4.289000034332275,
        4.370999813079834,
        4.453999996185303,
        4.535999774932861,
        4.618000030517578,
        4.701000213623047,
        4.7829999923706055,
        4.864999771118164,
        4.947999954223633,
        5.03000020980835,
        5.111999988555908,
        5.193999767303467,
        5.2769999504089355,
        5.359000205993652,
        5.440999984741211,
        5.5229997634887695,
        5.605000019073486,
        5.688000202178955,
        5.769999980926514,
        5.8520002365112305,
        5.934000015258789,
        6.015999794006348,
        6.0980000495910645,
        6.179999828338623,
        6.26200008392334,
        6.343999862670898,
        6.427000045776367,
        6.508999824523926,
        6.591000080108643,
        6.672999858856201,
        6.755000114440918,
        6.836999893188477,
        6.919000148773193,
        7.000999927520752,
        7.083000183105469,
        7.164999961853027,
        7.247000217437744,
        7.328999996185303,
        7.410999774932861,
        7.493000030517578,
        7.574999809265137,
        7.6570000648498535,
        7.738999843597412,
        7.821000099182129,
        7.9039998054504395,
        7.986000061035156,
        8.067999839782715,
        8.149999618530273,
        8.232000350952148,
        8.314000129699707,
        8.395999908447266,
        8.477999687194824,
        8.560999870300293,
        8.642999649047852,
        8.725000381469727,
        8.807000160217285,
        8.890000343322754,
        8.972000122070312,
        9.053999900817871,
        9.13700008392334
    ],
    "GROW_CURVE_ATTACK_103": [
        1.0,
        1.090000033378601,
        1.1820000410079956,
        1.2730000019073486,
        1.3660000562667847,
        1.4589999914169312,
        1.5520000457763672,
        1.6460000276565552,
        1.7410000562667847,
        1.8359999656677246,
        1.930999994277954,
        2.0269999504089355,
        2.124000072479248,
        2.2200000286102295,
        2.316999912261963,
        2.4149999618530273,
        2.513000011444092,
        2.6110000610351562,
        2.7100000381469727,
        2.808000087738037,
        2.9070000648498535,
        3.006999969482422,
        3.1059999465942383,
        3.2060000896453857,
        3.306999921798706,
        3.4070000648498535,
        3.507999897003174,
        3.6080000400543213,
        3.7090001106262207,
        3.811000108718872,
        3.9119999408721924,
        4.013999938964844,
        4.116000175476074,
        4.2179999351501465,
        4.320000171661377,
        4.421999931335449,
        4.525000095367432,
        4.626999855041504,
        4.730000019073486,
        4.833000183105469,
        4.935999870300293,
        5.039000034332275,
        5.142000198364258,
        5.245999813079834,
        5.348999977111816,
        5.453000068664551,
        5.557000160217285,
        5.660999774932861,
        5.764999866485596,
        5.86899995803833,
        5.9730000495910645,
        6.077000141143799,
        6.181000232696533,
        6.285999774932861,
        6.389999866485596,
        6.494999885559082,
        6.599999904632568,
        6.704999923706055,
        6.809000015258789,
        6.914000034332275,
        7.019000053405762,
        7.124000072479248,
        7.230000019073486,
        7.335000038146973,
        7.440000057220459,
        7.546000003814697,
        7.651000022888184,
        7.756999969482422,
        7.861999988555908,
        7.9679999351501465,
        8.072999954223633,
        8.178999900817871,
        8.28499984741211,
        8.390999794006348,
        8.496999740600586,
        8.602999687194824,
        8.708999633789062,
        8.8149995803833,
        8.920999526977539,
        9.027999877929688,
        9.133999824523926,
        9.241000175476074,
        9.347000122070312,
        9.454000473022461,
        9.5600004196167,
        9.666999816894531,
        9.77299976348877,
        9.880000114440918,
        9.987000465393066,
        10.093999862670898,
        10.201000213623047,
        10.307999610900879,
        10.414999961853027,
        10.522000312805176,
        10.628999710083008,
        10.737000465393066,
        10.843999862670898,
        10.951000213623047,
        11.059000015258789,
        11.166000366210938
    ],
    "GROW_CURVE_ATTACK_104": [
        1.0,
        1.0709999799728394,
        1.1410000324249268,
        1.2109999656677246,
        1.2799999713897705,
        1.3489999771118164,
        1.4170000553131104,
        1.4859999418258667,
        1.5529999732971191,
        1.621000051498413,
        1.687999963760376,
        1.753999948501587,
        1.8200000524520874,
        1.8860000371932983,
        1.9520000219345093,
        2.0169999599456787,
        2.0820000171661377,
        2.1470000743865967,
        2.2109999656677246,
        2.2750000953674316,
        2.3389999866485596,
        2.4019999504089355,
        2.4660000801086426,
        2.5290000438690186,
        2.5910000801086426,
        2.6540000438690186,
        2.7160000801086426,
        2.7780001163482666,
        2.8399999141693115,
        2.9010000228881836,
        2.9619998931884766,
        3.0230000019073486,
        3.0840001106262207,
        3.1449999809265137,
        3.2049999237060547,
        3.265000104904175,
        3.325000047683716,
        3.384999990463257,
        3.444999933242798,
        3.503999948501587,
        3.563999891281128,
        3.622999906539917,
        3.681999921798706,
        3.740999937057495,
        3.7990000247955322,
        3.8580000400543213,
        3.9159998893737793,
        3.9739999771118164,
        4.0320000648498535,
        4.090000152587891,
        4.1479997634887695,
        4.204999923706055,
        4.263000011444092,
        4.320000171661377,
        4.376999855041504,
        4.434000015258789,
        4.491000175476074,
        4.547999858856201,
        4.605000019073486,
        4.660999774932861,
        4.7179999351501465,
        4.77400016784668,
        4.829999923706055,
        4.88700008392334,
        4.942999839782715,
        4.999000072479248,
        5.053999900817871,
        5.110000133514404,
        5.165999889373779,
        5.2220001220703125,
        5.2769999504089355,
        5.333000183105469,
        5.388000011444092,
        5.442999839782715,
        5.498000144958496,
        5.553999900817871,
        5.609000205993652,
        5.664000034332275,
        5.718999862670898,
        5.77400016784668,
        5.828000068664551,
        5.882999897003174,
        5.938000202178955,
        5.993000030517578,
        6.046999931335449,
        6.1020002365112305,
        6.156000137329102,
        6.210999965667725,
        6.264999866485596,
        6.320000171661377,
        6.374000072479248,
        6.427999973297119,
        6.482999801635742,
        6.5370001792907715,
        6.591000080108643,
        6.645999908447266,
        6.699999809265137,
        6.754000186920166,
        6.808000087738037,
        6.861999988555908
    ],
    "GROW_CURVE_ATTACK_105": [
        1.0,
        1.065000057220459,
        1.128999948501587,
        1.1929999589920044,
        1.2549999952316284,
        1.3170000314712524,
        1.378999948501587,
        1.4390000104904175,
        1.4989999532699585,
        1.5579999685287476,
        1.6169999837875366,
        1.6749999523162842,
        1.7330000400543213,
        1.7899999618530273,
        1.8459999561309814,
        1.9019999504089355,
        1.9579999446868896,
        2.013000011444092,
        2.066999912261963,
        2.121000051498413,
        2.174999952316284,
        2.2279999256134033,
        2.2799999713897705,
        2.3329999446868896,
        2.384999990463257,
        2.436000108718872,
        2.486999988555908,
        2.5380001068115234,
        2.5880000591278076,
        2.638000011444092,
        2.687999963760376,
        2.736999988555908,
        2.7860000133514404,
        2.8350000381469727,
        2.882999897003174,
        2.930999994277954,
        2.9790000915527344,
        3.0269999504089355,
        3.0739998817443848,
        3.121000051498413,
        3.1670000553131104,
        3.2139999866485596,
        3.259999990463257,
        3.305999994277954,
        3.3510000705718994,
        3.3970000743865967,
        3.441999912261963,
        3.486999988555908,
        3.5320000648498535,
        3.5759999752044678,
        3.619999885559082,
        3.6649999618530273,
        3.7079999446868896,
        3.752000093460083,
        3.7960000038146973,
        3.8389999866485596,
        3.881999969482422,
        3.924999952316284,
        3.9679999351501465,
        4.010000228881836,
        4.052999973297119,
        4.09499979019165,
        4.13700008392334,
        4.178999900817871,
        4.2210001945495605,
        4.263000011444092,
        4.303999900817871,
        4.3460001945495605,
        4.38700008392334,
        4.427999973297119,
        4.468999862670898,
        4.510000228881836,
        4.551000118255615,
        4.5920000076293945,
        4.631999969482422,
        4.672999858856201,
        4.7129998207092285,
        4.752999782562256,
        4.793000221252441,
        4.834000110626221,
        4.873000144958496,
        4.913000106811523,
        4.953000068664551,
        4.993000030517578,
        5.0320000648498535,
        5.072000026702881,
        5.111000061035156,
        5.151000022888184,
        5.190000057220459,
        5.229000091552734,
        5.269000053405762,
        5.308000087738037,
        5.3470001220703125,
        5.386000156402588,
        5.425000190734863,
        5.464000225067139,
        5.502999782562256,
        5.541999816894531,
        5.579999923706055,
        5.61899995803833
    ],
    "GROW_CURVE_CRITICAL_101": [
        1.0,
        1.0,
        1.0,
        1.0,
        1.1619999408721924,
        1.1619999408721924,
        1.1619999408721924,
        1.1619999408721924,
        1.1619999408721924,
        1.3630000352859497,
        1.3630000352859497,
        1.3630000352859497,
        1.3630000352859497,
        1.3630000352859497,
        1.565000057220459,
        1.565000057220459,
        1.565000057220459,
        1.565000057220459,
        1.565000057220459,
        1.7669999599456787,
        1.7669999599456787,
        1.7669999599456787,
        1.7669999599456787,
        1.7669999599456787,
        1.968999981880188,
        1.968999981880188,
        1.968999981880188,
        1.968999981880188,
        1.968999981880188,
        2.1710000038146973,
        2.1710000038146973,
        2.1710000038146973,
        2.1710000038146973,
        2.1710000038146973,
        2.372999906539917,
        2.372999906539917,
        2.372999906539917,
        2.372999906539917,
        2.372999906539917,
        2.575000047683716,
        2.575000047683716,
        2.575000047683716,
        2.575000047683716,
        2.575000047683716,
        2.7769999504089355,
        2.7769999504089355,
        2.7769999504089355,
        2.7769999504089355,
        2.7769999504089355,
        2.9790000915527344,
        2.9790000915527344,
        2.9790000915527344,
        2.9790000915527344,
        2.9790000915527344,
        3.180999994277954,
        3.180999994277954,
        3.180999994277954,
        3.180999994277954,
        3.180999994277954,
        3.382999897003174,
        3.382999897003174,
        3.382999897003174,
        3.382999897003174,
        3.382999897003174,
        3.5850000381469727,
        3.5850000381469727,
        3.5850000381469727,
        3.5850000381469727,
        3.5850000381469727,
        3.7860000133514404,
        3.7860000133514404,
        3.7860000133514404,
        3.7860000133514404,
        3.7860000133514404,
        3.98799991607666,
        3.98799991607666,
        3.98799991607666,
        3.98799991607666,
        3.98799991607666,
        4.190000057220459,
        4.190000057220459,
        4.190000057220459,
        4.190000057220459,
        4.190000057220459,
        4.392000198364258,
        4.392000198364258,
        4.392000198364258,
        4.392000198364258,
        4.392000198364258,
        4.593999862670898,
        4.593999862670898,
        4.593999862670898,
        4.593999862670898,
        4.593999862670898,
        4.796000003814697,
        4.796000003814697,
        4.796000003814697,
        4.796000003814697,
        4.796000003814697,
        4.998000144958496
    ],
    "GROW_CURVE_ATTACK_201": [
        1.0,
        1.0829999446868896,
        1.1649999618530273,
        1.2480000257492065,
        1.3300000429153442,
        1.4129999876022339,
        1.4950000047683716,
        1.5779999494552612,
        1.6610000133514404,
        1.7430000305175781,
        1.8259999752044678,
        1.9079999923706055,
        1.9910000562667847,
        2.072999954223633,
        2.1559998989105225,
        2.239000082015991,
        2.321000099182129,
        2.4040000438690186,
        2.4860000610351562,
        2.569000005722046,
        2.6510000228881836,
        2.7339999675750732,
        2.816999912261963,
        2.8989999294281006,
        2.9820001125335693,
        3.063999891281128,
        3.1470000743865967,
        3.2290000915527344,
        3.312000036239624,
        3.3940000534057617,
        3.4769999980926514,
        3.559999942779541,
        3.6419999599456787,
        3.7249999046325684,
        3.806999921798706,
        3.890000104904175,
        3.9719998836517334,
        4.054999828338623,
        4.138000011444092,
        4.21999979019165,
        4.302999973297119,
        4.385000228881836,
        4.4679999351501465,
        4.550000190734863,
        4.632999897003174,
        4.716000080108643,
        4.797999858856201,
        4.88100004196167,
        4.9629998207092285,
        5.046000003814697,
        5.127999782562256,
        5.210999965667725,
        5.294000148773193,
        5.375999927520752,
        5.459000110626221,
        5.540999889373779,
        5.624000072479248,
        5.705999851226807,
        5.789000034332275,
        5.872000217437744,
        5.953999996185303,
        6.0370001792907715,
        6.11899995803833,
        6.202000141143799,
        6.283999919891357,
        6.367000102996826,
        6.449999809265137,
        6.5320000648498535,
        6.614999771118164,
        6.697000026702881,
        6.78000020980835,
        6.861999988555908,
        6.945000171661377,
        7.0279998779296875,
        7.110000133514404,
        7.192999839782715,
        7.275000095367432,
        7.357999801635742,
        7.440000057220459,
        7.5229997634887695,
        7.605999946594238,
        7.688000202178955,
        7.770999908447266,
        7.853000164031982,
        7.935999870300293,
        8.017999649047852,
        8.10099983215332,
        8.182999610900879,
        8.265999794006348,
        8.348999977111816,
        8.430999755859375,
        8.513999938964844,
        8.595999717712402,
        8.678999900817871,
        8.76099967956543,
        8.843999862670898,
        8.927000045776367,
        9.008999824523926,
        9.092000007629395,
        9.173999786376953
    ],
    "GROW_CURVE_ATTACK_202": [
        1.0,
        1.0880000591278076,
        1.1759999990463257,
        1.2640000581741333,
        1.3530000448226929,
        1.4420000314712524,
        1.531000018119812,
        1.621000051498413,
        1.7100000381469727,
        1.7999999523162842,
        1.8910000324249268,
        1.9809999465942383,
        2.072000026702881,
        2.1619999408721924,
        2.253000020980835,
        2.3450000286102295,
        2.436000108718872,
        2.5269999504089355,
        2.61899995803833,
        2.7109999656677246,
        2.802999973297119,
        2.8949999809265137,
        2.986999988555908,
        3.0799999237060547,
        3.171999931335449,
        3.265000104904175,
        3.3580000400543213,
        3.4509999752044678,
        3.5439999103546143,
        3.63700008392334,
        3.7309999465942383,
        3.8239998817443848,
        3.9179999828338623,
        4.011000156402588,
        4.105000019073486,
        4.198999881744385,
        4.293000221252441,
        4.38700008392334,
        4.480999946594238,
        4.574999809265137,
        4.669000148773193,
        4.763000011444092,
        4.857999801635742,
        4.952000141143799,
        5.046999931335449,
        5.142000198364258,
        5.236000061035156,
        5.330999851226807,
        5.426000118255615,
        5.520999908447266,
        5.616000175476074,
        5.710999965667725,
        5.806000232696533,
        5.901000022888184,
        5.995999813079834,
        6.0920000076293945,
        6.186999797821045,
        6.2820000648498535,
        6.377999782562256,
        6.4730000495910645,
        6.568999767303467,
        6.664000034332275,
        6.760000228881836,
        6.855999946594238,
        6.951000213623047,
        7.046999931335449,
        7.14300012588501,
        7.238999843597412,
        7.335000038146973,
        7.431000232696533,
        7.5269999504089355,
        7.623000144958496,
        7.718999862670898,
        7.815000057220459,
        7.910999774932861,
        8.006999969482422,
        8.102999687194824,
        8.199000358581543,
        8.295999526977539,
        8.392000198364258,
        8.48799991607666,
        8.585000038146973,
        8.680999755859375,
        8.777000427246094,
        8.87399959564209,
        8.970000267028809,
        9.067000389099121,
        9.163000106811523,
        9.260000228881836,
        9.355999946594238,
        9.45300006866455,
        9.550000190734863,
        9.645999908447266,
        9.743000030517578,
        9.84000015258789,
        9.935999870300293,
        10.032999992370605,
        10.130000114440918,
        10.22700023651123,
        10.324000358581543
    ],
    "GROW_CURVE_ATTACK_203": [
        1.0,
        1.097000002861023,
        1.1959999799728394,
        1.2949999570846558,
        1.3949999809265137,
        1.4950000047683716,
        1.597000002861023,
        1.6990000009536743,
        1.8020000457763672,
        1.9049999713897705,
        2.009000062942505,
        2.114000082015991,
        2.2190001010894775,
        2.325000047683716,
        2.430999994277954,
        2.5380001068115234,
        2.6459999084472656,
        2.753999948501587,
        2.861999988555908,
        2.9709999561309814,
        3.0799999237060547,
        3.190000057220459,
        3.299999952316284,
        3.4100000858306885,
        3.5209999084472656,
        3.631999969482422,
        3.74399995803833,
        3.8559999465942383,
        3.9679999351501465,
        4.080999851226807,
        4.193999767303467,
        4.307000160217285,
        4.421000003814697,
        4.533999919891357,
        4.64900016784668,
        4.763000011444092,
        4.877999782562256,
        4.992000102996826,
        5.107999801635742,
        5.2230000495910645,
        5.339000225067139,
        5.453999996185303,
        5.571000099182129,
        5.686999797821045,
        5.802999973297119,
        5.920000076293945,
        6.0370001792907715,
        6.1539998054504395,
        6.270999908447266,
        6.388999938964844,
        6.50600004196167,
        6.624000072479248,
        6.742000102996826,
        6.860000133514404,
        6.979000091552734,
        7.0970001220703125,
        7.216000080108643,
        7.335000038146973,
        7.453999996185303,
        7.572999954223633,
        7.691999912261963,
        7.810999870300293,
        7.931000232696533,
        8.050000190734863,
        8.170000076293945,
        8.289999961853027,
        8.40999984741211,
        8.529999732971191,
        8.649999618530273,
        8.770999908447266,
        8.890999794006348,
        9.01200008392334,
        9.131999969482422,
        9.253000259399414,
        9.37399959564209,
        9.494999885559082,
        9.616000175476074,
        9.737000465393066,
        9.857999801635742,
        9.979999542236328,
        10.10099983215332,
        10.222999572753906,
        10.343999862670898,
        10.465999603271484,
        10.588000297546387,
        10.710000038146973,
        10.831999778747559,
        10.954000473022461,
        11.076000213623047,
        11.197999954223633,
        11.319999694824219,
        11.442999839782715,
        11.5649995803833,
        11.687999725341797,
        11.8100004196167,
        11.932999610900879,
        12.055000305175781,
        12.178000450134277,
        12.300999641418457,
        12.423999786376953
    ],
    "GROW_CURVE_ATTACK_204": [
        1.0,
        1.0770000219345093,
        1.1540000438690186,
        1.2300000190734863,
        1.305999994277954,
        1.3819999694824219,
        1.4570000171661377,
        1.5329999923706055,
        1.6069999933242798,
        1.6820000410079956,
        1.7569999694824219,
        1.8309999704360962,
        1.9049999713897705,
        1.9789999723434448,
        2.052000045776367,
        2.125999927520752,
        2.1989998817443848,
        2.2720000743865967,
        2.3450000286102295,
        2.4170000553131104,
        2.490000009536743,
        2.562000036239624,
        2.634000062942505,
        2.7070000171661377,
        2.7780001163482666,
        2.8499999046325684,
        2.921999931335449,
        2.993000030517578,
        3.065000057220459,
        3.135999917984009,
        3.2070000171661377,
        3.2780001163482666,
        3.3489999771118164,
        3.4200000762939453,
        3.490000009536743,
        3.561000108718872,
        3.631999969482422,
        3.7019999027252197,
        3.7720000743865967,
        3.8420000076293945,
        3.9130001068115234,
        3.9830000400543213,
        4.052999973297119,
        4.122000217437744,
        4.191999912261963,
        4.26200008392334,
        4.331999778747559,
        4.401000022888184,
        4.4710001945495605,
        4.539999961853027,
        4.609000205993652,
        4.678999900817871,
        4.748000144958496,
        4.816999912261963,
        4.886000156402588,
        4.954999923706055,
        5.02400016784668,
        5.0929999351501465,
        5.1620001792907715,
        5.230999946594238,
        5.300000190734863,
        5.368000030517578,
        5.436999797821045,
        5.50600004196167,
        5.573999881744385,
        5.64300012588501,
        5.710999965667725,
        5.78000020980835,
        5.8480000495910645,
        5.915999889373779,
        5.985000133514404,
        6.052999973297119,
        6.120999813079834,
        6.189000129699707,
        6.256999969482422,
        6.326000213623047,
        6.394000053405762,
        6.461999893188477,
        6.53000020980835,
        6.5980000495910645,
        6.664999961853027,
        6.732999801635742,
        6.801000118255615,
        6.86899995803833,
        6.936999797821045,
        7.005000114440918,
        7.072000026702881,
        7.139999866485596,
        7.208000183105469,
        7.275000095367432,
        7.3429999351501465,
        7.410999774932861,
        7.478000164031982,
        7.546000003814697,
        7.61299991607666,
        7.681000232696533,
        7.748000144958496,
        7.815999984741211,
        7.882999897003174,
        7.949999809265137
    ],
    "GROW_CURVE_ATTACK_205": [
        1.0,
        1.0709999799728394,
        1.1410000324249268,
        1.2109999656677246,
        1.2799999713897705,
        1.3489999771118164,
        1.4170000553131104,
        1.4839999675750732,
        1.5509999990463257,
        1.6169999837875366,
        1.6829999685287476,
        1.7480000257492065,
        1.812999963760376,
        1.878000020980835,
        1.9420000314712524,
        2.005000114440918,
        2.068000078201294,
        2.13100004196167,
        2.194000005722046,
        2.25600004196167,
        2.318000078201294,
        2.378999948501587,
        2.440000057220459,
        2.500999927520752,
        2.562000036239624,
        2.621999979019165,
        2.681999921798706,
        2.740999937057495,
        2.8010001182556152,
        2.859999895095825,
        2.9189999103546143,
        2.9779999256134033,
        3.0360000133514404,
        3.0940001010894775,
        3.1519999504089355,
        3.2100000381469727,
        3.2679998874664307,
        3.325000047683716,
        3.381999969482422,
        3.438999891281128,
        3.496000051498413,
        3.552999973297119,
        3.6089999675750732,
        3.6659998893737793,
        3.7219998836517334,
        3.7780001163482666,
        3.8340001106262207,
        3.8889999389648438,
        3.944999933242798,
        4.0,
        4.056000232696533,
        4.111000061035156,
        4.165999889373779,
        4.2210001945495605,
        4.275000095367432,
        4.329999923706055,
        4.383999824523926,
        4.439000129699707,
        4.493000030517578,
        4.546999931335449,
        4.60099983215332,
        4.65500020980835,
        4.709000110626221,
        4.763000011444092,
        4.815999984741211,
        4.869999885559082,
        4.922999858856201,
        4.9770002365112305,
        5.03000020980835,
        5.083000183105469,
        5.136000156402588,
        5.189000129699707,
        5.242000102996826,
        5.295000076293945,
        5.3470001220703125,
        5.400000095367432,
        5.453000068664551,
        5.505000114440918,
        5.558000087738037,
        5.610000133514404,
        5.6620001792907715,
        5.715000152587891,
        5.767000198364258,
        5.818999767303467,
        5.870999813079834,
        5.922999858856201,
        5.974999904632568,
        6.0269999504089355,
        6.078000068664551,
        6.130000114440918,
        6.182000160217285,
        6.232999801635742,
        6.284999847412109,
        6.335999965667725,
        6.388000011444092,
        6.439000129699707,
        6.491000175476074,
        6.541999816894531,
        6.5929999351501465,
        6.644000053405762
    ],
    "GROW_CURVE_CRITICAL_201": [
        1.0,
        1.0,
        1.0,
        1.0,
        1.1619999408721924,
        1.1619999408721924,
        1.1619999408721924,
        1.1619999408721924,
        1.1619999408721924,
        1.3630000352859497,
        1.3630000352859497,
        1.3630000352859497,
        1.3630000352859497,
        1.3630000352859497,
        1.565000057220459,
        1.565000057220459,
        1.565000057220459,
        1.565000057220459,
        1.565000057220459,
        1.7669999599456787,
        1.7669999599456787,
        1.7669999599456787,
        1.7669999599456787,
        1.7669999599456787,
        1.968999981880188,
        1.968999981880188,
        1.968999981880188,
        1.968999981880188,
        1.968999981880188,
        2.1710000038146973,
        2.1710000038146973,
        2.1710000038146973,
        2.1710000038146973,
        2.1710000038146973,
        2.372999906539917,
        2.372999906539917,
        2.372999906539917,
        2.372999906539917,
        2.372999906539917,
        2.575000047683716,
        2.575000047683716,
        2.575000047683716,
        2.575000047683716,
        2.575000047683716,
        2.7769999504089355,
        2.7769999504089355,
        2.7769999504089355,
        2.7769999504089355,
        2.7769999504089355,
        2.9790000915527344,
        2.9790000915527344,
        2.9790000915527344,
        2.9790000915527344,
        2.9790000915527344,
        3.180999994277954,
        3.180999994277954,
        3.180999994277954,
        3.180999994277954,
        3.180999994277954,
        3.382999897003174,
        3.382999897003174,
        3.382999897003174,
        3.382999897003174,
        3.382999897003174,
        3.5850000381469727,
        3.5850000381469727,
        3.5850000381469727,
        3.5850000381469727,
        3.5850000381469727,
        3.7860000133514404,
        3.7860000133514404,
        3.7860000133514404,
        3.7860000133514404,
        3.7860000133514404,
        3.98799991607666,
        3.98799991607666,
        3.98799991607666,
        3.98799991607666,
        3.98799991607666,
        4.190000057220459,
        4.190000057220459,
        4.190000057220459,
        4.190000057220459,
        4.190000057220459,
        4.392000198364258,
        4.392000198364258,
        4.392000198364258,
        4.392000198364258,
        4.392000198364258,
        4.593999862670898,
        4.593999862670898,
        4.593999862670898,
        4.593999862670898,
        4.593999862670898,
        4.796000003814697,
        4.796000003814697,
        4.796000003814697,
        4.796000003814697,
        4.796000003814697,
        4.998000144958496
    ],
    "GROW_CURVE_ATTACK_301": [
        1.0,
        1.0859999656677246,
        1.1710000038146973,
        1.2569999694824219,
        1.343000054359436,
        1.4290000200271606,
        1.5160000324249268,
        1.6019999980926514,
        1.6890000104904175,
        1.774999976158142,
        1.8619999885559082,
        1.9490000009536743,
        2.0360000133514404,
        2.124000072479248,
        2.2109999656677246,
        2.2990000247955322,
        2.385999917984009,
        2.4739999771118164,
        2.562000036239624,
        2.6500000953674316,
        2.73799991607666,
        2.8269999027252197,
        2.9149999618530273,
        3.003999948501587,
        3.0929999351501465,
        3.181999921798706,
        3.2709999084472656,
        3.359999895095825,
        3.450000047683716,
        3.5390000343322754,
        3.628999948501587,
        3.7190001010894775,
        3.809000015258789,
        3.8989999294281006,
        3.989000082015991,
        4.079999923706055,
        4.170000076293945,
        4.261000156402588,
        4.3520002365112305,
        4.442999839782715,
        4.533999919891357,
        4.625,
        4.7170000076293945,
        4.808000087738037,
        4.900000095367432,
        4.992000102996826,
        5.084000110626221,
        5.176000118255615,
        5.26800012588501,
        5.360000133514404,
        5.453000068664551,
        5.546000003814697,
        5.638000011444092,
        5.730999946594238,
        5.824999809265137,
        5.918000221252441,
        6.011000156402588,
        6.105000019073486,
        6.197999954223633,
        6.291999816894531,
        6.386000156402588,
        6.480000019073486,
        6.574999809265137,
        6.669000148773193,
        6.763000011444092,
        6.857999801635742,
        6.953000068664551,
        7.047999858856201,
        7.14300012588501,
        7.23799991607666,
        7.334000110626221,
        7.428999900817871,
        7.525000095367432,
        7.620999813079834,
        7.7170000076293945,
        7.813000202178955,
        7.908999919891357,
        8.005000114440918,
        8.10200023651123,
        8.199000358581543,
        8.295000076293945,
        8.392000198364258,
        8.48900032043457,
        8.586999893188477,
        8.684000015258789,
        8.781999588012695,
        8.878999710083008,
        8.97700023651123,
        9.074999809265137,
        9.17300033569336,
        9.270999908447266,
        9.369999885559082,
        9.468000411987305,
        9.567000389099121,
        9.666000366210938,
        9.765000343322754,
        9.86400032043457,
        9.963000297546387,
        10.062000274658203,
        10.161999702453613
    ],
    "GROW_CURVE_ATTACK_302": [
        1.0,
        1.090999960899353,
        1.1829999685287476,
        1.274999976158142,
        1.3680000305175781,
        1.4609999656677246,
        1.5540000200271606,
        1.6480000019073486,
        1.7430000305175781,
        1.8370000123977661,
        1.9329999685287476,
        2.0280001163482666,
        2.124000072479248,
        2.2200000286102295,
        2.316999912261963,
        2.4140000343322754,
        2.510999917984009,
        2.6080000400543213,
        2.7060000896453857,
        2.803999900817871,
        2.9030001163482666,
        3.002000093460083,
        3.1010000705718994,
        3.200000047683716,
        3.299999952316284,
        3.4000000953674316,
        3.5,
        3.6010000705718994,
        3.7009999752044678,
        3.802999973297119,
        3.9040000438690186,
        4.005000114440918,
        4.10699987411499,
        4.209000110626221,
        4.311999797821045,
        4.414000034332275,
        4.517000198364258,
        4.619999885559082,
        4.7230000495910645,
        4.827000141143799,
        4.931000232696533,
        5.034999847412109,
        5.138999938964844,
        5.243000030517578,
        5.3480000495910645,
        5.453000068664551,
        5.558000087738037,
        5.663000106811523,
        5.76800012588501,
        5.874000072479248,
        5.980000019073486,
        6.085999965667725,
        6.191999912261963,
        6.298999786376953,
        6.406000137329102,
        6.513000011444092,
        6.619999885559082,
        6.7270002365112305,
        6.835000038146973,
        6.941999912261963,
        7.050000190734863,
        7.1579999923706055,
        7.267000198364258,
        7.375,
        7.484000205993652,
        7.5920000076293945,
        7.701000213623047,
        7.810999870300293,
        7.920000076293945,
        8.029999732971191,
        8.138999938964844,
        8.24899959564209,
        8.359000205993652,
        8.470000267028809,
        8.579999923706055,
        8.690999984741211,
        8.802000045776367,
        8.913000106811523,
        9.02400016784668,
        9.135000228881836,
        9.246999740600586,
        9.357999801635742,
        9.470000267028809,
        9.581999778747559,
        9.694000244140625,
        9.807000160217285,
        9.918999671936035,
        10.031999588012695,
        10.145000457763672,
        10.258000373840332,
        10.371000289916992,
        10.484999656677246,
        10.597999572753906,
        10.711999893188477,
        10.826000213623047,
        10.9399995803833,
        11.053999900817871,
        11.168000221252441,
        11.282999992370605,
        11.397000312805176
    ],
    "GROW_CURVE_ATTACK_303": [
        1.0,
        1.1019999980926514,
        1.2039999961853027,
        1.3079999685287476,
        1.4119999408721924,
        1.5180000066757202,
        1.625,
        1.7319999933242798,
        1.840999960899353,
        1.9500000476837158,
        2.059999942779541,
        2.1710000038146973,
        2.2820000648498535,
        2.3949999809265137,
        2.507999897003174,
        2.621999979019165,
        2.7360000610351562,
        2.8510000705718994,
        2.9670000076293945,
        3.0840001106262207,
        3.2009999752044678,
        3.318000078201294,
        3.437000036239624,
        3.555000066757202,
        3.674999952316284,
        3.7939999103546143,
        3.9149999618530273,
        4.035999774932861,
        4.1570000648498535,
        4.2789998054504395,
        4.401000022888184,
        4.52400016784668,
        4.646999835968018,
        4.770999908447266,
        4.894999980926514,
        5.019999980926514,
        5.144999980926514,
        5.269999980926514,
        5.395999908447266,
        5.521999835968018,
        5.64900016784668,
        5.776000022888184,
        5.9029998779296875,
        6.031000137329102,
        6.158999919891357,
        6.2870001792907715,
        6.415999889373779,
        6.545000076293945,
        6.675000190734863,
        6.803999900817871,
        6.934999942779541,
        7.065000057220459,
        7.196000099182129,
        7.327000141143799,
        7.458000183105469,
        7.590000152587891,
        7.7220001220703125,
        7.854000091552734,
        7.986000061035156,
        8.119000434875488,
        8.251999855041504,
        8.38599967956543,
        8.519000053405762,
        8.652999877929688,
        8.788000106811523,
        8.92199993133545,
        9.057000160217285,
        9.192000389099121,
        9.32699966430664,
        9.463000297546387,
        9.597999572753906,
        9.734000205993652,
        9.871000289916992,
        10.006999969482422,
        10.144000053405762,
        10.281000137329102,
        10.418000221252441,
        10.555000305175781,
        10.692999839782715,
        10.831000328063965,
        10.968999862670898,
        11.107999801635742,
        11.246000289916992,
        11.385000228881836,
        11.52400016784668,
        11.663000106811523,
        11.803000450134277,
        11.942000389099121,
        12.081999778747559,
        12.222000122070312,
        12.36299991607666,
        12.503000259399414,
        12.644000053405762,
        12.78499984741211,
        12.925999641418457,
        13.067000389099121,
        13.208999633789062,
        13.35099983215332,
        13.493000030517578,
        13.635000228881836
    ],
    "GROW_CURVE_ATTACK_304": [
        1.0,
        1.0789999961853027,
        1.159000039100647,
        1.2380000352859497,
        1.3170000314712524,
        1.3949999809265137,
        1.4739999771118164,
        1.5520000457763672,
        1.63100004196167,
        1.7089999914169312,
        1.7869999408721924,
        1.8650000095367432,
        1.9420000314712524,
        2.0199999809265137,
        2.0980000495910645,
        2.174999952316284,
        2.253000020980835,
        2.3299999237060547,
        2.4079999923706055,
        2.484999895095825,
        2.562000036239624,
        2.6389999389648438,
        2.7170000076293945,
        2.7939999103546143,
        2.871000051498413,
        2.947999954223633,
        3.0260000228881836,
        3.1029999256134033,
        3.180000066757202,
        3.256999969482422,
        3.3340001106262207,
        3.4119999408721924,
        3.489000082015991,
        3.565999984741211,
        3.6440000534057617,
        3.7209999561309814,
        3.7980000972747803,
        3.875999927520752,
        3.953000068664551,
        4.031000137329102,
        4.109000205993652,
        4.185999870300293,
        4.263999938964844,
        4.3420000076293945,
        4.419000148773193,
        4.497000217437744,
        4.574999809265137,
        4.6529998779296875,
        4.730999946594238,
        4.809999942779541,
        4.888000011444092,
        4.966000080108643,
        5.044000148773193,
        5.123000144958496,
        5.201000213623047,
        5.28000020980835,
        5.359000205993652,
        5.436999797821045,
        5.515999794006348,
        5.59499979019165,
        5.673999786376953,
        5.752999782562256,
        5.833000183105469,
        5.9120001792907715,
        5.991000175476074,
        6.071000099182129,
        6.150000095367432,
        6.230000019073486,
        6.309999942779541,
        6.389999866485596,
        6.46999979019165,
        6.550000190734863,
        6.630000114440918,
        6.710000038146973,
        6.790999889373779,
        6.870999813079834,
        6.952000141143799,
        7.0329999923706055,
        7.11299991607666,
        7.193999767303467,
        7.275000095367432,
        7.35699987411499,
        7.438000202178955,
        7.519000053405762,
        7.60099983215332,
        7.682000160217285,
        7.763999938964844,
        7.8460001945495605,
        7.927999973297119,
        8.010000228881836,
        8.092000007629395,
        8.173999786376953,
        8.256999969482422,
        8.33899974822998,
        8.42199993133545,
        8.505000114440918,
        8.588000297546387,
        8.670999526977539,
        8.753999710083008,
        8.836999893188477
    ],
    "GROW_CURVE_ATTACK_305": [
        1.0,
        1.0729999542236328,
        1.1449999809265137,
        1.2170000076293945,
        1.2879999876022339,
        1.3589999675750732,
        1.4290000200271606,
        1.4989999532699585,
        1.5679999589920044,
        1.6369999647140503,
        1.7059999704360962,
        1.7740000486373901,
        1.840999960899353,
        1.909000039100647,
        1.9759999513626099,
        2.0429999828338623,
        2.1089999675750732,
        2.174999952316284,
        2.240999937057495,
        2.306999921798706,
        2.372999906539917,
        2.437999963760376,
        2.503000020980835,
        2.568000078201294,
        2.632999897003174,
        2.697000026702881,
        2.76200008392334,
        2.8259999752044678,
        2.890000104904175,
        2.9539999961853027,
        3.0179998874664307,
        3.0820000171661377,
        3.1449999809265137,
        3.2090001106262207,
        3.2720000743865967,
        3.3359999656677246,
        3.3989999294281006,
        3.4619998931884766,
        3.5250000953674316,
        3.5880000591278076,
        3.6510000228881836,
        3.7139999866485596,
        3.7769999504089355,
        3.8399999141693115,
        3.9030001163482666,
        3.9660000801086426,
        4.0289998054504395,
        4.0920000076293945,
        4.15500020980835,
        4.2170000076293945,
        4.28000020980835,
        4.3429999351501465,
        4.406000137329102,
        4.468999862670898,
        4.5320000648498535,
        4.593999862670898,
        4.6570000648498535,
        4.71999979019165,
        4.7829999923706055,
        4.8460001945495605,
        4.908999919891357,
        4.9720001220703125,
        5.034999847412109,
        5.0980000495910645,
        5.160999774932861,
        5.224999904632568,
        5.288000106811523,
        5.35099983215332,
        5.414000034332275,
        5.478000164031982,
        5.540999889373779,
        5.605000019073486,
        5.668000221252441,
        5.73199987411499,
        5.796000003814697,
        5.859000205993652,
        5.922999858856201,
        5.986999988555908,
        6.051000118255615,
        6.114999771118164,
        6.178999900817871,
        6.243000030517578,
        6.308000087738037,
        6.372000217437744,
        6.435999870300293,
        6.500999927520752,
        6.565000057220459,
        6.630000114440918,
        6.695000171661377,
        6.760000228881836,
        6.824999809265137,
        6.889999866485596,
        6.954999923706055,
        7.019999980926514,
        7.085000038146973,
        7.151000022888184,
        7.216000080108643,
        7.2820000648498535,
        7.3470001220703125,
        7.413000106811523
    ],
    "GROW_CURVE_CRITICAL_301": [
        1.0,
        1.0,
        1.0,
        1.0,
        1.1619999408721924,
        1.1619999408721924,
        1.1619999408721924,
        1.1619999408721924,
        1.1619999408721924,
        1.3630000352859497,
        1.3630000352859497,
        1.3630000352859497,
        1.3630000352859497,
        1.3630000352859497,
        1.565000057220459,
        1.565000057220459,
        1.565000057220459,
        1.565000057220459,
        1.565000057220459,
        1.7669999599456787,
        1.7669999599456787,
        1.7669999599456787,
        1.7669999599456787,
        1.7669999599456787,
        1.968999981880188,
        1.968999981880188,
        1.968999981880188,
        1.968999981880188,
        1.968999981880188,
        2.1710000038146973,
        2.1710000038146973,
        2.1710000038146973,
        2.1710000038146973,
        2.1710000038146973,
        2.372999906539917,
        2.372999906539917,
        2.372999906539917,
        2.372999906539917,
        2.372999906539917,
        2.575000047683716,
        2.575000047683716,
        2.575000047683716,
        2.575000047683716,
        2.575000047683716,
        2.7769999504089355,
        2.7769999504089355,
        2.7769999504089355,
        2.7769999504089355,
        2.7769999504089355,
        2.9790000915527344,
        2.9790000915527344,
        2.9790000915527344,
        2.9790000915527344,
        2.9790000915527344,
        3.180999994277954,
        3.180999994277954,
        3.180999994277954,
        3.180999994277954,
        3.180999994277954,
        3.382999897003174,
        3.382999897003174,
        3.382999897003174,
        3.382999897003174,
        3.382999897003174,
        3.5850000381469727,
        3.5850000381469727,
        3.5850000381469727,
        3.5850000381469727,
        3.5850000381469727,
        3.7860000133514404,
        3.7860000133514404,
        3.7860000133514404,
        3.7860000133514404,
        3.7860000133514404,
        3.98799991607666,
        3.98799991607666,
        3.98799991607666,
        3.98799991607666,
        3.98799991607666,
        4.190000057220459,
        4.190000057220459,
        4.190000057220459,
        4.190000057220459,
        4.190000057220459,
        4.392000198364258,
        4.392000198364258,
        4.392000198364258,
        4.392000198364258,
        4.392000198364258,
        4.593999862670898,
        4.593999862670898,
        4.593999862670898,
        4.593999862670898,
        4.593999862670898,
        4.796000003814697,
        4.796000003814697,
        4.796000003814697,
        4.796000003814697,
        4.796000003814697,
        4.998000144958496
    ]
}