{
    "10000001": [],
    "10000002": [
        [],
        [],
        [],
        [],
        [],
        [],
        [],
        [],
        [],
        [],
        [],
        [],
        [],
        [],
        [],
        []
    ],
    "10000003": [
        [
            "Elemental Burst DMG",
            "Field Entering/Exiting DMG",
            "Field Activation Healing",
            "Continuous Regeneration",
            "CD",
            "Energy Cost"
        ],
        [
            "425%",
            "78.4%",
            "251% ATK+1540",
            "25.12% ATK+154",
            "20.0s",
            "80"
        ],
        [
            "457%",
            "84.3%",
            "270% ATK+1694",
            "27.0% ATK+169",
            "20.0s",
            "80"
        ],
        [
            "489%",
            "90.2%",
            "289% ATK+1861",
            "28.89% ATK+186",
            "20.0s",
            "80"
        ],
        [
            "531%",
            "98.0%",
            "314% ATK+2041",
            "31.4% ATK+204",
            "20.0s",
            "80"
        ],
        [
            "563%",
            "104%",
            "333% ATK+2234",
            "33.28% ATK+223",
            "20.0s",
            "80"
        ],
        [
            "595%",
            "110%",
            "352% ATK+2439",
            "35.17% ATK+244",
            "20.0s",
            "80"
        ],
        [
            "637%",
            "118%",
            "377% ATK+2657",
            "37.68% ATK+266",
            "20.0s",
            "80"
        ],
        [
            "680%",
            "125%",
            "402% ATK+2888",
            "40.19% ATK+289",
            "20.0s",
            "80"
        ],
        [
            "722%",
            "133%",
            "427% ATK+3132",
            "42.7% ATK+313",
            "20.0s",
            "80"
        ],
        [
            "765%",
            "141%",
            "452% ATK+3389",
            "45.22% ATK+339",
            "20.0s",
            "80"
        ],
        [
            "807%",
            "149%",
            "477% ATK+3659",
            "47.73% ATK+366",
            "20.0s",
            "80"
        ],
        [
            "850%",
            "157%",
            "502% ATK+3941",
            "50.24% ATK+394",
            "20.0s",
            "80"
        ],
        [
            "903%",
            "167%",
            "534% ATK+4236",
            "53.38% ATK+424",
            "20.0s",
            "80"
        ],
        [
            "956%",
            "176%",
            "565% ATK+4544",
            "56.52% ATK+454",
            "20.0s",
            "80"
        ],
        [
            "1009%",
            "186%",
            "597% ATK+4865",
            "59.66% ATK+487",
            "80.0s",
            "0"
        ]
    ],
    "10000005": [],
    "10000006": [
        [
            "Discharge DMG",
            "Duration",
            "CD",
            "Energy Cost"
        ],
        [
            "36.6%",
            "15.0s",
            "20.0s",
            "80"
        ],
        [
            "39.3%",
            "15.0s",
            "20.0s",
            "80"
        ],
        [
            "42.0%",
            "15.0s",
            "20.0s",
            "80"
        ],
        [
            "45.7%",
            "15.0s",
            "20.0s",
            "80"
        ],
        [
            "48.4%",
            "15.0s",
            "20.0s",
            "80"
        ],
        [
            "51.2%",
            "15.0s",
            "20.0s",
            "80"
        ],
        [
            "54.8%",
            "15.0s",
            "20.0s",
            "80"
        ],
        [
            "58.5%",
            "15.0s",
            "20.0s",
            "80"
        ],
        [
            "62.2%",
            "15.0s",
            "20.0s",
            "80"
        ],
        [
            "65.8%",
            "15.0s",
            "20.0s",
            "80"
        ],
        [
            "69.5%",
            "15.0s",
            "20.0s",
            "80"
        ],
        [
            "73.1%",
            "15.0s",
            "20.0s",
            "80"
        ],
        [
            "77.7%",
            "15.0s",
            "20.0s",
            "80"
        ],
        [
            "82.3%",
            "15.0s",
            "20.0s",
            "80"
        ],
        [
            "86.8%",
            "15.0s",
            "20.0s",
            "80"
        ]
    ],
    "10000007": [],
    "10000014": [
        [
            "Regeneration",
            "CD",
            "Energy Cost"
        ],
        [
            "17.6% Max HP+1694",
            "20.0s",
            "80"
        ],
        [
            "18.9% Max HP+1864",
            "20.0s",
            "80"
        ],
        [
            "20.2% Max HP+2047",
            "20.0s",
            "80"
        ],
        [
            "22.0% Max HP+2245",
            "20.0s",
            "80"
        ],
        [
            "23.3% Max HP+2457",
            "20.0s",
            "80"
        ],
        [
            "24.6% Max HP+2683",
            "20.0s",
            "80"
        ],
        [
            "26.4% Max HP+2923",
            "20.0s",
            "80"
        ],
        [
            "28.2% Max HP+3177",
            "20.0s",
            "80"
        ],
        [
            "29.9% Max HP+3445",
            "20.0s",
            "80"
        ],
        [
            "31.7% Max HP+3728",
            "20.0s",
            "80"
        ],
        [
            "33.4% Max HP+4024",
            "20.0s",
            "80"
        ],
        [
            "35.2% Max HP+4335",
            "20.0s",
            "80"
        ],
        [
            "37.4% Max HP+4660",
            "20.0s",
            "80"
        ],
        [
            "39.6% Max HP+4999",
            "20.0s",
            "80"
        ],
        [
            "41.8% Max HP+5352",
            "20.0s",
            "80"
        ]
    ],
    "10000015": [
        [
            "Skill DMG",
            "CD",
            "Duration",
            "Energy Cost"
        ],
        [
            "77.6%",
            "15.0s",
            "8.0s",
            "60"
        ],
        [
            "83.4%",
            "15.0s",
            "8.0s",
            "60"
        ],
        [
            "89.2%",
            "15.0s",
            "8.0s",
            "60"
        ],
        [
            "97.0%",
            "15.0s",
            "8.0s",
            "60"
        ],
        [
            "103%",
            "15.0s",
            "8.0s",
            "60"
        ],
        [
            "109%",
            "15.0s",
            "8.0s",
            "60"
        ],
        [
            "116%",
            "15.0s",
            "8.0s",
            "60"
        ],
        [
            "124%",
            "15.0s",
            "8.0s",
            "60"
        ],
        [
            "132%",
            "15.0s",
            "8.0s",
            "60"
        ],
        [
            "140%",
            "15.0s",
            "8.0s",
            "60"
        ],
        [
            "147%",
            "15.0s",
            "8.0s",
            "60"
        ],
        [
            "155%",
            "15.0s",
            "8.0s",
            "60"
        ],
        [
            "165%",
            "15.0s",
            "8.0s",
            "60"
        ],
        [
            "175%",
            "15.0s",
            "8.0s",
            "60"
        ],
        [
            "184%",
            "15.0s",
            "8.0s",
            "60"
        ]
    ],
    "10000016": [
        [
            "Slashing DMG",
            "DoT",
            "Explosion DMG",
            "CD",
            "Infusion Duration",
            "Energy Cost"
        ],
        [
            "204%",
            "60.0%",
            "204%",
            "12.0s",
            "8.0s",
            "40"
        ],
        [
            "219%",
            "64.5%",
            "219%",
            "12.0s",
            "8.0s",
            "40"
        ],
        [
            "235%",
            "69.0%",
            "235%",
            "12.0s",
            "8.0s",
            "40"
        ],
        [
            "255%",
            "75.0%",
            "255%",
            "12.0s",
            "8.0s",
            "40"
        ],
        [
            "270%",
            "79.5%",
            "270%",
            "12.0s",
            "8.0s",
            "40"
        ],
        [
            "286%",
            "84.0%",
            "286%",
            "12.0s",
            "8.0s",
            "40"
        ],
        [
            "306%",
            "90.0%",
            "306%",
            "12.0s",
            "8.0s",
            "40"
        ],
        [
            "326%",
            "96.0%",
            "326%",
            "12.0s",
            "8.0s",
            "40"
        ],
        [
            "347%",
            "102%",
            "347%",
            "12.0s",
            "8.0s",
            "40"
        ],
        [
            "367%",
            "108%",
            "367%",
            "12.0s",
            "8.0s",
            "40"
        ],
        [
            "388%",
            "114%",
            "388%",
            "12.0s",
            "8.0s",
            "40"
        ],
        [
            "408%",
            "120%",
            "408%",
            "12.0s",
            "8.0s",
            "40"
        ],
        [
            "434%",
            "127%",
            "434%",
            "12.0s",
            "8.0s",
            "40"
        ],
        [
            "459%",
            "135%",
            "459%",
            "12.0s",
            "8.0s",
            "40"
        ],
        [
            "484%",
            "142%",
            "484%",
            "12.0s",
            "8.0s",
            "40"
        ]
    ],
    "10000020": [
        [
            "Elemental Burst DMG",
            "Soul Companion DMG",
            "Normal ATK SPD Bonus",
            "Electro RES Bonus",
            "Duration",
            "CD",
            "Energy Cost"
        ],
        [
            "160%",
            "24.0% Normal Attack DMG",
            "26%",
            "80%",
            "15.0s",
            "20.0s",
            "80"
        ],
        [
            "172%",
            "25.8% Normal Attack DMG",
            "28%",
            "80%",
            "15.0s",
            "20.0s",
            "80"
        ],
        [
            "184%",
            "27.6% Normal Attack DMG",
            "30%",
            "80%",
            "15.0s",
            "20.0s",
            "80"
        ],
        [
            "200%",
            "30.0% Normal Attack DMG",
            "32%",
            "80%",
            "15.0s",
            "20.0s",
            "80"
        ],
        [
            "212%",
            "31.8% Normal Attack DMG",
            "34%",
            "80%",
            "15.0s",
            "20.0s",
            "80"
        ],
        [
            "224%",
            "33.6% Normal Attack DMG",
            "36%",
            "80%",
            "15.0s",
            "20.0s",
            "80"
        ],
        [
            "240%",
            "36.0% Normal Attack DMG",
            "37%",
            "80%",
            "15.0s",
            "20.0s",
            "80"
        ],
        [
            "256%",
            "38.4% Normal Attack DMG",
            "38%",
            "80%",
            "15.0s",
            "20.0s",
            "80"
        ],
        [
            "272%",
            "40.8% Normal Attack DMG",
            "39%",
            "80%",
            "15.0s",
            "20.0s",
            "80"
        ],
        [
            "288%",
            "43.2% Normal Attack DMG",
            "40%",
            "80%",
            "15.0s",
            "20.0s",
            "80"
        ],
        [
            "304%",
            "45.6% Normal Attack DMG",
            "40%",
            "80%",
            "15.0s",
            "20.0s",
            "80"
        ],
        [
            "320%",
            "48.0% Normal Attack DMG",
            "40%",
            "80%",
            "15.0s",
            "20.0s",
            "80"
        ],
        [
            "340%",
            "51.0% Normal Attack DMG",
            "40%",
            "80%",
            "15.0s",
            "20.0s",
            "80"
        ],
        [
            "360%",
            "54.0% Normal Attack DMG",
            "40%",
            "80%",
            "15.0s",
            "20.0s",
            "80"
        ],
        [
            "380%",
            "57.0% Normal Attack DMG",
            "40%",
            "80%",
            "15.0s",
            "20.0s",
            "80"
        ]
    ],
    "10000021": [
        [
            "Fiery Rain DMG Per Wave",
            "Total Fiery Rain DMG",
            "Duration",
            "CD",
            "Energy Cost"
        ],
        [
            "28.1%",
            "505%",
            "2.0s",
            "12.0s",
            "40"
        ],
        [
            "30.2%",
            "543%",
            "2.0s",
            "12.0s",
            "40"
        ],
        [
            "32.3%",
            "581%",
            "2.0s",
            "12.0s",
            "40"
        ],
        [
            "35.1%",
            "632%",
            "2.0s",
            "12.0s",
            "40"
        ],
        [
            "37.2%",
            "670%",
            "2.0s",
            "12.0s",
            "40"
        ],
        [
            "39.3%",
            "708%",
            "2.0s",
            "12.0s",
            "40"
        ],
        [
            "42.1%",
            "758%",
            "2.0s",
            "12.0s",
            "40"
        ],
        [
            "44.9%",
            "809%",
            "2.0s",
            "12.0s",
            "40"
        ],
        [
            "47.7%",
            "859%",
            "2.0s",
            "12.0s",
            "40"
        ],
        [
            "50.5%",
            "910%",
            "2.0s",
            "12.0s",
            "40"
        ],
        [
            "53.4%",
            "960%",
            "2.0s",
            "12.0s",
            "40"
        ],
        [
            "56.2%",
            "1011%",
            "2.0s",
            "12.0s",
            "40"
        ],
        [
            "59.7%",
            "1074%",
            "2.0s",
            "12.0s",
            "40"
        ],
        [
            "63.2%",
            "1137%",
            "2.0s",
            "12.0s",
            "40"
        ],
        [
            "66.7%",
            "1200%",
            "2.0s",
            "12.0s",
            "40"
        ]
    ],
    "10000022": [
        [
            "DoT",
            "Additional Elemental DMG",
            "Duration",
            "CD",
            "Energy Cost"
        ],
        [
            "37.6%",
            "18.8%",
            "8.0s",
            "15.0s",
            "60"
        ],
        [
            "40.4%",
            "20.2%",
            "8.0s",
            "15.0s",
            "60"
        ],
        [
            "43.2%",
            "21.6%",
            "8.0s",
            "15.0s",
            "60"
        ],
        [
            "47.0%",
            "23.5%",
            "8.0s",
            "15.0s",
            "60"
        ],
        [
            "49.8%",
            "24.9%",
            "8.0s",
            "15.0s",
            "60"
        ],
        [
            "52.6%",
            "26.3%",
            "8.0s",
            "15.0s",
            "60"
        ],
        [
            "56.4%",
            "28.2%",
            "8.0s",
            "15.0s",
            "60"
        ],
        [
            "60.2%",
            "30.1%",
            "8.0s",
            "15.0s",
            "60"
        ],
        [
            "63.9%",
            "32.0%",
            "8.0s",
            "15.0s",
            "60"
        ],
        [
            "67.7%",
            "33.8%",
            "8.0s",
            "15.0s",
            "60"
        ],
        [
            "71.4%",
            "35.7%",
            "8.0s",
            "15.0s",
            "60"
        ],
        [
            "75.2%",
            "37.6%",
            "8.0s",
            "15.0s",
            "60"
        ],
        [
            "79.9%",
            "40.0%",
            "8.0s",
            "15.0s",
            "60"
        ],
        [
            "84.6%",
            "42.3%",
            "8.0s",
            "15.0s",
            "60"
        ],
        [
            "89.3%",
            "44.7%",
            "8.0s",
            "15.0s",
            "60"
        ]
    ],
    "10000023": [
        [
            "1-Hit Swing DMG",
            "2-Hit Swing DMG",
            "3-Hit Swing DMG",
            "Pyronado DMG",
            "Duration",
            "CD",
            "Energy Cost"
        ],
        [
            "72.0%",
            "88.0%",
            "110%",
            "112%",
            "10.0s",
            "20.0s",
            "80"
        ],
        [
            "77.4%",
            "94.6%",
            "118%",
            "120%",
            "10.0s",
            "20.0s",
            "80"
        ],
        [
            "82.8%",
            "101%",
            "126%",
            "129%",
            "10.0s",
            "20.0s",
            "80"
        ],
        [
            "90.0%",
            "110%",
            "137%",
            "140%",
            "10.0s",
            "20.0s",
            "80"
        ],
        [
            "95.4%",
            "117%",
            "145%",
            "148%",
            "10.0s",
            "20.0s",
            "80"
        ],
        [
            "101%",
            "123%",
            "153%",
            "157%",
            "10.0s",
            "20.0s",
            "80"
        ],
        [
            "108%",
            "132%",
            "164%",
            "168%",
            "10.0s",
            "20.0s",
            "80"
        ],
        [
            "115%",
            "141%",
            "175%",
            "179%",
            "10.0s",
            "20.0s",
            "80"
        ],
        [
            "122%",
            "150%",
            "186%",
            "190%",
            "10.0s",
            "20.0s",
            "80"
        ],
        [
            "130%",
            "158%",
            "197%",
            "202%",
            "10.0s",
            "20.0s",
            "80"
        ],
        [
            "137%",
            "167%",
            "208%",
            "213%",
            "10.0s",
            "20.0s",
            "80"
        ],
        [
            "144%",
            "176%",
            "219%",
            "224%",
            "10.0s",
            "20.0s",
            "80"
        ],
        [
            "153%",
            "187%",
            "233%",
            "238%",
            "10.0s",
            "20.0s",
            "80"
        ],
        [
            "162%",
            "198%",
            "247%",
            "252%",
            "10.0s",
            "20.0s",
            "80"
        ],
        [
            "171%",
            "209%",
            "260%",
            "266%",
            "10.0s",
            "20.0s",
            "80"
        ]
    ],
    "10000024": [
        [
            "Skill DMG",
            "Lightning DMG",
            "DMG Reduction",
            "Duration",
            "CD",
            "Energy Cost"
        ],
        [
            "122%",
            "96.0%",
            "20%",
            "15.0s",
            "20.0s",
            "80"
        ],
        [
            "131%",
            "103%",
            "21%",
            "15.0s",
            "20.0s",
            "80"
        ],
        [
            "140%",
            "110%",
            "22%",
            "15.0s",
            "20.0s",
            "80"
        ],
        [
            "152%",
            "120%",
            "24%",
            "15.0s",
            "20.0s",
            "80"
        ],
        [
            "161%",
            "127%",
            "25%",
            "15.0s",
            "20.0s",
            "80"
        ],
        [
            "170%",
            "134%",
            "26%",
            "15.0s",
            "20.0s",
            "80"
        ],
        [
            "182%",
            "144%",
            "28%",
            "15.0s",
            "20.0s",
            "80"
        ],
        [
            "195%",
            "154%",
            "30%",
            "15.0s",
            "20.0s",
            "80"
        ],
        [
            "207%",
            "163%",
            "32%",
            "15.0s",
            "20.0s",
            "80"
        ],
        [
            "219%",
            "173%",
            "34%",
            "15.0s",
            "20.0s",
            "80"
        ],
        [
            "231%",
            "182%",
            "35%",
            "15.0s",
            "20.0s",
            "80"
        ],
        [
            "243%",
            "192%",
            "36%",
            "15.0s",
            "20.0s",
            "80"
        ],
        [
            "258%",
            "204%",
            "37%",
            "15.0s",
            "20.0s",
            "80"
        ],
        [
            "274%",
            "216%",
            "38%",
            "15.0s",
            "20.0s",
            "80"
        ],
        [
            "289%",
            "228%",
            "39%",
            "15.0s",
            "20.0s",
            "80"
        ]
    ],
    "10000025": [
        [
            "Sword Rain DMG",
            "Duration",
            "CD",
            "Energy Cost"
        ],
        [
            "54.3%",
            "15.0s",
            "20.0s",
            "80"
        ],
        [
            "58.3%",
            "15.0s",
            "20.0s",
            "80"
        ],
        [
            "62.4%",
            "15.0s",
            "20.0s",
            "80"
        ],
        [
            "67.8%",
            "15.0s",
            "20.0s",
            "80"
        ],
        [
            "71.9%",
            "15.0s",
            "20.0s",
            "80"
        ],
        [
            "76.0%",
            "15.0s",
            "20.0s",
            "80"
        ],
        [
            "81.4%",
            "15.0s",
            "20.0s",
            "80"
        ],
        [
            "86.8%",
            "15.0s",
            "20.0s",
            "80"
        ],
        [
            "92.3%",
            "15.0s",
            "20.0s",
            "80"
        ],
        [
            "97.7%",
            "15.0s",
            "20.0s",
            "80"
        ],
        [
            "103%",
            "15.0s",
            "20.0s",
            "80"
        ],
        [
            "109%",
            "15.0s",
            "20.0s",
            "80"
        ],
        [
            "115%",
            "15.0s",
            "20.0s",
            "80"
        ],
        [
            "122%",
            "15.0s",
            "20.0s",
            "80"
        ],
        [
            "129%",
            "15.0s",
            "20.0s",
            "80"
        ]
    ],
    "10000026": [
        [
            "Normal Attack/Charged Attack/Plunging Attack DMG Bonus",
            "Life Drain",
            "Duration",
            "CD",
            "Energy Cost"
        ],
        [
            "62.6%",
            "3.0% Current HP Per Second",
            "15.0s",
            "20.0s",
            "80"
        ],
        [
            "66.4%",
            "3.0% Current HP Per Second",
            "15.0s",
            "20.0s",
            "80"
        ],
        [
            "70.1%",
            "3.0% Current HP Per Second",
            "15.0s",
            "20.0s",
            "80"
        ],
        [
            "75.0%",
            "2.5% Current HP Per Second",
            "16.0s",
            "20.0s",
            "80"
        ],
        [
            "78.8%",
            "2.5% Current HP Per Second",
            "16.0s",
            "20.0s",
            "80"
        ],
        [
            "82.5%",
            "2.5% Current HP Per Second",
            "16.0s",
            "20.0s",
            "80"
        ],
        [
            "87.4%",
            "2.0% Current HP Per Second",
            "17.0s",
            "20.0s",
            "80"
        ],
        [
            "92.3%",
            "2.0% Current HP Per Second",
            "17.0s",
            "20.0s",
            "80"
        ],
        [
            "97.1%",
            "2.0% Current HP Per Second",
            "17.0s",
            "20.0s",
            "80"
        ],
        [
            "102.0%",
            "2.0% Current HP Per Second",
            "17.0s",
            "20.0s",
            "80"
        ],
        [
            "106.9%",
            "2.0% Current HP Per Second",
            "17.0s",
            "20.0s",
            "80"
        ],
        [
            "111.7%",
            "2.0% Current HP Per Second",
            "17.0s",
            "20.0s",
            "80"
        ],
        [
            "116.6%",
            "2.0% Current HP Per Second",
            "17.0s",
            "20.0s",
            "80"
        ],
        [
            "121.5%",
            "2.0% Current HP Per Second",
            "17.0s",
            "20.0s",
            "80"
        ],
        [
            "126.4%",
            "2.0% Current HP Per Second",
            "17.0s",
            "20.0s",
            "80"
        ]
    ],
    "10000027": [
        [
            "DMG Per Gem",
            "CD",
            "Energy Cost"
        ],
        [
            "87.0%",
            "12.0s",
            "40"
        ],
        [
            "93.5%",
            "12.0s",
            "40"
        ],
        [
            "100%",
            "12.0s",
            "40"
        ],
        [
            "109%",
            "12.0s",
            "40"
        ],
        [
            "115%",
            "12.0s",
            "40"
        ],
        [
            "122%",
            "12.0s",
            "40"
        ],
        [
            "130%",
            "12.0s",
            "40"
        ],
        [
            "139%",
            "12.0s",
            "40"
        ],
        [
            "148%",
            "12.0s",
            "40"
        ],
        [
            "157%",
            "12.0s",
            "40"
        ],
        [
            "165%",
            "12.0s",
            "40"
        ],
        [
            "174%",
            "12.0s",
            "40"
        ],
        [
            "185%",
            "12.0s",
            "40"
        ],
        [
            "196%",
            "12.0s",
            "40"
        ],
        [
            "207%",
            "12.0s",
            "40"
        ]
    ],
    "10000029": [
        [
            "Sparks 'n' Splash DMG",
            "Duration",
            "CD",
            "Energy Cost"
        ],
        [
            "42.6%",
            "10.0s",
            "15.0s",
            "60"
        ],
        [
            "45.8%",
            "10.0s",
            "15.0s",
            "60"
        ],
        [
            "49.0%",
            "10.0s",
            "15.0s",
            "60"
        ],
        [
            "53.3%",
            "10.0s",
            "15.0s",
            "60"
        ],
        [
            "56.5%",
            "10.0s",
            "15.0s",
            "60"
        ],
        [
            "59.7%",
            "10.0s",
            "15.0s",
            "60"
        ],
        [
            "64.0%",
            "10.0s",
            "15.0s",
            "60"
        ],
        [
            "68.2%",
            "10.0s",
            "15.0s",
            "60"
        ],
        [
            "72.5%",
            "10.0s",
            "15.0s",
            "60"
        ],
        [
            "76.8%",
            "10.0s",
            "15.0s",
            "60"
        ],
        [
            "81.0%",
            "10.0s",
            "15.0s",
            "60"
        ],
        [
            "85.3%",
            "10.0s",
            "15.0s",
            "60"
        ],
        [
            "90.6%",
            "10.0s",
            "15.0s",
            "60"
        ],
        [
            "95.9%",
            "10.0s",
            "15.0s",
            "60"
        ],
        [
            "101.3%",
            "10.0s",
            "15.0s",
            "60"
        ]
    ],
    "10000030": [
        [
            "Skill DMG",
            "Petrification Duration",
            "CD",
            "Energy Cost"
        ],
        [
            "401%",
            "3.1s",
            "12.0s",
            "40"
        ],
        [
            "444%",
            "3.2s",
            "12.0s",
            "40"
        ],
        [
            "488%",
            "3.3s",
            "12.0s",
            "40"
        ],
        [
            "542%",
            "3.4s",
            "12.0s",
            "40"
        ],
        [
            "591%",
            "3.5s",
            "12.0s",
            "40"
        ],
        [
            "640%",
            "3.6s",
            "12.0s",
            "40"
        ],
        [
            "705%",
            "3.7s",
            "12.0s",
            "40"
        ],
        [
            "770%",
            "3.8s",
            "12.0s",
            "40"
        ],
        [
            "835%",
            "3.9s",
            "12.0s",
            "40"
        ],
        [
            "900%",
            "4.0s",
            "12.0s",
            "40"
        ],
        [
            "965%",
            "4.0s",
            "12.0s",
            "40"
        ],
        [
            "1030%",
            "4.0s",
            "12.0s",
            "40"
        ],
        [
            "1084%",
            "4.0s",
            "12.0s",
            "40"
        ],
        [
            "1138%",
            "4.0s",
            "12.0s",
            "40"
        ],
        [
            "1192%",
            "4.0s",
            "12.0s",
            "40"
        ]
    ],
    "10000031": [
        [
            "Falling Thunder DMG",
            "CD",
            "Energy Cost"
        ],
        [
            "208%",
            "15.0s",
            "60"
        ],
        [
            "224%",
            "15.0s",
            "60"
        ],
        [
            "239%",
            "15.0s",
            "60"
        ],
        [
            "260%",
            "15.0s",
            "60"
        ],
        [
            "276%",
            "15.0s",
            "60"
        ],
        [
            "291%",
            "15.0s",
            "60"
        ],
        [
            "312%",
            "15.0s",
            "60"
        ],
        [
            "333%",
            "15.0s",
            "60"
        ],
        [
            "354%",
            "15.0s",
            "60"
        ],
        [
            "374%",
            "15.0s",
            "60"
        ],
        [
            "395%",
            "15.0s",
            "60"
        ],
        [
            "416%",
            "15.0s",
            "60"
        ],
        [
            "442%",
            "15.0s",
            "60"
        ],
        [
            "468%",
            "15.0s",
            "60"
        ],
        [
            "494%",
            "15.0s",
            "60"
        ]
    ],
    "10000032": [
        [
            "Skill DMG",
            "Continuous Regeneration Per Sec",
            "ATK Bonus Ratio",
            "Duration",
            "CD",
            "Energy Cost"
        ],
        [
            "233%",
            "6.0% Max HP+577",
            "56%",
            "12.0s",
            "15.0s",
            "60"
        ],
        [
            "250%",
            "6.45% Max HP+635",
            "60%",
            "12.0s",
            "15.0s",
            "60"
        ],
        [
            "268%",
            "6.9% Max HP+698",
            "64%",
            "12.0s",
            "15.0s",
            "60"
        ],
        [
            "291%",
            "7.5% Max HP+765",
            "70%",
            "12.0s",
            "15.0s",
            "60"
        ],
        [
            "308%",
            "7.95% Max HP+837",
            "74%",
            "12.0s",
            "15.0s",
            "60"
        ],
        [
            "326%",
            "8.4% Max HP+914",
            "78%",
            "12.0s",
            "15.0s",
            "60"
        ],
        [
            "349%",
            "9.0% Max HP+996",
            "84%",
            "12.0s",
            "15.0s",
            "60"
        ],
        [
            "372%",
            "9.6% Max HP+1083",
            "90%",
            "12.0s",
            "15.0s",
            "60"
        ],
        [
            "396%",
            "10.2% Max HP+1174",
            "95%",
            "12.0s",
            "15.0s",
            "60"
        ],
        [
            "419%",
            "10.8% Max HP+1270",
            "101%",
            "12.0s",
            "15.0s",
            "60"
        ],
        [
            "442%",
            "11.4% Max HP+1371",
            "106%",
            "12.0s",
            "15.0s",
            "60"
        ],
        [
            "466%",
            "12.0% Max HP+1477",
            "112%",
            "12.0s",
            "15.0s",
            "60"
        ],
        [
            "495%",
            "12.75% Max HP+1588",
            "119%",
            "12.0s",
            "15.0s",
            "60"
        ],
        [
            "524%",
            "13.5% Max HP+1703",
            "126%",
            "12.0s",
            "15.0s",
            "60"
        ],
        [
            "553%",
            "14.25% Max HP+1824",
            "133%",
            "12.0s",
            "15.0s",
            "60"
        ]
    ],
    "10000033": [
        [
            "Skill DMG: Melee",
            "Skill DMG: Ranged",
            "Riptide Blast DMG",
            "Energy Return (Ranged)",
            "CD",
            "Energy Cost"
        ],
        [
            "464%",
            "378%",
            "120%",
            "20",
            "15.0s",
            "60"
        ],
        [
            "499%",
            "407%",
            "129%",
            "20",
            "15.0s",
            "60"
        ],
        [
            "534%",
            "435%",
            "138%",
            "20",
            "15.0s",
            "60"
        ],
        [
            "580%",
            "473%",
            "150%",
            "20",
            "15.0s",
            "60"
        ],
        [
            "615%",
            "501%",
            "159%",
            "20",
            "15.0s",
            "60"
        ],
        [
            "650%",
            "530%",
            "168%",
            "20",
            "15.0s",
            "60"
        ],
        [
            "696%",
            "568%",
            "180%",
            "20",
            "15.0s",
            "60"
        ],
        [
            "742%",
            "605%",
            "192%",
            "20",
            "15.0s",
            "60"
        ],
        [
            "789%",
            "643%",
            "204%",
            "20",
            "15.0s",
            "60"
        ],
        [
            "835%",
            "681%",
            "216%",
            "20",
            "15.0s",
            "60"
        ],
        [
            "882%",
            "719%",
            "228%",
            "20",
            "15.0s",
            "60"
        ],
        [
            "928%",
            "757%",
            "240%",
            "20",
            "15.0s",
            "60"
        ],
        [
            "986%",
            "804%",
            "255%",
            "20",
            "15.0s",
            "60"
        ],
        [
            "1044%",
            "851%",
            "270%",
            "20",
            "15.0s",
            "60"
        ],
        [
            "1102%",
            "899%",
            "285%",
            "20",
            "15.0s",
            "60"
        ]
    ],
    "10000034": [
        [
            "Elemental Burst DMG",
            "Skill DMG",
            "ATK Bonus",
            "Duration",
            "CD",
            "Energy Cost"
        ],
        [
            "67.2%",
            "92.8%",
            "40% DEF",
            "15.0s",
            "15.0s",
            "60"
        ],
        [
            "72.2%",
            "99.8%",
            "43% DEF",
            "15.0s",
            "15.0s",
            "60"
        ],
        [
            "77.3%",
            "107%",
            "46% DEF",
            "15.0s",
            "15.0s",
            "60"
        ],
        [
            "84.0%",
            "116%",
            "50% DEF",
            "15.0s",
            "15.0s",
            "60"
        ],
        [
            "89.0%",
            "123%",
            "53% DEF",
            "15.0s",
            "15.0s",
            "60"
        ],
        [
            "94.1%",
            "130%",
            "56% DEF",
            "15.0s",
            "15.0s",
            "60"
        ],
        [
            "101%",
            "139%",
            "60% DEF",
            "15.0s",
            "15.0s",
            "60"
        ],
        [
            "108%",
            "148%",
            "64% DEF",
            "15.0s",
            "15.0s",
            "60"
        ],
        [
            "114%",
            "158%",
            "68% DEF",
            "15.0s",
            "15.0s",
            "60"
        ],
        [
            "121%",
            "167%",
            "72% DEF",
            "15.0s",
            "15.0s",
            "60"
        ],
        [
            "128%",
            "176%",
            "76% DEF",
            "15.0s",
            "15.0s",
            "60"
        ],
        [
            "134%",
            "186%",
            "80% DEF",
            "15.0s",
            "15.0s",
            "60"
        ],
        [
            "143%",
            "197%",
            "85% DEF",
            "15.0s",
            "15.0s",
            "60"
        ],
        [
            "151%",
            "209%",
            "90% DEF",
            "15.0s",
            "15.0s",
            "60"
        ],
        [
            "160%",
            "220%",
            "95% DEF",
            "15.0s",
            "15.0s",
            "60"
        ]
    ],
    "10000035": [
        [
            "Skill DMG",
            "Healing",
            "Duration",
            "CD",
            "Energy Cost"
        ],
        [
            "285%",
            "90.0% ATK+577",
            "15.0s",
            "20.0s",
            "80"
        ],
        [
            "306%",
            "96.7% ATK+635",
            "15.0s",
            "20.0s",
            "80"
        ],
        [
            "328%",
            "103% ATK+698",
            "15.0s",
            "20.0s",
            "80"
        ],
        [
            "356%",
            "112% ATK+765",
            "15.0s",
            "20.0s",
            "80"
        ],
        [
            "377%",
            "119% ATK+837",
            "15.0s",
            "20.0s",
            "80"
        ],
        [
            "399%",
            "126% ATK+914",
            "15.0s",
            "20.0s",
            "80"
        ],
        [
            "427%",
            "135% ATK+996",
            "15.0s",
            "20.0s",
            "80"
        ],
        [
            "456%",
            "144% ATK+1083",
            "15.0s",
            "20.0s",
            "80"
        ],
        [
            "484%",
            "153% ATK+1174",
            "15.0s",
            "20.0s",
            "80"
        ],
        [
            "513%",
            "162% ATK+1270",
            "15.0s",
            "20.0s",
            "80"
        ],
        [
            "541%",
            "171% ATK+1371",
            "15.0s",
            "20.0s",
            "80"
        ],
        [
            "570%",
            "180% ATK+1477",
            "15.0s",
            "20.0s",
            "80"
        ],
        [
            "605%",
            "191% ATK+1588",
            "15.0s",
            "20.0s",
            "80"
        ],
        [
            "641%",
            "203% ATK+1703",
            "15.0s",
            "20.0s",
            "80"
        ],
        [
            "676%",
            "214% ATK+1824",
            "15.0s",
            "20.0s",
            "80"
        ]
    ],
    "10000036": [
        [
            "Skill DMG",
            "CD",
            "Energy Cost"
        ],
        [
            "142%",
            "12.0s",
            "40"
        ],
        [
            "153%",
            "12.0s",
            "40"
        ],
        [
            "164%",
            "12.0s",
            "40"
        ],
        [
            "178%",
            "12.0s",
            "40"
        ],
        [
            "189%",
            "12.0s",
            "40"
        ],
        [
            "199%",
            "12.0s",
            "40"
        ],
        [
            "214%",
            "12.0s",
            "40"
        ],
        [
            "228%",
            "12.0s",
            "40"
        ],
        [
            "242%",
            "12.0s",
            "40"
        ],
        [
            "256%",
            "12.0s",
            "40"
        ],
        [
            "271%",
            "12.0s",
            "40"
        ],
        [
            "285%",
            "12.0s",
            "40"
        ],
        [
            "303%",
            "12.0s",
            "40"
        ],
        [
            "320%",
            "12.0s",
            "40"
        ],
        [
            "338%",
            "12.0s",
            "40"
        ]
    ],
    "10000037": [
        [
            "Ice Shard DMG",
            "Duration",
            "CD",
            "Energy Cost"
        ],
        [
            "70%",
            "15.0s",
            "20.0s",
            "80"
        ],
        [
            "76%",
            "15.0s",
            "20.0s",
            "80"
        ],
        [
            "81%",
            "15.0s",
            "20.0s",
            "80"
        ],
        [
            "88%",
            "15.0s",
            "20.0s",
            "80"
        ],
        [
            "93%",
            "15.0s",
            "20.0s",
            "80"
        ],
        [
            "98%",
            "15.0s",
            "20.0s",
            "80"
        ],
        [
            "105%",
            "15.0s",
            "20.0s",
            "80"
        ],
        [
            "112%",
            "15.0s",
            "20.0s",
            "80"
        ],
        [
            "119%",
            "15.0s",
            "20.0s",
            "80"
        ],
        [
            "126%",
            "15.0s",
            "20.0s",
            "80"
        ],
        [
            "134%",
            "15.0s",
            "20.0s",
            "80"
        ],
        [
            "141%",
            "15.0s",
            "20.0s",
            "80"
        ],
        [
            "149%",
            "15.0s",
            "20.0s",
            "80"
        ],
        [
            "158%",
            "15.0s",
            "20.0s",
            "80"
        ],
        [
            "167%",
            "15.0s",
            "20.0s",
            "80"
        ]
    ],
    "10000038": [
        [
            "Elemental Burst DMG",
            "Fatal Blossom DMG",
            "CD",
            "Energy Cost"
        ],
        [
            "367%",
            "72.0% each",
            "12.0s",
            "40"
        ],
        [
            "395%",
            "77.4% each",
            "12.0s",
            "40"
        ],
        [
            "422%",
            "82.8% each",
            "12.0s",
            "40"
        ],
        [
            "459%",
            "90.0% each",
            "12.0s",
            "40"
        ],
        [
            "487%",
            "95.4% each",
            "12.0s",
            "40"
        ],
        [
            "514%",
            "100.8% each",
            "12.0s",
            "40"
        ],
        [
            "551%",
            "108.0% each",
            "12.0s",
            "40"
        ],
        [
            "588%",
            "115.2% each",
            "12.0s",
            "40"
        ],
        [
            "624%",
            "122.4% each",
            "12.0s",
            "40"
        ],
        [
            "661%",
            "129.6% each",
            "12.0s",
            "40"
        ],
        [
            "698%",
            "136.8% each",
            "12.0s",
            "40"
        ],
        [
            "734%",
            "144.0% each",
            "12.0s",
            "40"
        ],
        [
            "780%",
            "153.0% each",
            "12.0s",
            "40"
        ],
        [
            "826%",
            "162.0% each",
            "12.0s",
            "40"
        ],
        [
            "872%",
            "171.0% each",
            "12.0s",
            "40"
        ]
    ],
    "10000039": [
        [
            "Skill DMG",
            "Continuous Field DMG",
            "HP Regeneration Over Time",
            "Duration",
            "CD",
            "Energy Cost"
        ],
        [
            "80%",
            "52.6%",
            "5.34% Max HP+513",
            "12.0s",
            "20.0s",
            "80"
        ],
        [
            "86%",
            "56.6%",
            "5.74% Max HP+565",
            "12.0s",
            "20.0s",
            "80"
        ],
        [
            "92%",
            "60.5%",
            "6.14% Max HP+620",
            "12.0s",
            "20.0s",
            "80"
        ],
        [
            "100%",
            "65.8%",
            "6.67% Max HP+680",
            "12.0s",
            "20.0s",
            "80"
        ],
        [
            "106%",
            "69.7%",
            "7.07% Max HP+744",
            "12.0s",
            "20.0s",
            "80"
        ],
        [
            "112%",
            "73.7%",
            "7.47% Max HP+813",
            "12.0s",
            "20.0s",
            "80"
        ],
        [
            "120%",
            "79.0%",
            "8.0% Max HP+885",
            "12.0s",
            "20.0s",
            "80"
        ],
        [
            "128%",
            "84.2%",
            "8.54% Max HP+962",
            "12.0s",
            "20.0s",
            "80"
        ],
        [
            "136%",
            "89.5%",
            "9.07% Max HP+1044",
            "12.0s",
            "20.0s",
            "80"
        ],
        [
            "144%",
            "94.8%",
            "9.6% Max HP+1129",
            "12.0s",
            "20.0s",
            "80"
        ],
        [
            "152%",
            "100.0%",
            "10.14% Max HP+1219",
            "12.0s",
            "20.0s",
            "80"
        ],
        [
            "160%",
            "105.3%",
            "10.67% Max HP+1313",
            "12.0s",
            "20.0s",
            "80"
        ],
        [
            "170%",
            "111.9%",
            "11.34% Max HP+1411",
            "12.0s",
            "20.0s",
            "80"
        ],
        [
            "180%",
            "118.4%",
            "12.01% Max HP+1514",
            "12.0s",
            "20.0s",
            "80"
        ],
        [
            "190%",
            "125.0%",
            "12.67% Max HP+1621",
            "12.0s",
            "20.0s",
            "80"
        ]
    ],
    "10000041": [
        [
            "Illusory Bubble Duration",
            "Illusory Bubble Explosion DMG",
            "DMG Bonus",
            "Omen Duration",
            "CD",
            "Energy Cost"
        ],
        [
            "8.0s",
            "442%",
            "800%",
            "4.0s",
            "15.0s",
            "60"
        ],
        [
            "8.0s",
            "476%",
            "800%",
            "4.0s",
            "15.0s",
            "60"
        ],
        [
            "8.0s",
            "509%",
            "800%",
            "4.0s",
            "15.0s",
            "60"
        ],
        [
            "8.0s",
            "553%",
            "800%",
            "4.5s",
            "15.0s",
            "60"
        ],
        [
            "8.0s",
            "586%",
            "800%",
            "4.5s",
            "15.0s",
            "60"
        ],
        [
            "8.0s",
            "619%",
            "800%",
            "4.5s",
            "15.0s",
            "60"
        ],
        [
            "8.0s",
            "664%",
            "800%",
            "5.0s",
            "15.0s",
            "60"
        ],
        [
            "8.0s",
            "708%",
            "800%",
            "5.0s",
            "15.0s",
            "60"
        ],
        [
            "8.0s",
            "752%",
            "800%",
            "5.0s",
            "15.0s",
            "60"
        ],
        [
            "8.0s",
            "796%",
            "800%",
            "5.0s",
            "15.0s",
            "60"
        ],
        [
            "8.0s",
            "841%",
            "800%",
            "5.0s",
            "15.0s",
            "60"
        ],
        [
            "8.0s",
            "885%",
            "800%",
            "5.0s",
            "15.0s",
            "60"
        ],
        [
            "8.0s",
            "940%",
            "800%",
            "5.0s",
            "15.0s",
            "60"
        ],
        [
            "8.0s",
            "995%",
            "800%",
            "5.0s",
            "15.0s",
            "60"
        ],
        [
            "8.0s",
            "1051%",
            "800%",
            "5.0s",
            "15.0s",
            "60"
        ]
    ],
    "10000042": [
        [
            "Skill DMG",
            "Consecutive Slash DMG",
            "Last Attack DMG",
            "CD",
            "Energy Cost"
        ],
        [
            "88.0%",
            "24.0%*8",
            "189%",
            "12.0s",
            "40"
        ],
        [
            "94.6%",
            "25.8%*8",
            "203%",
            "12.0s",
            "40"
        ],
        [
            "101%",
            "27.6%*8",
            "217%",
            "12.0s",
            "40"
        ],
        [
            "110%",
            "30.0%*8",
            "236%",
            "12.0s",
            "40"
        ],
        [
            "117%",
            "31.8%*8",
            "250%",
            "12.0s",
            "40"
        ],
        [
            "123%",
            "33.6%*8",
            "264%",
            "12.0s",
            "40"
        ],
        [
            "132%",
            "36.0%*8",
            "283%",
            "12.0s",
            "40"
        ],
        [
            "141%",
            "38.4%*8",
            "302%",
            "12.0s",
            "40"
        ],
        [
            "150%",
            "40.8%*8",
            "321%",
            "12.0s",
            "40"
        ],
        [
            "158%",
            "43.2%*8",
            "340%",
            "12.0s",
            "40"
        ],
        [
            "167%",
            "45.6%*8",
            "359%",
            "12.0s",
            "40"
        ],
        [
            "176%",
            "48.0%*8",
            "378%",
            "12.0s",
            "40"
        ],
        [
            "187%",
            "51.0%*8",
            "401%",
            "12.0s",
            "40"
        ],
        [
            "198%",
            "54.0%*8",
            "425%",
            "12.0s",
            "40"
        ],
        [
            "209%",
            "57.0%*8",
            "448%",
            "12.0s",
            "40"
        ]
    ],
    "10000043": [
        [
            "DoT",
            "Additional Elemental DMG",
            "Duration",
            "CD",
            "Energy Cost"
        ],
        [
            "148%",
            "44.0%",
            "6.0s",
            "20.0s",
            "80"
        ],
        [
            "159%",
            "47.3%",
            "6.0s",
            "20.0s",
            "80"
        ],
        [
            "170%",
            "50.6%",
            "6.0s",
            "20.0s",
            "80"
        ],
        [
            "185%",
            "55.0%",
            "6.0s",
            "20.0s",
            "80"
        ],
        [
            "196%",
            "58.3%",
            "6.0s",
            "20.0s",
            "80"
        ],
        [
            "207%",
            "61.6%",
            "6.0s",
            "20.0s",
            "80"
        ],
        [
            "222%",
            "66.0%",
            "6.0s",
            "20.0s",
            "80"
        ],
        [
            "237%",
            "70.4%",
            "6.0s",
            "20.0s",
            "80"
        ],
        [
            "252%",
            "74.8%",
            "6.0s",
            "20.0s",
            "80"
        ],
        [
            "266%",
            "79.2%",
            "6.0s",
            "20.0s",
            "80"
        ],
        [
            "281%",
            "83.6%",
            "6.0s",
            "20.0s",
            "80"
        ],
        [
            "296%",
            "88.0%",
            "6.0s",
            "20.0s",
            "80"
        ],
        [
            "314%",
            "93.5%",
            "6.0s",
            "20.0s",
            "80"
        ],
        [
            "333%",
            "99.0%",
            "6.0s",
            "20.0s",
            "80"
        ],
        [
            "352%",
            "104%",
            "6.0s",
            "20.0s",
            "80"
        ]
    ],
    "10000044": [
        [
            "Skill DMG",
            "Pyro DoT",
            "Duration",
            "CD",
            "Energy Cost"
        ],
        [
            "341%",
            "40%",
            "2.0s",
            "15.0s",
            "60"
        ],
        [
            "366%",
            "43%",
            "2.0s",
            "15.0s",
            "60"
        ],
        [
            "392%",
            "46%",
            "2.0s",
            "15.0s",
            "60"
        ],
        [
            "426%",
            "50%",
            "2.0s",
            "15.0s",
            "60"
        ],
        [
            "452%",
            "53%",
            "2.0s",
            "15.0s",
            "60"
        ],
        [
            "477%",
            "56%",
            "2.0s",
            "15.0s",
            "60"
        ],
        [
            "511%",
            "60%",
            "2.0s",
            "15.0s",
            "60"
        ],
        [
            "545%",
            "64%",
            "2.0s",
            "15.0s",
            "60"
        ],
        [
            "579%",
            "68%",
            "2.0s",
            "15.0s",
            "60"
        ],
        [
            "613%",
            "72%",
            "2.0s",
            "15.0s",
            "60"
        ],
        [
            "648%",
            "76%",
            "2.0s",
            "15.0s",
            "60"
        ],
        [
            "682%",
            "80%",
            "2.0s",
            "15.0s",
            "60"
        ],
        [
            "724%",
            "85%",
            "2.0s",
            "15.0s",
            "60"
        ],
        [
            "767%",
            "90%",
            "2.0s",
            "15.0s",
            "60"
        ],
        [
            "809%",
            "95%",
            "2.0s",
            "15.0s",
            "60"
        ]
    ],
    "10000045": [
        [],
        [],
        [],
        [],
        [],
        [],
        [],
        [],
        [],
        [],
        [],
        [],
        [],
        [],
        [],
        []
    ],
    "10000046": [],
    "10000047": [],
    "10000048": [
        [
            "Skill DMG",
            "Additional Charged Attack DMG Bonus",
            "Duration",
            "Replenish SPD",
            "CD",
            "Energy Cost"
        ],
        [
            "104%",
            "40%",
            "15.0s",
            "1.0s",
            "20.0s",
            "60"
        ],
        [
            "112%",
            "43%",
            "15.0s",
            "1.0s",
            "20.0s",
            "60"
        ],
        [
            "120%",
            "46%",
            "15.0s",
            "1.0s",
            "20.0s",
            "60"
        ],
        [
            "130%",
            "50%",
            "15.0s",
            "1.0s",
            "20.0s",
            "60"
        ],
        [
            "138%",
            "53%",
            "15.0s",
            "1.0s",
            "20.0s",
            "60"
        ],
        [
            "146%",
            "56%",
            "15.0s",
            "1.0s",
            "20.0s",
            "60"
        ],
        [
            "156%",
            "60%",
            "15.0s",
            "1.0s",
            "20.0s",
            "60"
        ],
        [
            "166%",
            "64%",
            "15.0s",
            "1.0s",
            "20.0s",
            "60"
        ],
        [
            "177%",
            "68%",
            "15.0s",
            "1.0s",
            "20.0s",
            "60"
        ],
        [
            "187%",
            "72%",
            "15.0s",
            "1.0s",
            "20.0s",
            "60"
        ],
        [
            "198%",
            "76%",
            "15.0s",
            "1.0s",
            "20.0s",
            "60"
        ],
        [
            "208%",
            "80%",
            "15.0s",
            "1.0s",
            "20.0s",
            "60"
        ],
        [
            "221%",
            "85%",
            "15.0s",
            "1.0s",
            "20.0s",
            "60"
        ],
        [
            "234%",
            "90%",
            "15.0s",
            "1.0s",
            "20.0s",
            "60"
        ],
        [
            "247%",
            "95%",
            "15.0s",
            "1.0s",
            "20.0s",
            "60"
        ]
    ],
    "10000049": [],
    "10000050": [],
    "11000008": [],
    "11000009": [],
    "11000010": [],
    "11000011": [],
    "11000013": [],
    "11000017": [
        [
            "Skill DMG",
            "CD",
            "Duration",
            "Energy Cost"
        ],
        [
            "77.6%",
            "15.0s",
            "8.0s",
            "60"
        ],
        [
            "83.4%",
            "15.0s",
            "8.0s",
            "60"
        ],
        [
            "89.2%",
            "15.0s",
            "8.0s",
            "60"
        ],
        [
            "97.0%",
            "15.0s",
            "8.0s",
            "60"
        ],
        [
            "103%",
            "15.0s",
            "8.0s",
            "60"
        ],
        [
            "109%",
            "15.0s",
            "8.0s",
            "60"
        ],
        [
            "116%",
            "15.0s",
            "8.0s",
            "60"
        ],
        [
            "124%",
            "15.0s",
            "8.0s",
            "60"
        ],
        [
            "132%",
            "15.0s",
            "8.0s",
            "60"
        ],
        [
            "140%",
            "15.0s",
            "8.0s",
            "60"
        ],
        [
            "147%",
            "15.0s",
            "8.0s",
            "60"
        ],
        [
            "155%",
            "15.0s",
            "8.0s",
            "60"
        ],
        [
            "165%",
            "15.0s",
            "8.0s",
            "60"
        ],
        [
            "175%",
            "15.0s",
            "8.0s",
            "60"
        ],
        [
            "184%",
            "15.0s",
            "8.0s",
            "60"
        ]
    ],
    "11000018": [
        [
            "Skill DMG",
            "CD",
            "Duration",
            "Energy Cost"
        ],
        [
            "77.6%",
            "15.0s",
            "8.0s",
            "60"
        ],
        [
            "83.4%",
            "15.0s",
            "8.0s",
            "60"
        ],
        [
            "89.2%",
            "15.0s",
            "8.0s",
            "60"
        ],
        [
            "97.0%",
            "15.0s",
            "8.0s",
            "60"
        ],
        [
            "103%",
            "15.0s",
            "8.0s",
            "60"
        ],
        [
            "109%",
            "15.0s",
            "8.0s",
            "60"
        ],
        [
            "116%",
            "15.0s",
            "8.0s",
            "60"
        ],
        [
            "124%",
            "15.0s",
            "8.0s",
            "60"
        ],
        [
            "132%",
            "15.0s",
            "8.0s",
            "60"
        ],
        [
            "140%",
            "15.0s",
            "8.0s",
            "60"
        ],
        [
            "147%",
            "15.0s",
            "8.0s",
            "60"
        ],
        [
            "155%",
            "15.0s",
            "8.0s",
            "60"
        ],
        [
            "165%",
            "15.0s",
            "8.0s",
            "60"
        ],
        [
            "175%",
            "15.0s",
            "8.0s",
            "60"
        ],
        [
            "184%",
            "15.0s",
            "8.0s",
            "60"
        ]
    ],
    "11000019": [
        [
            "Skill DMG",
            "CD",
            "Duration",
            "Energy Cost"
        ],
        [
            "77.6%",
            "15.0s",
            "8.0s",
            "60"
        ],
        [
            "83.4%",
            "15.0s",
            "8.0s",
            "60"
        ],
        [
            "89.2%",
            "15.0s",
            "8.0s",
            "60"
        ],
        [
            "97.0%",
            "15.0s",
            "8.0s",
            "60"
        ],
        [
            "103%",
            "15.0s",
            "8.0s",
            "60"
        ],
        [
            "109%",
            "15.0s",
            "8.0s",
            "60"
        ],
        [
            "116%",
            "15.0s",
            "8.0s",
            "60"
        ],
        [
            "124%",
            "15.0s",
            "8.0s",
            "60"
        ],
        [
            "132%",
            "15.0s",
            "8.0s",
            "60"
        ],
        [
            "140%",
            "15.0s",
            "8.0s",
            "60"
        ],
        [
            "147%",
            "15.0s",
            "8.0s",
            "60"
        ],
        [
            "155%",
            "15.0s",
            "8.0s",
            "60"
        ],
        [
            "165%",
            "15.0s",
            "8.0s",
            "60"
        ],
        [
            "175%",
            "15.0s",
            "8.0s",
            "60"
        ],
        [
            "184%",
            "15.0s",
            "8.0s",
            "60"
        ]
    ],
    "11000025": [],
    "11000026": [
        [
            "Skill DMG",
            "CD",
            "Duration",
            "Energy Cost"
        ],
        [
            "77.6%",
            "15.0s",
            "8.0s",
            "60"
        ],
        [
            "83.4%",
            "15.0s",
            "8.0s",
            "60"
        ],
        [
            "89.2%",
            "15.0s",
            "8.0s",
            "60"
        ],
        [
            "97.0%",
            "15.0s",
            "8.0s",
            "60"
        ],
        [
            "103%",
            "15.0s",
            "8.0s",
            "60"
        ],
        [
            "109%",
            "15.0s",
            "8.0s",
            "60"
        ],
        [
            "116%",
            "15.0s",
            "8.0s",
            "60"
        ],
        [
            "124%",
            "15.0s",
            "8.0s",
            "60"
        ],
        [
            "132%",
            "15.0s",
            "8.0s",
            "60"
        ],
        [
            "140%",
            "15.0s",
            "8.0s",
            "60"
        ],
        [
            "147%",
            "15.0s",
            "8.0s",
            "60"
        ],
        [
            "155%",
            "15.0s",
            "8.0s",
            "60"
        ],
        [
            "165%",
            "15.0s",
            "8.0s",
            "60"
        ],
        [
            "175%",
            "15.0s",
            "8.0s",
            "60"
        ],
        [
            "184%",
            "15.0s",
            "8.0s",
            "60"
        ]
    ],
    "11000027": [],
    "11000028": [],
    "11000030": [],
    "11000031": [],
    "11000032": [],
    "11000033": [],
    "11000034": [],
    "11000035": [],
    "11000036": [],
    "11000037": [],
    "11000038": [],
    "11000039": [],
    "11000040": [],
    "11000041": [],
    "11000042": [],
    "11000043": [
        [
            "Skill DMG",
            "CD",
            "Duration",
            "Energy Cost"
        ],
        [
            "77.6%",
            "15.0s",
            "8.0s",
            "60"
        ],
        [
            "83.4%",
            "15.0s",
            "8.0s",
            "60"
        ],
        [
            "89.2%",
            "15.0s",
            "8.0s",
            "60"
        ],
        [
            "97.0%",
            "15.0s",
            "8.0s",
            "60"
        ],
        [
            "103%",
            "15.0s",
            "8.0s",
            "60"
        ],
        [
            "109%",
            "15.0s",
            "8.0s",
            "60"
        ],
        [
            "116%",
            "15.0s",
            "8.0s",
            "60"
        ],
        [
            "124%",
            "15.0s",
            "8.0s",
            "60"
        ],
        [
            "132%",
            "15.0s",
            "8.0s",
            "60"
        ],
        [
            "140%",
            "15.0s",
            "8.0s",
            "60"
        ],
        [
            "147%",
            "15.0s",
            "8.0s",
            "60"
        ],
        [
            "155%",
            "15.0s",
            "8.0s",
            "60"
        ],
        [
            "165%",
            "15.0s",
            "8.0s",
            "60"
        ],
        [
            "175%",
            "15.0s",
            "8.0s",
            "60"
        ],
        [
            "184%",
            "15.0s",
            "8.0s",
            "60"
        ]
    ],
    "11000044": [
        [
            "Skill DMG",
            "CD",
            "Duration",
            "Energy Cost"
        ],
        [
            "77.6%",
            "15.0s",
            "8.0s",
            "60"
        ],
        [
            "83.4%",
            "15.0s",
            "8.0s",
            "60"
        ],
        [
            "89.2%",
            "15.0s",
            "8.0s",
            "60"
        ],
        [
            "97.0%",
            "15.0s",
            "8.0s",
            "60"
        ],
        [
            "103%",
            "15.0s",
            "8.0s",
            "60"
        ],
        [
            "109%",
            "15.0s",
            "8.0s",
            "60"
        ],
        [
            "116%",
            "15.0s",
            "8.0s",
            "60"
        ],
        [
            "124%",
            "15.0s",
            "8.0s",
            "60"
        ],
        [
            "132%",
            "15.0s",
            "8.0s",
            "60"
        ],
        [
            "140%",
            "15.0s",
            "8.0s",
            "60"
        ],
        [
            "147%",
            "15.0s",
            "8.0s",
            "60"
        ],
        [
            "155%",
            "15.0s",
            "8.0s",
            "60"
        ],
        [
            "165%",
            "15.0s",
            "8.0s",
            "60"
        ],
        [
            "175%",
            "15.0s",
            "8.0s",
            "60"
        ],
        [
            "184%",
            "15.0s",
            "8.0s",
            "60"
        ]
    ],
    "11000045": [
        [
            "Skill DMG",
            "CD",
            "Duration",
            "Energy Cost"
        ],
        [
            "77.6%",
            "15.0s",
            "8.0s",
            "60"
        ],
        [
            "83.4%",
            "15.0s",
            "8.0s",
            "60"
        ],
        [
            "89.2%",
            "15.0s",
            "8.0s",
            "60"
        ],
        [
            "97.0%",
            "15.0s",
            "8.0s",
            "60"
        ],
        [
            "103%",
            "15.0s",
            "8.0s",
            "60"
        ],
        [
            "109%",
            "15.0s",
            "8.0s",
            "60"
        ],
        [
            "116%",
            "15.0s",
            "8.0s",
            "60"
        ],
        [
            "124%",
            "15.0s",
            "8.0s",
            "60"
        ],
        [
            "132%",
            "15.0s",
            "8.0s",
            "60"
        ],
        [
            "140%",
            "15.0s",
            "8.0s",
            "60"
        ],
        [
            "147%",
            "15.0s",
            "8.0s",
            "60"
        ],
        [
            "155%",
            "15.0s",
            "8.0s",
            "60"
        ],
        [
            "165%",
            "15.0s",
            "8.0s",
            "60"
        ],
        [
            "175%",
            "15.0s",
            "8.0s",
            "60"
        ],
        [
            "184%",
            "15.0s",
            "8.0s",
            "60"
        ]
    ]
}