{
    "10000001": [],
    "10000002": [
        [],
        [],
        [],
        [],
        [],
        [],
        [],
        [],
        [],
        [],
        [],
        [],
        [],
        [],
        [],
        []
    ],
    "10000003": [
        [
            "Skill DMG",
            "Stamina Consumption",
            "Max Duration",
            "CD"
        ],
        [
            "292%",
            "20.0 Per Second",
            "5.0s",
            "6.0s"
        ],
        [
            "314%",
            "20.0 Per Second",
            "5.0s",
            "6.0s"
        ],
        [
            "336%",
            "20.0 Per Second",
            "5.0s",
            "6.0s"
        ],
        [
            "365%",
            "20.0 Per Second",
            "5.0s",
            "6.0s"
        ],
        [
            "387%",
            "20.0 Per Second",
            "5.0s",
            "6.0s"
        ],
        [
            "409%",
            "20.0 Per Second",
            "5.0s",
            "6.0s"
        ],
        [
            "438%",
            "20.0 Per Second",
            "5.0s",
            "6.0s"
        ],
        [
            "467%",
            "20.0 Per Second",
            "5.0s",
            "6.0s"
        ],
        [
            "496%",
            "20.0 Per Second",
            "5.0s",
            "6.0s"
        ],
        [
            "526%",
            "20.0 Per Second",
            "5.0s",
            "6.0s"
        ],
        [
            "555%",
            "20.0 Per Second",
            "5.0s",
            "6.0s"
        ],
        [
            "584%",
            "20.0 Per Second",
            "5.0s",
            "6.0s"
        ],
        [
            "620%",
            "20.0 Per Second",
            "5.0s",
            "6.0s"
        ],
        [
            "657%",
            "20.0 Per Second",
            "5.0s",
            "6.0s"
        ],
        [
            "693%",
            "20.0 Per Second",
            "5.0s",
            "6.0s"
        ]
    ],
    "10000005": [],
    "10000006": [
        [
            "Tap DMG",
            "Tap CD",
            "Non-Conductive Hold DMG",
            "Stack 1 Conductive Hold DMG",
            "Stack 2 Conductive Hold DMG",
            "Stack 3 Conductive Hold DMG",
            "Holding CD"
        ],
        [
            "80.0%",
            "1.0s",
            "320%",
            "368%",
            "424%",
            "487%",
            "16.0s"
        ],
        [
            "86.0%",
            "1.0s",
            "344%",
            "396%",
            "456%",
            "524%",
            "16.0s"
        ],
        [
            "92.0%",
            "1.0s",
            "368%",
            "423%",
            "488%",
            "560%",
            "16.0s"
        ],
        [
            "100%",
            "1.0s",
            "400%",
            "460%",
            "530%",
            "609%",
            "16.0s"
        ],
        [
            "106%",
            "1.0s",
            "424%",
            "488%",
            "562%",
            "646%",
            "16.0s"
        ],
        [
            "112%",
            "1.0s",
            "448%",
            "515%",
            "594%",
            "682%",
            "16.0s"
        ],
        [
            "120%",
            "1.0s",
            "480%",
            "552%",
            "636%",
            "731%",
            "16.0s"
        ],
        [
            "128%",
            "1.0s",
            "512%",
            "589%",
            "678%",
            "780%",
            "16.0s"
        ],
        [
            "136%",
            "1.0s",
            "544%",
            "626%",
            "721%",
            "828%",
            "16.0s"
        ],
        [
            "144%",
            "1.0s",
            "576%",
            "662%",
            "763%",
            "877%",
            "16.0s"
        ],
        [
            "152%",
            "1.0s",
            "608%",
            "699%",
            "806%",
            "926%",
            "16.0s"
        ],
        [
            "160%",
            "1.0s",
            "640%",
            "736%",
            "848%",
            "974%",
            "16.0s"
        ],
        [
            "170%",
            "1.0s",
            "680%",
            "782%",
            "901%",
            "1035%",
            "16.0s"
        ],
        [
            "180%",
            "1.0s",
            "720%",
            "828%",
            "954%",
            "1096%",
            "16.0s"
        ],
        [
            "190%",
            "1.0s",
            "760%",
            "874%",
            "1007%",
            "1157%",
            "16.0s"
        ]
    ],
    "10000007": [],
    "10000014": [
        [
            "HP Regeneration Per Hit",
            "Continuous Regeneration",
            "Droplet DMG",
            "Duration",
            "CD"
        ],
        [
            "0.75% Max HP+72",
            "4.0% Max HP+385",
            "58.4%",
            "15.0s",
            "32.0s"
        ],
        [
            "0.81% Max HP+79",
            "4.3% Max HP+424",
            "62.8%",
            "15.0s",
            "32.0s"
        ],
        [
            "0.86% Max HP+87",
            "4.6% Max HP+465",
            "67.2%",
            "15.0s",
            "32.0s"
        ],
        [
            "0.94% Max HP+96",
            "5.0% Max HP+510",
            "73.0%",
            "15.0s",
            "32.0s"
        ],
        [
            "0.99% Max HP+105",
            "5.3% Max HP+559",
            "77.4%",
            "15.0s",
            "32.0s"
        ],
        [
            "1.05% Max HP+114",
            "5.6% Max HP+610",
            "81.8%",
            "15.0s",
            "32.0s"
        ],
        [
            "1.13% Max HP+125",
            "6.0% Max HP+664",
            "87.6%",
            "15.0s",
            "32.0s"
        ],
        [
            "1.2% Max HP+135",
            "6.4% Max HP+722",
            "93.4%",
            "15.0s",
            "32.0s"
        ],
        [
            "1.27% Max HP+147",
            "6.8% Max HP+783",
            "99.3%",
            "15.0s",
            "32.0s"
        ],
        [
            "1.35% Max HP+159",
            "7.2% Max HP+847",
            "105%",
            "15.0s",
            "32.0s"
        ],
        [
            "1.43% Max HP+172",
            "7.6% Max HP+915",
            "111%",
            "15.0s",
            "32.0s"
        ],
        [
            "1.5% Max HP+185",
            "8.0% Max HP+986",
            "117%",
            "15.0s",
            "32.0s"
        ],
        [
            "1.59% Max HP+199",
            "8.5% Max HP+1059",
            "124%",
            "15.0s",
            "32.0s"
        ],
        [
            "1.69% Max HP+213",
            "9.0% Max HP+1136",
            "131%",
            "15.0s",
            "32.0s"
        ],
        [
            "1.78% Max HP+228",
            "9.5% Max HP+1217",
            "139%",
            "15.0s",
            "32.0s"
        ]
    ],
    "10000015": [
        [
            "Skill DMG",
            "CD"
        ],
        [
            "191%",
            "6.0s"
        ],
        [
            "206%",
            "6.0s"
        ],
        [
            "220%",
            "6.0s"
        ],
        [
            "239%",
            "6.0s"
        ],
        [
            "253%",
            "6.0s"
        ],
        [
            "268%",
            "6.0s"
        ],
        [
            "287%",
            "6.0s"
        ],
        [
            "306%",
            "6.0s"
        ],
        [
            "325%",
            "6.0s"
        ],
        [
            "344%",
            "6.0s"
        ],
        [
            "363%",
            "6.0s"
        ],
        [
            "382%",
            "6.0s"
        ],
        [
            "406%",
            "6.0s"
        ],
        [
            "430%",
            "6.0s"
        ],
        [
            "454%",
            "6.0s"
        ]
    ],
    "10000016": [
        [
            "1-hit DMG",
            "2-Hit DMG",
            "3-hit DMG",
            "CD"
        ],
        [
            "94.4%",
            "97.6%",
            "129%",
            "10.0s"
        ],
        [
            "101%",
            "105%",
            "138%",
            "10.0s"
        ],
        [
            "109%",
            "112%",
            "148%",
            "10.0s"
        ],
        [
            "118%",
            "122%",
            "161%",
            "10.0s"
        ],
        [
            "125%",
            "129%",
            "171%",
            "10.0s"
        ],
        [
            "132%",
            "137%",
            "180%",
            "10.0s"
        ],
        [
            "142%",
            "146%",
            "193%",
            "10.0s"
        ],
        [
            "151%",
            "156%",
            "206%",
            "10.0s"
        ],
        [
            "160%",
            "166%",
            "219%",
            "10.0s"
        ],
        [
            "170%",
            "176%",
            "232%",
            "10.0s"
        ],
        [
            "179%",
            "185%",
            "245%",
            "10.0s"
        ],
        [
            "189%",
            "195%",
            "258%",
            "10.0s"
        ],
        [
            "201%",
            "207%",
            "274%",
            "10.0s"
        ],
        [
            "212%",
            "220%",
            "290%",
            "10.0s"
        ],
        [
            "224%",
            "232%",
            "306%",
            "10.0s"
        ]
    ],
    "10000020": [
        [
            "Tap Skill DMG",
            "Hold Skill DMG",
            "Energy Recharge Bonus",
            "Energy Regenerated",
            "Electro Sigil duration",
            "Tap CD",
            "CD (hold)"
        ],
        [
            "199%",
            "295%",
            "20% per Electro Sigil",
            "5.0 per Electro Sigil Absorbed",
            "18.0s",
            "6.0s",
            "10.0s"
        ],
        [
            "214%",
            "317%",
            "20% per Electro Sigil",
            "5.0 per Electro Sigil Absorbed",
            "18.0s",
            "6.0s",
            "10.0s"
        ],
        [
            "229%",
            "339%",
            "20% per Electro Sigil",
            "5.0 per Electro Sigil Absorbed",
            "18.0s",
            "6.0s",
            "10.0s"
        ],
        [
            "249%",
            "369%",
            "20% per Electro Sigil",
            "5.0 per Electro Sigil Absorbed",
            "18.0s",
            "6.0s",
            "10.0s"
        ],
        [
            "264%",
            "391%",
            "20% per Electro Sigil",
            "5.0 per Electro Sigil Absorbed",
            "18.0s",
            "6.0s",
            "10.0s"
        ],
        [
            "279%",
            "413%",
            "20% per Electro Sigil",
            "5.0 per Electro Sigil Absorbed",
            "18.0s",
            "6.0s",
            "10.0s"
        ],
        [
            "299%",
            "443%",
            "20% per Electro Sigil",
            "5.0 per Electro Sigil Absorbed",
            "18.0s",
            "6.0s",
            "10.0s"
        ],
        [
            "319%",
            "472%",
            "20% per Electro Sigil",
            "5.0 per Electro Sigil Absorbed",
            "18.0s",
            "6.0s",
            "10.0s"
        ],
        [
            "339%",
            "502%",
            "20% per Electro Sigil",
            "5.0 per Electro Sigil Absorbed",
            "18.0s",
            "6.0s",
            "10.0s"
        ],
        [
            "359%",
            "531%",
            "20% per Electro Sigil",
            "5.0 per Electro Sigil Absorbed",
            "18.0s",
            "6.0s",
            "10.0s"
        ],
        [
            "378%",
            "561%",
            "20% per Electro Sigil",
            "5.0 per Electro Sigil Absorbed",
            "18.0s",
            "6.0s",
            "10.0s"
        ],
        [
            "398%",
            "590%",
            "20% per Electro Sigil",
            "5.0 per Electro Sigil Absorbed",
            "18.0s",
            "6.0s",
            "10.0s"
        ],
        [
            "423%",
            "627%",
            "20% per Electro Sigil",
            "5.0 per Electro Sigil Absorbed",
            "18.0s",
            "6.0s",
            "10.0s"
        ],
        [
            "448%",
            "664%",
            "20% per Electro Sigil",
            "5.0 per Electro Sigil Absorbed",
            "18.0s",
            "6.0s",
            "10.0s"
        ],
        [
            "473%",
            "701%",
            "20% per Electro Sigil",
            "5.0 per Electro Sigil Absorbed",
            "18.0s",
            "6.0s",
            "10.0s"
        ]
    ],
    "10000021": [
        [
            "Inherited HP",
            "Explosion DMG",
            "CD"
        ],
        [
            "41.4%",
            "123%",
            "15.0s"
        ],
        [
            "44.5%",
            "132%",
            "15.0s"
        ],
        [
            "47.6%",
            "142%",
            "15.0s"
        ],
        [
            "51.7%",
            "154%",
            "15.0s"
        ],
        [
            "54.8%",
            "163%",
            "15.0s"
        ],
        [
            "57.9%",
            "172%",
            "15.0s"
        ],
        [
            "62.0%",
            "185%",
            "15.0s"
        ],
        [
            "66.2%",
            "197%",
            "15.0s"
        ],
        [
            "70.3%",
            "209%",
            "15.0s"
        ],
        [
            "74.4%",
            "222%",
            "15.0s"
        ],
        [
            "78.6%",
            "234%",
            "15.0s"
        ],
        [
            "82.7%",
            "246%",
            "15.0s"
        ],
        [
            "87.9%",
            "262%",
            "15.0s"
        ],
        [
            "93.1%",
            "277%",
            "15.0s"
        ],
        [
            "98.2%",
            "293%",
            "15.0s"
        ]
    ],
    "10000022": [
        [
            "Tap DMG",
            "Tap CD",
            "Hold DMG",
            "CD (hold)"
        ],
        [
            "276%",
            "6.0s",
            "380%",
            "15.0s"
        ],
        [
            "297%",
            "6.0s",
            "409%",
            "15.0s"
        ],
        [
            "317%",
            "6.0s",
            "437%",
            "15.0s"
        ],
        [
            "345%",
            "6.0s",
            "475%",
            "15.0s"
        ],
        [
            "366%",
            "6.0s",
            "503%",
            "15.0s"
        ],
        [
            "386%",
            "6.0s",
            "532%",
            "15.0s"
        ],
        [
            "414%",
            "6.0s",
            "570%",
            "15.0s"
        ],
        [
            "442%",
            "6.0s",
            "608%",
            "15.0s"
        ],
        [
            "469%",
            "6.0s",
            "646%",
            "15.0s"
        ],
        [
            "497%",
            "6.0s",
            "684%",
            "15.0s"
        ],
        [
            "524%",
            "6.0s",
            "722%",
            "15.0s"
        ],
        [
            "552%",
            "6.0s",
            "760%",
            "15.0s"
        ],
        [
            "586%",
            "6.0s",
            "807%",
            "15.0s"
        ],
        [
            "621%",
            "6.0s",
            "855%",
            "15.0s"
        ],
        [
            "655%",
            "6.0s",
            "902%",
            "15.0s"
        ]
    ],
    "10000023": [
        [
            "Flame DMG",
            "CD"
        ],
        [
            "111%",
            "12.0s"
        ],
        [
            "120%",
            "12.0s"
        ],
        [
            "128%",
            "12.0s"
        ],
        [
            "139%",
            "12.0s"
        ],
        [
            "147%",
            "12.0s"
        ],
        [
            "156%",
            "12.0s"
        ],
        [
            "167%",
            "12.0s"
        ],
        [
            "178%",
            "12.0s"
        ],
        [
            "189%",
            "12.0s"
        ],
        [
            "200%",
            "12.0s"
        ],
        [
            "211%",
            "12.0s"
        ],
        [
            "223%",
            "12.0s"
        ],
        [
            "236%",
            "12.0s"
        ],
        [
            "250%",
            "12.0s"
        ],
        [
            "264%",
            "12.0s"
        ]
    ],
    "10000024": [
        [
            "Shield DMG Absorption",
            "Base DMG",
            "DMG Bonus on Hit Taken",
            "CD"
        ],
        [
            "14.4% Max HP+1386",
            "122%",
            "160%",
            "7.5s"
        ],
        [
            "15.5% Max HP+1525",
            "131%",
            "172%",
            "7.5s"
        ],
        [
            "16.6% Max HP+1675",
            "140%",
            "184%",
            "7.5s"
        ],
        [
            "18.0% Max HP+1837",
            "152%",
            "200%",
            "7.5s"
        ],
        [
            "19.1% Max HP+2010",
            "161%",
            "212%",
            "7.5s"
        ],
        [
            "20.2% Max HP+2195",
            "170%",
            "224%",
            "7.5s"
        ],
        [
            "21.6% Max HP+2392",
            "182%",
            "240%",
            "7.5s"
        ],
        [
            "23.0% Max HP+2600",
            "195%",
            "256%",
            "7.5s"
        ],
        [
            "24.5% Max HP+2819",
            "207%",
            "272%",
            "7.5s"
        ],
        [
            "25.9% Max HP+3050",
            "219%",
            "288%",
            "7.5s"
        ],
        [
            "27.4% Max HP+3293",
            "231%",
            "304%",
            "7.5s"
        ],
        [
            "28.8% Max HP+3547",
            "243%",
            "320%",
            "7.5s"
        ],
        [
            "30.6% Max HP+3813",
            "258%",
            "340%",
            "7.5s"
        ],
        [
            "32.4% Max HP+4090",
            "274%",
            "360%",
            "7.5s"
        ],
        [
            "34.2% Max HP+4379",
            "289%",
            "380%",
            "7.5s"
        ]
    ],
    "10000025": [
        [
            "Skill DMG",
            "Damage Reduction Ratio",
            "Duration",
            "CD"
        ],
        [
            "168%+191%",
            "20%",
            "15.0s",
            "21.0s"
        ],
        [
            "181%+206%",
            "21%",
            "15.0s",
            "21.0s"
        ],
        [
            "193%+220%",
            "22%",
            "15.0s",
            "21.0s"
        ],
        [
            "210%+239%",
            "23%",
            "15.0s",
            "21.0s"
        ],
        [
            "223%+253%",
            "24%",
            "15.0s",
            "21.0s"
        ],
        [
            "235%+268%",
            "25%",
            "15.0s",
            "21.0s"
        ],
        [
            "252%+287%",
            "26%",
            "15.0s",
            "21.0s"
        ],
        [
            "269%+306%",
            "27%",
            "15.0s",
            "21.0s"
        ],
        [
            "286%+325%",
            "28%",
            "15.0s",
            "21.0s"
        ],
        [
            "302%+344%",
            "29%",
            "15.0s",
            "21.0s"
        ],
        [
            "319%+363%",
            "29%",
            "15.0s",
            "21.0s"
        ],
        [
            "336%+382%",
            "29%",
            "15.0s",
            "21.0s"
        ],
        [
            "357%+406%",
            "29%",
            "15.0s",
            "21.0s"
        ],
        [
            "378%+430%",
            "29%",
            "15.0s",
            "21.0s"
        ],
        [
            "399%+454%",
            "29%",
            "15.0s",
            "21.0s"
        ]
    ],
    "10000026": [
        [
            "Skill DMG",
            "CD"
        ],
        [
            "229%",
            "10.0s"
        ],
        [
            "246%",
            "10.0s"
        ],
        [
            "263%",
            "10.0s"
        ],
        [
            "286%",
            "10.0s"
        ],
        [
            "303%",
            "10.0s"
        ],
        [
            "320%",
            "10.0s"
        ],
        [
            "343%",
            "10.0s"
        ],
        [
            "366%",
            "10.0s"
        ],
        [
            "389%",
            "10.0s"
        ],
        [
            "412%",
            "10.0s"
        ],
        [
            "435%",
            "10.0s"
        ],
        [
            "458%",
            "10.0s"
        ],
        [
            "486%",
            "10.0s"
        ],
        [
            "515%",
            "10.0s"
        ],
        [
            "543%",
            "10.0s"
        ]
    ],
    "10000027": [
        [
            "Inherited HP",
            "Skill DMG",
            "CD"
        ],
        [
            "50.1%",
            "230%",
            "12.0s"
        ],
        [
            "53.1%",
            "248%",
            "12.0s"
        ],
        [
            "56.1%",
            "265%",
            "12.0s"
        ],
        [
            "60.0%",
            "288%",
            "12.0s"
        ],
        [
            "63.0%",
            "305%",
            "12.0s"
        ],
        [
            "66.0%",
            "323%",
            "12.0s"
        ],
        [
            "69.9%",
            "346%",
            "12.0s"
        ],
        [
            "73.8%",
            "369%",
            "12.0s"
        ],
        [
            "77.7%",
            "392%",
            "12.0s"
        ],
        [
            "81.6%",
            "415%",
            "12.0s"
        ],
        [
            "85.5%",
            "438%",
            "12.0s"
        ],
        [
            "89.4%",
            "461%",
            "12.0s"
        ],
        [
            "93.3%",
            "490%",
            "12.0s"
        ],
        [
            "97.2%",
            "518%",
            "12.0s"
        ],
        [
            "101.1%",
            "547%",
            "12.0s"
        ]
    ],
    "10000029": [
        [
            "Jumpy Dumpty DMG",
            "Mine DMG",
            "Mine Duration",
            "CD"
        ],
        [
            "95.2%",
            "32.8%",
            "15.0s",
            "20.0s"
        ],
        [
            "102%",
            "35.3%",
            "15.0s",
            "20.0s"
        ],
        [
            "109%",
            "37.7%",
            "15.0s",
            "20.0s"
        ],
        [
            "119%",
            "41.0%",
            "15.0s",
            "20.0s"
        ],
        [
            "126%",
            "43.5%",
            "15.0s",
            "20.0s"
        ],
        [
            "133%",
            "45.9%",
            "15.0s",
            "20.0s"
        ],
        [
            "143%",
            "49.2%",
            "15.0s",
            "20.0s"
        ],
        [
            "152%",
            "52.5%",
            "15.0s",
            "20.0s"
        ],
        [
            "162%",
            "55.8%",
            "15.0s",
            "20.0s"
        ],
        [
            "171%",
            "59.0%",
            "15.0s",
            "20.0s"
        ],
        [
            "181%",
            "62.3%",
            "15.0s",
            "20.0s"
        ],
        [
            "190%",
            "65.6%",
            "15.0s",
            "20.0s"
        ],
        [
            "202%",
            "69.7%",
            "15.0s",
            "20.0s"
        ],
        [
            "214%",
            "73.8%",
            "15.0s",
            "20.0s"
        ],
        [
            "226%",
            "77.9%",
            "15.0s",
            "20.0s"
        ]
    ],
    "10000030": [
        [
            "Stone Stele/Resonance DMG",
            "Tap CD",
            "Hold DMG",
            "Shield Base Absorption",
            "Additional Shield Absorption",
            "Shield Duration",
            "CD (hold)"
        ],
        [
            "16.0%/32.0%",
            "4.0s",
            "80%",
            "1232",
            "12.8% Max HP",
            "20.0s",
            "12.0s"
        ],
        [
            "17.2%/34.4%",
            "4.0s",
            "86%",
            "1356",
            "13.8% Max HP",
            "20.0s",
            "12.0s"
        ],
        [
            "18.4%/36.8%",
            "4.0s",
            "92%",
            "1489",
            "14.7% Max HP",
            "20.0s",
            "12.0s"
        ],
        [
            "20.0%/40.0%",
            "4.0s",
            "100%",
            "1633",
            "16.0% Max HP",
            "20.0s",
            "12.0s"
        ],
        [
            "21.2%/42.4%",
            "4.0s",
            "106%",
            "1787",
            "17.0% Max HP",
            "20.0s",
            "12.0s"
        ],
        [
            "22.4%/44.8%",
            "4.0s",
            "112%",
            "1951",
            "17.9% Max HP",
            "20.0s",
            "12.0s"
        ],
        [
            "24.0%/48.0%",
            "4.0s",
            "120%",
            "2126",
            "19.2% Max HP",
            "20.0s",
            "12.0s"
        ],
        [
            "25.6%/51.2%",
            "4.0s",
            "128%",
            "2311",
            "20.5% Max HP",
            "20.0s",
            "12.0s"
        ],
        [
            "27.2%/54.4%",
            "4.0s",
            "136%",
            "2506",
            "21.8% Max HP",
            "20.0s",
            "12.0s"
        ],
        [
            "28.8%/57.6%",
            "4.0s",
            "144%",
            "2712",
            "23.0% Max HP",
            "20.0s",
            "12.0s"
        ],
        [
            "30.4%/60.8%",
            "4.0s",
            "152%",
            "2927",
            "24.3% Max HP",
            "20.0s",
            "12.0s"
        ],
        [
            "32.0%/64.0%",
            "4.0s",
            "160%",
            "3153",
            "25.6% Max HP",
            "20.0s",
            "12.0s"
        ],
        [
            "34.0%/68.0%",
            "4.0s",
            "170%",
            "3389",
            "27.2% Max HP",
            "20.0s",
            "12.0s"
        ],
        [
            "36.0%/72.0%",
            "4.0s",
            "180%",
            "3636",
            "28.8% Max HP",
            "20.0s",
            "12.0s"
        ],
        [
            "38.0%/76.0%",
            "4.0s",
            "190%",
            "3893",
            "30.4% Max HP",
            "20.0s",
            "12.0s"
        ]
    ],
    "10000031": [
        [
            "Oz's ATK DMG",
            "Summoning DMG",
            "Oz's Duration",
            "CD"
        ],
        [
            "88.8%",
            "115%",
            "10.0s",
            "25.0s"
        ],
        [
            "95.5%",
            "124%",
            "10.0s",
            "25.0s"
        ],
        [
            "102%",
            "133%",
            "10.0s",
            "25.0s"
        ],
        [
            "111%",
            "144%",
            "10.0s",
            "25.0s"
        ],
        [
            "118%",
            "153%",
            "10.0s",
            "25.0s"
        ],
        [
            "124%",
            "162%",
            "10.0s",
            "25.0s"
        ],
        [
            "133%",
            "173%",
            "10.0s",
            "25.0s"
        ],
        [
            "142%",
            "185%",
            "10.0s",
            "25.0s"
        ],
        [
            "151%",
            "196%",
            "10.0s",
            "25.0s"
        ],
        [
            "160%",
            "208%",
            "10.0s",
            "25.0s"
        ],
        [
            "169%",
            "219%",
            "10.0s",
            "25.0s"
        ],
        [
            "178%",
            "231%",
            "10.0s",
            "25.0s"
        ],
        [
            "189%",
            "245%",
            "10.0s",
            "25.0s"
        ],
        [
            "200%",
            "260%",
            "10.0s",
            "25.0s"
        ],
        [
            "211%",
            "274%",
            "10.0s",
            "25.0s"
        ]
    ],
    "10000032": [
        [
            "Tap DMG",
            "Charge Level 1 DMG",
            "Charge Level 2 DMG",
            "Explosion DMG",
            "CD"
        ],
        [
            "138%",
            "84.0%+92.0%",
            "88.0%+96.0%",
            "132%",
            "5.0/7.5/10.0s"
        ],
        [
            "148%",
            "90.3%+98.9%",
            "94.6%+103%",
            "142%",
            "5.0/7.5/10.0s"
        ],
        [
            "158%",
            "96.6%+106%",
            "101%+110%",
            "152%",
            "5.0/7.5/10.0s"
        ],
        [
            "172%",
            "105%+115%",
            "110%+120%",
            "165%",
            "5.0/7.5/10.0s"
        ],
        [
            "182%",
            "111%+122%",
            "117%+127%",
            "175%",
            "5.0/7.5/10.0s"
        ],
        [
            "193%",
            "118%+129%",
            "123%+134%",
            "185%",
            "5.0/7.5/10.0s"
        ],
        [
            "206%",
            "126%+138%",
            "132%+144%",
            "198%",
            "5.0/7.5/10.0s"
        ],
        [
            "220%",
            "134%+147%",
            "141%+154%",
            "211%",
            "5.0/7.5/10.0s"
        ],
        [
            "234%",
            "143%+156%",
            "150%+163%",
            "224%",
            "5.0/7.5/10.0s"
        ],
        [
            "248%",
            "151%+166%",
            "158%+173%",
            "238%",
            "5.0/7.5/10.0s"
        ],
        [
            "261%",
            "160%+175%",
            "167%+182%",
            "251%",
            "5.0/7.5/10.0s"
        ],
        [
            "275%",
            "168%+184%",
            "176%+192%",
            "264%",
            "5.0/7.5/10.0s"
        ],
        [
            "292%",
            "178%+196%",
            "187%+204%",
            "281%",
            "5.0/7.5/10.0s"
        ],
        [
            "310%",
            "189%+207%",
            "198%+216%",
            "297%",
            "5.0/7.5/10.0s"
        ],
        [
            "327%",
            "200%+218%",
            "209%+228%",
            "313%",
            "5.0/7.5/10.0s"
        ]
    ],
    "10000033": [
        [
            "Stance Change DMG",
            "1-Hit DMG",
            "2-Hit DMG",
            "3-Hit DMG",
            "4-Hit DMG",
            "5-Hit DMG",
            "6-Hit DMG",
            "Charged Attack DMG",
            "Charged Attack Stamina Cost",
            "Riptide Slash",
            "Max Duration",
            "Preemptive CD",
            "Max CD"
        ],
        [
            "72%",
            "38.9%",
            "41.6%",
            "56.3%",
            "59.9%",
            "55.3%",
            "35.4%+37.7%",
            "60.2%+72.0%",
            "0.7",
            "72%",
            "0.7s",
            "0.7-0.7s",
            "0.7s"
        ],
        [
            "77%",
            "42.0%",
            "45.0%",
            "60.9%",
            "64.8%",
            "59.8%",
            "38.3%+40.7%",
            "65.1%+77.4%",
            "0.8",
            "77%",
            "0.8s",
            "0.8-0.8s",
            "0.8s"
        ],
        [
            "83%",
            "45.2%",
            "48.4%",
            "65.5%",
            "69.7%",
            "64.3%",
            "41.2%+43.8%",
            "70.0%+82.8%",
            "0.8",
            "83%",
            "0.8s",
            "0.8-0.8s",
            "0.8s"
        ],
        [
            "90%",
            "49.7%",
            "53.2%",
            "72.0%",
            "76.7%",
            "70.7%",
            "45.3%+48.2%",
            "77.0%+90.0%",
            "0.9",
            "90%",
            "0.9s",
            "0.9-0.9s",
            "0.9s"
        ],
        [
            "95%",
            "52.9%",
            "56.6%",
            "76.6%",
            "81.5%",
            "75.2%",
            "48.2%+51.2%",
            "81.9%+95.4%",
            "1.0",
            "95%",
            "1.0s",
            "1.0-1.0s",
            "1.0s"
        ],
        [
            "101%",
            "56.5%",
            "60.5%",
            "81.9%",
            "87.1%",
            "80.4%",
            "51.5%+54.8%",
            "87.5%+100.8%",
            "1.0",
            "101%",
            "1.0s",
            "1.0-1.0s",
            "1.0s"
        ],
        [
            "108%",
            "61.5%",
            "65.8%",
            "89.1%",
            "94.8%",
            "87.4%",
            "56.0%+59.6%",
            "95.2%+108.0%",
            "1.1",
            "108%",
            "1.1s",
            "1.1-1.1s",
            "1.1s"
        ],
        [
            "115%",
            "66.4%",
            "71.1%",
            "96.3%",
            "102.5%",
            "94.5%",
            "60.6%+64.4%",
            "102.9%+115.2%",
            "1.2",
            "115%",
            "1.2s",
            "1.2-1.2s",
            "1.2s"
        ],
        [
            "122%",
            "71.4%",
            "76.5%",
            "103.5%",
            "110.1%",
            "101.6%",
            "65.1%+69.2%",
            "110.6%+122.4%",
            "1.2",
            "122%",
            "1.2s",
            "1.2-1.2s",
            "1.2s"
        ],
        [
            "130%",
            "76.8%",
            "82.3%",
            "111.3%",
            "118.5%",
            "109.3%",
            "70.0%+74.5%",
            "119.0%+129.6%",
            "1.3",
            "130%",
            "1.3s",
            "1.3-1.3s",
            "1.3s"
        ],
        [
            "137%",
            "82.3%",
            "88.1%",
            "119.2%",
            "126.9%",
            "117.0%",
            "75.0%+79.7%",
            "127.4%+136.8%",
            "1.4",
            "137%",
            "1.4s",
            "1.4-1.4s",
            "1.4s"
        ],
        [
            "144%",
            "87.7%",
            "93.9%",
            "127.1%",
            "135.2%",
            "124.7%",
            "79.9%+85.0%",
            "135.8%+144.0%",
            "1.4",
            "144%",
            "1.4s",
            "1.4-1.4s",
            "1.4s"
        ],
        [
            "153%",
            "93.1%",
            "99.7%",
            "134.9%",
            "143.6%",
            "132.5%",
            "84.9%+90.2%",
            "144.2%+153.0%",
            "1.5",
            "153%",
            "1.5s",
            "1.5-1.5s",
            "1.5s"
        ],
        [
            "162%",
            "98.5%",
            "105.5%",
            "142.8%",
            "151.9%",
            "140.2%",
            "89.8%+95.5%",
            "152.6%+162.0%",
            "1.6",
            "162%",
            "1.6s",
            "1.6-1.6s",
            "1.6s"
        ],
        [
            "171%",
            "104.0%",
            "111.3%",
            "150.7%",
            "160.3%",
            "147.9%",
            "94.8%+100.7%",
            "161.0%+171.0%",
            "1.7",
            "171%",
            "1.7s",
            "1.7-1.7s",
            "1.7s"
        ]
    ],
    "10000034": [
        [
            "Skill DMG",
            "DMG Absorption",
            "Healing",
            "Healing Triggering Chance",
            "Duration",
            "CD"
        ],
        [
            "120% DEF",
            "160% DEF+770",
            "21.3% DEF+103",
            "50%",
            "12.0s",
            "24.0s"
        ],
        [
            "129% DEF",
            "172% DEF+847",
            "22.9% DEF+113",
            "51%",
            "12.0s",
            "24.0s"
        ],
        [
            "138% DEF",
            "184% DEF+930",
            "24.5% DEF+124",
            "52%",
            "12.0s",
            "24.0s"
        ],
        [
            "150% DEF",
            "200% DEF+1020",
            "26.6% DEF+136",
            "53%",
            "12.0s",
            "24.0s"
        ],
        [
            "159% DEF",
            "212% DEF+1116",
            "28.2% DEF+149",
            "54%",
            "12.0s",
            "24.0s"
        ],
        [
            "168% DEF",
            "224% DEF+1219",
            "29.8% DEF+163",
            "55%",
            "12.0s",
            "24.0s"
        ],
        [
            "180% DEF",
            "240% DEF+1328",
            "31.9% DEF+177",
            "56%",
            "12.0s",
            "24.0s"
        ],
        [
            "192% DEF",
            "256% DEF+1443",
            "34.0% DEF+193",
            "57%",
            "12.0s",
            "24.0s"
        ],
        [
            "204% DEF",
            "272% DEF+1565",
            "36.2% DEF+209",
            "58%",
            "12.0s",
            "24.0s"
        ],
        [
            "216% DEF",
            "288% DEF+1694",
            "38.3% DEF+226",
            "59%",
            "12.0s",
            "24.0s"
        ],
        [
            "228% DEF",
            "304% DEF+1828",
            "40.4% DEF+244",
            "59%",
            "12.0s",
            "24.0s"
        ],
        [
            "240% DEF",
            "320% DEF+1970",
            "42.6% DEF+263",
            "60%",
            "12.0s",
            "24.0s"
        ],
        [
            "255% DEF",
            "340% DEF+2117",
            "45.2% DEF+282",
            "60%",
            "12.0s",
            "24.0s"
        ],
        [
            "270% DEF",
            "360% DEF+2271",
            "47.9% DEF+303",
            "60%",
            "12.0s",
            "24.0s"
        ],
        [
            "285% DEF",
            "380% DEF+2431",
            "50.5% DEF+324",
            "60%",
            "12.0s",
            "24.0s"
        ]
    ],
    "10000035": [
        [
            "Skill DMG",
            "Regeneration on Hit",
            "Continuous Regeneration",
            "Herald of Frost DMG",
            "Duration",
            "CD"
        ],
        [
            "96%",
            "10.56% ATK+67",
            "69.6% ATK+451",
            "36.0%",
            "15.0s",
            "30.0s"
        ],
        [
            "103%",
            "11.35% ATK+74",
            "74.82% ATK+496",
            "38.7%",
            "15.0s",
            "30.0s"
        ],
        [
            "110%",
            "12.14% ATK+81",
            "80.04% ATK+544",
            "41.4%",
            "15.0s",
            "30.0s"
        ],
        [
            "120%",
            "13.2% ATK+89",
            "87.0% ATK+597",
            "45.0%",
            "15.0s",
            "30.0s"
        ],
        [
            "127%",
            "13.99% ATK+98",
            "92.22% ATK+653",
            "47.7%",
            "15.0s",
            "30.0s"
        ],
        [
            "134%",
            "14.78% ATK+107",
            "97.44% ATK+713",
            "50.4%",
            "15.0s",
            "30.0s"
        ],
        [
            "144%",
            "15.84% ATK+116",
            "104.4% ATK+777",
            "54.0%",
            "15.0s",
            "30.0s"
        ],
        [
            "154%",
            "16.9% ATK+126",
            "111.36% ATK+845",
            "57.6%",
            "15.0s",
            "30.0s"
        ],
        [
            "163%",
            "17.95% ATK+137",
            "118.32% ATK+916",
            "61.2%",
            "15.0s",
            "30.0s"
        ],
        [
            "173%",
            "19.01% ATK+148",
            "125.28% ATK+991",
            "64.8%",
            "15.0s",
            "30.0s"
        ],
        [
            "182%",
            "20.06% ATK+160",
            "132.24% ATK+1070",
            "68.4%",
            "15.0s",
            "30.0s"
        ],
        [
            "192%",
            "21.12% ATK+172",
            "139.2% ATK+1153",
            "72.0%",
            "15.0s",
            "30.0s"
        ],
        [
            "204%",
            "22.44% ATK+185",
            "147.9% ATK+1239",
            "76.5%",
            "15.0s",
            "30.0s"
        ],
        [
            "216%",
            "23.76% ATK+199",
            "156.6% ATK+1329",
            "81.0%",
            "15.0s",
            "30.0s"
        ],
        [
            "228%",
            "25.08% ATK+213",
            "165.3% ATK+1423",
            "85.5%",
            "15.0s",
            "30.0s"
        ]
    ],
    "10000036": [
        [
            "Skill DMG",
            "Infusion Duration",
            "Field Duration",
            "CD"
        ],
        [
            "172%",
            "2.0s",
            "10.0s",
            "15.0s"
        ],
        [
            "185%",
            "2.1s",
            "10.0s",
            "15.0s"
        ],
        [
            "198%",
            "2.2s",
            "10.0s",
            "15.0s"
        ],
        [
            "215%",
            "2.3s",
            "10.0s",
            "15.0s"
        ],
        [
            "228%",
            "2.4s",
            "10.0s",
            "15.0s"
        ],
        [
            "241%",
            "2.5s",
            "10.0s",
            "15.0s"
        ],
        [
            "258%",
            "2.6s",
            "10.0s",
            "15.0s"
        ],
        [
            "275%",
            "2.7s",
            "10.0s",
            "15.0s"
        ],
        [
            "292%",
            "2.8s",
            "10.0s",
            "15.0s"
        ],
        [
            "310%",
            "2.9s",
            "10.0s",
            "15.0s"
        ],
        [
            "327%",
            "3.0s",
            "10.0s",
            "15.0s"
        ],
        [
            "344%",
            "3.0s",
            "10.0s",
            "15.0s"
        ],
        [
            "366%",
            "3.0s",
            "10.0s",
            "15.0s"
        ],
        [
            "387%",
            "3.0s",
            "10.0s",
            "15.0s"
        ],
        [
            "409%",
            "3.0s",
            "10.0s",
            "15.0s"
        ]
    ],
    "10000037": [
        [
            "Inherited HP",
            "Skill DMG",
            "Duration",
            "CD"
        ],
        [
            "120%",
            "132%",
            "6.0s",
            "12.0s"
        ],
        [
            "129%",
            "142%",
            "6.0s",
            "12.0s"
        ],
        [
            "138%",
            "152%",
            "6.0s",
            "12.0s"
        ],
        [
            "150%",
            "165%",
            "6.0s",
            "12.0s"
        ],
        [
            "159%",
            "175%",
            "6.0s",
            "12.0s"
        ],
        [
            "168%",
            "185%",
            "6.0s",
            "12.0s"
        ],
        [
            "180%",
            "198%",
            "6.0s",
            "12.0s"
        ],
        [
            "192%",
            "211%",
            "6.0s",
            "12.0s"
        ],
        [
            "204%",
            "224%",
            "6.0s",
            "12.0s"
        ],
        [
            "216%",
            "238%",
            "6.0s",
            "12.0s"
        ],
        [
            "228%",
            "251%",
            "6.0s",
            "12.0s"
        ],
        [
            "240%",
            "264%",
            "6.0s",
            "12.0s"
        ],
        [
            "255%",
            "281%",
            "6.0s",
            "12.0s"
        ],
        [
            "270%",
            "297%",
            "6.0s",
            "12.0s"
        ],
        [
            "285%",
            "313%",
            "6.0s",
            "12.0s"
        ]
    ],
    "10000038": [
        [
            "Skill DMG",
            "Transient Blossom DMG",
            "Duration",
            "Skill CD"
        ],
        [
            "130%",
            "95% DEF",
            "30.0s",
            "8.0s"
        ],
        [
            "140%",
            "102% DEF",
            "30.0s",
            "8.0s"
        ],
        [
            "150%",
            "109% DEF",
            "30.0s",
            "8.0s"
        ],
        [
            "163%",
            "118% DEF",
            "30.0s",
            "8.0s"
        ],
        [
            "173%",
            "126% DEF",
            "30.0s",
            "8.0s"
        ],
        [
            "183%",
            "133% DEF",
            "30.0s",
            "8.0s"
        ],
        [
            "196%",
            "142% DEF",
            "30.0s",
            "8.0s"
        ],
        [
            "209%",
            "152% DEF",
            "30.0s",
            "8.0s"
        ],
        [
            "222%",
            "161% DEF",
            "30.0s",
            "8.0s"
        ],
        [
            "235%",
            "171% DEF",
            "30.0s",
            "8.0s"
        ],
        [
            "248%",
            "180% DEF",
            "30.0s",
            "8.0s"
        ],
        [
            "261%",
            "190% DEF",
            "30.0s",
            "8.0s"
        ],
        [
            "277%",
            "201% DEF",
            "30.0s",
            "8.0s"
        ],
        [
            "293%",
            "213% DEF",
            "30.0s",
            "8.0s"
        ],
        [
            "310%",
            "225% DEF",
            "30.0s",
            "8.0s"
        ]
    ],
    "10000039": [
        [
            "Icy Paw DMG",
            "Base Shield DMG Absorption",
            "Duration",
            "Tap CD",
            "Holding CD"
        ],
        [
            "41.9% per Paw",
            "7.2% Max HP+693",
            "1.8s per Claw",
            "6.0s",
            "15.0s"
        ],
        [
            "45.1% per Paw",
            "7.7% Max HP+762",
            "1.9s per Claw",
            "6.0s",
            "15.0s"
        ],
        [
            "48.2% per Paw",
            "8.3% Max HP+837",
            "2.0s per Claw",
            "6.0s",
            "15.0s"
        ],
        [
            "52.4% per Paw",
            "9.0% Max HP+918",
            "2.1s per Claw",
            "6.0s",
            "15.0s"
        ],
        [
            "55.5% per Paw",
            "9.5% Max HP+1005",
            "2.2s per Claw",
            "6.0s",
            "15.0s"
        ],
        [
            "58.7% per Paw",
            "10.1% Max HP+1097",
            "2.3s per Claw",
            "6.0s",
            "15.0s"
        ],
        [
            "62.9% per Paw",
            "10.8% Max HP+1195",
            "2.4s per Claw",
            "6.0s",
            "15.0s"
        ],
        [
            "67.1% per Paw",
            "11.5% Max HP+1299",
            "2.4s per Claw",
            "6.0s",
            "15.0s"
        ],
        [
            "71.3% per Paw",
            "12.2% Max HP+1409",
            "2.4s per Claw",
            "6.0s",
            "15.0s"
        ],
        [
            "75.5% per Paw",
            "13.0% Max HP+1524",
            "2.4s per Claw",
            "6.0s",
            "15.0s"
        ],
        [
            "79.6% per Paw",
            "13.7% Max HP+1646",
            "2.4s per Claw",
            "6.0s",
            "15.0s"
        ],
        [
            "83.8% per Paw",
            "14.4% Max HP+1773",
            "2.4s per Claw",
            "6.0s",
            "15.0s"
        ],
        [
            "89.1% per Paw",
            "15.3% Max HP+1905",
            "2.4s per Claw",
            "6.0s",
            "15.0s"
        ],
        [
            "94.3% per Paw",
            "16.2% Max HP+2044",
            "2.4s per Claw",
            "6.0s",
            "15.0s"
        ],
        [
            "99.6% per Paw",
            "17.1% Max HP+2188",
            "2.4s per Claw",
            "6.0s",
            "15.0s"
        ]
    ],
    "10000041": [
        [
            "DoT",
            "Explosion DMG",
            "CD"
        ],
        [
            "32.0%",
            "133%",
            "12.0s"
        ],
        [
            "34.4%",
            "143%",
            "12.0s"
        ],
        [
            "36.8%",
            "153%",
            "12.0s"
        ],
        [
            "40.0%",
            "166%",
            "12.0s"
        ],
        [
            "42.4%",
            "176%",
            "12.0s"
        ],
        [
            "44.8%",
            "186%",
            "12.0s"
        ],
        [
            "48.0%",
            "199%",
            "12.0s"
        ],
        [
            "51.2%",
            "212%",
            "12.0s"
        ],
        [
            "54.4%",
            "226%",
            "12.0s"
        ],
        [
            "57.6%",
            "239%",
            "12.0s"
        ],
        [
            "60.8%",
            "252%",
            "12.0s"
        ],
        [
            "64.0%",
            "266%",
            "12.0s"
        ],
        [
            "68.0%",
            "282%",
            "12.0s"
        ],
        [
            "72.0%",
            "299%",
            "12.0s"
        ],
        [
            "76.0%",
            "315%",
            "12.0s"
        ]
    ],
    "10000042": [
        [
            "Lightning Stiletto DMG ",
            "Slashing DMG",
            "Thunderclap Slash DMG",
            "CD"
        ],
        [
            "50.4%",
            "168%",
            "84.0%×2",
            "7.5s"
        ],
        [
            "54.2%",
            "181%",
            "90.3%×2",
            "7.5s"
        ],
        [
            "58.0%",
            "193%",
            "96.6%×2",
            "7.5s"
        ],
        [
            "63.0%",
            "210%",
            "105%×2",
            "7.5s"
        ],
        [
            "66.8%",
            "223%",
            "111%×2",
            "7.5s"
        ],
        [
            "70.6%",
            "235%",
            "118%×2",
            "7.5s"
        ],
        [
            "75.6%",
            "252%",
            "126%×2",
            "7.5s"
        ],
        [
            "80.6%",
            "269%",
            "134%×2",
            "7.5s"
        ],
        [
            "85.7%",
            "286%",
            "143%×2",
            "7.5s"
        ],
        [
            "90.7%",
            "302%",
            "151%×2",
            "7.5s"
        ],
        [
            "95.8%",
            "319%",
            "160%×2",
            "7.5s"
        ],
        [
            "101%",
            "336%",
            "168%×2",
            "7.5s"
        ],
        [
            "107%",
            "357%",
            "178%×2",
            "7.5s"
        ],
        [
            "113%",
            "378%",
            "189%×2",
            "7.5s"
        ],
        [
            "120%",
            "399%",
            "200%×2",
            "7.5s"
        ]
    ],
    "10000043": [
        [
            "Skill DMG",
            "CD"
        ],
        [
            "211%",
            "15.0s"
        ],
        [
            "227%",
            "15.0s"
        ],
        [
            "243%",
            "15.0s"
        ],
        [
            "264%",
            "15.0s"
        ],
        [
            "280%",
            "15.0s"
        ],
        [
            "296%",
            "15.0s"
        ],
        [
            "317%",
            "15.0s"
        ],
        [
            "338%",
            "15.0s"
        ],
        [
            "359%",
            "15.0s"
        ],
        [
            "380%",
            "15.0s"
        ],
        [
            "401%",
            "15.0s"
        ],
        [
            "422%",
            "15.0s"
        ],
        [
            "449%",
            "15.0s"
        ],
        [
            "475%",
            "15.0s"
        ],
        [
            "502%",
            "15.0s"
        ]
    ],
    "10000044": [
        [
            "Swing DMG",
            "Shield Level 1 DMG Absorption",
            "Shield Level 2 DMG Absorption",
            "Shield Level 3 DMG Absorption",
            "DoT",
            "Shield Duration",
            "CD"
        ],
        [
            "170%",
            "104.0% DEF+501",
            "122.4% DEF+589",
            "144.0% DEF+693",
            "33.6%",
            "12.0s",
            "1.7s"
        ],
        [
            "182%",
            "111.8% DEF+551",
            "131.6% DEF+648",
            "154.8% DEF+762",
            "36.1%",
            "12.0s",
            "1.8s"
        ],
        [
            "195%",
            "119.6% DEF+605",
            "140.8% DEF+712",
            "165.6% DEF+837",
            "38.6%",
            "12.0s",
            "2.0s"
        ],
        [
            "212%",
            "130.1% DEF+663",
            "153.0% DEF+780",
            "180.0% DEF+918",
            "42.0%",
            "12.0s",
            "2.1s"
        ],
        [
            "225%",
            "137.9% DEF+726",
            "162.2% DEF+854",
            "190.8% DEF+1005",
            "44.5%",
            "12.0s",
            "2.2s"
        ],
        [
            "237%",
            "145.7% DEF+793",
            "171.4% DEF+932",
            "201.6% DEF+1097",
            "47.0%",
            "12.0s",
            "2.4s"
        ],
        [
            "254%",
            "156.1% DEF+864",
            "183.6% DEF+1016",
            "216.0% DEF+1195",
            "50.4%",
            "12.0s",
            "2.5s"
        ],
        [
            "271%",
            "166.5% DEF+939",
            "195.8% DEF+1104",
            "230.4% DEF+1299",
            "53.8%",
            "12.0s",
            "2.7s"
        ],
        [
            "288%",
            "176.9% DEF+1018",
            "208.1% DEF+1197",
            "244.8% DEF+1409",
            "57.1%",
            "12.0s",
            "2.9s"
        ],
        [
            "305%",
            "187.3% DEF+1101",
            "220.3% DEF+1296",
            "259.2% DEF+1524",
            "60.5%",
            "12.0s",
            "3.1s"
        ],
        [
            "322%",
            "197.7% DEF+1189",
            "232.6% DEF+1399",
            "273.6% DEF+1646",
            "63.8%",
            "12.0s",
            "3.2s"
        ],
        [
            "339%",
            "208.1% DEF+1281",
            "244.8% DEF+1507",
            "288.0% DEF+1773",
            "67.2%",
            "12.0s",
            "3.4s"
        ],
        [
            "360%",
            "221.1% DEF+1377",
            "260.1% DEF+1620",
            "306.0% DEF+1905",
            "71.4%",
            "12.0s",
            "3.6s"
        ],
        [
            "382%",
            "234.1% DEF+1477",
            "275.4% DEF+1737",
            "324.0% DEF+2044",
            "75.6%",
            "12.0s",
            "3.8s"
        ],
        [
            "403%",
            "247.1% DEF+1581",
            "290.7% DEF+1860",
            "342.0% DEF+2188",
            "79.8%",
            "12.0s",
            "4.0s"
        ]
    ],
    "10000045": [
        [],
        [],
        [],
        [],
        [],
        [],
        [],
        [],
        [],
        [],
        [],
        [],
        [],
        [],
        [],
        []
    ],
    "10000046": [],
    "10000047": [],
    "10000048": [
        [
            "Skill DMG",
            "CD"
        ],
        [
            "48%",
            "0.6s"
        ],
        [
            "52%",
            "0.7s"
        ],
        [
            "55%",
            "0.7s"
        ],
        [
            "60%",
            "0.8s"
        ],
        [
            "64%",
            "0.8s"
        ],
        [
            "67%",
            "0.9s"
        ],
        [
            "72%",
            "1.0s"
        ],
        [
            "77%",
            "1.0s"
        ],
        [
            "82%",
            "1.1s"
        ],
        [
            "86%",
            "1.2s"
        ],
        [
            "91%",
            "1.2s"
        ],
        [
            "96%",
            "1.3s"
        ],
        [
            "102%",
            "1.4s"
        ],
        [
            "108%",
            "1.4s"
        ],
        [
            "114%",
            "1.5s"
        ]
    ],
    "10000049": [],
    "10000050": [],
    "11000008": [],
    "11000009": [],
    "11000010": [],
    "11000011": [],
    "11000013": [],
    "11000017": [
        [
            "Skill DMG",
            "CD"
        ],
        [
            "191%",
            "6.0s"
        ],
        [
            "206%",
            "6.0s"
        ],
        [
            "220%",
            "6.0s"
        ],
        [
            "239%",
            "6.0s"
        ],
        [
            "253%",
            "6.0s"
        ],
        [
            "268%",
            "6.0s"
        ],
        [
            "287%",
            "6.0s"
        ],
        [
            "306%",
            "6.0s"
        ],
        [
            "325%",
            "6.0s"
        ],
        [
            "344%",
            "6.0s"
        ],
        [
            "363%",
            "6.0s"
        ],
        [
            "382%",
            "6.0s"
        ],
        [
            "406%",
            "6.0s"
        ],
        [
            "430%",
            "6.0s"
        ],
        [
            "454%",
            "6.0s"
        ]
    ],
    "11000018": [
        [
            "Skill DMG",
            "CD"
        ],
        [
            "191%",
            "6.0s"
        ],
        [
            "206%",
            "6.0s"
        ],
        [
            "220%",
            "6.0s"
        ],
        [
            "239%",
            "6.0s"
        ],
        [
            "253%",
            "6.0s"
        ],
        [
            "268%",
            "6.0s"
        ],
        [
            "287%",
            "6.0s"
        ],
        [
            "306%",
            "6.0s"
        ],
        [
            "325%",
            "6.0s"
        ],
        [
            "344%",
            "6.0s"
        ],
        [
            "363%",
            "6.0s"
        ],
        [
            "382%",
            "6.0s"
        ],
        [
            "406%",
            "6.0s"
        ],
        [
            "430%",
            "6.0s"
        ],
        [
            "454%",
            "6.0s"
        ]
    ],
    "11000019": [
        [
            "Skill DMG",
            "CD"
        ],
        [
            "191%",
            "6.0s"
        ],
        [
            "206%",
            "6.0s"
        ],
        [
            "220%",
            "6.0s"
        ],
        [
            "239%",
            "6.0s"
        ],
        [
            "253%",
            "6.0s"
        ],
        [
            "268%",
            "6.0s"
        ],
        [
            "287%",
            "6.0s"
        ],
        [
            "306%",
            "6.0s"
        ],
        [
            "325%",
            "6.0s"
        ],
        [
            "344%",
            "6.0s"
        ],
        [
            "363%",
            "6.0s"
        ],
        [
            "382%",
            "6.0s"
        ],
        [
            "406%",
            "6.0s"
        ],
        [
            "430%",
            "6.0s"
        ],
        [
            "454%",
            "6.0s"
        ]
    ],
    "11000025": [],
    "11000026": [
        [
            "Skill DMG",
            "CD"
        ],
        [
            "191%",
            "6.0s"
        ],
        [
            "206%",
            "6.0s"
        ],
        [
            "220%",
            "6.0s"
        ],
        [
            "239%",
            "6.0s"
        ],
        [
            "253%",
            "6.0s"
        ],
        [
            "268%",
            "6.0s"
        ],
        [
            "287%",
            "6.0s"
        ],
        [
            "306%",
            "6.0s"
        ],
        [
            "325%",
            "6.0s"
        ],
        [
            "344%",
            "6.0s"
        ],
        [
            "363%",
            "6.0s"
        ],
        [
            "382%",
            "6.0s"
        ],
        [
            "406%",
            "6.0s"
        ],
        [
            "430%",
            "6.0s"
        ],
        [
            "454%",
            "6.0s"
        ]
    ],
    "11000027": [],
    "11000028": [],
    "11000030": [],
    "11000031": [],
    "11000032": [],
    "11000033": [],
    "11000034": [],
    "11000035": [],
    "11000036": [],
    "11000037": [],
    "11000038": [],
    "11000039": [],
    "11000040": [],
    "11000041": [],
    "11000042": [],
    "11000043": [
        [
            "Skill DMG",
            "CD"
        ],
        [
            "191%",
            "6.0s"
        ],
        [
            "206%",
            "6.0s"
        ],
        [
            "220%",
            "6.0s"
        ],
        [
            "239%",
            "6.0s"
        ],
        [
            "253%",
            "6.0s"
        ],
        [
            "268%",
            "6.0s"
        ],
        [
            "287%",
            "6.0s"
        ],
        [
            "306%",
            "6.0s"
        ],
        [
            "325%",
            "6.0s"
        ],
        [
            "344%",
            "6.0s"
        ],
        [
            "363%",
            "6.0s"
        ],
        [
            "382%",
            "6.0s"
        ],
        [
            "406%",
            "6.0s"
        ],
        [
            "430%",
            "6.0s"
        ],
        [
            "454%",
            "6.0s"
        ]
    ],
    "11000044": [
        [
            "Skill DMG",
            "CD"
        ],
        [
            "191%",
            "6.0s"
        ],
        [
            "206%",
            "6.0s"
        ],
        [
            "220%",
            "6.0s"
        ],
        [
            "239%",
            "6.0s"
        ],
        [
            "253%",
            "6.0s"
        ],
        [
            "268%",
            "6.0s"
        ],
        [
            "287%",
            "6.0s"
        ],
        [
            "306%",
            "6.0s"
        ],
        [
            "325%",
            "6.0s"
        ],
        [
            "344%",
            "6.0s"
        ],
        [
            "363%",
            "6.0s"
        ],
        [
            "382%",
            "6.0s"
        ],
        [
            "406%",
            "6.0s"
        ],
        [
            "430%",
            "6.0s"
        ],
        [
            "454%",
            "6.0s"
        ]
    ],
    "11000045": [
        [
            "Skill DMG",
            "CD"
        ],
        [
            "191%",
            "6.0s"
        ],
        [
            "206%",
            "6.0s"
        ],
        [
            "220%",
            "6.0s"
        ],
        [
            "239%",
            "6.0s"
        ],
        [
            "253%",
            "6.0s"
        ],
        [
            "268%",
            "6.0s"
        ],
        [
            "287%",
            "6.0s"
        ],
        [
            "306%",
            "6.0s"
        ],
        [
            "325%",
            "6.0s"
        ],
        [
            "344%",
            "6.0s"
        ],
        [
            "363%",
            "6.0s"
        ],
        [
            "382%",
            "6.0s"
        ],
        [
            "406%",
            "6.0s"
        ],
        [
            "430%",
            "6.0s"
        ],
        [
            "454%",
            "6.0s"
        ]
    ]
}