[
    {
        "Id": 1,
        "TypeId": 1001,
        "Priority": 1,
        "UpPoolId": [
            10101,
            10102
        ],
        "DailyScanLimit": 10,
        "JMHLCHLFDMG": 2026795815,
        "CHFOFOOFABA": 3247214795
    },
    {
        "Id": 2,
        "TypeId": 1004,
        "Priority": 2,
        "UpPoolId": [
            10103,
            10102
        ],
        "DailyScanLimit": 10,
        "JMHLCHLFDMG": 2110382287,
        "CHFOFOOFABA": 3441537955
    },
    {
        "Id": 3,
        "TypeId": 1002,
        "Priority": 3,
        "UpPoolId": [
            10103,
            10101
        ],
        "DailyScanLimit": 10,
        "JMHLCHLFDMG": 79498591,
        "CHFOFOOFABA": 3697564691
    },
    {
        "Id": 4,
        "TypeId": 1003,
        "Priority": 4,
        "UpPoolId": [
            10102,
            10104
        ],
        "DailyScanLimit": 10,
        "JMHLCHLFDMG": 980400007,
        "CHFOFOOFABA": 2712695787
    },
    {
        "Id": 5,
        "TypeId": 1005,
        "Priority": 5,
        "UpPoolId": [
            10103,
            10104
        ],
        "DailyScanLimit": 10,
        "JMHLCHLFDMG": 777142271,
        "CHFOFOOFABA": 3671974955
    },
    {
        "Id": 6,
        "TypeId": 1006,
        "Priority": 6,
        "UpPoolId": [
            10104,
            10105
        ],
        "DailyScanLimit": 10,
        "JMHLCHLFDMG": 2795697519,
        "CHFOFOOFABA": 3615068699
    },
    {
        "Id": 7,
        "TypeId": 1007,
        "Priority": 7,
        "UpPoolId": [
            10105,
            10101
        ],
        "DailyScanLimit": 10,
        "JMHLCHLFDMG": 1919111351,
        "CHFOFOOFABA": 1358466587
    }
]