[
    {
        "Id": 1,
        "NameTextMapHash": 401327791,
        "Icon": "UI_BlossomIcon_Camp_01",
        "DescTextMapHash": 565619705,
        "CityId": 1,
        "RefreshType": "BLOSSOM_REFRESH_SCOIN",
        "RefreshCount": 1,
        "RefreshTime": "04:00:00",
        "RefreshCondVec": [
            {
                "Type": "BLOSSOM_REFRESH_COND_PLAYER_LEVEL_EQUAL_GREATER",
                "Param": [
                    12
                ]
            },
            {
                "Param": []
            },
            {
                "Param": []
            },
            {
                "Param": []
            },
            {
                "Param": []
            }
        ],
        "ReviseLevel": 3,
        "BlossomChestId": 1,
        "CampUpdateNeedCount": 1,
        "DropVec": [
            {
                "DropId": 207000400,
                "PreviewReward": 4101
            },
            {
                "DropId": 207000800,
                "PreviewReward": 4103
            },
            {
                "DropId": 207000900,
                "PreviewReward": 4104
            },
            {
                "DropId": 207001000,
                "PreviewReward": 4105
            },
            {
                "DropId": 207001100,
                "PreviewReward": 4106
            },
            {
                "DropId": 207001200,
                "PreviewReward": 4107
            },
            {
                "DropId": 207001300,
                "PreviewReward": 4108
            },
            {
                "DropId": 207001400,
                "PreviewReward": 4109
            },
            {
                "DropId": 207001500,
                "PreviewReward": 4110
            }
        ],
        "ClientShowType": "BLOSSOM_SHOWTYPE_CHALLENGE"
    },
    {
        "Id": 2,
        "NameTextMapHash": 3301346927,
        "Icon": "UI_BlossomIcon_Camp_02",
        "DescTextMapHash": 3731213553,
        "CityId": 1,
        "RefreshType": "BLOSSOM_REFRESH_EXP",
        "RefreshCount": 1,
        "RefreshTime": "04:00:00",
        "RefreshCondVec": [
            {
                "Type": "BLOSSOM_REFRESH_COND_PLAYER_LEVEL_EQUAL_GREATER",
                "Param": [
                    8
                ]
            },
            {
                "Param": []
            },
            {
                "Param": []
            },
            {
                "Param": []
            },
            {
                "Param": []
            }
        ],
        "ReviseLevel": 3,
        "BlossomChestId": 2,
        "CampUpdateNeedCount": 1,
        "DropVec": [
            {
                "DropId": 206000400,
                "PreviewReward": 4001
            },
            {
                "DropId": 206000800,
                "PreviewReward": 4003
            },
            {
                "DropId": 206000900,
                "PreviewReward": 4004
            },
            {
                "DropId": 206001000,
                "PreviewReward": 4005
            },
            {
                "DropId": 206001100,
                "PreviewReward": 4006
            },
            {
                "DropId": 206001200,
                "PreviewReward": 4007
            },
            {
                "DropId": 206001300,
                "PreviewReward": 4008
            },
            {
                "DropId": 206001400,
                "PreviewReward": 4009
            },
            {
                "DropId": 206001500,
                "PreviewReward": 4010
            }
        ],
        "ClientShowType": "BLOSSOM_SHOWTYPE_CHALLENGE"
    },
    {
        "Id": 3,
        "NameTextMapHash": 1214359487,
        "Icon": "UI_BlossomIcon_Camp_01",
        "DescTextMapHash": 4103809745,
        "CityId": 2,
        "RefreshType": "BLOSSOM_REFRESH_SCOIN",
        "RefreshCount": 1,
        "RefreshTime": "04:00:00",
        "RefreshCondVec": [
            {
                "Type": "BLOSSOM_REFRESH_COND_PLAYER_LEVEL_EQUAL_GREATER",
                "Param": [
                    18
                ]
            },
            {
                "Param": []
            },
            {
                "Param": []
            },
            {
                "Param": []
            },
            {
                "Param": []
            }
        ],
        "ReviseLevel": 3,
        "BlossomChestId": 1,
        "CampUpdateNeedCount": 1,
        "DropVec": [
            {
                "DropId": 207000400,
                "PreviewReward": 4101
            },
            {
                "DropId": 207000800,
                "PreviewReward": 4103
            },
            {
                "DropId": 207000900,
                "PreviewReward": 4104
            },
            {
                "DropId": 207001000,
                "PreviewReward": 4105
            },
            {
                "DropId": 207001100,
                "PreviewReward": 4106
            },
            {
                "DropId": 207001200,
                "PreviewReward": 4107
            },
            {
                "DropId": 207001300,
                "PreviewReward": 4108
            },
            {
                "DropId": 207001400,
                "PreviewReward": 4109
            },
            {
                "DropId": 207001500,
                "PreviewReward": 4110
            }
        ],
        "ClientShowType": "BLOSSOM_SHOWTYPE_CHALLENGE"
    },
    {
        "Id": 4,
        "NameTextMapHash": 2028433687,
        "Icon": "UI_BlossomIcon_Camp_02",
        "DescTextMapHash": 1074281265,
        "CityId": 2,
        "RefreshType": "BLOSSOM_REFRESH_EXP",
        "RefreshCount": 1,
        "RefreshTime": "04:00:00",
        "RefreshCondVec": [
            {
                "Type": "BLOSSOM_REFRESH_COND_PLAYER_LEVEL_EQUAL_GREATER",
                "Param": [
                    18
                ]
            },
            {
                "Param": []
            },
            {
                "Param": []
            },
            {
                "Param": []
            },
            {
                "Param": []
            }
        ],
        "ReviseLevel": 3,
        "BlossomChestId": 2,
        "CampUpdateNeedCount": 1,
        "DropVec": [
            {
                "DropId": 206000400,
                "PreviewReward": 4001
            },
            {
                "DropId": 206000800,
                "PreviewReward": 4003
            },
            {
                "DropId": 206000900,
                "PreviewReward": 4004
            },
            {
                "DropId": 206001000,
                "PreviewReward": 4005
            },
            {
                "DropId": 206001100,
                "PreviewReward": 4006
            },
            {
                "DropId": 206001200,
                "PreviewReward": 4007
            },
            {
                "DropId": 206001300,
                "PreviewReward": 4008
            },
            {
                "DropId": 206001400,
                "PreviewReward": 4009
            },
            {
                "DropId": 206001500,
                "PreviewReward": 4010
            }
        ],
        "ClientShowType": "BLOSSOM_SHOWTYPE_CHALLENGE"
    },
    {
        "Id": 5,
        "NameTextMapHash": 2175153615,
        "Icon": "UI_BlossomSmallIcon_InfusedCrystal",
        "DescTextMapHash": 3958603497,
        "CityId": 1,
        "RefreshType": "BLOSSOM_REFRESH_CRYSTAL",
        "RefreshCount": 3,
        "RefreshTime": "06:00:00",
        "RefreshCondVec": [
            {
                "Type": "BLOSSOM_REFRESH_COND_PLAYER_LEVEL_EQUAL_GREATER",
                "Param": [
                    2
                ]
            },
            {
                "Type": "BLOSSOM_REFRESH_COND_PLAYER_LEVEL_LESS_THAN",
                "Param": [
                    30
                ]
            },
            {
                "Type": "BLOSSOM_REFRESH_COND_OPEN_STATE",
                "Param": [
                    1404
                ]
            },
            {
                "Param": []
            },
            {
                "Param": []
            }
        ],
        "ReviseLevel": 3,
        "DropVec": [
            {
                "DropId": 7000000
            },
            {
                "DropId": 7000000
            },
            {
                "DropId": 7000000
            },
            {
                "DropId": 7000000
            },
            {
                "DropId": 7000000
            },
            {
                "DropId": 7000000
            },
            {
                "DropId": 7000000
            },
            {
                "DropId": 7000000
            },
            {
                "DropId": 7000000
            }
        ],
        "ClientShowType": "BLOSSOM_SHOWTYPE_NPCTALK"
    },
    {
        "Id": 6,
        "NameTextMapHash": 1305217375,
        "Icon": "UI_BlossomSmallIcon_InfusedCrystal",
        "DescTextMapHash": 588666081,
        "CityId": 1,
        "RefreshType": "BLOSSOM_REFRESH_CRYSTAL",
        "RefreshCount": 3,
        "RefreshTime": "06:00:00",
        "RefreshCondVec": [
            {
                "Type": "BLOSSOM_REFRESH_COND_PLAYER_LEVEL_EQUAL_GREATER",
                "Param": [
                    2
                ]
            },
            {
                "Type": "BLOSSOM_REFRESH_COND_PLAYER_LEVEL_LESS_THAN",
                "Param": [
                    30
                ]
            },
            {
                "Type": "BLOSSOM_REFRESH_COND_OPEN_STATE",
                "Param": [
                    1404
                ]
            },
            {
                "Param": []
            },
            {
                "Param": []
            }
        ],
        "ReviseLevel": 3,
        "DropVec": [
            {
                "DropId": 7000000
            },
            {
                "DropId": 7000000
            },
            {
                "DropId": 7000000
            },
            {
                "DropId": 7000000
            },
            {
                "DropId": 7000000
            },
            {
                "DropId": 7000000
            },
            {
                "DropId": 7000000
            },
            {
                "DropId": 7000000
            },
            {
                "DropId": 7000000
            }
        ],
        "ClientShowType": "BLOSSOM_SHOWTYPE_NPCTALK"
    },
    {
        "Id": 7,
        "NameTextMapHash": 3787269007,
        "Icon": "UI_BlossomSmallIcon_InfusedCrystal",
        "DescTextMapHash": 1177534665,
        "CityId": 2,
        "RefreshType": "BLOSSOM_REFRESH_CRYSTAL",
        "RefreshCount": 5,
        "RefreshTime": "06:00:00",
        "RefreshCondVec": [
            {
                "Type": "BLOSSOM_REFRESH_COND_PLAYER_LEVEL_EQUAL_GREATER",
                "Param": [
                    2
                ]
            },
            {
                "Type": "BLOSSOM_REFRESH_COND_PLAYER_LEVEL_LESS_THAN",
                "Param": [
                    30
                ]
            },
            {
                "Type": "BLOSSOM_REFRESH_COND_OPEN_STATE",
                "Param": [
                    1405
                ]
            },
            {
                "Param": []
            },
            {
                "Param": []
            }
        ],
        "ReviseLevel": 3,
        "DropVec": [
            {
                "DropId": 7000000
            },
            {
                "DropId": 7000000
            },
            {
                "DropId": 7000000
            },
            {
                "DropId": 7000000
            },
            {
                "DropId": 7000000
            },
            {
                "DropId": 7000000
            },
            {
                "DropId": 7000000
            },
            {
                "DropId": 7000000
            },
            {
                "DropId": 7000000
            }
        ],
        "ClientShowType": "BLOSSOM_SHOWTYPE_NPCTALK"
    },
    {
        "Id": 8,
        "NameTextMapHash": 1736761551,
        "Icon": "UI_BlossomSmallIcon_InfusedCrystal",
        "DescTextMapHash": 363571977,
        "CityId": 2,
        "RefreshType": "BLOSSOM_REFRESH_CRYSTAL",
        "RefreshCount": 5,
        "RefreshTime": "06:00:00",
        "RefreshCondVec": [
            {
                "Type": "BLOSSOM_REFRESH_COND_PLAYER_LEVEL_EQUAL_GREATER",
                "Param": [
                    2
                ]
            },
            {
                "Type": "BLOSSOM_REFRESH_COND_PLAYER_LEVEL_LESS_THAN",
                "Param": [
                    30
                ]
            },
            {
                "Type": "BLOSSOM_REFRESH_COND_OPEN_STATE",
                "Param": [
                    1405
                ]
            },
            {
                "Param": []
            },
            {
                "Param": []
            }
        ],
        "ReviseLevel": 3,
        "DropVec": [
            {
                "DropId": 7000000
            },
            {
                "DropId": 7000000
            },
            {
                "DropId": 7000000
            },
            {
                "DropId": 7000000
            },
            {
                "DropId": 7000000
            },
            {
                "DropId": 7000000
            },
            {
                "DropId": 7000000
            },
            {
                "DropId": 7000000
            },
            {
                "DropId": 7000000
            }
        ],
        "ClientShowType": "BLOSSOM_SHOWTYPE_NPCTALK"
    },
    {
        "Id": 9,
        "NameTextMapHash": 1649656023,
        "Icon": "UI_BlossomSmallIcon_InfusedCrystal",
        "DescTextMapHash": 315729313,
        "CityId": 1,
        "RefreshType": "BLOSSOM_REFRESH_INFUSED_CRYSTAL",
        "RefreshCount": 3,
        "RefreshTime": "06:00:00",
        "RefreshCondVec": [
            {
                "Type": "BLOSSOM_REFRESH_COND_PLAYER_LEVEL_EQUAL_GREATER",
                "Param": [
                    30
                ]
            },
            {
                "Param": []
            },
            {
                "Type": "BLOSSOM_REFRESH_COND_OPEN_STATE",
                "Param": [
                    1404
                ]
            },
            {
                "Param": []
            },
            {
                "Param": []
            }
        ],
        "ReviseLevel": 3,
        "DropVec": [
            {
                "DropId": 7000000
            },
            {
                "DropId": 7000000
            },
            {
                "DropId": 7000000
            },
            {
                "DropId": 7000000
            },
            {
                "DropId": 7000000
            },
            {
                "DropId": 7000000
            },
            {
                "DropId": 7000000
            },
            {
                "DropId": 7000000
            },
            {
                "DropId": 7000000
            }
        ],
        "ClientShowType": "BLOSSOM_SHOWTYPE_NPCTALK"
    },
    {
        "Id": 10,
        "NameTextMapHash": 969026335,
        "Icon": "UI_BlossomSmallIcon_InfusedCrystal",
        "DescTextMapHash": 560581649,
        "CityId": 1,
        "RefreshType": "BLOSSOM_REFRESH_INFUSED_CRYSTAL",
        "RefreshCount": 3,
        "RefreshTime": "06:00:00",
        "RefreshCondVec": [
            {
                "Type": "BLOSSOM_REFRESH_COND_PLAYER_LEVEL_EQUAL_GREATER",
                "Param": [
                    30
                ]
            },
            {
                "Param": []
            },
            {
                "Type": "BLOSSOM_REFRESH_COND_OPEN_STATE",
                "Param": [
                    1404
                ]
            },
            {
                "Param": []
            },
            {
                "Param": []
            }
        ],
        "ReviseLevel": 3,
        "DropVec": [
            {
                "DropId": 7000000
            },
            {
                "DropId": 7000000
            },
            {
                "DropId": 7000000
            },
            {
                "DropId": 7000000
            },
            {
                "DropId": 7000000
            },
            {
                "DropId": 7000000
            },
            {
                "DropId": 7000000
            },
            {
                "DropId": 7000000
            },
            {
                "DropId": 7000000
            }
        ],
        "ClientShowType": "BLOSSOM_SHOWTYPE_NPCTALK"
    },
    {
        "Id": 11,
        "NameTextMapHash": 744591535,
        "Icon": "UI_BlossomSmallIcon_InfusedCrystal",
        "DescTextMapHash": 4203860761,
        "CityId": 2,
        "RefreshType": "BLOSSOM_REFRESH_INFUSED_CRYSTAL",
        "RefreshCount": 5,
        "RefreshTime": "06:00:00",
        "RefreshCondVec": [
            {
                "Type": "BLOSSOM_REFRESH_COND_PLAYER_LEVEL_EQUAL_GREATER",
                "Param": [
                    30
                ]
            },
            {
                "Param": []
            },
            {
                "Type": "BLOSSOM_REFRESH_COND_OPEN_STATE",
                "Param": [
                    1405
                ]
            },
            {
                "Param": []
            },
            {
                "Param": []
            }
        ],
        "ReviseLevel": 3,
        "DropVec": [
            {
                "DropId": 7000000
            },
            {
                "DropId": 7000000
            },
            {
                "DropId": 7000000
            },
            {
                "DropId": 7000000
            },
            {
                "DropId": 7000000
            },
            {
                "DropId": 7000000
            },
            {
                "DropId": 7000000
            },
            {
                "DropId": 7000000
            },
            {
                "DropId": 7000000
            }
        ],
        "ClientShowType": "BLOSSOM_SHOWTYPE_NPCTALK"
    },
    {
        "Id": 12,
        "NameTextMapHash": 2328046679,
        "Icon": "UI_BlossomSmallIcon_InfusedCrystal",
        "DescTextMapHash": 1820652065,
        "CityId": 2,
        "RefreshType": "BLOSSOM_REFRESH_INFUSED_CRYSTAL",
        "RefreshCount": 5,
        "RefreshTime": "06:00:00",
        "RefreshCondVec": [
            {
                "Type": "BLOSSOM_REFRESH_COND_PLAYER_LEVEL_EQUAL_GREATER",
                "Param": [
                    30
                ]
            },
            {
                "Param": []
            },
            {
                "Type": "BLOSSOM_REFRESH_COND_OPEN_STATE",
                "Param": [
                    1405
                ]
            },
            {
                "Param": []
            },
            {
                "Param": []
            }
        ],
        "ReviseLevel": 3,
        "DropVec": [
            {
                "DropId": 7000000
            },
            {
                "DropId": 7000000
            },
            {
                "DropId": 7000000
            },
            {
                "DropId": 7000000
            },
            {
                "DropId": 7000000
            },
            {
                "DropId": 7000000
            },
            {
                "DropId": 7000000
            },
            {
                "DropId": 7000000
            },
            {
                "DropId": 7000000
            }
        ],
        "ClientShowType": "BLOSSOM_SHOWTYPE_NPCTALK"
    },
    {
        "Id": 13,
        "NameTextMapHash": 2551444143,
        "Icon": "UI_ActivitySmallIcon_CampSmall",
        "DescTextMapHash": 1053168465,
        "CityId": 11,
        "RefreshType": "BLOSSOM_REFRESH_DRAGON_SPINE_A",
        "RefreshCount": 1,
        "RefreshTime": "04:00:00",
        "RefreshCondVec": [
            {
                "Type": "BLOSSOM_REFRESH_COND_ACTIVITY_COND",
                "Param": [
                    3001,
                    3001201
                ]
            },
            {
                "Param": []
            },
            {
                "Param": []
            },
            {
                "Param": []
            },
            {
                "Param": []
            }
        ],
        "ReviseLevel": 6,
        "ItemLimitType": "ITEM_LIMIT_ACTIVITY_DRAGON_SPINE_DROP",
        "BlossomChestId": 3,
        "CampUpdateNeedCount": 1,
        "DropVec": [
            {
                "DropId": 211000101,
                "PreviewReward": 30311
            },
            {
                "DropId": 211000102,
                "PreviewReward": 30312
            },
            {
                "DropId": 211000103,
                "PreviewReward": 30313
            },
            {
                "DropId": 211000104,
                "PreviewReward": 30314
            },
            {
                "DropId": 211000105,
                "PreviewReward": 30315
            },
            {
                "DropId": 211000106,
                "PreviewReward": 30316
            },
            {
                "DropId": 211000107,
                "PreviewReward": 30317
            },
            {
                "DropId": 211000108,
                "PreviewReward": 30318
            },
            {
                "DropId": 211000109,
                "PreviewReward": 30319
            }
        ],
        "ClientShowType": "BLOSSOM_SHOWTYPE_GROUPCHALLENGE"
    },
    {
        "Id": 14,
        "NameTextMapHash": 1923317167,
        "Icon": "UI_ActivitySmallIcon_CampLarge",
        "DescTextMapHash": 4068761625,
        "CityId": 11,
        "RefreshType": "BLOSSOM_REFRESH_DRAGON_SPINE_B",
        "RefreshCount": 1,
        "RefreshTime": "04:00:00",
        "RefreshCondVec": [
            {
                "Type": "BLOSSOM_REFRESH_COND_ACTIVITY_COND",
                "Param": [
                    3001,
                    3001202
                ]
            },
            {
                "Param": []
            },
            {
                "Param": []
            },
            {
                "Param": []
            },
            {
                "Param": []
            }
        ],
        "ReviseLevel": 7,
        "ItemLimitType": "ITEM_LIMIT_ACTIVITY_DRAGON_SPINE_DROP",
        "BlossomChestId": 4,
        "CampUpdateNeedCount": 1,
        "DropVec": [
            {
                "DropId": 211000201,
                "PreviewReward": 30321
            },
            {
                "DropId": 211000202,
                "PreviewReward": 30322
            },
            {
                "DropId": 211000203,
                "PreviewReward": 30323
            },
            {
                "DropId": 211000204,
                "PreviewReward": 30324
            },
            {
                "DropId": 211000205,
                "PreviewReward": 30325
            },
            {
                "DropId": 211000206,
                "PreviewReward": 30326
            },
            {
                "DropId": 211000207,
                "PreviewReward": 30327
            },
            {
                "DropId": 211000208,
                "PreviewReward": 30328
            },
            {
                "DropId": 211000209,
                "PreviewReward": 30329
            }
        ],
        "ClientShowType": "BLOSSOM_SHOWTYPE_GROUPCHALLENGE"
    }
]