[
    {
        "BuffID": 10001,
        "Icon": "UI_Buff_Atk",
        "MutexType": 1001,
        "Desc": "攻击力提升",
        "DispelEffect": "",
        "StartEffect": "",
        "DurationEffect": "Eff_Avatar_Properties_Attack_Up"
    },
    {
        "BuffID": 10002,
        "Icon": "UI_Buff_Def",
        "MutexType": 1002,
        "Desc": "防御力提升",
        "DispelEffect": "",
        "StartEffect": "",
        "DurationEffect": "Eff_Avatar_Properties_Defense_Up"
    },
    {
        "BuffID": 10003,
        "Icon": "UI_Buff_Speed",
        "MutexType": 1003,
        "Desc": "速度提升",
        "DispelEffect": "",
        "StartEffect": "",
        "DurationEffect": "Eff_Avatar_Properties_Speed_Up"
    },
    {
        "BuffID": 10004,
        "Icon": "UI_Buff_Revive",
        "MutexType": 1004,
        "Desc": "芭芭拉赋予一次复生机会",
        "DispelEffect": "",
        "StartEffect": "",
        "DurationEffect": ""
    },
    {
        "BuffID": 10005,
        "Icon": "UI_Buff_Special",
        "MutexType": 1005,
        "Desc": "特殊效果，例如下次攻击提高等等",
        "DispelEffect": "",
        "StartEffect": "",
        "DurationEffect": ""
    },
    {
        "BuffID": 10006,
        "Icon": "UI_Buff_Item_Recovery_HpAdd",
        "MutexType": 1006,
        "Desc": "任意持续回血效果（测试中）",
        "DispelEffect": "",
        "StartEffect": "",
        "DurationEffect": ""
    },
    {
        "BuffID": 10007,
        "Icon": "UI_Buff_Special",
        "MutexType": 1007,
        "Desc": "莫娜水激流增加重击伤害",
        "DispelEffect": "",
        "StartEffect": "",
        "DurationEffect": ""
    },
    {
        "BuffID": 10011,
        "Icon": "UI_Buff_Atk",
        "MutexType": 1001,
        "Desc": "攻击力提升",
        "DispelEffect": "",
        "StartEffect": "",
        "DurationEffect": ""
    },
    {
        "BuffID": 10021,
        "Icon": "UI_Buff_Def",
        "MutexType": 1002,
        "Desc": "防御力提升",
        "DispelEffect": "",
        "StartEffect": "",
        "DurationEffect": ""
    },
    {
        "BuffID": 10031,
        "Icon": "UI_Buff_Speed",
        "MutexType": 1003,
        "Desc": "速度提升",
        "DispelEffect": "",
        "StartEffect": "",
        "DurationEffect": ""
    },
    {
        "BuffID": 30001,
        "Icon": "UI_Buff_Atk",
        "MutexType": 3001,
        "Desc": "地城增益",
        "DispelEffect": "",
        "StartEffect": "",
        "DurationEffect": ""
    },
    {
        "BuffID": 30002,
        "Icon": "UI_Buff_Atk",
        "MutexType": 3001,
        "Desc": "地城增益",
        "DispelEffect": "",
        "StartEffect": "",
        "DurationEffect": ""
    },
    {
        "BuffID": 30003,
        "Icon": "UI_Buff_Atk",
        "MutexType": 3001,
        "Desc": "地城增益",
        "DispelEffect": "",
        "StartEffect": "",
        "DurationEffect": ""
    },
    {
        "BuffID": 30004,
        "Icon": "UI_Buff_Atk",
        "MutexType": 3001,
        "Desc": "地城增益",
        "DispelEffect": "",
        "StartEffect": "",
        "DurationEffect": ""
    },
    {
        "BuffID": 30005,
        "Icon": "UI_Buff_Atk",
        "MutexType": 3001,
        "Desc": "地城增益",
        "DispelEffect": "",
        "StartEffect": "",
        "DurationEffect": ""
    },
    {
        "BuffID": 30006,
        "Icon": "UI_Buff_Atk",
        "MutexType": 3001,
        "Desc": "地城增益",
        "DispelEffect": "",
        "StartEffect": "",
        "DurationEffect": ""
    },
    {
        "BuffID": 30007,
        "Icon": "UI_Buff_Atk",
        "MutexType": 3001,
        "Desc": "地城增益",
        "DispelEffect": "",
        "StartEffect": "",
        "DurationEffect": ""
    },
    {
        "BuffID": 30008,
        "Icon": "",
        "MutexType": 3001,
        "Desc": "地脉buff",
        "DispelEffect": "",
        "StartEffect": "",
        "DurationEffect": ""
    },
    {
        "BuffID": 30009,
        "Icon": "",
        "MutexType": 3001,
        "Desc": "地脉buff",
        "DispelEffect": "",
        "StartEffect": "",
        "DurationEffect": ""
    },
    {
        "BuffID": 30010,
        "Icon": "UI_Buff_Def",
        "MutexType": 3002,
        "Desc": "地城增益",
        "DispelEffect": "",
        "StartEffect": "",
        "DurationEffect": ""
    },
    {
        "BuffID": 30011,
        "Icon": "",
        "MutexType": 3002,
        "Desc": "地脉buff",
        "DispelEffect": "",
        "StartEffect": "",
        "DurationEffect": ""
    },
    {
        "BuffID": 30012,
        "Icon": "UI_Buff_Def",
        "MutexType": 3002,
        "Desc": "地城增益",
        "DispelEffect": "",
        "StartEffect": "",
        "DurationEffect": ""
    },
    {
        "BuffID": 30013,
        "Icon": "UI_Buff_Def",
        "MutexType": 3002,
        "Desc": "地城增益",
        "DispelEffect": "",
        "StartEffect": "",
        "DurationEffect": ""
    },
    {
        "BuffID": 30014,
        "Icon": "UI_Buff_Def",
        "MutexType": 3002,
        "Desc": "地城增益",
        "DispelEffect": "",
        "StartEffect": "",
        "DurationEffect": ""
    },
    {
        "BuffID": 30015,
        "Icon": "UI_Buff_Def",
        "MutexType": 3002,
        "Desc": "地城增益",
        "DispelEffect": "",
        "StartEffect": "",
        "DurationEffect": ""
    },
    {
        "BuffID": 30016,
        "Icon": "UI_Buff_Def",
        "MutexType": 3002,
        "Desc": "地城增益",
        "DispelEffect": "",
        "StartEffect": "",
        "DurationEffect": ""
    },
    {
        "BuffID": 30017,
        "Icon": "UI_Buff_Def",
        "MutexType": 3002,
        "Desc": "地城增益",
        "DispelEffect": "",
        "StartEffect": "",
        "DurationEffect": ""
    },
    {
        "BuffID": 30018,
        "Icon": "UI_Buff_Def",
        "MutexType": 3002,
        "Desc": "地城增益",
        "DispelEffect": "",
        "StartEffect": "",
        "DurationEffect": ""
    },
    {
        "BuffID": 30019,
        "Icon": "UI_Buff_Def",
        "MutexType": 3002,
        "Desc": "地城增益",
        "DispelEffect": "",
        "StartEffect": "",
        "DurationEffect": ""
    },
    {
        "BuffID": 30020,
        "Icon": "UI_Buff_Def",
        "MutexType": 3002,
        "Desc": "地城增益",
        "DispelEffect": "",
        "StartEffect": "",
        "DurationEffect": ""
    },
    {
        "BuffID": 30021,
        "Icon": "UI_Buff_Special",
        "MutexType": 3003,
        "Desc": "地城增益",
        "DispelEffect": "",
        "StartEffect": "",
        "DurationEffect": ""
    },
    {
        "BuffID": 30022,
        "Icon": "",
        "MutexType": 3002,
        "Desc": "地脉buff",
        "DispelEffect": "",
        "StartEffect": "",
        "DurationEffect": ""
    },
    {
        "BuffID": 30023,
        "Icon": "UI_Buff_Def",
        "MutexType": 3002,
        "Desc": "地城增益",
        "DispelEffect": "",
        "StartEffect": "",
        "DurationEffect": ""
    },
    {
        "BuffID": 30024,
        "Icon": "UI_Buff_Def",
        "MutexType": 3002,
        "Desc": "地城增益",
        "DispelEffect": "",
        "StartEffect": "",
        "DurationEffect": ""
    },
    {
        "BuffID": 30025,
        "Icon": "UI_Buff_Special",
        "MutexType": 3003,
        "Desc": "地城增益",
        "DispelEffect": "",
        "StartEffect": "",
        "DurationEffect": ""
    },
    {
        "BuffID": 30026,
        "Icon": "UI_Buff_Special",
        "MutexType": 3003,
        "Desc": "地城增益",
        "DispelEffect": "",
        "StartEffect": "",
        "DurationEffect": ""
    },
    {
        "BuffID": 30027,
        "Icon": "",
        "MutexType": 3003,
        "Desc": "地脉buff",
        "DispelEffect": "",
        "StartEffect": "",
        "DurationEffect": ""
    },
    {
        "BuffID": 30028,
        "Icon": "",
        "MutexType": 3003,
        "Desc": "地脉buff",
        "DispelEffect": "",
        "StartEffect": "",
        "DurationEffect": ""
    },
    {
        "BuffID": 30029,
        "Icon": "",
        "MutexType": 3003,
        "Desc": "地脉buff",
        "DispelEffect": "",
        "StartEffect": "",
        "DurationEffect": ""
    },
    {
        "BuffID": 30030,
        "Icon": "",
        "MutexType": 3003,
        "Desc": "地脉buff",
        "DispelEffect": "",
        "StartEffect": "",
        "DurationEffect": ""
    },
    {
        "BuffID": 30031,
        "Icon": "",
        "MutexType": 3003,
        "Desc": "地脉buff",
        "DispelEffect": "",
        "StartEffect": "",
        "DurationEffect": ""
    },
    {
        "BuffID": 30032,
        "Icon": "",
        "MutexType": 3003,
        "Desc": "地脉buff",
        "DispelEffect": "",
        "StartEffect": "",
        "DurationEffect": ""
    },
    {
        "BuffID": 30033,
        "Icon": "",
        "MutexType": 3003,
        "Desc": "地脉buff",
        "DispelEffect": "",
        "StartEffect": "",
        "DurationEffect": ""
    },
    {
        "BuffID": 30034,
        "Icon": "",
        "MutexType": 3003,
        "Desc": "地脉buff",
        "DispelEffect": "",
        "StartEffect": "",
        "DurationEffect": ""
    },
    {
        "BuffID": 30035,
        "Icon": "",
        "MutexType": 3003,
        "Desc": "地脉buff",
        "DispelEffect": "",
        "StartEffect": "",
        "DurationEffect": ""
    },
    {
        "BuffID": 30036,
        "Icon": "",
        "MutexType": 3003,
        "Desc": "地脉buff",
        "DispelEffect": "",
        "StartEffect": "",
        "DurationEffect": ""
    },
    {
        "BuffID": 30037,
        "Icon": "UI_Buff_Atk",
        "MutexType": 3001,
        "Desc": "地城增益",
        "DispelEffect": "",
        "StartEffect": "",
        "DurationEffect": ""
    },
    {
        "BuffID": 30038,
        "Icon": "UI_Buff_Special",
        "MutexType": 3003,
        "Desc": "地城增益",
        "DispelEffect": "",
        "StartEffect": "",
        "DurationEffect": ""
    },
    {
        "BuffID": 30039,
        "Icon": "UI_Buff_Atk",
        "MutexType": 3001,
        "Desc": "地城增益",
        "DispelEffect": "",
        "StartEffect": "",
        "DurationEffect": ""
    },
    {
        "BuffID": 30040,
        "Icon": "UI_Buff_Atk",
        "MutexType": 3001,
        "Desc": "地城增益",
        "DispelEffect": "",
        "StartEffect": "",
        "DurationEffect": ""
    },
    {
        "BuffID": 30041,
        "Icon": "UI_Buff_Atk",
        "MutexType": 3001,
        "Desc": "地城增益",
        "DispelEffect": "",
        "StartEffect": "",
        "DurationEffect": ""
    },
    {
        "BuffID": 30042,
        "Icon": "UI_Buff_Def",
        "MutexType": 3002,
        "Desc": "地城增益",
        "DispelEffect": "",
        "StartEffect": "",
        "DurationEffect": ""
    },
    {
        "BuffID": 30043,
        "Icon": "UI_Buff_Def",
        "MutexType": 3002,
        "Desc": "地城增益",
        "DispelEffect": "",
        "StartEffect": "",
        "DurationEffect": ""
    },
    {
        "BuffID": 30044,
        "Icon": "UI_Buff_Atk",
        "MutexType": 3001,
        "Desc": "地城增益",
        "DispelEffect": "",
        "StartEffect": "",
        "DurationEffect": ""
    },
    {
        "BuffID": 30045,
        "Icon": "UI_Buff_Atk",
        "MutexType": 3001,
        "Desc": "地城增益",
        "DispelEffect": "",
        "StartEffect": "",
        "DurationEffect": ""
    },
    {
        "BuffID": 35001,
        "Icon": "UI_Buff_Atk",
        "MutexType": 3001,
        "Desc": "地城增益",
        "DispelEffect": "",
        "StartEffect": "",
        "DurationEffect": ""
    },
    {
        "BuffID": 35002,
        "Icon": "UI_Buff_Atk",
        "MutexType": 3001,
        "Desc": "地城增益",
        "DispelEffect": "",
        "StartEffect": "",
        "DurationEffect": ""
    },
    {
        "BuffID": 35003,
        "Icon": "UI_Buff_Atk",
        "MutexType": 3001,
        "Desc": "地城增益",
        "DispelEffect": "",
        "StartEffect": "",
        "DurationEffect": ""
    },
    {
        "BuffID": 35004,
        "Icon": "",
        "MutexType": 3003,
        "Desc": "地脉buff",
        "DispelEffect": "",
        "StartEffect": "",
        "DurationEffect": ""
    },
    {
        "BuffID": 35005,
        "Icon": "",
        "MutexType": 3003,
        "Desc": "地脉buff",
        "DispelEffect": "",
        "StartEffect": "",
        "DurationEffect": ""
    },
    {
        "BuffID": 35006,
        "Icon": "",
        "MutexType": 3003,
        "Desc": "地脉buff",
        "DispelEffect": "",
        "StartEffect": "",
        "DurationEffect": ""
    },
    {
        "BuffID": 35007,
        "Icon": "",
        "MutexType": 3003,
        "Desc": "地脉buff",
        "DispelEffect": "",
        "StartEffect": "",
        "DurationEffect": ""
    },
    {
        "BuffID": 35008,
        "Icon": "",
        "MutexType": 3003,
        "Desc": "地脉buff",
        "DispelEffect": "",
        "StartEffect": "",
        "DurationEffect": ""
    },
    {
        "BuffID": 35009,
        "Icon": "",
        "MutexType": 3003,
        "Desc": "地脉buff",
        "DispelEffect": "",
        "StartEffect": "",
        "DurationEffect": ""
    },
    {
        "BuffID": 35010,
        "Icon": "UI_Buff_Atk",
        "MutexType": 3001,
        "Desc": "地城增益",
        "DispelEffect": "",
        "StartEffect": "",
        "DurationEffect": ""
    },
    {
        "BuffID": 35011,
        "Icon": "",
        "MutexType": 3003,
        "Desc": "地脉buff",
        "DispelEffect": "",
        "StartEffect": "",
        "DurationEffect": ""
    },
    {
        "BuffID": 35012,
        "Icon": "",
        "MutexType": 3003,
        "Desc": "地脉buff",
        "DispelEffect": "",
        "StartEffect": "",
        "DurationEffect": ""
    },
    {
        "BuffID": 35013,
        "Icon": "",
        "MutexType": 3003,
        "Desc": "地脉buff",
        "DispelEffect": "",
        "StartEffect": "",
        "DurationEffect": ""
    },
    {
        "BuffID": 35014,
        "Icon": "",
        "MutexType": 3003,
        "Desc": "地脉buff",
        "DispelEffect": "",
        "StartEffect": "",
        "DurationEffect": ""
    },
    {
        "BuffID": 35015,
        "Icon": "",
        "MutexType": 3003,
        "Desc": "地脉buff",
        "DispelEffect": "",
        "StartEffect": "",
        "DurationEffect": ""
    },
    {
        "BuffID": 50001,
        "Icon": "UI_Buff_Item_Atk",
        "MutexType": 5001,
        "Desc": "从食物获得攻击",
        "DispelEffect": "",
        "StartEffect": "",
        "DurationEffect": ""
    },
    {
        "BuffID": 50002,
        "Icon": "UI_Buff_Item_Def",
        "MutexType": 5002,
        "Desc": "从食物获得防御",
        "DispelEffect": "",
        "StartEffect": "",
        "DurationEffect": ""
    },
    {
        "BuffID": 50003,
        "Icon": "UI_Buff_Item_Special",
        "MutexType": 5003,
        "Desc": "特殊食物效果",
        "DispelEffect": "",
        "StartEffect": "",
        "DurationEffect": ""
    },
    {
        "BuffID": 50004,
        "Icon": "UI_Buff_Item_Mixture",
        "MutexType": 5004,
        "Desc": "药剂效果",
        "DispelEffect": "",
        "StartEffect": "",
        "DurationEffect": ""
    },
    {
        "BuffID": 50005,
        "Icon": "UI_Buff_Item_Climate_Heat",
        "MutexType": 5005,
        "Desc": "抗寒料理效果",
        "DispelEffect": "",
        "StartEffect": "",
        "DurationEffect": ""
    },
    {
        "BuffID": 60001,
        "Icon": "UI_DeBuff_Attack",
        "MutexType": 6001,
        "Desc": "攻击力下降",
        "DispelEffect": "",
        "StartEffect": "",
        "DurationEffect": "Eff_Avatar_Properties_Attack_Down"
    },
    {
        "BuffID": 60002,
        "Icon": "UI_DeBuff_Def",
        "MutexType": 6002,
        "Desc": "防御力下降",
        "DispelEffect": "",
        "StartEffect": "",
        "DurationEffect": "Eff_Avatar_Properties_Defense_Down"
    },
    {
        "BuffID": 60003,
        "Icon": "UI_DeBuff_Speed",
        "MutexType": 6003,
        "Desc": "速度下降",
        "DispelEffect": "",
        "StartEffect": "",
        "DurationEffect": "Eff_Avatar_Properties_Speed_Down"
    },
    {
        "BuffID": 60011,
        "Icon": "UI_DeBuff_Atk",
        "MutexType": 6001,
        "Desc": "攻击力下降",
        "DispelEffect": "",
        "StartEffect": "",
        "DurationEffect": ""
    },
    {
        "BuffID": 60012,
        "Icon": "UI_DeBuff_Def",
        "MutexType": 6002,
        "Desc": "防御力下降",
        "DispelEffect": "",
        "StartEffect": "",
        "DurationEffect": ""
    },
    {
        "BuffID": 60013,
        "Icon": "UI_DeBuff_Speed",
        "MutexType": 6003,
        "Desc": "速度下降",
        "DispelEffect": "",
        "StartEffect": "",
        "DurationEffect": ""
    },
    {
        "BuffID": 90001,
        "Icon": "UI_DeBuff_Energy",
        "MutexType": 9001,
        "Desc": "角色不断流失能量",
        "DispelEffect": "ClearDebuff",
        "StartEffect": "Eff_Weapon_Wolfmound_Head",
        "DurationEffect": ""
    },
    {
        "BuffID": 90002,
        "Icon": "UI_DeBuff_Hp",
        "MutexType": 9002,
        "Desc": "角色不断受到伤害",
        "DispelEffect": "ClearDebuff",
        "StartEffect": "Eff_Weapon_Wolfmound_Head",
        "DurationEffect": ""
    },
    {
        "BuffID": 90003,
        "Icon": "UI_DeBuff_Consume",
        "MutexType": 9003,
        "Desc": "角色消耗额外体力",
        "DispelEffect": "ClearDebuff",
        "StartEffect": "Eff_Weapon_Wolfmound_Head",
        "DurationEffect": ""
    },
    {
        "BuffID": 90004,
        "Icon": "UI_DeBuff_CDTime",
        "MutexType": 9004,
        "Desc": "角色技能CD变长",
        "DispelEffect": "ClearDebuff",
        "StartEffect": "Eff_Weapon_Wolfmound_Head",
        "DurationEffect": ""
    }
]