[
    {
        "GroupId": 1,
        "Name": "攻击提升料理",
        "Desc": "提升30%攻击，持续时间3分钟",
        "Time": 180.0,
        "ServerBuffId": 1,
        "ServerBuffType": "SERVER_BUFF_AVATAR",
        "AbilityName": "Item_Food_Attack",
        "ModifierName": "AttackModifier"
    },
    {
        "GroupId": 1,
        "Name": "防御提升料理",
        "Desc": "提升30%防御，持续时间3分钟",
        "Time": 180.0,
        "ServerBuffId": 2,
        "ServerBuffType": "SERVER_BUFF_AVATAR",
        "AbilityName": "Item_Food_Defence",
        "ModifierName": "DefenceModifier"
    },
    {
        "GroupId": 2,
        "Name": "生命提升料理",
        "Desc": "提升50%最大生命，持续时间3分钟",
        "Time": 180.0,
        "ServerBuffId": 3,
        "ServerBuffType": "SERVER_BUFF_AVATAR",
        "AbilityName": "Item_Food_MaxHP",
        "ModifierName": "MaxHPModifier"
    },
    {
        "GroupId": 10,
        "Name": "hot单回-1阶",
        "Desc": "8%+210",
        "Time": 31.0,
        "ServerBuffId": 100101,
        "ServerBuffType": "SERVER_BUFF_AVATAR",
        "AbilityName": "ReHP_Ins&Con",
        "ModifierName": "ReHP_Ins&Con_Modifier_lv1_1"
    },
    {
        "GroupId": 10,
        "Name": "hot单回-1阶",
        "Desc": "9%+260",
        "Time": 31.0,
        "ServerBuffId": 100102,
        "ServerBuffType": "SERVER_BUFF_AVATAR",
        "AbilityName": "ReHP_Ins&Con",
        "ModifierName": "ReHP_Ins&Con_Modifier_lv1_2"
    },
    {
        "GroupId": 10,
        "Name": "hot单回-1阶",
        "Desc": "10%+300",
        "Time": 31.0,
        "ServerBuffId": 100103,
        "ServerBuffType": "SERVER_BUFF_AVATAR",
        "AbilityName": "ReHP_Ins&Con",
        "ModifierName": "ReHP_Ins&Con_Modifier_lv1_3"
    },
    {
        "GroupId": 10,
        "Name": "hot单回-1阶",
        "Desc": "14%+350",
        "Time": 31.0,
        "ServerBuffId": 100104,
        "ServerBuffType": "SERVER_BUFF_AVATAR",
        "AbilityName": "ReHP_Ins&Con",
        "ModifierName": "ReHP_Ins&Con_Modifier_lv1_4"
    },
    {
        "GroupId": 10,
        "Name": "hot单回-2阶",
        "Desc": "18%+300",
        "Time": 31.0,
        "ServerBuffId": 100201,
        "ServerBuffType": "SERVER_BUFF_AVATAR",
        "AbilityName": "ReHP_Ins&Con",
        "ModifierName": "ReHP_Ins&Con_Modifier_lv2_1"
    },
    {
        "GroupId": 10,
        "Name": "hot单回-2阶",
        "Desc": "20%+390",
        "Time": 31.0,
        "ServerBuffId": 100202,
        "ServerBuffType": "SERVER_BUFF_AVATAR",
        "AbilityName": "ReHP_Ins&Con",
        "ModifierName": "ReHP_Ins&Con_Modifier_lv2_2"
    },
    {
        "GroupId": 10,
        "Name": "hot单回-2阶",
        "Desc": "22%+470",
        "Time": 31.0,
        "ServerBuffId": 100203,
        "ServerBuffType": "SERVER_BUFF_AVATAR",
        "AbilityName": "ReHP_Ins&Con",
        "ModifierName": "ReHP_Ins&Con_Modifier_lv2_3"
    },
    {
        "GroupId": 10,
        "Name": "hot单回-2阶",
        "Desc": "26%+570",
        "Time": 31.0,
        "ServerBuffId": 100204,
        "ServerBuffType": "SERVER_BUFF_AVATAR",
        "AbilityName": "ReHP_Ins&Con",
        "ModifierName": "ReHP_Ins&Con_Modifier_lv2_4"
    },
    {
        "GroupId": 10,
        "Name": "hot单回-3阶",
        "Desc": "26%+450",
        "Time": 31.0,
        "ServerBuffId": 100301,
        "ServerBuffType": "SERVER_BUFF_AVATAR",
        "AbilityName": "ReHP_Ins&Con",
        "ModifierName": "ReHP_Ins&Con_Modifier_lv3_1"
    },
    {
        "GroupId": 10,
        "Name": "hot单回-3阶",
        "Desc": "28%+620",
        "Time": 31.0,
        "ServerBuffId": 100302,
        "ServerBuffType": "SERVER_BUFF_AVATAR",
        "AbilityName": "ReHP_Ins&Con",
        "ModifierName": "ReHP_Ins&Con_Modifier_lv3_2"
    },
    {
        "GroupId": 10,
        "Name": "hot单回-3阶",
        "Desc": "30%+790",
        "Time": 31.0,
        "ServerBuffId": 100303,
        "ServerBuffType": "SERVER_BUFF_AVATAR",
        "AbilityName": "ReHP_Ins&Con",
        "ModifierName": "ReHP_Ins&Con_Modifier_lv3_3"
    },
    {
        "GroupId": 10,
        "Name": "hot单回-3阶",
        "Desc": "34%+980",
        "Time": 31.0,
        "ServerBuffId": 100304,
        "ServerBuffType": "SERVER_BUFF_AVATAR",
        "AbilityName": "ReHP_Ins&Con",
        "ModifierName": "ReHP_Ins&Con_Modifier_lv3_4"
    },
    {
        "GroupId": 10,
        "Name": "单回料理-1阶",
        "Desc": "8%+800",
        "ServerBuffId": 105101,
        "ServerBuffType": "SERVER_BUFF_AVATAR",
        "AbilityName": "ReHP_Ins&Con",
        "ModifierName": "ReHP_Ins&Con_Modifier_lv51_1"
    },
    {
        "GroupId": 10,
        "Name": "单回料理-1阶",
        "Desc": "9%+1000",
        "ServerBuffId": 105102,
        "ServerBuffType": "SERVER_BUFF_AVATAR",
        "AbilityName": "ReHP_Ins&Con",
        "ModifierName": "ReHP_Ins&Con_Modifier_lv51_2"
    },
    {
        "GroupId": 10,
        "Name": "单回料理-1阶",
        "Desc": "10%+1200",
        "ServerBuffId": 105103,
        "ServerBuffType": "SERVER_BUFF_AVATAR",
        "AbilityName": "ReHP_Ins&Con",
        "ModifierName": "ReHP_Ins&Con_Modifier_lv51_3"
    },
    {
        "GroupId": 10,
        "Name": "单回料理-1阶",
        "Desc": "16%+1350",
        "ServerBuffId": 105104,
        "ServerBuffType": "SERVER_BUFF_AVATAR",
        "AbilityName": "ReHP_Ins&Con",
        "ModifierName": "ReHP_Ins&Con_Modifier_lv51_4"
    },
    {
        "GroupId": 10,
        "Name": "单回料理-2阶",
        "Desc": "20%+900",
        "ServerBuffId": 105201,
        "ServerBuffType": "SERVER_BUFF_AVATAR",
        "AbilityName": "ReHP_Ins&Con",
        "ModifierName": "ReHP_Ins&Con_Modifier_lv52_1"
    },
    {
        "GroupId": 10,
        "Name": "单回料理-2阶",
        "Desc": "22%+1200",
        "ServerBuffId": 105202,
        "ServerBuffType": "SERVER_BUFF_AVATAR",
        "AbilityName": "ReHP_Ins&Con",
        "ModifierName": "ReHP_Ins&Con_Modifier_lv52_2"
    },
    {
        "GroupId": 10,
        "Name": "单回料理-2阶",
        "Desc": "24%+1500",
        "ServerBuffId": 105203,
        "ServerBuffType": "SERVER_BUFF_AVATAR",
        "AbilityName": "ReHP_Ins&Con",
        "ModifierName": "ReHP_Ins&Con_Modifier_lv52_3"
    },
    {
        "GroupId": 10,
        "Name": "单回料理-2阶",
        "Desc": "30%+1750",
        "ServerBuffId": 105204,
        "ServerBuffType": "SERVER_BUFF_AVATAR",
        "AbilityName": "ReHP_Ins&Con",
        "ModifierName": "ReHP_Ins&Con_Modifier_lv52_4"
    },
    {
        "GroupId": 10,
        "Name": "单回料理-3阶",
        "Desc": "30%+600",
        "ServerBuffId": 105301,
        "ServerBuffType": "SERVER_BUFF_AVATAR",
        "AbilityName": "ReHP_Ins&Con",
        "ModifierName": "ReHP_Ins&Con_Modifier_lv53_1"
    },
    {
        "GroupId": 10,
        "Name": "单回料理-3阶",
        "Desc": "32%+1250",
        "ServerBuffId": 105302,
        "ServerBuffType": "SERVER_BUFF_AVATAR",
        "AbilityName": "ReHP_Ins&Con",
        "ModifierName": "ReHP_Ins&Con_Modifier_lv53_2"
    },
    {
        "GroupId": 10,
        "Name": "单回料理-3阶",
        "Desc": "34%+1900",
        "ServerBuffId": 105303,
        "ServerBuffType": "SERVER_BUFF_AVATAR",
        "AbilityName": "ReHP_Ins&Con",
        "ModifierName": "ReHP_Ins&Con_Modifier_lv53_3"
    },
    {
        "GroupId": 10,
        "Name": "单回料理-3阶",
        "Desc": "40%+2350",
        "ServerBuffId": 105304,
        "ServerBuffType": "SERVER_BUFF_AVATAR",
        "AbilityName": "ReHP_Ins&Con",
        "ModifierName": "ReHP_Ins&Con_Modifier_lv53_4"
    },
    {
        "GroupId": 11,
        "Name": "攻击提升料理-1阶",
        "Desc": "31",
        "Time": 300.0,
        "ServerBuffId": 110101,
        "ServerBuffType": "SERVER_BUFF_TEAM",
        "AbilityName": "Atk_Team",
        "ModifierName": "Atk_Team_Modifier_lv1_1"
    },
    {
        "GroupId": 11,
        "Name": "攻击提升料理-1阶",
        "Desc": "37",
        "Time": 300.0,
        "ServerBuffId": 110102,
        "ServerBuffType": "SERVER_BUFF_TEAM",
        "AbilityName": "Atk_Team",
        "ModifierName": "Atk_Team_Modifier_lv1_2"
    },
    {
        "GroupId": 11,
        "Name": "攻击提升料理-1阶",
        "Desc": "44",
        "Time": 300.0,
        "ServerBuffId": 110103,
        "ServerBuffType": "SERVER_BUFF_TEAM",
        "AbilityName": "Atk_Team",
        "ModifierName": "Atk_Team_Modifier_lv1_3"
    },
    {
        "GroupId": 11,
        "Name": "攻击提升料理-1阶",
        "Desc": "53",
        "Time": 300.0,
        "ServerBuffId": 110104,
        "ServerBuffType": "SERVER_BUFF_TEAM",
        "AbilityName": "Atk_Team",
        "ModifierName": "Atk_Team_Modifier_lv1_4"
    },
    {
        "GroupId": 11,
        "Name": "攻击提升料理-2阶",
        "Desc": "66",
        "Time": 300.0,
        "ServerBuffId": 110201,
        "ServerBuffType": "SERVER_BUFF_TEAM",
        "AbilityName": "Atk_Team",
        "ModifierName": "Atk_Team_Modifier_lv2_1"
    },
    {
        "GroupId": 11,
        "Name": "攻击提升料理-2阶",
        "Desc": "81",
        "Time": 300.0,
        "ServerBuffId": 110202,
        "ServerBuffType": "SERVER_BUFF_TEAM",
        "AbilityName": "Atk_Team",
        "ModifierName": "Atk_Team_Modifier_lv2_2"
    },
    {
        "GroupId": 11,
        "Name": "攻击提升料理-2阶",
        "Desc": "95",
        "Time": 300.0,
        "ServerBuffId": 110203,
        "ServerBuffType": "SERVER_BUFF_TEAM",
        "AbilityName": "Atk_Team",
        "ModifierName": "Atk_Team_Modifier_lv2_3"
    },
    {
        "GroupId": 11,
        "Name": "攻击提升料理-2阶",
        "Desc": "114",
        "Time": 300.0,
        "ServerBuffId": 110204,
        "ServerBuffType": "SERVER_BUFF_TEAM",
        "AbilityName": "Atk_Team",
        "ModifierName": "Atk_Team_Modifier_lv2_4"
    },
    {
        "GroupId": 11,
        "Name": "攻击提升料理-3阶",
        "Desc": "160",
        "Time": 300.0,
        "ServerBuffId": 110301,
        "ServerBuffType": "SERVER_BUFF_TEAM",
        "AbilityName": "Atk_Team",
        "ModifierName": "Atk_Team_Modifier_lv3_1"
    },
    {
        "GroupId": 11,
        "Name": "攻击提升料理-3阶",
        "Desc": "194",
        "Time": 300.0,
        "ServerBuffId": 110302,
        "ServerBuffType": "SERVER_BUFF_TEAM",
        "AbilityName": "Atk_Team",
        "ModifierName": "Atk_Team_Modifier_lv3_2"
    },
    {
        "GroupId": 11,
        "Name": "攻击提升料理-3阶",
        "Desc": "228",
        "Time": 300.0,
        "ServerBuffId": 110303,
        "ServerBuffType": "SERVER_BUFF_TEAM",
        "AbilityName": "Atk_Team",
        "ModifierName": "Atk_Team_Modifier_lv3_3"
    },
    {
        "GroupId": 11,
        "Name": "攻击提升料理-3阶",
        "Desc": "274",
        "Time": 300.0,
        "ServerBuffId": 110304,
        "ServerBuffType": "SERVER_BUFF_TEAM",
        "AbilityName": "Atk_Team",
        "ModifierName": "Atk_Team_Modifier_lv3_4"
    },
    {
        "GroupId": 11,
        "Name": "攻击提升料理-4阶",
        "Desc": "224+暴击率6%",
        "Time": 300.0,
        "ServerBuffId": 110401,
        "ServerBuffType": "SERVER_BUFF_TEAM",
        "AbilityName": "Atk_Team",
        "ModifierName": "Atk_Team_Modifier_lv4_1"
    },
    {
        "GroupId": 11,
        "Name": "攻击提升料理-4阶",
        "Desc": "272+暴击率8%",
        "Time": 300.0,
        "ServerBuffId": 110402,
        "ServerBuffType": "SERVER_BUFF_TEAM",
        "AbilityName": "Atk_Team",
        "ModifierName": "Atk_Team_Modifier_lv4_2"
    },
    {
        "GroupId": 11,
        "Name": "攻击提升料理-4阶",
        "Desc": "320+暴击率10%",
        "Time": 300.0,
        "ServerBuffId": 110403,
        "ServerBuffType": "SERVER_BUFF_TEAM",
        "AbilityName": "Atk_Team",
        "ModifierName": "Atk_Team_Modifier_lv4_3"
    },
    {
        "GroupId": 11,
        "Name": "攻击提升料理-4阶",
        "Desc": "384+暴击率14%",
        "Time": 300.0,
        "ServerBuffId": 110404,
        "ServerBuffType": "SERVER_BUFF_TEAM",
        "AbilityName": "Atk_Team",
        "ModifierName": "Atk_Team_Modifier_lv4_4"
    },
    {
        "GroupId": 11,
        "Name": "攻击提升料理-5阶",
        "Desc": "260+暴击率8%",
        "Time": 300.0,
        "ServerBuffId": 110501,
        "ServerBuffType": "SERVER_BUFF_TEAM",
        "AbilityName": "Atk_Team",
        "ModifierName": "Atk_Team_Modifier_lv5_1"
    },
    {
        "GroupId": 11,
        "Name": "攻击提升料理-5阶",
        "Desc": "316+暴击率10%",
        "Time": 300.0,
        "ServerBuffId": 110502,
        "ServerBuffType": "SERVER_BUFF_TEAM",
        "AbilityName": "Atk_Team",
        "ModifierName": "Atk_Team_Modifier_lv5_2"
    },
    {
        "GroupId": 11,
        "Name": "攻击提升料理-5阶",
        "Desc": "372+暴击率12%",
        "Time": 300.0,
        "ServerBuffId": 110503,
        "ServerBuffType": "SERVER_BUFF_TEAM",
        "AbilityName": "Atk_Team",
        "ModifierName": "Atk_Team_Modifier_lv5_3"
    },
    {
        "GroupId": 11,
        "Name": "攻击提升料理-5阶",
        "Desc": "446+暴击率16%",
        "Time": 300.0,
        "ServerBuffId": 110504,
        "ServerBuffType": "SERVER_BUFF_TEAM",
        "AbilityName": "Atk_Team",
        "ModifierName": "Atk_Team_Modifier_lv5_4"
    },
    {
        "GroupId": 12,
        "Name": "防御提升料理-1阶",
        "Desc": "48",
        "Time": 300.0,
        "ServerBuffId": 120101,
        "ServerBuffType": "SERVER_BUFF_TEAM",
        "AbilityName": "Def_Team",
        "ModifierName": "Def_Team_Modifier_lv1_1"
    },
    {
        "GroupId": 12,
        "Name": "防御提升料理-1阶",
        "Desc": "58",
        "Time": 300.0,
        "ServerBuffId": 120102,
        "ServerBuffType": "SERVER_BUFF_TEAM",
        "AbilityName": "Def_Team",
        "ModifierName": "Def_Team_Modifier_lv1_2"
    },
    {
        "GroupId": 12,
        "Name": "防御提升料理-1阶",
        "Desc": "68",
        "Time": 300.0,
        "ServerBuffId": 120103,
        "ServerBuffType": "SERVER_BUFF_TEAM",
        "AbilityName": "Def_Team",
        "ModifierName": "Def_Team_Modifier_lv1_3"
    },
    {
        "GroupId": 12,
        "Name": "防御提升料理-1阶",
        "Desc": "82",
        "Time": 300.0,
        "ServerBuffId": 120104,
        "ServerBuffType": "SERVER_BUFF_TEAM",
        "AbilityName": "Def_Team",
        "ModifierName": "Def_Team_Modifier_lv1_4"
    },
    {
        "GroupId": 12,
        "Name": "防御提升料理-2阶",
        "Desc": "88",
        "Time": 300.0,
        "ServerBuffId": 120201,
        "ServerBuffType": "SERVER_BUFF_TEAM",
        "AbilityName": "Def_Team",
        "ModifierName": "Def_Team_Modifier_lv2_1"
    },
    {
        "GroupId": 12,
        "Name": "防御提升料理-2阶",
        "Desc": "107",
        "Time": 300.0,
        "ServerBuffId": 120202,
        "ServerBuffType": "SERVER_BUFF_TEAM",
        "AbilityName": "Def_Team",
        "ModifierName": "Def_Team_Modifier_lv2_2"
    },
    {
        "GroupId": 12,
        "Name": "防御提升料理-2阶",
        "Desc": "126",
        "Time": 300.0,
        "ServerBuffId": 120203,
        "ServerBuffType": "SERVER_BUFF_TEAM",
        "AbilityName": "Def_Team",
        "ModifierName": "Def_Team_Modifier_lv2_3"
    },
    {
        "GroupId": 12,
        "Name": "防御提升料理-2阶",
        "Desc": "151",
        "Time": 300.0,
        "ServerBuffId": 120204,
        "ServerBuffType": "SERVER_BUFF_TEAM",
        "AbilityName": "Def_Team",
        "ModifierName": "Def_Team_Modifier_lv2_4"
    },
    {
        "GroupId": 12,
        "Name": "防御提升料理-3阶",
        "Desc": "165",
        "Time": 300.0,
        "ServerBuffId": 120301,
        "ServerBuffType": "SERVER_BUFF_TEAM",
        "AbilityName": "Def_Team",
        "ModifierName": "Def_Team_Modifier_lv3_1"
    },
    {
        "GroupId": 12,
        "Name": "防御提升料理-3阶",
        "Desc": "200",
        "Time": 300.0,
        "ServerBuffId": 120302,
        "ServerBuffType": "SERVER_BUFF_TEAM",
        "AbilityName": "Def_Team",
        "ModifierName": "Def_Team_Modifier_lv3_2"
    },
    {
        "GroupId": 12,
        "Name": "防御提升料理-3阶",
        "Desc": "235",
        "Time": 300.0,
        "ServerBuffId": 120303,
        "ServerBuffType": "SERVER_BUFF_TEAM",
        "AbilityName": "Def_Team",
        "ModifierName": "Def_Team_Modifier_lv3_3"
    },
    {
        "GroupId": 12,
        "Name": "防御提升料理-3阶",
        "Desc": "282",
        "Time": 300.0,
        "ServerBuffId": 120304,
        "ServerBuffType": "SERVER_BUFF_TEAM",
        "AbilityName": "Def_Team",
        "ModifierName": "Def_Team_Modifier_lv3_4"
    },
    {
        "GroupId": 12,
        "Name": "防御提升料理-4阶",
        "Desc": "215+治疗效果6%",
        "Time": 300.0,
        "ServerBuffId": 120401,
        "ServerBuffType": "SERVER_BUFF_TEAM",
        "AbilityName": "Def_Team",
        "ModifierName": "Def_Team_Modifier_lv4_1"
    },
    {
        "GroupId": 12,
        "Name": "防御提升料理-4阶",
        "Desc": "261+治疗效果8%",
        "Time": 300.0,
        "ServerBuffId": 120402,
        "ServerBuffType": "SERVER_BUFF_TEAM",
        "AbilityName": "Def_Team",
        "ModifierName": "Def_Team_Modifier_lv4_2"
    },
    {
        "GroupId": 12,
        "Name": "防御提升料理-4阶",
        "Desc": "308+治疗效果10%",
        "Time": 300.0,
        "ServerBuffId": 120403,
        "ServerBuffType": "SERVER_BUFF_TEAM",
        "AbilityName": "Def_Team",
        "ModifierName": "Def_Team_Modifier_lv4_3"
    },
    {
        "GroupId": 12,
        "Name": "防御提升料理-4阶",
        "Desc": "369+治疗效果14%",
        "Time": 300.0,
        "ServerBuffId": 120404,
        "ServerBuffType": "SERVER_BUFF_TEAM",
        "AbilityName": "Def_Team",
        "ModifierName": "Def_Team_Modifier_lv4_4"
    },
    {
        "GroupId": 12,
        "Name": "防御提升料理-5阶",
        "Desc": "248+治疗效果8%",
        "Time": 300.0,
        "ServerBuffId": 120501,
        "ServerBuffType": "SERVER_BUFF_TEAM",
        "AbilityName": "Def_Team",
        "ModifierName": "Def_Team_Modifier_lv5_1"
    },
    {
        "GroupId": 12,
        "Name": "防御提升料理-5阶",
        "Desc": "301+治疗效果10%",
        "Time": 300.0,
        "ServerBuffId": 120502,
        "ServerBuffType": "SERVER_BUFF_TEAM",
        "AbilityName": "Def_Team",
        "ModifierName": "Def_Team_Modifier_lv5_2"
    },
    {
        "GroupId": 12,
        "Name": "防御提升料理-5阶",
        "Desc": "354+治疗效果12%",
        "Time": 300.0,
        "ServerBuffId": 120503,
        "ServerBuffType": "SERVER_BUFF_TEAM",
        "AbilityName": "Def_Team",
        "ModifierName": "Def_Team_Modifier_lv5_3"
    },
    {
        "GroupId": 12,
        "Name": "防御提升料理-5阶",
        "Desc": "425+治疗效果16%",
        "Time": 300.0,
        "ServerBuffId": 120504,
        "ServerBuffType": "SERVER_BUFF_TEAM",
        "AbilityName": "Def_Team",
        "ModifierName": "Def_Team_Modifier_lv5_4"
    },
    {
        "GroupId": 12,
        "Name": "护盾强效料理-3阶",
        "Desc": "护盾强效20%",
        "Time": 300.0,
        "ServerBuffId": 150301,
        "ServerBuffType": "SERVER_BUFF_TEAM",
        "AbilityName": "Def_Team",
        "ModifierName": "Shield_Team_Modifier_lv3_1"
    },
    {
        "GroupId": 12,
        "Name": "护盾强效料理-3阶",
        "Desc": "护盾强效25%",
        "Time": 300.0,
        "ServerBuffId": 150302,
        "ServerBuffType": "SERVER_BUFF_TEAM",
        "AbilityName": "Def_Team",
        "ModifierName": "Shield_Team_Modifier_lv3_2"
    },
    {
        "GroupId": 12,
        "Name": "护盾强效料理-3阶",
        "Desc": "护盾强效30%",
        "Time": 300.0,
        "ServerBuffId": 150303,
        "ServerBuffType": "SERVER_BUFF_TEAM",
        "AbilityName": "Def_Team",
        "ModifierName": "Shield_Team_Modifier_lv3_3"
    },
    {
        "GroupId": 12,
        "Name": "护盾强效料理-3阶",
        "Desc": "护盾强效35%",
        "Time": 300.0,
        "ServerBuffId": 150304,
        "ServerBuffType": "SERVER_BUFF_TEAM",
        "AbilityName": "Def_Team",
        "ModifierName": "Shield_Team_Modifier_lv3_4"
    },
    {
        "GroupId": 12,
        "Name": "护盾强效料理-4阶",
        "Desc": "护盾强效25%，防御力165",
        "Time": 300.0,
        "ServerBuffId": 150401,
        "ServerBuffType": "SERVER_BUFF_TEAM",
        "AbilityName": "Def_Team",
        "ModifierName": "Shield_Team_Modifier_lv4_1"
    },
    {
        "GroupId": 12,
        "Name": "护盾强效料理-4阶",
        "Desc": "护盾强效30%，防御力200",
        "Time": 300.0,
        "ServerBuffId": 150402,
        "ServerBuffType": "SERVER_BUFF_TEAM",
        "AbilityName": "Def_Team",
        "ModifierName": "Shield_Team_Modifier_lv4_2"
    },
    {
        "GroupId": 12,
        "Name": "护盾强效料理-4阶",
        "Desc": "护盾强效35%，防御力235",
        "Time": 300.0,
        "ServerBuffId": 150403,
        "ServerBuffType": "SERVER_BUFF_TEAM",
        "AbilityName": "Def_Team",
        "ModifierName": "Shield_Team_Modifier_lv4_3"
    },
    {
        "GroupId": 12,
        "Name": "护盾强效料理-4阶",
        "Desc": "护盾强效40%，防御力282",
        "Time": 300.0,
        "ServerBuffId": 150404,
        "ServerBuffType": "SERVER_BUFF_TEAM",
        "AbilityName": "Def_Team",
        "ModifierName": "Shield_Team_Modifier_lv4_4"
    },
    {
        "GroupId": 11,
        "Name": "暴击提升料理-2阶",
        "Desc": "暴击6%",
        "Time": 300.0,
        "ServerBuffId": 140201,
        "ServerBuffType": "SERVER_BUFF_TEAM",
        "AbilityName": "Critical_Team",
        "ModifierName": "Critical_Team_Modifier_lv2_1"
    },
    {
        "GroupId": 11,
        "Name": "暴击提升料理-2阶",
        "Desc": "暴击9%",
        "Time": 300.0,
        "ServerBuffId": 140202,
        "ServerBuffType": "SERVER_BUFF_TEAM",
        "AbilityName": "Critical_Team",
        "ModifierName": "Critical_Team_Modifier_lv2_2"
    },
    {
        "GroupId": 11,
        "Name": "暴击提升料理-2阶",
        "Desc": "暴击12%",
        "Time": 300.0,
        "ServerBuffId": 140203,
        "ServerBuffType": "SERVER_BUFF_TEAM",
        "AbilityName": "Critical_Team",
        "ModifierName": "Critical_Team_Modifier_lv2_3"
    },
    {
        "GroupId": 11,
        "Name": "暴击提升料理-2阶",
        "Desc": "暴击16%",
        "Time": 300.0,
        "ServerBuffId": 140204,
        "ServerBuffType": "SERVER_BUFF_TEAM",
        "AbilityName": "Critical_Team",
        "ModifierName": "Critical_Team_Modifier_lv2_4"
    },
    {
        "GroupId": 11,
        "Name": "暴击提升料理-3阶",
        "Desc": "暴击10%",
        "Time": 300.0,
        "ServerBuffId": 140301,
        "ServerBuffType": "SERVER_BUFF_TEAM",
        "AbilityName": "Critical_Team",
        "ModifierName": "Critical_Team_Modifier_lv3_1"
    },
    {
        "GroupId": 11,
        "Name": "暴击提升料理-3阶",
        "Desc": "暴击15%",
        "Time": 300.0,
        "ServerBuffId": 140302,
        "ServerBuffType": "SERVER_BUFF_TEAM",
        "AbilityName": "Critical_Team",
        "ModifierName": "Critical_Team_Modifier_lv3_2"
    },
    {
        "GroupId": 11,
        "Name": "暴击提升料理-3阶",
        "Desc": "暴击20%",
        "Time": 300.0,
        "ServerBuffId": 140303,
        "ServerBuffType": "SERVER_BUFF_TEAM",
        "AbilityName": "Critical_Team",
        "ModifierName": "Critical_Team_Modifier_lv3_3"
    },
    {
        "GroupId": 11,
        "Name": "暴击提升料理-3阶",
        "Desc": "暴击20%，爆伤20%",
        "Time": 300.0,
        "ServerBuffId": 140304,
        "ServerBuffType": "SERVER_BUFF_TEAM",
        "AbilityName": "Critical_Team",
        "ModifierName": "Critical_Team_Modifier_lv3_4"
    },
    {
        "GroupId": 11,
        "Name": "物理增伤料理-3阶",
        "Desc": "物理增伤提升20%",
        "Time": 300.0,
        "ServerBuffId": 160301,
        "ServerBuffType": "SERVER_BUFF_TEAM",
        "AbilityName": "Critical_Team",
        "ModifierName": "Physical_Team_Modifier_lv3_1"
    },
    {
        "GroupId": 11,
        "Name": "物理增伤料理-3阶",
        "Desc": "物理增伤提升30%",
        "Time": 300.0,
        "ServerBuffId": 160302,
        "ServerBuffType": "SERVER_BUFF_TEAM",
        "AbilityName": "Critical_Team",
        "ModifierName": "Physical_Team_Modifier_lv3_2"
    },
    {
        "GroupId": 11,
        "Name": "物理增伤料理-3阶",
        "Desc": "物理增伤提升40%",
        "Time": 300.0,
        "ServerBuffId": 160303,
        "ServerBuffType": "SERVER_BUFF_TEAM",
        "AbilityName": "Critical_Team",
        "ModifierName": "Physical_Team_Modifier_lv3_3"
    },
    {
        "GroupId": 11,
        "Name": "物理增伤料理-3阶",
        "Desc": "物理增伤提升55%",
        "Time": 300.0,
        "ServerBuffId": 160304,
        "ServerBuffType": "SERVER_BUFF_TEAM",
        "AbilityName": "Critical_Team",
        "ModifierName": "Physical_Team_Modifier_lv3_4"
    },
    {
        "GroupId": 11,
        "Name": "物理增伤料理-4阶",
        "Desc": "物理增伤提升25%，暴击6%",
        "Time": 300.0,
        "ServerBuffId": 160401,
        "ServerBuffType": "SERVER_BUFF_TEAM",
        "AbilityName": "Critical_Team",
        "ModifierName": "Physical_Team_Modifier_lv4_1"
    },
    {
        "GroupId": 11,
        "Name": "物理增伤料理-4阶",
        "Desc": "物理增伤提升35%，暴击8%",
        "Time": 300.0,
        "ServerBuffId": 160402,
        "ServerBuffType": "SERVER_BUFF_TEAM",
        "AbilityName": "Critical_Team",
        "ModifierName": "Physical_Team_Modifier_lv4_2"
    },
    {
        "GroupId": 11,
        "Name": "物理增伤料理-4阶",
        "Desc": "物理增伤提升45%，暴击10%",
        "Time": 300.0,
        "ServerBuffId": 160403,
        "ServerBuffType": "SERVER_BUFF_TEAM",
        "AbilityName": "Critical_Team",
        "ModifierName": "Physical_Team_Modifier_lv4_3"
    },
    {
        "GroupId": 11,
        "Name": "物理增伤料理-4阶",
        "Desc": "物理增伤提升55%，暴击14%",
        "Time": 300.0,
        "ServerBuffId": 160404,
        "ServerBuffType": "SERVER_BUFF_TEAM",
        "AbilityName": "Critical_Team",
        "ModifierName": "Physical_Team_Modifier_lv4_4"
    },
    {
        "GroupId": 20,
        "Name": "复活buff料理-1阶",
        "Desc": "恢复50HP",
        "Time": 1.0,
        "ServerBuffId": 200101,
        "ServerBuffType": "SERVER_BUFF_AVATAR",
        "AbilityName": "revive_buff",
        "ModifierName": "revive_buff_Modifier_lv1_1"
    },
    {
        "GroupId": 20,
        "Name": "复活buff料理-1阶",
        "Desc": "恢复100HP",
        "Time": 1.0,
        "ServerBuffId": 200102,
        "ServerBuffType": "SERVER_BUFF_AVATAR",
        "AbilityName": "revive_buff",
        "ModifierName": "revive_buff_Modifier_lv1_2"
    },
    {
        "GroupId": 20,
        "Name": "复活buff料理-1阶",
        "Desc": "恢复150HP",
        "Time": 1.0,
        "ServerBuffId": 200103,
        "ServerBuffType": "SERVER_BUFF_AVATAR",
        "AbilityName": "revive_buff",
        "ModifierName": "revive_buff_Modifier_lv1_3"
    },
    {
        "GroupId": 20,
        "Name": "复活buff料理-1阶",
        "Desc": "恢复10%+150HP",
        "Time": 1.0,
        "ServerBuffId": 200104,
        "ServerBuffType": "SERVER_BUFF_AVATAR",
        "AbilityName": "revive_buff",
        "ModifierName": "revive_buff_Modifier_lv1_4"
    },
    {
        "GroupId": 20,
        "Name": "复活buff料理-2阶",
        "Desc": "恢复250HP",
        "Time": 1.0,
        "ServerBuffId": 200201,
        "ServerBuffType": "SERVER_BUFF_AVATAR",
        "AbilityName": "revive_buff",
        "ModifierName": "revive_buff_Modifier_lv2_1"
    },
    {
        "GroupId": 20,
        "Name": "复活buff料理-2阶",
        "Desc": "恢复400HP",
        "Time": 1.0,
        "ServerBuffId": 200202,
        "ServerBuffType": "SERVER_BUFF_AVATAR",
        "AbilityName": "revive_buff",
        "ModifierName": "revive_buff_Modifier_lv2_2"
    },
    {
        "GroupId": 20,
        "Name": "复活buff料理-2阶",
        "Desc": "恢复550HP",
        "Time": 1.0,
        "ServerBuffId": 200203,
        "ServerBuffType": "SERVER_BUFF_AVATAR",
        "AbilityName": "revive_buff",
        "ModifierName": "revive_buff_Modifier_lv2_3"
    },
    {
        "GroupId": 20,
        "Name": "复活buff料理-2阶",
        "Desc": "恢复15%HP，恢复550HP",
        "Time": 1.0,
        "ServerBuffId": 200204,
        "ServerBuffType": "SERVER_BUFF_AVATAR",
        "AbilityName": "revive_buff",
        "ModifierName": "revive_buff_Modifier_lv2_4"
    },
    {
        "GroupId": 20,
        "Name": "复活buff料理-3阶",
        "Desc": "恢复900HP",
        "Time": 1.0,
        "ServerBuffId": 200301,
        "ServerBuffType": "SERVER_BUFF_AVATAR",
        "AbilityName": "revive_buff",
        "ModifierName": "revive_buff_Modifier_lv3_1"
    },
    {
        "GroupId": 20,
        "Name": "复活buff料理-3阶",
        "Desc": "恢复1200HP",
        "Time": 1.0,
        "ServerBuffId": 200302,
        "ServerBuffType": "SERVER_BUFF_AVATAR",
        "AbilityName": "revive_buff",
        "ModifierName": "revive_buff_Modifier_lv3_2"
    },
    {
        "GroupId": 20,
        "Name": "复活buff料理-3阶",
        "Desc": "恢复1500HP",
        "Time": 1.0,
        "ServerBuffId": 200303,
        "ServerBuffType": "SERVER_BUFF_AVATAR",
        "AbilityName": "revive_buff",
        "ModifierName": "revive_buff_Modifier_lv3_3"
    },
    {
        "GroupId": 20,
        "Name": "复活buff料理-3阶",
        "Desc": "恢复20%HP，恢复1500HP",
        "Time": 1.0,
        "ServerBuffId": 200304,
        "ServerBuffType": "SERVER_BUFF_AVATAR",
        "AbilityName": "revive_buff",
        "ModifierName": "revive_buff_Modifier_lv3_4"
    },
    {
        "GroupId": 21,
        "Name": "飞行体力降低-2阶",
        "Desc": "飞行体力消耗降低15%",
        "Time": 900.0,
        "ServerBuffId": 210201,
        "ServerBuffType": "SERVER_BUFF_TEAM",
        "AbilityName": "Stamina_Fly_Team",
        "ModifierName": "Stamina_Fly_Team_Modifier_lv2_1"
    },
    {
        "GroupId": 21,
        "Name": "飞行体力降低-2阶",
        "Desc": "飞行体力消耗降低20%",
        "Time": 900.0,
        "ServerBuffId": 210202,
        "ServerBuffType": "SERVER_BUFF_TEAM",
        "AbilityName": "Stamina_Fly_Team",
        "ModifierName": "Stamina_Fly_Team_Modifier_lv2_2"
    },
    {
        "GroupId": 21,
        "Name": "飞行体力降低-2阶",
        "Desc": "飞行体力消耗降低25%",
        "Time": 900.0,
        "ServerBuffId": 210203,
        "ServerBuffType": "SERVER_BUFF_TEAM",
        "AbilityName": "Stamina_Fly_Team",
        "ModifierName": "Stamina_Fly_Team_Modifier_lv2_3"
    },
    {
        "GroupId": 21,
        "Name": "飞行体力降低-2阶",
        "Desc": "飞行体力消耗降低25%",
        "Time": 1500.0,
        "ServerBuffId": 210204,
        "ServerBuffType": "SERVER_BUFF_TEAM",
        "AbilityName": "Stamina_Fly_Team",
        "ModifierName": "Stamina_Fly_Team_Modifier_lv2_4"
    },
    {
        "GroupId": 21,
        "Name": "飞行体力降低-3阶",
        "Desc": "飞行、冲刺体力消耗降低15%",
        "Time": 900.0,
        "ServerBuffId": 210301,
        "ServerBuffType": "SERVER_BUFF_TEAM",
        "AbilityName": "Stamina_Fly_Team",
        "ModifierName": "Stamina_Fly_Team_Modifier_lv3_1"
    },
    {
        "GroupId": 21,
        "Name": "飞行体力降低-3阶",
        "Desc": "飞行、冲刺体力消耗降低20%",
        "Time": 900.0,
        "ServerBuffId": 210302,
        "ServerBuffType": "SERVER_BUFF_TEAM",
        "AbilityName": "Stamina_Fly_Team",
        "ModifierName": "Stamina_Fly_Team_Modifier_lv3_2"
    },
    {
        "GroupId": 21,
        "Name": "飞行体力降低-3阶",
        "Desc": "飞行、冲刺体力消耗降低25%",
        "Time": 900.0,
        "ServerBuffId": 210303,
        "ServerBuffType": "SERVER_BUFF_TEAM",
        "AbilityName": "Stamina_Fly_Team",
        "ModifierName": "Stamina_Fly_Team_Modifier_lv3_3"
    },
    {
        "GroupId": 21,
        "Name": "飞行体力降低-3阶",
        "Desc": "飞行、冲刺体力消耗降低25%",
        "Time": 1500.0,
        "ServerBuffId": 210304,
        "ServerBuffType": "SERVER_BUFF_TEAM",
        "AbilityName": "Stamina_Fly_Team",
        "ModifierName": "Stamina_Fly_Team_Modifier_lv3_4"
    },
    {
        "GroupId": 21,
        "Name": "攀爬体力降低-2阶",
        "Desc": "攀爬体力消耗降低15%",
        "Time": 900.0,
        "ServerBuffId": 220201,
        "ServerBuffType": "SERVER_BUFF_TEAM",
        "AbilityName": "Stamina_Climb_Team",
        "ModifierName": "Stamina_Climb_Team_Modifier_lv2_1"
    },
    {
        "GroupId": 21,
        "Name": "攀爬体力降低-2阶",
        "Desc": "攀爬体力消耗降低20%",
        "Time": 900.0,
        "ServerBuffId": 220202,
        "ServerBuffType": "SERVER_BUFF_TEAM",
        "AbilityName": "Stamina_Climb_Team",
        "ModifierName": "Stamina_Climb_Team_Modifier_lv2_2"
    },
    {
        "GroupId": 21,
        "Name": "攀爬体力降低-2阶",
        "Desc": "攀爬体力消耗降低25%",
        "Time": 900.0,
        "ServerBuffId": 220203,
        "ServerBuffType": "SERVER_BUFF_TEAM",
        "AbilityName": "Stamina_Climb_Team",
        "ModifierName": "Stamina_Climb_Team_Modifier_lv2_3"
    },
    {
        "GroupId": 21,
        "Name": "攀爬体力降低-2阶",
        "Desc": "攀爬体力消耗降低25%",
        "Time": 1500.0,
        "ServerBuffId": 220204,
        "ServerBuffType": "SERVER_BUFF_TEAM",
        "AbilityName": "Stamina_Climb_Team",
        "ModifierName": "Stamina_Climb_Team_Modifier_lv2_4"
    },
    {
        "GroupId": 21,
        "Name": "攀爬体力降低-3阶",
        "Desc": "攀爬、冲刺体力消耗降低15%",
        "Time": 900.0,
        "ServerBuffId": 220301,
        "ServerBuffType": "SERVER_BUFF_TEAM",
        "AbilityName": "Stamina_Climb_Team",
        "ModifierName": "Stamina_Climb_Team_Modifier_lv3_1"
    },
    {
        "GroupId": 21,
        "Name": "攀爬体力降低-3阶",
        "Desc": "攀爬、冲刺体力消耗降低20%",
        "Time": 900.0,
        "ServerBuffId": 220302,
        "ServerBuffType": "SERVER_BUFF_TEAM",
        "AbilityName": "Stamina_Climb_Team",
        "ModifierName": "Stamina_Climb_Team_Modifier_lv3_2"
    },
    {
        "GroupId": 21,
        "Name": "攀爬体力降低-3阶",
        "Desc": "攀爬、冲刺体力消耗降低25%",
        "Time": 900.0,
        "ServerBuffId": 220303,
        "ServerBuffType": "SERVER_BUFF_TEAM",
        "AbilityName": "Stamina_Climb_Team",
        "ModifierName": "Stamina_Climb_Team_Modifier_lv3_3"
    },
    {
        "GroupId": 21,
        "Name": "攀爬体力降低-3阶",
        "Desc": "攀爬、冲刺体力消耗降低25%",
        "Time": 1500.0,
        "ServerBuffId": 220304,
        "ServerBuffType": "SERVER_BUFF_TEAM",
        "AbilityName": "Stamina_Climb_Team",
        "ModifierName": "Stamina_Climb_Team_Modifier_lv3_4"
    },
    {
        "GroupId": 21,
        "Name": "冲刺体力降低-2阶",
        "Desc": "冲刺体力消耗降低15%",
        "Time": 900.0,
        "ServerBuffId": 230201,
        "ServerBuffType": "SERVER_BUFF_TEAM",
        "AbilityName": "Stamina_Sprint_Team",
        "ModifierName": "Stamina_Sprint_Team_Modifier_lv2_1"
    },
    {
        "GroupId": 21,
        "Name": "冲刺体力降低-2阶",
        "Desc": "冲刺体力消耗降低20%",
        "Time": 900.0,
        "ServerBuffId": 230202,
        "ServerBuffType": "SERVER_BUFF_TEAM",
        "AbilityName": "Stamina_Sprint_Team",
        "ModifierName": "Stamina_Sprint_Team_Modifier_lv2_2"
    },
    {
        "GroupId": 21,
        "Name": "冲刺体力降低-2阶",
        "Desc": "冲刺体力消耗降低25%",
        "Time": 900.0,
        "ServerBuffId": 230203,
        "ServerBuffType": "SERVER_BUFF_TEAM",
        "AbilityName": "Stamina_Sprint_Team",
        "ModifierName": "Stamina_Sprint_Team_Modifier_lv2_3"
    },
    {
        "GroupId": 21,
        "Name": "冲刺体力降低-2阶",
        "Desc": "冲刺体力消耗降低25%",
        "Time": 1500.0,
        "ServerBuffId": 230204,
        "ServerBuffType": "SERVER_BUFF_TEAM",
        "AbilityName": "Stamina_Sprint_Team",
        "ModifierName": "Stamina_Sprint_Team_Modifier_lv2_4"
    },
    {
        "GroupId": 21,
        "Name": "游泳体力降低-2阶",
        "Desc": "游泳体力消耗降低15%",
        "Time": 900.0,
        "ServerBuffId": 240201,
        "ServerBuffType": "SERVER_BUFF_TEAM",
        "AbilityName": "Stamina_Swim_Team",
        "ModifierName": "Stamina_Swim_Team_Modifier_lv2_1"
    },
    {
        "GroupId": 21,
        "Name": "游泳体力降低-2阶",
        "Desc": "游泳体力消耗降低20%",
        "Time": 900.0,
        "ServerBuffId": 240202,
        "ServerBuffType": "SERVER_BUFF_TEAM",
        "AbilityName": "Stamina_Swim_Team",
        "ModifierName": "Stamina_Swim_Team_Modifier_lv2_2"
    },
    {
        "GroupId": 21,
        "Name": "游泳体力降低-2阶",
        "Desc": "游泳体力消耗降低25%",
        "Time": 900.0,
        "ServerBuffId": 240203,
        "ServerBuffType": "SERVER_BUFF_TEAM",
        "AbilityName": "Stamina_Swim_Team",
        "ModifierName": "Stamina_Swim_Team_Modifier_lv2_3"
    },
    {
        "GroupId": 21,
        "Name": "游泳体力降低-2阶",
        "Desc": "游泳体力消耗降低25%",
        "Time": 1500.0,
        "ServerBuffId": 240204,
        "ServerBuffType": "SERVER_BUFF_TEAM",
        "AbilityName": "Stamina_Swim_Team",
        "ModifierName": "Stamina_Swim_Team_Modifier_lv2_4"
    },
    {
        "GroupId": 21,
        "Name": "移速增加药品",
        "Desc": "移动速度提高30%，持续60秒",
        "Time": 60.0,
        "ServerBuffId": 170201,
        "ServerBuffType": "SERVER_BUFF_TEAM",
        "AbilityName": "MoveSpeed_lv2_1",
        "ModifierName": "MoveSpeed_Modifier_lv2_1"
    },
    {
        "GroupId": 13,
        "Name": "元素抗性药水",
        "Desc": "火元素抗性提升25%，持续300秒",
        "Time": 300.0,
        "ServerBuffId": 130101,
        "ServerBuffType": "SERVER_BUFF_TEAM",
        "AbilityName": "Element_Def_Team",
        "ModifierName": "Element_Def_Fire"
    },
    {
        "GroupId": 13,
        "Name": "元素抗性药水",
        "Desc": "水元素抗性提升25%，持续300秒",
        "Time": 300.0,
        "ServerBuffId": 130102,
        "ServerBuffType": "SERVER_BUFF_TEAM",
        "AbilityName": "Element_Def_Team",
        "ModifierName": "Element_Def_Water"
    },
    {
        "GroupId": 13,
        "Name": "元素抗性药水",
        "Desc": "冰元素抗性提升25%，持续300秒",
        "Time": 300.0,
        "ServerBuffId": 130103,
        "ServerBuffType": "SERVER_BUFF_TEAM",
        "AbilityName": "Element_Def_Team",
        "ModifierName": "Element_Def_Ice"
    },
    {
        "GroupId": 13,
        "Name": "元素抗性药水",
        "Desc": "风元素抗性提升25%，持续300秒",
        "Time": 300.0,
        "ServerBuffId": 130104,
        "ServerBuffType": "SERVER_BUFF_TEAM",
        "AbilityName": "Element_Def_Team",
        "ModifierName": "Element_Def_Wind"
    },
    {
        "GroupId": 13,
        "Name": "元素抗性药水",
        "Desc": "雷元素抗性提升25%，持续300秒",
        "Time": 300.0,
        "ServerBuffId": 130105,
        "ServerBuffType": "SERVER_BUFF_TEAM",
        "AbilityName": "Element_Def_Team",
        "ModifierName": "Element_Def_Elec"
    },
    {
        "GroupId": 13,
        "Name": "元素抗性药水",
        "Desc": "岩元素抗性提升25%，持续300秒",
        "Time": 300.0,
        "ServerBuffId": 130106,
        "ServerBuffType": "SERVER_BUFF_TEAM",
        "AbilityName": "Element_Def_Team",
        "ModifierName": "Element_Def_Rock"
    },
    {
        "GroupId": 13,
        "Name": "元素抗性药水",
        "Desc": "草元素抗性提升25%，持续300秒",
        "Time": 300.0,
        "ServerBuffId": 130107,
        "ServerBuffType": "SERVER_BUFF_TEAM",
        "AbilityName": "Element_Def_Team",
        "ModifierName": "Element_Def_Grass"
    },
    {
        "GroupId": 13,
        "Name": "元素增伤药水",
        "Desc": "火元素伤害提升25%，持续300秒",
        "Time": 300.0,
        "ServerBuffId": 135101,
        "ServerBuffType": "SERVER_BUFF_TEAM",
        "AbilityName": "Element_Atk_Team",
        "ModifierName": "Element_Atk_Fire"
    },
    {
        "GroupId": 13,
        "Name": "元素增伤药水",
        "Desc": "水元素伤害提升25%，持续300秒",
        "Time": 300.0,
        "ServerBuffId": 135102,
        "ServerBuffType": "SERVER_BUFF_TEAM",
        "AbilityName": "Element_Atk_Team",
        "ModifierName": "Element_Atk_Water"
    },
    {
        "GroupId": 13,
        "Name": "元素增伤药水",
        "Desc": "冰元素伤害提升25%，持续300秒",
        "Time": 300.0,
        "ServerBuffId": 135103,
        "ServerBuffType": "SERVER_BUFF_TEAM",
        "AbilityName": "Element_Atk_Team",
        "ModifierName": "Element_Atk_Ice"
    },
    {
        "GroupId": 13,
        "Name": "元素增伤药水",
        "Desc": "风元素伤害提升25%，持续300秒",
        "Time": 300.0,
        "ServerBuffId": 135104,
        "ServerBuffType": "SERVER_BUFF_TEAM",
        "AbilityName": "Element_Atk_Team",
        "ModifierName": "Element_Atk_Wind"
    },
    {
        "GroupId": 13,
        "Name": "元素增伤药水",
        "Desc": "雷元素伤害提升25%，持续300秒",
        "Time": 300.0,
        "ServerBuffId": 135105,
        "ServerBuffType": "SERVER_BUFF_TEAM",
        "AbilityName": "Element_Atk_Team",
        "ModifierName": "Element_Atk_Elec"
    },
    {
        "GroupId": 13,
        "Name": "元素增伤药水",
        "Desc": "岩元素伤害提升25%，持续300秒",
        "Time": 300.0,
        "ServerBuffId": 135106,
        "ServerBuffType": "SERVER_BUFF_TEAM",
        "AbilityName": "Element_Atk_Team",
        "ModifierName": "Element_Atk_Rock"
    },
    {
        "GroupId": 13,
        "Name": "元素增伤药水",
        "Desc": "草元素伤害提升25%，持续300秒",
        "Time": 300.0,
        "ServerBuffId": 135107,
        "ServerBuffType": "SERVER_BUFF_TEAM",
        "AbilityName": "Element_Atk_Team",
        "ModifierName": "Element_Atk_Grass"
    },
    {
        "GroupId": 13,
        "Name": "元素抗性料理",
        "Desc": "水、火、电、冰系抵抗提升8%，持续300秒",
        "Time": 300.0,
        "ServerBuffId": 130121,
        "ServerBuffType": "SERVER_BUFF_TEAM",
        "AbilityName": "Def_Element_lv2_1",
        "ModifierName": "Def_Element_Modifier_lv1_1"
    },
    {
        "GroupId": 13,
        "Name": "元素抗性料理",
        "Desc": "水、火、电、冰系抵抗提升10%，持续300秒",
        "Time": 300.0,
        "ServerBuffId": 130122,
        "ServerBuffType": "SERVER_BUFF_TEAM",
        "AbilityName": "Def_Element_lv2_1",
        "ModifierName": "Def_Element_Modifier_lv1_2"
    },
    {
        "GroupId": 13,
        "Name": "元素抗性料理",
        "Desc": "水、火、电、冰系抵抗提升15%，持续300秒",
        "Time": 300.0,
        "ServerBuffId": 130123,
        "ServerBuffType": "SERVER_BUFF_TEAM",
        "AbilityName": "Def_Element_lv2_1",
        "ModifierName": "Def_Element_Modifier_lv1_3"
    },
    {
        "GroupId": 13,
        "Name": "元素提升料理",
        "Desc": "水、火、电、冰系抵抗提升25%，持续300秒",
        "Time": 300.0,
        "ServerBuffId": 130124,
        "ServerBuffType": "SERVER_BUFF_TEAM",
        "AbilityName": "Def_Element_lv2_1",
        "ModifierName": "Def_Element_Modifier_lv2_1"
    },
    {
        "GroupId": 10,
        "Name": "圣水单回-1阶",
        "Desc": "每秒1血",
        "Time": 20.0,
        "ServerBuffId": 400101,
        "ServerBuffType": "SERVER_BUFF_AVATAR",
        "AbilityName": "ReHP_Ins&Con",
        "ModifierName": "ReHP_Ins&Con_Modifier_lv1_99"
    },
    {
        "GroupId": 30,
        "Name": "温度机制-低温Lv1",
        "Desc": "被冰元素、冻结、潮湿影响的时候，低温条会涨得更快",
        "Time": 999999.0,
        "ServerBuffId": 300001,
        "ServerBuffType": "SERVER_BUFF_TEAM",
        "AbilityName": "ClimateAbility_Cold",
        "ModifierName": "ClimateAbility_Cold_Lv1"
    },
    {
        "GroupId": 31,
        "Name": "温度机制-低温Lv2",
        "Desc": "每2秒造成5%生命值上限的生命值损失",
        "Time": 999999.0,
        "ServerBuffId": 300002,
        "ServerBuffType": "SERVER_BUFF_TEAM",
        "AbilityName": "ClimateAbility_Cold",
        "ModifierName": "ClimateAbility_Cold_Lv2"
    },
    {
        "GroupId": 32,
        "Name": "温度机制-低温常驻",
        "Desc": "处于雪山区域时常驻于玩家身上",
        "Time": 999999.0,
        "ServerBuffId": 300003,
        "ServerBuffType": "SERVER_BUFF_TEAM",
        "AbilityName": "ClimateAbility_Cold",
        "ModifierName": "ClimateAbility_Cold_Area"
    },
    {
        "GroupId": 13,
        "Name": "元素提升料理",
        "Desc": "电系伤害提升12%，持续300秒",
        "Time": 300.0,
        "ServerBuffId": 139901,
        "ServerBuffType": "SERVER_BUFF_TEAM",
        "AbilityName": "Elec_Team",
        "ModifierName": "Elec_Team_Modifier_lv2_1"
    },
    {
        "GroupId": 13,
        "Name": "元素提升料理",
        "Desc": "电系伤害提升18%，持续300秒",
        "Time": 300.0,
        "ServerBuffId": 139902,
        "ServerBuffType": "SERVER_BUFF_TEAM",
        "AbilityName": "Elec_Team",
        "ModifierName": "Elec_Team_Modifier_lv2_2"
    },
    {
        "GroupId": 13,
        "Name": "元素提升料理",
        "Desc": "电系伤害提升24%，持续300秒",
        "Time": 300.0,
        "ServerBuffId": 139903,
        "ServerBuffType": "SERVER_BUFF_TEAM",
        "AbilityName": "Elec_Team",
        "ModifierName": "Elec_Team_Modifier_lv2_3"
    },
    {
        "GroupId": 13,
        "Name": "元素提升料理",
        "Desc": "火系伤害提升12%，持续300秒",
        "Time": 300.0,
        "ServerBuffId": 139904,
        "ServerBuffType": "SERVER_BUFF_TEAM",
        "AbilityName": "Fire_Team",
        "ModifierName": "Fire_Team_Modifier_lv2_1"
    },
    {
        "GroupId": 13,
        "Name": "元素提升料理",
        "Desc": "火系伤害提升18%，持续300秒",
        "Time": 300.0,
        "ServerBuffId": 139905,
        "ServerBuffType": "SERVER_BUFF_TEAM",
        "AbilityName": "Fire_Team",
        "ModifierName": "Fire_Team_Modifier_lv2_2"
    },
    {
        "GroupId": 13,
        "Name": "元素提升料理",
        "Desc": "火系伤害提升24%，持续300秒",
        "Time": 300.0,
        "ServerBuffId": 139906,
        "ServerBuffType": "SERVER_BUFF_TEAM",
        "AbilityName": "Fire_Team",
        "ModifierName": "Fire_Team_Modifier_lv2_3"
    },
    {
        "GroupId": 13,
        "Name": "元素提升料理",
        "Desc": "水系伤害提升12%，持续300秒",
        "Time": 300.0,
        "ServerBuffId": 139907,
        "ServerBuffType": "SERVER_BUFF_TEAM",
        "AbilityName": "Water_Team",
        "ModifierName": "Water_Team_Modifier_lv2_1"
    },
    {
        "GroupId": 13,
        "Name": "元素提升料理",
        "Desc": "水系伤害提升18%，持续300秒",
        "Time": 300.0,
        "ServerBuffId": 139908,
        "ServerBuffType": "SERVER_BUFF_TEAM",
        "AbilityName": "Water_Team",
        "ModifierName": "Water_Team_Modifier_lv2_2"
    },
    {
        "GroupId": 13,
        "Name": "元素提升料理",
        "Desc": "水系伤害提升24%，持续300秒",
        "Time": 300.0,
        "ServerBuffId": 139909,
        "ServerBuffType": "SERVER_BUFF_TEAM",
        "AbilityName": "Water_Team",
        "ModifierName": "Water_Team_Modifier_lv2_3"
    },
    {
        "GroupId": 51,
        "Name": "龙血结晶",
        "Desc": "可击碎特殊冰块",
        "Time": 25.0,
        "ServerBuffId": 500101,
        "ServerBuffType": "SERVER_BUFF_TEAM",
        "AbilityName": "Dulins_Blood_Buff",
        "ModifierName": "Dulins_Blood_Smash_Ice_Buff"
    },
    {
        "GroupId": 51,
        "Name": "龙血结晶",
        "Desc": "可击碎特殊冰块-雪山活动专用",
        "Time": 25.0,
        "ServerBuffId": 500102,
        "ServerBuffType": "SERVER_BUFF_TEAM",
        "AbilityName": "Dulins_Blood_Buff",
        "ModifierName": "Dulins_Blood_Smash_Ice_Buff_Event"
    },
    {
        "GroupId": 52,
        "Name": "寒冷抗性提升",
        "Desc": "用于抗寒料理，能够抑制低温条提升，ratio-0.3",
        "Time": 900.0,
        "ServerBuffId": 500201,
        "ServerBuffType": "SERVER_BUFF_TEAM",
        "AbilityName": "Anti_Cold_Food_Buff",
        "ModifierName": "Anti_Cold_Buff_lv2_1"
    },
    {
        "GroupId": 52,
        "Name": "寒冷抗性提升",
        "Desc": "用于抗寒料理，能够抑制低温条提升，ratio-0.4",
        "Time": 900.0,
        "ServerBuffId": 500202,
        "ServerBuffType": "SERVER_BUFF_TEAM",
        "AbilityName": "Anti_Cold_Food_Buff",
        "ModifierName": "Anti_Cold_Buff_lv2_2"
    },
    {
        "GroupId": 52,
        "Name": "寒冷抗性提升",
        "Desc": "用于抗寒料理，能够抑制低温条提升，ratio-0.5",
        "Time": 900.0,
        "ServerBuffId": 500203,
        "ServerBuffType": "SERVER_BUFF_TEAM",
        "AbilityName": "Anti_Cold_Food_Buff",
        "ModifierName": "Anti_Cold_Buff_lv2_3"
    },
    {
        "GroupId": 52,
        "Name": "寒冷抗性提升",
        "Desc": "用于抗寒料理，能够抑制低温条提升，ratio-0.5",
        "Time": 1500.0,
        "ServerBuffId": 500204,
        "ServerBuffType": "SERVER_BUFF_TEAM",
        "AbilityName": "Anti_Cold_Food_Buff",
        "ModifierName": "Anti_Cold_Buff_lv2_4"
    },
    {
        "GroupId": 61,
        "Name": "炼金大成功",
        "Desc": "物理增伤提升15%，持续300秒",
        "Time": 300.0,
        "ServerBuffId": 600101,
        "ServerBuffType": "SERVER_BUFF_TEAM",
        "AbilityName": "SceneObj_Gear_ElemForce_SuccessBuff",
        "ModifierName": "SuccessBuff_Attack"
    }
]