[
    {
        "Name": "CONST_VALUE_GAME_TIME_PER_DAY",
        "Value": [
            "24",
            "",
            "",
            "",
            "",
            ""
        ]
    },
    {
        "Name": "CONST_VALUE_INIT_GAME_TIME",
        "Value": [
            "7.31",
            "",
            "",
            "",
            "",
            ""
        ]
    },
    {
        "Name": "CONST_VALUE_INIT_TEAM_AVATAR",
        "Value": [
            "10000005",
            "10000007",
            "",
            "",
            "",
            ""
        ]
    },
    {
        "Name": "CONST_VALUE_CHANGE_AVATAR_CD",
        "Value": [
            "1",
            "",
            "",
            "",
            "",
            ""
        ]
    },
    {
        "Name": "CONST_VALUE_AVATAR_HP_RECOVER",
        "Value": [
            "10",
            "10",
            "",
            "",
            "",
            ""
        ]
    },
    {
        "Name": "CONST_VALUE_DASH_COST_STAMINA",
        "Value": [
            "18",
            "18",
            "",
            "",
            "",
            ""
        ]
    },
    {
        "Name": "CONST_VALUE_CLIMB_COST_STAMINA",
        "Value": [
            "59",
            "1",
            "91",
            "2",
            "105",
            "3"
        ]
    },
    {
        "Name": "CONST_VALUE_CLIMB_JUMP_COST_STAMINA",
        "Value": [
            "25",
            "",
            "",
            "",
            "",
            ""
        ]
    },
    {
        "Name": "CONST_VALUE_CLIMB_COST_STAMINA_FORMULA",
        "Value": [
            "0.8",
            "0.002",
            "0.00016",
            "0.8",
            "2",
            ""
        ]
    },
    {
        "Name": "CONST_VALUE_CLIMB_JUMP_COST_STAMINA_FORMULA",
        "Value": [
            "20",
            "0.12",
            "20",
            "30",
            "",
            ""
        ]
    },
    {
        "Name": "CONST_VALUE_SWIM_COST_STAMINA",
        "Value": [
            "4",
            "",
            "",
            "",
            "",
            ""
        ]
    },
    {
        "Name": "CONST_VALUE_SWIM_DASH_COST_STAMINA",
        "Value": [
            "1",
            "",
            "",
            "",
            "",
            ""
        ]
    },
    {
        "Name": "CONST_VALUE_SWIM_DASH_COST_STAMINA_PER_SECOND",
        "Value": [
            "10.2",
            "",
            "",
            "",
            "",
            ""
        ]
    },
    {
        "Name": "CONST_VALUE_FLY_COST_STAMINA",
        "Value": [
            "3",
            "",
            "",
            "",
            "",
            ""
        ]
    },
    {
        "Name": "CONST_VALUE_CROUCH_ROLL_COST_STAMINA",
        "Value": [
            "50",
            "",
            "",
            "",
            "",
            ""
        ]
    },
    {
        "Name": "CONST_VALUE_DASH_BS_COST_STAMINA",
        "Value": [
            "18",
            "18",
            "",
            "",
            "",
            ""
        ]
    },
    {
        "Name": "CONST_VALUE_WALK_TO_SWIM_ADD_STAMINA",
        "Value": [
            "10",
            "",
            "",
            "",
            "",
            ""
        ]
    },
    {
        "Name": "CONST_VALUE_STAMINA_RECOVER_WAIT_TIME",
        "Value": [
            "1.5",
            "",
            "",
            "",
            "",
            ""
        ]
    },
    {
        "Name": "CONST_VALUE_STAMINA_LIMIT",
        "Value": [
            "100",
            "",
            "",
            "",
            "",
            ""
        ]
    },
    {
        "Name": "CONST_VALUE_EXTRA_STAMINA_LIMIT",
        "Value": [
            "200",
            "100",
            "",
            "",
            "",
            ""
        ]
    },
    {
        "Name": "CONST_VALUE_FALL_HURT",
        "Value": [
            "-24",
            "0.1",
            "-1",
            "0.151",
            "",
            ""
        ]
    },
    {
        "Name": "CONST_VALUE_PACK_MAX_WEIGHT",
        "Value": [
            "30000",
            "",
            "",
            "",
            "",
            ""
        ]
    },
    {
        "Name": "CONST_VALUE_DEPOT_MAX_WEIGHT",
        "Value": [
            "2000",
            "",
            "",
            "",
            "",
            ""
        ]
    },
    {
        "Name": "CONST_VALUE_KILL_MONSTER_EXP",
        "Value": [
            "100",
            "",
            "",
            "",
            "",
            ""
        ]
    },
    {
        "Name": "CONST_VALUE_PLAYER_WORLD_SCENE_ID",
        "Value": [
            "3",
            "",
            "",
            "",
            "",
            ""
        ]
    },
    {
        "Name": "CONST_VALUE_PLAYER_PICKUP_RANGE",
        "Value": [
            "2",
            "",
            "",
            "",
            "",
            ""
        ]
    },
    {
        "Name": "CONST_VALUE_ITEM_STACK_MAX",
        "Value": [
            "255",
            "",
            "",
            "",
            "",
            ""
        ]
    },
    {
        "Name": "CONST_VALUE_AVATAR_DIE_MAX_TIME",
        "Value": [
            "10",
            "",
            "",
            "",
            "",
            ""
        ]
    },
    {
        "Name": "CONST_VALUE_DEFENSE_RESIST_RATIO",
        "Value": [
            "5",
            "500",
            "99999999",
            "",
            "",
            ""
        ]
    },
    {
        "Name": "CONST_VALUE_CRITICAL_LIMIT",
        "Value": [
            "0",
            "1",
            "",
            "",
            "",
            ""
        ]
    },
    {
        "Name": "CONST_VALUE_BLOCK_REFRESH_PARAM",
        "Value": [
            "60",
            "50",
            "10",
            "",
            "",
            ""
        ]
    },
    {
        "Name": "CONST_VALUE_DUNGEON_KEEP_TIME",
        "Value": [
            "30",
            "",
            "",
            "",
            "",
            ""
        ]
    },
    {
        "Name": "CONST_VALUE_ADSORBATE_PICKUP_RANGE",
        "Value": [
            "10",
            "",
            "",
            "",
            "",
            ""
        ]
    },
    {
        "Name": "CONST_VALUE_ADSORBATE_STAY_TIME",
        "Value": [
            "2",
            "",
            "",
            "",
            "",
            ""
        ]
    },
    {
        "Name": "CONST_VALUE_ELEMENT_OVERLOAD_REDUCE",
        "Value": [
            "1",
            "",
            "",
            "",
            "",
            ""
        ]
    },
    {
        "Name": "CONST_VALUE_PURGE_DECREMENT",
        "Value": [
            "0.5",
            "",
            "",
            "",
            "",
            ""
        ]
    },
    {
        "Name": "CONST_VALUE_WATER_FIRE_DECRATE",
        "Value": [
            "2",
            "",
            "",
            "",
            "",
            ""
        ]
    },
    {
        "Name": "CONST_VALUE_ICE_FIRE_DECRATE",
        "Value": [
            "0.5",
            "",
            "",
            "",
            "",
            ""
        ]
    },
    {
        "Name": "CONST_VALUE_EFFECT_RESIST_LEVEL_FIX",
        "Value": [
            "0.05",
            "",
            "",
            "",
            "",
            ""
        ]
    },
    {
        "Name": "CONST_VALUE_DUNGEON_REVIVE_WAIT_TIME",
        "Value": [
            "30",
            "",
            "",
            "",
            "",
            ""
        ]
    },
    {
        "Name": "CONST_VALUE_FOOD_WEAPON_EXP_DISCOUNT_PARAM",
        "Value": [
            "0.8",
            "",
            "",
            "",
            "",
            ""
        ]
    },
    {
        "Name": "CONST_VALUE_FOOD_RELIQUARY_EXP_DISCOUNT_PARAM",
        "Value": [
            "0.8",
            "",
            "",
            "",
            "",
            ""
        ]
    },
    {
        "Name": "CONST_VALUE_DAMAGE_LEVEL_FIX",
        "Value": [
            "1.5",
            "5",
            "8",
            "0.125",
            "5",
            "10"
        ]
    },
    {
        "Name": "CONST_VALUE_DUNGEON_CANCEL_WAIT_TIME",
        "Value": [
            "30",
            "999",
            "",
            "",
            "",
            ""
        ]
    },
    {
        "Name": "CONST_VALUE_ENDURE_LEVEL_FIX",
        "Value": [
            "40",
            "5",
            "",
            "",
            "",
            ""
        ]
    },
    {
        "Name": "CONST_VALUE_SECRET_CHEST_DAY_LIMIT",
        "Value": [
            "3",
            "",
            "",
            "",
            "",
            ""
        ]
    },
    {
        "Name": "CONST_VALUE_HURT_REVIVE_HP_PERCENT",
        "Value": [
            "35",
            "",
            "",
            "",
            "",
            ""
        ]
    },
    {
        "Name": "CONST_VALUE_NO_HURT_DIE_SUB_HP_PERCENT",
        "Value": [
            "10",
            "",
            "",
            "",
            "",
            ""
        ]
    },
    {
        "Name": "CONST_VALUE_SPRING_RECOVER_TIME",
        "Value": [
            "1500",
            "15",
            "",
            "",
            "",
            ""
        ]
    },
    {
        "Name": "CONST_VALUE_SPRING_RECOVER_PARAM",
        "Value": [
            "1",
            "10",
            "0.3",
            "0.1",
            "",
            ""
        ]
    },
    {
        "Name": "CONST_VALUE_SPRING_AUTO_RECOVER_DELAY",
        "Value": [
            "2",
            "",
            "",
            "",
            "",
            ""
        ]
    },
    {
        "Name": "CONST_VALUE_BACK_AVATAR_AUTO_RECOVER_PARAM",
        "Value": [
            "3600",
            "4",
            "",
            "",
            "",
            ""
        ]
    },
    {
        "Name": "CONST_VALUE_BORED_LIMIT",
        "Value": [
            "50",
            "100",
            "1800",
            "",
            "",
            ""
        ]
    },
    {
        "Name": "CONST_VALUE_BORED_CREATE_MONSTER",
        "Value": [
            "200",
            "300",
            "50",
            "",
            "",
            ""
        ]
    },
    {
        "Name": "CONST_VALUE_SKILL_CD_MIN_PRESERVE_TIME",
        "Value": [
            "5",
            "",
            "",
            "",
            "",
            ""
        ]
    },
    {
        "Name": "CONST_VALUE_TALENT_POINT_LIMIT",
        "Value": [
            "16",
            "16",
            "",
            "",
            "",
            ""
        ]
    },
    {
        "Name": "CONST_VALUE_ELEMENTREACTION_AREALEVELDELTA_LIMIT",
        "Value": [
            "10",
            "",
            "",
            "",
            "",
            ""
        ]
    },
    {
        "Name": "CONST_VALUE_MODIFIER_MIN_PRESERVE_TIME",
        "Value": [
            "5",
            "",
            "",
            "",
            "",
            ""
        ]
    },
    {
        "Name": "CONST_VALUE_AREA_CHECK_CD",
        "Value": [
            "6",
            "",
            "",
            "",
            "",
            ""
        ]
    },
    {
        "Name": "CONST_VALUE_NICKNAME_MAX_LENGTH",
        "Value": [
            "14",
            "6",
            "",
            "",
            "",
            ""
        ]
    },
    {
        "Name": "CONST_VALUE_TEAMNAME_MAX_LENGTH",
        "Value": [
            "16",
            "",
            "",
            "",
            "",
            ""
        ]
    },
    {
        "Name": "CONST_VALUE_PORTAL_TRANSPORT_TIME",
        "Value": [
            "5",
            "",
            "",
            "",
            "",
            ""
        ]
    },
    {
        "Name": "CONST_VALUE_ENV_ANIMAL_REFRESH",
        "Value": [
            "6",
            "40",
            "5",
            "5",
            "",
            ""
        ]
    },
    {
        "Name": "CONST_VALUE_ENV_ANIMAL_GROUP",
        "Value": [
            "50",
            "6",
            "",
            "",
            "",
            ""
        ]
    },
    {
        "Name": "CONST_VALUE_BUSH_DROP",
        "Value": [
            "8",
            "4",
            "21010200",
            "6",
            "5",
            "300"
        ]
    },
    {
        "Name": "CONST_VALUE_COOK_AUTO_QUALITY",
        "Value": [
            "5",
            "10",
            "85",
            "",
            "",
            ""
        ]
    },
    {
        "Name": "CONST_VALUE_COOK_QTE_PERFECT_RANGE_VALUE",
        "Value": [
            "0.25",
            "0.5",
            "",
            "",
            "",
            ""
        ]
    },
    {
        "Name": "CONST_VALUE_KILL_DROP_EXP_CONFIG",
        "Value": [
            "100",
            "",
            "",
            "",
            "",
            ""
        ]
    },
    {
        "Name": "CONST_VALUE_AVATAR_MAX_PROMOTE_LEVEL",
        "Value": [
            "6",
            "",
            "",
            "",
            "",
            ""
        ]
    },
    {
        "Name": "CONST_VALUE_VIOLIN_LIST",
        "Value": [
            "100161",
            "100162",
            "100163",
            "",
            "",
            ""
        ]
    },
    {
        "Name": "CONST_VALUE_FIREWORM_ESCAPE_PARMA",
        "Value": [
            "3",
            "5",
            "2",
            "",
            "",
            ""
        ]
    },
    {
        "Name": "CONST_VALUE_TIMEOUT_SECOND_PARMA",
        "Value": [
            "5",
            "",
            "",
            "",
            "",
            ""
        ]
    },
    {
        "Name": "CONST_VALUE_TIMEOUT_COUND_PARMA",
        "Value": [
            "3",
            "",
            "",
            "",
            "",
            ""
        ]
    },
    {
        "Name": "CONST_VALUE_MAIL_MAX_NUM",
        "Value": [
            "1000",
            "",
            "",
            "",
            "",
            ""
        ]
    },
    {
        "Name": "CONST_VALUE_RECORD_MONSTER_DIS",
        "Value": [
            "15",
            "",
            "",
            "",
            "",
            ""
        ]
    },
    {
        "Name": "CONST_VALUE_RECORD_MONSTER_ANGLE",
        "Value": [
            "120",
            "",
            "",
            "",
            "",
            ""
        ]
    },
    {
        "Name": "CONST_VALUE_COMPOUND_QUEUE_MAX_COUNT",
        "Value": [
            "999",
            "",
            "",
            "",
            "",
            ""
        ]
    },
    {
        "Name": "CONST_VALUE_WEAPON_AUTO_HIDE_TIME",
        "Value": [
            "10",
            "",
            "",
            "",
            "",
            ""
        ]
    },
    {
        "Name": "CONST_VALUE_WEAPON_LEVELUP_COST",
        "Value": [
            "0.1",
            "0.1",
            "0.1",
            "0.1",
            "0.1",
            ""
        ]
    },
    {
        "Name": "CONST_VALUE_RELIQUARY_LEVELUP_COST",
        "Value": [
            "1",
            "1",
            "1",
            "1",
            "1",
            ""
        ]
    },
    {
        "Name": "CONST_VALUE_AVATAR_UPGRADE_COST_RATIO",
        "Value": [
            "0.2",
            "0.2",
            "",
            "",
            "",
            ""
        ]
    },
    {
        "Name": "CONST_VALUE_CLIMB_MIN_STAMINA",
        "Value": [
            "5",
            "",
            "",
            "",
            "",
            ""
        ]
    },
    {
        "Name": "CONST_VALUE_ELEMENT_SHOW_DISTANCE",
        "Value": [
            "20",
            "",
            "",
            "",
            "",
            ""
        ]
    },
    {
        "Name": "CONST_VALUE_QUESTGUIDE_SHOW_DISTANCE",
        "Value": [
            "300",
            "",
            "",
            "",
            "",
            ""
        ]
    },
    {
        "Name": "CONST_VALUE_LIMIT_QUALITY_ONDROP",
        "Value": [
            "1",
            "",
            "",
            "",
            "",
            ""
        ]
    },
    {
        "Name": "CONST_VALUE_STEER_MIN_ANGLE",
        "Value": [
            "70",
            "",
            "",
            "",
            "",
            ""
        ]
    },
    {
        "Name": "CONST_VALUE_MAP_WARNING_DISTANCE",
        "Value": [
            "80",
            "",
            "",
            "",
            "",
            ""
        ]
    },
    {
        "Name": "CONST_VALUE_MAP_WARNING_INTERVAL",
        "Value": [
            "20",
            "",
            "",
            "",
            "",
            ""
        ]
    },
    {
        "Name": "CONST_VALUE_AREA_LEVEL_WARNING_THR",
        "Value": [
            "5",
            "",
            "",
            "",
            "",
            ""
        ]
    },
    {
        "Name": "CONST_VALUE_ELEMENT_OVERLOAD_MAX",
        "Value": [
            "1",
            "",
            "",
            "",
            "",
            ""
        ]
    },
    {
        "Name": "CONST_VALUE_SUPERCONDUCTOR_DURABILITY",
        "Value": [
            "1",
            "",
            "",
            "",
            "",
            ""
        ]
    },
    {
        "Name": "CONST_VALUE_SWIRL_PARAM",
        "Value": [
            "1",
            "1",
            "",
            "",
            "",
            ""
        ]
    },
    {
        "Name": "CONST_VALUE_IS_MP_OPEN",
        "Value": [
            "1",
            "",
            "",
            "",
            "",
            ""
        ]
    },
    {
        "Name": "CONST_VALUE_CRASH_PARAM",
        "Value": [
            "10",
            "0.4",
            "4.2",
            "2",
            "1,0.9,1",
            ""
        ]
    },
    {
        "Name": "CONST_VALUE_ELEMENT_MASTERY_PARAM",
        "Value": [
            "6.66",
            "1400",
            "2.78",
            "1400",
            "4.44",
            "1400"
        ]
    },
    {
        "Name": "CONST_VALUE_DAILY_TASK_PARAM",
        "Value": [
            "4",
            "4",
            "2010137",
            "4",
            "5",
            "10100,10201,10500,10300"
        ]
    },
    {
        "Name": "CONST_VALUE_DAILY_TASK_PARAM2",
        "Value": [
            "5",
            "",
            "",
            "",
            "",
            ""
        ]
    },
    {
        "Name": "CONST_VALUE_DAILY_TASK_OPEN_CUSTOM_POOL",
        "Value": [
            "10106,10107,10204,21700",
            "",
            "",
            "",
            "",
            ""
        ]
    },
    {
        "Name": "CONST_VALUE_NEXT_DAY",
        "Value": [
            "4",
            "",
            "",
            "",
            "",
            ""
        ]
    },
    {
        "Name": "CONST_VALUE_RAND_TASK_COMP_PARAM",
        "Value": [
            "1",
            "14",
            "60",
            "",
            "",
            ""
        ]
    },
    {
        "Name": "CONST_VALUE_RAND_TASK_REFRESH_PARAM",
        "Value": [
            "1",
            "1800",
            "3600",
            "50",
            "100",
            "10"
        ]
    },
    {
        "Name": "CONST_VALUE_RAND_TASK_POS_PARAM",
        "Value": [
            "60",
            "1.5",
            "2",
            "1.5",
            "2.5",
            ""
        ]
    },
    {
        "Name": "CONST_VALUE_RAND_TASK_POINT_PARAM",
        "Value": [
            "40",
            "80",
            "",
            "",
            "",
            ""
        ]
    },
    {
        "Name": "CONST_VALUE_RAND_TASK_QEST_PARAM",
        "Value": [
            "1",
            "1800",
            "102",
            "1000",
            "",
            ""
        ]
    },
    {
        "Name": "CONST_VALUE_ENERGY_RECHANGE_RATIO",
        "Value": [
            "1,1",
            "1,0.8",
            "1,0.7",
            "1,0.6",
            "",
            ""
        ]
    },
    {
        "Name": "CONST_VALUE_DEFAULT_WORLD_ID",
        "Value": [
            "1",
            "",
            "",
            "",
            "",
            ""
        ]
    },
    {
        "Name": "CONST_VALUE_EXPEDITION_INIT_LIMIT",
        "Value": [
            "2",
            "",
            "",
            "",
            "",
            ""
        ]
    },
    {
        "Name": "CONST_VALUE_WORLD_LEVEL_FORMULA",
        "Value": [
            "-15",
            "15",
            "60",
            "",
            "",
            ""
        ]
    },
    {
        "Name": "CONST_VALUE_WEATHER_INTERVAL",
        "Value": [
            "8",
            "",
            "",
            "",
            "",
            ""
        ]
    },
    {
        "Name": "CONST_VALUE_AVATAR_COMBAT_FORCE_PARAM",
        "Value": [
            "1,15,25,20000,10000,4000,40,14000,10000",
            "",
            "",
            "",
            "",
            ""
        ]
    },
    {
        "Name": "CONST_VALUE_PLAYER_COMBAT_FORCE_PARAM",
        "Value": [
            "5,3,1",
            "5,3,1",
            "5,3,1",
            "5,3,1",
            "5,3,1",
            "5,3,1"
        ]
    },
    {
        "Name": "CONST_VALUE_CORE_PROUD_SKILL_MAX_LEVEL",
        "Value": [
            "10",
            "",
            "",
            "",
            "",
            ""
        ]
    },
    {
        "Name": "CONST_VALUE_INHERENT_PROUD_SKILL_MAX_LEVEL",
        "Value": [
            "1",
            "",
            "",
            "",
            "",
            ""
        ]
    },
    {
        "Name": "CONST_VALUE_ACTIVE_SKILL_MAX_LEVEL",
        "Value": [
            "10",
            "",
            "",
            "",
            "",
            ""
        ]
    },
    {
        "Name": "CONST_VALUE_DUNGEON_OEPN_QUEST",
        "Value": [
            "20501",
            "20501",
            "2050103",
            "",
            "",
            ""
        ]
    },
    {
        "Name": "CONST_VALUE_MP_CHAT_PARAM",
        "Value": [
            "200",
            "80",
            "1",
            "8",
            "8",
            "60"
        ]
    },
    {
        "Name": "CONST_VALUE_DUNGEON_CANDIDATE_INVITE_VAILD_TIME_SEC",
        "Value": [
            "10",
            "",
            "",
            "",
            "",
            ""
        ]
    },
    {
        "Name": "CONST_VALUE_SET_STRUGGLE_LEVEL_DIFFERENCE_THRESHOLD",
        "Value": [
            "20",
            "",
            "",
            "",
            "",
            ""
        ]
    },
    {
        "Name": "CONST_VALUE_DUNGEON_INVITE_NEED_TRANS_DISTANCE",
        "Value": [
            "10",
            "",
            "",
            "",
            "",
            ""
        ]
    },
    {
        "Name": "CONST_VALUE_PLAYER_LEVEL_REWARD_UNLOCK_PREVIEW_LIMIT",
        "Value": [
            "5",
            "",
            "",
            "",
            "",
            ""
        ]
    },
    {
        "Name": "CONST_VALUE_DROP_SUBFIELD_PARAM",
        "Value": [
            "9999",
            "",
            "",
            "",
            "",
            ""
        ]
    },
    {
        "Name": "CONST_VALUE_NPC_CONFLICT_DISTANCE",
        "Value": [
            "200",
            "",
            "",
            "",
            "",
            ""
        ]
    },
    {
        "Name": "CONST_VALUE_SEA_LAMP_ACTIVITY",
        "Value": [
            "200004",
            "2000",
            "120",
            "120",
            "120",
            "70800017"
        ]
    },
    {
        "Name": "CONST_VALUE_ACTIVITY",
        "Value": [
            "7",
            "1000",
            "",
            "",
            "",
            ""
        ]
    },
    {
        "Name": "CONST_VALUE_SEA_LAMP_PRAY_URL",
        "Value": [
            "https://api-takumi.mihoyo.com/event/e20200203lantern/addbless?authkey_ver=1",
            "https://webstatic.mihoyo.com/ys/event/sealamp/index.html?fullscreen=1#/ingame",
            "https://api-os-takumi.mihoyo.com/event/e20200203lantern/addbless?authkey_ver=1",
            "https://webstatic-sea.mihoyo.com/ys/event/sealamp_os/index.html?fullscreen=1#/ingame",
            "",
            ""
        ]
    },
    {
        "Name": "CONST_VALUE_SEA_LAMP_ACTIVITY2",
        "Value": [
            "30000",
            "200004",
            "16001",
            "30001",
            "150",
            "151"
        ]
    },
    {
        "Name": "CONST_VALUE_SEA_LAMP_QUEST",
        "Value": [
            "40001",
            "40002",
            "40003",
            "40004",
            "40005",
            ""
        ]
    },
    {
        "Name": "CONST_VALUE_RESIN_PARAM",
        "Value": [
            "2000",
            "160",
            "8",
            "60",
            "50,100,100,150,200,200",
            ""
        ]
    },
    {
        "Name": "CONST_VALUE_TOWER_DAILY_MAIL_ID",
        "Value": [
            "1",
            "",
            "",
            "",
            "",
            ""
        ]
    },
    {
        "Name": "CONST_VALUE_TOWER_MONTHLY_MAIL_ID",
        "Value": [
            "2",
            "",
            "",
            "",
            "",
            ""
        ]
    },
    {
        "Name": "CONST_VALUE_TOWER_OVERFLOW_FIRST_PASS",
        "Value": [
            "3",
            "",
            "",
            "",
            "",
            ""
        ]
    },
    {
        "Name": "CONST_VALUE_LIMIT_REGION_PATH",
        "Value": [
            "47,FreshmeatRegion,48,GlobalOpenArea",
            "",
            "",
            "",
            "",
            ""
        ]
    },
    {
        "Name": "CONST_VALUE_SEA_LAMP_ACTIVITY3",
        "Value": [
            "-492.42,203.78,285.7",
            "-45",
            "0,0,2",
            "10",
            "",
            ""
        ]
    },
    {
        "Name": "CONST_VALUE_DEFAULT_MATERIAL_GADGET_ID",
        "Value": [
            "70300001",
            "",
            "",
            "",
            "",
            ""
        ]
    },
    {
        "Name": "CONST_VALUE_DISTANCE_CHECK",
        "Value": [
            "50",
            "900",
            "",
            "",
            "",
            ""
        ]
    },
    {
        "Name": "CONST_VALUE_PROFICIENT_PLAYER_CHILD_QUEST",
        "Value": [
            "35802",
            "",
            "",
            "",
            "",
            ""
        ]
    },
    {
        "Name": "CONST_VALUE_GACHA_GUARANTEE_START_COEFFICIENT",
        "Value": [
            "0.44",
            "",
            "",
            "",
            "",
            ""
        ]
    },
    {
        "Name": "CONST_VALUE_GACHA_GUARANTEE_INCREASE_COEFFICIENT",
        "Value": [
            "10",
            "",
            "",
            "",
            "",
            ""
        ]
    },
    {
        "Name": "CONST_VALUE_GACHA_DYNAMIC_UP_BASE",
        "Value": [
            "3",
            "",
            "",
            "",
            "",
            ""
        ]
    },
    {
        "Name": "CONST_VALUE_QUEST_TRIAL_AVATAR_COMBAT_FORCE_CONVERT_RATIO",
        "Value": [
            "0.9",
            "",
            "",
            "",
            "",
            ""
        ]
    },
    {
        "Name": "CONST_VALUE_OUTPUT_LIMIT_SWITCH",
        "Value": [
            "",
            "",
            "",
            "",
            "",
            ""
        ]
    },
    {
        "Name": "CONST_VALUE_OUTPUT_CONTROL_SWITCH",
        "Value": [
            "1",
            "",
            "",
            "",
            "",
            ""
        ]
    },
    {
        "Name": "CONST_VALUE_FROMBACK_LIMITTIME",
        "Value": [
            "5",
            "",
            "",
            "",
            "",
            ""
        ]
    },
    {
        "Name": "CONST_VALUE_FROMBACK_LIMITRATIO",
        "Value": [
            "2",
            "",
            "",
            "",
            "",
            ""
        ]
    },
    {
        "Name": "CONST_VALUE_FROMBACK_RECONNECT_DURATION",
        "Value": [
            "3",
            "",
            "",
            "",
            "",
            ""
        ]
    },
    {
        "Name": "CONST_VALUE_RECONNECT_DELAY_BASE",
        "Value": [
            "2.5",
            "",
            "",
            "",
            "",
            ""
        ]
    },
    {
        "Name": "CONST_VALUE_FORCE_RECONNECT_DURATION",
        "Value": [
            "30",
            "",
            "",
            "",
            "",
            ""
        ]
    },
    {
        "Name": "CONST_VALUE_SOCIAL_CONFIG",
        "Value": [
            "45",
            "50",
            "50",
            "10",
            "50",
            "10"
        ]
    },
    {
        "Name": "CONST_VALUE_BATTLE_PASS_MISSION_REFRESH",
        "Value": [
            "99",
            "",
            "",
            "",
            "",
            ""
        ]
    },
    {
        "Name": "CONST_VALUE_PRODUCT_PARAM",
        "Value": [
            "2020-04-26 19:00:00",
            "10",
            "1",
            "320000",
            "",
            ""
        ]
    },
    {
        "Name": "CONST_VALUE_SATIATION_PARAM",
        "Value": [
            "100",
            "0.3",
            "30",
            "",
            "",
            ""
        ]
    },
    {
        "Name": "CONST_VALUE_MALL_LIMITTIMEPT_SHOWTIME",
        "Value": [
            "14",
            "",
            "",
            "",
            "",
            ""
        ]
    },
    {
        "Name": "CONST_VALUE_GAGDET_CREATION_LIMIT_DROP_TAG",
        "Value": [
            "搜刮点解谜",
            "100",
            "",
            "",
            "",
            ""
        ]
    },
    {
        "Name": "CONST_VALUE_LOADING_LIGHT_BG_PERIOD",
        "Value": [
            "6",
            "18",
            "",
            "",
            "",
            ""
        ]
    },
    {
        "Name": "CONST_VALUE_MOVE_SPEED_CHECK_PARAM",
        "Value": [
            "1000",
            "40",
            "40",
            "40",
            "40",
            "40"
        ]
    },
    {
        "Name": "CONST_VALUE_DEFAULT_FLYCLOAK_CONFIG",
        "Value": [
            "140001",
            "",
            "",
            "",
            "",
            ""
        ]
    },
    {
        "Name": "CONST_VALUE_ACTIVITY_CRUCIBLE_QUEST_ID",
        "Value": [
            "40911",
            "",
            "",
            "",
            "",
            ""
        ]
    },
    {
        "Name": "CONST_VALUE_MP_PLAY_CONFIG",
        "Value": [
            "70330039",
            "",
            "",
            "",
            "",
            ""
        ]
    },
    {
        "Name": "CONST_VALUE_REBATE_MAIL_ID",
        "Value": [
            "8",
            "",
            "",
            "",
            "",
            ""
        ]
    },
    {
        "Name": "CONST_VALUE_DEFAULT_NAME_CARD_ID",
        "Value": [
            "210001",
            "",
            "",
            "",
            "",
            ""
        ]
    },
    {
        "Name": "CONST_VALUE_CRUCIBLE_CONFIG",
        "Value": [
            "900",
            "Fire,Water,Grass,Electric,Ice,Frozen,Wind,Rock,AntiFire",
            "",
            "",
            "",
            ""
        ]
    },
    {
        "Name": "CONST_VALUE_BATTLEPASS_VIDEO_CONFIG",
        "Value": [
            "battlePass.usm",
            "300015",
            "",
            "",
            "",
            ""
        ]
    },
    {
        "Name": "CONST_VALUE_MATERIAL_DESTROY_RETURN_MATERIAL_LIMIT",
        "Value": [
            "9",
            "",
            "",
            "",
            "",
            ""
        ]
    },
    {
        "Name": "CONST_VALUE_BATTLE_PASS_ITEM_USE_CONFIG",
        "Value": [
            "20",
            "",
            "",
            "",
            "",
            ""
        ]
    },
    {
        "Name": "CONST_VALUE_PERSONAL_LINE_CONFIG",
        "Value": [
            "3",
            "8",
            "",
            "",
            "",
            ""
        ]
    },
    {
        "Name": "CONST_VALUE_RTT_LOW",
        "Value": [
            "100",
            "#A6FF55FF",
            "",
            "",
            "",
            ""
        ]
    },
    {
        "Name": "CONST_VALUE_RTT_MID",
        "Value": [
            "200",
            "#FFE14BFF",
            "",
            "",
            "",
            ""
        ]
    },
    {
        "Name": "CONST_VALUE_RTT_HIGH",
        "Value": [
            "999",
            "#FF8080FF",
            "",
            "",
            "",
            ""
        ]
    },
    {
        "Name": "CONST_VALUE_RTT_REFRESH_TIME",
        "Value": [
            "1",
            "",
            "",
            "",
            "",
            ""
        ]
    },
    {
        "Name": "CONST_VALUE_SPEECH_BUBBLE_DEFAULT_DURATION",
        "Value": [
            "2",
            "",
            "",
            "",
            "",
            ""
        ]
    },
    {
        "Name": "CONST_VALUE_SPEECH_BUBBLE_EXTRA_DURATION",
        "Value": [
            "0.5",
            "",
            "",
            "",
            "",
            ""
        ]
    },
    {
        "Name": "CONST_VALUE_FORGE_POINT_DAY_LIMIT",
        "Value": [
            "300000",
            "",
            "",
            "",
            "",
            ""
        ]
    },
    {
        "Name": "CONST_VALUE_FIRST_SHARE_REWARD",
        "Value": [
            "240001",
            "",
            "",
            "",
            "",
            ""
        ]
    },
    {
        "Name": "CONST_VALUE_POINT_CARD_RECHARGE",
        "Value": [
            "hk4e_glb_pointcard_tierx",
            "1",
            "1",
            "",
            "",
            ""
        ]
    },
    {
        "Name": "CONST_VALUE_MATERIAL_ITEM_LIMIT",
        "Value": [
            "2000",
            "2400",
            "1800",
            "",
            "",
            ""
        ]
    },
    {
        "Name": "CONST_VALUE_RELIQUARY_ITEM_LIMIT",
        "Value": [
            "1000",
            "1200",
            "",
            "",
            "",
            ""
        ]
    },
    {
        "Name": "CONST_VALUE_WEAPON_ITEM_LIMIT",
        "Value": [
            "2000",
            "2400",
            "",
            "",
            "",
            ""
        ]
    },
    {
        "Name": 270,
        "Value": [
            "2000",
            "2400",
            "",
            "",
            "",
            ""
        ]
    },
    {
        "Name": "CONST_VALUE_MAP_MARK_MAX_LENGTH",
        "Value": [
            "100",
            "",
            "",
            "",
            "",
            ""
        ]
    },
    {
        "Name": "CONST_VALUE_EXPLORE",
        "Value": [
            "4",
            "",
            "",
            "",
            "",
            ""
        ]
    },
    {
        "Name": "CONST_VALUE_GUIDE_RATING_CHAPTERID",
        "Value": [
            "2003",
            "",
            "",
            "",
            "",
            ""
        ]
    },
    {
        "Name": "CONST_VALUE_PS4_TROPHY_SWITCH",
        "Value": [
            "1",
            "1",
            "",
            "",
            "",
            ""
        ]
    },
    {
        "Name": "CONST_VALUE_REMINDER_INTERRUPT_SHOW_DELAY",
        "Value": [
            "1",
            "",
            "",
            "",
            "",
            ""
        ]
    },
    {
        "Name": "CONST_VALUE_UPGRADE_WEAPON_RETURN_MATERIAL_ID",
        "Value": [
            "104013",
            "104012",
            "104011",
            "",
            "",
            ""
        ]
    },
    {
        "Name": "CONST_VALUE_CITY_REPUTATION_PARAM",
        "Value": [
            "12",
            "3",
            "AbilityGroup_Reputation_Hunting",
            "4043",
            "",
            ""
        ]
    },
    {
        "Name": "CONST_VALUE_HUNTING_REVISE_LEVEL",
        "Value": [
            "1",
            "2",
            "3",
            "",
            "",
            ""
        ]
    },
    {
        "Name": "CONST_VALUE_REPORT_PARAM",
        "Value": [
            "250",
            "5",
            "300",
            "5",
            "300",
            ""
        ]
    },
    {
        "Name": "CONST_VALUE_DRAGON_SPINE_CONFIG",
        "Value": [
            "11413",
            "",
            "",
            "",
            "",
            ""
        ]
    },
    {
        "Name": "CONST_VALUE_DUNGEON_RESTART_INVITE_VAILD_TIME_SEC",
        "Value": [
            "10",
            "",
            "",
            "",
            "",
            ""
        ]
    },
    {
        "Name": "CONST_VALUE_TOWER_RESET",
        "Value": [
            "3",
            "3",
            "6",
            "9",
            "",
            ""
        ]
    },
    {
        "Name": "CONST_VALUE_ELEMENT_TRIAL_MARK_SHOW_LEVEL_LIMIT",
        "Value": [
            "20",
            "",
            "",
            "",
            "",
            ""
        ]
    },
    {
        "Name": "CONST_VALUE_SNOW_MOUNTAIN_ROUTINE",
        "Value": [
            "209",
            "2",
            "",
            "",
            "",
            ""
        ]
    },
    {
        "Name": "CONST_VALUE_REUNION_PARAM",
        "Value": [
            "45",
            "7",
            "14",
            "",
            "",
            ""
        ]
    },
    {
        "Name": "CONST_VALUE_ANTI_HARASSMENT_CONFIG",
        "Value": [
            "10",
            "50",
            "17",
            "0",
            "200",
            ""
        ]
    },
    {
        "Name": "CONST_VALUE_DIE_INVINCIBLE_CONFIG",
        "Value": [
            "5000",
            "",
            "",
            "",
            "",
            ""
        ]
    },
    {
        "Name": "CONST_VALUE_GRASS_TILE_ELEMENT_REACTION_POS_OFFSET",
        "Value": [
            "0.8",
            "",
            "",
            "",
            "",
            ""
        ]
    },
    {
        "Name": "CONST_VALUE_ASK_ADD_FRIEND_FREQUENCY_CONFIG",
        "Value": [
            "20",
            "1",
            "100",
            "5",
            "",
            ""
        ]
    },
    {
        "Name": "CONST_VALUE_CHAT_PARAM",
        "Value": [
            "4",
            "3",
            "",
            "",
            "",
            ""
        ]
    },
    {
        "Name": "CONST_VALUE_MIRACLE_RING_CD",
        "Value": [
            "597600",
            "",
            "",
            "",
            "",
            ""
        ]
    },
    {
        "Name": "CONST_VALUE_MIRACLE_RING_DROP_COUNT",
        "Value": [
            "5",
            "",
            "",
            "",
            "",
            ""
        ]
    },
    {
        "Name": "CONST_VALUE_MIRACLE_RING_DELIVER_VALUE",
        "Value": [
            "150",
            "",
            "",
            "",
            "",
            ""
        ]
    },
    {
        "Name": "CONST_VALUE_BLESSING_CONFIG",
        "Value": [
            "7",
            "200030001",
            "8",
            "30601",
            "30602",
            "30603"
        ]
    },
    {
        "Name": "CONST_VALUE_MIRACLE_RING_RANDOM_DROP_PROB",
        "Value": [
            "0.5",
            "",
            "",
            "",
            "",
            ""
        ]
    },
    {
        "Name": "CONST_VALUE_MIRACLE_RING_ITEM_ADD_PACK",
        "Value": [
            "104001,104002,104003,104011,104012,104013",
            "",
            "",
            "",
            "",
            ""
        ]
    },
    {
        "Name": "CONST_VALUE_MP_REWARD_RESERVED_TIME_CONFIG",
        "Value": [
            "30",
            "",
            "",
            "",
            "",
            ""
        ]
    },
    {
        "Name": "CONST_VALUE_ACTIVITY_MONSTER_BANNER_DRAKE_PRIMO_ROCK",
        "Value": [
            "71022",
            "23",
            "15160",
            "",
            "",
            ""
        ]
    },
    {
        "Name": "CONST_VALUE_MECHANICUS_ROTATION_PARAM",
        "Value": [
            "180",
            "90",
            "-180",
            "90",
            "",
            ""
        ]
    },
    {
        "Name": "CONST_VALUE_SHOP_OUTPUT_SWITCH",
        "Value": [
            "1",
            "1",
            "",
            "",
            "",
            ""
        ]
    },
    {
        "Name": "CONST_VALUE_MECHANICUS_CARD_PARAM",
        "Value": [
            "1",
            "1",
            "2",
            "6",
            "100",
            ""
        ]
    },
    {
        "Name": "CONST_VALUE_FORCE_DRAG_BACK_PARAM",
        "Value": [
            "10",
            "20",
            "",
            "",
            "",
            ""
        ]
    },
    {
        "Name": "CONST_VALUE_MUIP_MAIL_REWARD_LIMIT",
        "Value": [
            "1000",
            "1000000",
            "223:10,224:10",
            "1",
            "1",
            "1"
        ]
    },
    {
        "Name": "CONST_VALUE_ACTIVITY_WATER_SPRITE_PARA",
        "Value": [
            "120",
            "31001",
            "1",
            "41421",
            "41422",
            "220023"
        ]
    },
    {
        "Name": "CONST_VALUE_WORLD_LEVEL_ADJUST",
        "Value": [
            "4",
            "24",
            "1",
            "",
            "",
            ""
        ]
    },
    {
        "Name": "CONST_VALUE_NECHANICUS_OPEN_QUESTID",
        "Value": [
            "41311",
            "",
            "",
            "",
            "",
            ""
        ]
    },
    {
        "Name": "CONST_VALUE_ARENA_CHALLENGE_REWARD_WORKTOP",
        "Value": [
            "3",
            "133001575",
            "575010",
            "0",
            "201",
            ""
        ]
    },
    {
        "Name": "CONST_VALUE_ACTIVITY_WATER_SPRITE_PARA_SECONDPART",
        "Value": [
            "4142205",
            "4",
            "9004",
            "10010101,10010102,10010103,10010104,10010105",
            "1,2,3,4,5",
            "10010102,4142110"
        ]
    },
    {
        "Name": "CONST_VALUE_COOP_QUESTID_INTERVAL",
        "Value": [
            "19000",
            "19999",
            "",
            "",
            "",
            ""
        ]
    },
    {
        "Name": 253,
        "Value": [
            "2",
            "",
            "",
            "",
            "",
            ""
        ]
    },
    {
        "Name": 254,
        "Value": [
            "3",
            "",
            "",
            "",
            "",
            ""
        ]
    },
    {
        "Name": 260,
        "Value": [
            "70143",
            "70141",
            "25",
            "15170",
            "",
            ""
        ]
    },
    {
        "Name": 261,
        "Value": [
            "11008",
            "31201",
            "5027",
            "",
            "",
            ""
        ]
    },
    {
        "Name": 266,
        "Value": [
            "3",
            "0.5",
            "3:133002259",
            "",
            "",
            ""
        ]
    },
    {
        "Name": 267,
        "Value": [
            "10",
            "",
            "",
            "",
            "",
            ""
        ]
    },
    {
        "Name": 268,
        "Value": [
            "2",
            "",
            "",
            "",
            "",
            ""
        ]
    },
    {
        "Name": "CONST_VALUE_ASTER_MIDDLE_RECOVER",
        "Value": [
            "3600",
            "100",
            "",
            "",
            "",
            ""
        ]
    },
    {
        "Name": "CONST_VALUE_ASTER_MIDDLE_NPC_TALK_ID",
        "Value": [
            "4111502",
            "",
            "",
            "",
            "",
            ""
        ]
    },
    {
        "Name": "CONST_VALUE_ACTIVITY_EXPEDITION_DAILY_REFRESH_PATH_LIMIT",
        "Value": [
            "8",
            "",
            "",
            "",
            "",
            ""
        ]
    },
    {
        "Name": "CONST_VALUE_ACTIVITY_EXPEDITION_DAILY_COUNT_LIMIT",
        "Value": [
            "4",
            "",
            "",
            "",
            "",
            ""
        ]
    },
    {
        "Name": "CONST_VALUE_ACTIVITY_EXPEDITION_SUPER_ELEM_COEF",
        "Value": [
            "2",
            "",
            "",
            "",
            "",
            ""
        ]
    },
    {
        "Name": "CONST_VALUE_ACTIVITY_EXPEDITION_CONTENT_DURATION",
        "Value": [
            "7",
            "",
            "",
            "",
            "",
            ""
        ]
    },
    {
        "Name": "CONST_VALUE_ACTIVITY_EXPEDITION_CHALLENGE_HINT_CD",
        "Value": [
            "60",
            "",
            "",
            "",
            "",
            ""
        ]
    },
    {
        "Name": 263,
        "Value": [
            "1000",
            "",
            "",
            "",
            "",
            ""
        ]
    },
    {
        "Name": 264,
        "Value": [
            "1250",
            "",
            "",
            "",
            "",
            ""
        ]
    },
    {
        "Name": 241,
        "Value": [
            "10",
            "500",
            "",
            "",
            "",
            ""
        ]
    },
    {
        "Name": 243,
        "Value": [
            "0",
            "0",
            "0",
            "0",
            "",
            ""
        ]
    },
    {
        "Name": 244,
        "Value": [
            "2",
            "",
            "",
            "",
            "",
            ""
        ]
    },
    {
        "Name": 255,
        "Value": [
            "200",
            "",
            "",
            "",
            "",
            ""
        ]
    },
    {
        "Name": 256,
        "Value": [
            "4500",
            "8700",
            "8800",
            "",
            "",
            ""
        ]
    },
    {
        "Name": 257,
        "Value": [
            "30",
            "",
            "",
            "",
            "",
            ""
        ]
    },
    {
        "Name": 258,
        "Value": [
            "1",
            "1200",
            "107013",
            "",
            "",
            ""
        ]
    },
    {
        "Name": 259,
        "Value": [
            "77015005",
            "360000",
            "14400",
            "446400",
            "",
            ""
        ]
    },
    {
        "Name": 265,
        "Value": [
            "1800",
            "1800",
            "",
            "",
            "",
            ""
        ]
    },
    {
        "Name": 262,
        "Value": [
            "7165404",
            "",
            "",
            "",
            "",
            ""
        ]
    },
    {
        "Name": 300,
        "Value": [
            "1",
            "1",
            "",
            "",
            "",
            ""
        ]
    },
    {
        "Name": 301,
        "Value": [
            "300",
            "100",
            "",
            "",
            "",
            ""
        ]
    },
    {
        "Name": 350,
        "Value": [
            "4500",
            "8700",
            "8800",
            "",
            "",
            ""
        ]
    },
    {
        "Name": 351,
        "Value": [
            "2000",
            "3700",
            "4000",
            "",
            "",
            ""
        ]
    }
]