[
    {
        "ActivityId": 5021,
        "PrefabPath": "ART/UI/Menus/Widget/Activity/Activity_Coop_1.4",
        "CLKOHIOOBPM": 1852289234,
        "OOICEAPGFHI": 2033075471
    },
    {
        "ActivityId": 5028,
        "PrefabPath": "ART/UI/Menus/Widget/Activity/Activity_Coop_1.5",
        "CLKOHIOOBPM": 1708789514,
        "OOICEAPGFHI": 2634897407
    }
]