[
    {
        "TypeDescTextMapHash": 1010293015,
        "RankLevel": 1,
        "Param": 10001,
        "Id": 400000,
        "NameTextMapHash": 3420003793,
        "DescTextMapHash": 629015074,
        "Icon": "UI_RelicIcon_10001_4",
        "ItemType": "ITEM_DISPLAY"
    },
    {
        "TypeDescTextMapHash": 3946399119,
        "RankLevel": 2,
        "Param": 10001,
        "Id": 400001,
        "NameTextMapHash": 1294083273,
        "DescTextMapHash": 4146219754,
        "Icon": "UI_RelicIcon_10001_4",
        "ItemType": "ITEM_DISPLAY"
    },
    {
        "TypeDescTextMapHash": 328783207,
        "RankLevel": 3,
        "Param": 10001,
        "Id": 400002,
        "NameTextMapHash": 131837153,
        "DescTextMapHash": 1851075306,
        "Icon": "UI_RelicIcon_10001_4",
        "ItemType": "ITEM_DISPLAY"
    },
    {
        "TypeDescTextMapHash": 1362491287,
        "RankLevel": 4,
        "Param": 10001,
        "Id": 400003,
        "NameTextMapHash": 3143403633,
        "DescTextMapHash": 3192340274,
        "Icon": "UI_RelicIcon_10001_4",
        "ItemType": "ITEM_DISPLAY"
    },
    {
        "TypeDescTextMapHash": 310579055,
        "RankLevel": 5,
        "Param": 10001,
        "Id": 400004,
        "NameTextMapHash": 3685062329,
        "DescTextMapHash": 480361466,
        "Icon": "UI_RelicIcon_10001_4",
        "ItemType": "ITEM_DISPLAY"
    },
    {
        "TypeDescTextMapHash": 836643319,
        "RankLevel": 1,
        "Param": 10002,
        "Id": 400005,
        "NameTextMapHash": 938593057,
        "DescTextMapHash": 2749484074,
        "Icon": "UI_RelicIcon_10002_4",
        "ItemType": "ITEM_DISPLAY"
    },
    {
        "TypeDescTextMapHash": 1048402767,
        "RankLevel": 2,
        "Param": 10002,
        "Id": 400006,
        "NameTextMapHash": 687101065,
        "DescTextMapHash": 3182766234,
        "Icon": "UI_RelicIcon_10002_4",
        "ItemType": "ITEM_DISPLAY"
    },
    {
        "TypeDescTextMapHash": 3673807583,
        "RankLevel": 3,
        "Param": 10002,
        "Id": 400007,
        "NameTextMapHash": 1424974385,
        "DescTextMapHash": 1755017082,
        "Icon": "UI_RelicIcon_10002_4",
        "ItemType": "ITEM_DISPLAY"
    },
    {
        "TypeDescTextMapHash": 3191078935,
        "RankLevel": 4,
        "Param": 10002,
        "Id": 400008,
        "NameTextMapHash": 50514673,
        "DescTextMapHash": 384092578,
        "Icon": "UI_RelicIcon_10002_4",
        "ItemType": "ITEM_DISPLAY"
    },
    {
        "TypeDescTextMapHash": 2442594207,
        "RankLevel": 5,
        "Param": 10002,
        "Id": 400009,
        "NameTextMapHash": 649075033,
        "DescTextMapHash": 2871575722,
        "Icon": "UI_RelicIcon_10002_4",
        "ItemType": "ITEM_DISPLAY"
    },
    {
        "TypeDescTextMapHash": 1428458071,
        "RankLevel": 1,
        "Param": 10003,
        "Id": 400010,
        "NameTextMapHash": 2977125049,
        "DescTextMapHash": 509490850,
        "Icon": "UI_RelicIcon_10003_4",
        "ItemType": "ITEM_DISPLAY"
    },
    {
        "TypeDescTextMapHash": 3960509911,
        "RankLevel": 2,
        "Param": 10003,
        "Id": 400011,
        "NameTextMapHash": 2184536137,
        "DescTextMapHash": 1341362034,
        "Icon": "UI_RelicIcon_10003_4",
        "ItemType": "ITEM_DISPLAY"
    },
    {
        "TypeDescTextMapHash": 292768687,
        "RankLevel": 3,
        "Param": 10003,
        "Id": 400012,
        "NameTextMapHash": 2078239241,
        "DescTextMapHash": 2057213210,
        "Icon": "UI_RelicIcon_10003_4",
        "ItemType": "ITEM_DISPLAY"
    },
    {
        "TypeDescTextMapHash": 2057814271,
        "RankLevel": 4,
        "Param": 10003,
        "Id": 400013,
        "NameTextMapHash": 3835475265,
        "DescTextMapHash": 1019905882,
        "Icon": "UI_RelicIcon_10003_4",
        "ItemType": "ITEM_DISPLAY"
    },
    {
        "TypeDescTextMapHash": 2605847319,
        "RankLevel": 5,
        "Param": 10003,
        "Id": 400014,
        "NameTextMapHash": 2874887817,
        "DescTextMapHash": 2693346522,
        "Icon": "UI_RelicIcon_10003_4",
        "ItemType": "ITEM_DISPLAY"
    },
    {
        "TypeDescTextMapHash": 2714736823,
        "RankLevel": 1,
        "Param": 10004,
        "Id": 400015,
        "NameTextMapHash": 2869581145,
        "DescTextMapHash": 2103626498,
        "Icon": "UI_RelicIcon_10004_4",
        "ItemType": "ITEM_DISPLAY"
    },
    {
        "TypeDescTextMapHash": 1623431351,
        "RankLevel": 2,
        "Param": 10004,
        "Id": 400016,
        "NameTextMapHash": 1811625,
        "DescTextMapHash": 863787466,
        "Icon": "UI_RelicIcon_10004_4",
        "ItemType": "ITEM_DISPLAY"
    },
    {
        "TypeDescTextMapHash": 3854642991,
        "RankLevel": 3,
        "Param": 10004,
        "Id": 400017,
        "NameTextMapHash": 1218621281,
        "DescTextMapHash": 3483834378,
        "Icon": "UI_RelicIcon_10004_4",
        "ItemType": "ITEM_DISPLAY"
    },
    {
        "TypeDescTextMapHash": 1457196543,
        "RankLevel": 4,
        "Param": 10004,
        "Id": 400018,
        "NameTextMapHash": 2271525561,
        "DescTextMapHash": 601243858,
        "Icon": "UI_RelicIcon_10004_4",
        "ItemType": "ITEM_DISPLAY"
    },
    {
        "TypeDescTextMapHash": 671580847,
        "RankLevel": 5,
        "Param": 10004,
        "Id": 400019,
        "NameTextMapHash": 3824571961,
        "DescTextMapHash": 2273465066,
        "Icon": "UI_RelicIcon_10004_4",
        "ItemType": "ITEM_DISPLAY"
    },
    {
        "TypeDescTextMapHash": 1217423551,
        "RankLevel": 1,
        "Param": 10005,
        "Id": 400020,
        "NameTextMapHash": 2245117145,
        "DescTextMapHash": 1741939218,
        "Icon": "UI_RelicIcon_10005_4",
        "ItemType": "ITEM_DISPLAY"
    },
    {
        "TypeDescTextMapHash": 15839167,
        "RankLevel": 2,
        "Param": 10005,
        "Id": 400021,
        "NameTextMapHash": 4251115017,
        "DescTextMapHash": 2231586578,
        "Icon": "UI_RelicIcon_10005_4",
        "ItemType": "ITEM_DISPLAY"
    },
    {
        "TypeDescTextMapHash": 1255070335,
        "RankLevel": 3,
        "Param": 10005,
        "Id": 400022,
        "NameTextMapHash": 694267465,
        "DescTextMapHash": 3483389474,
        "Icon": "UI_RelicIcon_10005_4",
        "ItemType": "ITEM_DISPLAY"
    },
    {
        "TypeDescTextMapHash": 2509233031,
        "RankLevel": 4,
        "Param": 10005,
        "Id": 400023,
        "NameTextMapHash": 1633955449,
        "DescTextMapHash": 2145429298,
        "Icon": "UI_RelicIcon_10005_4",
        "ItemType": "ITEM_DISPLAY"
    },
    {
        "TypeDescTextMapHash": 3180364143,
        "RankLevel": 5,
        "Param": 10005,
        "Id": 400024,
        "NameTextMapHash": 3991638305,
        "DescTextMapHash": 3853891914,
        "Icon": "UI_RelicIcon_10005_4",
        "ItemType": "ITEM_DISPLAY"
    },
    {
        "TypeDescTextMapHash": 3232210623,
        "RankLevel": 1,
        "Param": 10006,
        "Id": 400025,
        "NameTextMapHash": 1926816889,
        "DescTextMapHash": 2709082474,
        "Icon": "UI_RelicIcon_10006_4",
        "ItemType": "ITEM_DISPLAY"
    },
    {
        "TypeDescTextMapHash": 816175279,
        "RankLevel": 2,
        "Param": 10006,
        "Id": 400026,
        "NameTextMapHash": 859453249,
        "DescTextMapHash": 3447284018,
        "Icon": "UI_RelicIcon_10006_4",
        "ItemType": "ITEM_DISPLAY"
    },
    {
        "TypeDescTextMapHash": 3592968359,
        "RankLevel": 3,
        "Param": 10006,
        "Id": 400027,
        "NameTextMapHash": 194176337,
        "DescTextMapHash": 4135353986,
        "Icon": "UI_RelicIcon_10006_4",
        "ItemType": "ITEM_DISPLAY"
    },
    {
        "TypeDescTextMapHash": 3510851511,
        "RankLevel": 4,
        "Param": 10006,
        "Id": 400028,
        "NameTextMapHash": 3512197793,
        "DescTextMapHash": 3908983754,
        "Icon": "UI_RelicIcon_10006_4",
        "ItemType": "ITEM_DISPLAY"
    },
    {
        "TypeDescTextMapHash": 3315664183,
        "RankLevel": 5,
        "Param": 10006,
        "Id": 400029,
        "NameTextMapHash": 3534799953,
        "DescTextMapHash": 3470784586,
        "Icon": "UI_RelicIcon_10006_4",
        "ItemType": "ITEM_DISPLAY"
    },
    {
        "TypeDescTextMapHash": 2183429247,
        "RankLevel": 1,
        "Param": 10007,
        "Id": 400030,
        "NameTextMapHash": 1175029185,
        "DescTextMapHash": 2968248698,
        "Icon": "UI_RelicIcon_10007_4",
        "ItemType": "ITEM_DISPLAY"
    },
    {
        "TypeDescTextMapHash": 3438392215,
        "RankLevel": 2,
        "Param": 10007,
        "Id": 400031,
        "NameTextMapHash": 2341847433,
        "DescTextMapHash": 3032621378,
        "Icon": "UI_RelicIcon_10007_4",
        "ItemType": "ITEM_DISPLAY"
    },
    {
        "TypeDescTextMapHash": 743080519,
        "RankLevel": 3,
        "Param": 10007,
        "Id": 400032,
        "NameTextMapHash": 2759952201,
        "DescTextMapHash": 2535347850,
        "Icon": "UI_RelicIcon_10007_4",
        "ItemType": "ITEM_DISPLAY"
    },
    {
        "TypeDescTextMapHash": 4145166215,
        "RankLevel": 4,
        "Param": 10007,
        "Id": 400033,
        "NameTextMapHash": 2321771185,
        "DescTextMapHash": 2367327402,
        "Icon": "UI_RelicIcon_10007_4",
        "ItemType": "ITEM_DISPLAY"
    },
    {
        "TypeDescTextMapHash": 1978849583,
        "RankLevel": 5,
        "Param": 10007,
        "Id": 400034,
        "NameTextMapHash": 4268243577,
        "DescTextMapHash": 623792962,
        "Icon": "UI_RelicIcon_10007_4",
        "ItemType": "ITEM_DISPLAY"
    },
    {
        "TypeDescTextMapHash": 806025455,
        "RankLevel": 1,
        "Param": 10008,
        "Id": 400035,
        "NameTextMapHash": 334829249,
        "DescTextMapHash": 1812221258,
        "Icon": "UI_RelicIcon_10008_4",
        "ItemType": "ITEM_DISPLAY"
    },
    {
        "TypeDescTextMapHash": 2868596111,
        "RankLevel": 2,
        "Param": 10008,
        "Id": 400036,
        "NameTextMapHash": 4151361937,
        "DescTextMapHash": 846041898,
        "Icon": "UI_RelicIcon_10008_4",
        "ItemType": "ITEM_DISPLAY"
    },
    {
        "TypeDescTextMapHash": 1451178039,
        "RankLevel": 3,
        "Param": 10008,
        "Id": 400037,
        "NameTextMapHash": 2183030137,
        "DescTextMapHash": 3518784730,
        "Icon": "UI_RelicIcon_10008_4",
        "ItemType": "ITEM_DISPLAY"
    },
    {
        "TypeDescTextMapHash": 3953992351,
        "RankLevel": 4,
        "Param": 10008,
        "Id": 400038,
        "NameTextMapHash": 3748755097,
        "DescTextMapHash": 1462100178,
        "Icon": "UI_RelicIcon_10008_4",
        "ItemType": "ITEM_DISPLAY"
    },
    {
        "TypeDescTextMapHash": 2130457879,
        "RankLevel": 5,
        "Param": 10008,
        "Id": 400039,
        "NameTextMapHash": 2727195289,
        "DescTextMapHash": 3992792658,
        "Icon": "UI_RelicIcon_10008_4",
        "ItemType": "ITEM_DISPLAY"
    },
    {
        "TypeDescTextMapHash": 3849654319,
        "RankLevel": 1,
        "Param": 10009,
        "Id": 400040,
        "NameTextMapHash": 2705989913,
        "DescTextMapHash": 2461921586,
        "Icon": "UI_RelicIcon_10009_4",
        "ItemType": "ITEM_DISPLAY"
    },
    {
        "TypeDescTextMapHash": 1002987375,
        "RankLevel": 2,
        "Param": 10009,
        "Id": 400041,
        "NameTextMapHash": 1444729305,
        "DescTextMapHash": 2447643826,
        "Icon": "UI_RelicIcon_10009_4",
        "ItemType": "ITEM_DISPLAY"
    },
    {
        "TypeDescTextMapHash": 2927748247,
        "RankLevel": 3,
        "Param": 10009,
        "Id": 400042,
        "NameTextMapHash": 3863439601,
        "DescTextMapHash": 3214956690,
        "Icon": "UI_RelicIcon_10009_4",
        "ItemType": "ITEM_DISPLAY"
    },
    {
        "TypeDescTextMapHash": 1080479335,
        "RankLevel": 4,
        "Param": 10009,
        "Id": 400043,
        "NameTextMapHash": 634336161,
        "DescTextMapHash": 3644274130,
        "Icon": "UI_RelicIcon_10009_4",
        "ItemType": "ITEM_DISPLAY"
    },
    {
        "TypeDescTextMapHash": 3941127719,
        "RankLevel": 5,
        "Param": 10009,
        "Id": 400044,
        "NameTextMapHash": 2199672057,
        "DescTextMapHash": 2071477450,
        "Icon": "UI_RelicIcon_10009_4",
        "ItemType": "ITEM_DISPLAY"
    },
    {
        "TypeDescTextMapHash": 2278286823,
        "RankLevel": 1,
        "Param": 10010,
        "Id": 400045,
        "NameTextMapHash": 3833300977,
        "DescTextMapHash": 2508837314,
        "Icon": "UI_RelicIcon_10010_4",
        "ItemType": "ITEM_DISPLAY"
    },
    {
        "TypeDescTextMapHash": 2054643951,
        "RankLevel": 2,
        "Param": 10010,
        "Id": 400046,
        "NameTextMapHash": 674805713,
        "DescTextMapHash": 3413086082,
        "Icon": "UI_RelicIcon_10010_4",
        "ItemType": "ITEM_DISPLAY"
    },
    {
        "TypeDescTextMapHash": 3086151535,
        "RankLevel": 3,
        "Param": 10010,
        "Id": 400047,
        "NameTextMapHash": 2472682233,
        "DescTextMapHash": 3191948410,
        "Icon": "UI_RelicIcon_10010_4",
        "ItemType": "ITEM_DISPLAY"
    },
    {
        "TypeDescTextMapHash": 2848991655,
        "RankLevel": 4,
        "Param": 10010,
        "Id": 400048,
        "NameTextMapHash": 927944529,
        "DescTextMapHash": 2377860154,
        "Icon": "UI_RelicIcon_10010_4",
        "ItemType": "ITEM_DISPLAY"
    },
    {
        "TypeDescTextMapHash": 2285710607,
        "RankLevel": 5,
        "Param": 10010,
        "Id": 400049,
        "NameTextMapHash": 2774586849,
        "DescTextMapHash": 3649215562,
        "Icon": "UI_RelicIcon_10010_4",
        "ItemType": "ITEM_DISPLAY"
    },
    {
        "TypeDescTextMapHash": 3615228759,
        "RankLevel": 1,
        "Param": 10011,
        "Id": 400050,
        "NameTextMapHash": 409348857,
        "DescTextMapHash": 2410085442,
        "Icon": "UI_RelicIcon_10011_4",
        "ItemType": "ITEM_DISPLAY"
    },
    {
        "TypeDescTextMapHash": 475280999,
        "RankLevel": 2,
        "Param": 10011,
        "Id": 400051,
        "NameTextMapHash": 1975249953,
        "DescTextMapHash": 1921365594,
        "Icon": "UI_RelicIcon_10011_4",
        "ItemType": "ITEM_DISPLAY"
    },
    {
        "TypeDescTextMapHash": 2867495071,
        "RankLevel": 3,
        "Param": 10011,
        "Id": 400052,
        "NameTextMapHash": 1389084425,
        "DescTextMapHash": 4031422402,
        "Icon": "UI_RelicIcon_10011_4",
        "ItemType": "ITEM_DISPLAY"
    },
    {
        "TypeDescTextMapHash": 2735890623,
        "RankLevel": 4,
        "Param": 10011,
        "Id": 400053,
        "NameTextMapHash": 4066303449,
        "DescTextMapHash": 466564450,
        "Icon": "UI_RelicIcon_10011_4",
        "ItemType": "ITEM_DISPLAY"
    },
    {
        "TypeDescTextMapHash": 1343018879,
        "RankLevel": 5,
        "Param": 10011,
        "Id": 400054,
        "NameTextMapHash": 3259256353,
        "DescTextMapHash": 1870869242,
        "Icon": "UI_RelicIcon_10011_4",
        "ItemType": "ITEM_DISPLAY"
    },
    {
        "TypeDescTextMapHash": 2209639791,
        "RankLevel": 1,
        "Param": 10012,
        "Id": 400055,
        "NameTextMapHash": 674552305,
        "DescTextMapHash": 2959429138,
        "Icon": "UI_RelicIcon_10012_4",
        "ItemType": "ITEM_DISPLAY"
    },
    {
        "TypeDescTextMapHash": 2953025455,
        "RankLevel": 2,
        "Param": 10012,
        "Id": 400056,
        "NameTextMapHash": 1163887857,
        "DescTextMapHash": 3383981914,
        "Icon": "UI_RelicIcon_10012_4",
        "ItemType": "ITEM_DISPLAY"
    },
    {
        "TypeDescTextMapHash": 1938277575,
        "RankLevel": 3,
        "Param": 10012,
        "Id": 400057,
        "NameTextMapHash": 681663489,
        "DescTextMapHash": 69596434,
        "Icon": "UI_RelicIcon_10012_4",
        "ItemType": "ITEM_DISPLAY"
    },
    {
        "TypeDescTextMapHash": 3772750575,
        "RankLevel": 4,
        "Param": 10012,
        "Id": 400058,
        "NameTextMapHash": 4127294977,
        "DescTextMapHash": 3987198450,
        "Icon": "UI_RelicIcon_10012_4",
        "ItemType": "ITEM_DISPLAY"
    },
    {
        "TypeDescTextMapHash": 2293299599,
        "RankLevel": 5,
        "Param": 10012,
        "Id": 400059,
        "NameTextMapHash": 2903046105,
        "DescTextMapHash": 3269995626,
        "Icon": "UI_RelicIcon_10012_4",
        "ItemType": "ITEM_DISPLAY"
    },
    {
        "TypeDescTextMapHash": 1845515511,
        "RankLevel": 1,
        "Param": 10013,
        "Id": 400060,
        "NameTextMapHash": 3502111921,
        "DescTextMapHash": 2723193154,
        "Icon": "UI_RelicIcon_10013_4",
        "ItemType": "ITEM_DISPLAY"
    },
    {
        "TypeDescTextMapHash": 1542195695,
        "RankLevel": 2,
        "Param": 10013,
        "Id": 400061,
        "NameTextMapHash": 1773401049,
        "DescTextMapHash": 1561636242,
        "Icon": "UI_RelicIcon_10013_4",
        "ItemType": "ITEM_DISPLAY"
    },
    {
        "TypeDescTextMapHash": 2289050343,
        "RankLevel": 3,
        "Param": 10013,
        "Id": 400062,
        "NameTextMapHash": 2787252177,
        "DescTextMapHash": 1261547290,
        "Icon": "UI_RelicIcon_10013_4",
        "ItemType": "ITEM_DISPLAY"
    },
    {
        "TypeDescTextMapHash": 587845471,
        "RankLevel": 4,
        "Param": 10013,
        "Id": 400063,
        "NameTextMapHash": 1345129713,
        "DescTextMapHash": 2293192522,
        "Icon": "UI_RelicIcon_10013_4",
        "ItemType": "ITEM_DISPLAY"
    },
    {
        "TypeDescTextMapHash": 2998330335,
        "RankLevel": 5,
        "Param": 10013,
        "Id": 400064,
        "NameTextMapHash": 19715033,
        "DescTextMapHash": 2950860130,
        "Icon": "UI_RelicIcon_10013_4",
        "ItemType": "ITEM_DISPLAY"
    },
    {
        "TypeDescTextMapHash": 3212120407,
        "RankLevel": 1,
        "Param": 14001,
        "Id": 400065,
        "NameTextMapHash": 2957822793,
        "DescTextMapHash": 394715722,
        "Icon": "UI_RelicIcon_14001_4",
        "ItemType": "ITEM_DISPLAY"
    },
    {
        "TypeDescTextMapHash": 4108575295,
        "RankLevel": 2,
        "Param": 14001,
        "Id": 400066,
        "NameTextMapHash": 1113152801,
        "DescTextMapHash": 615072586,
        "Icon": "UI_RelicIcon_14001_4",
        "ItemType": "ITEM_DISPLAY"
    },
    {
        "TypeDescTextMapHash": 1280360175,
        "RankLevel": 3,
        "Param": 14001,
        "Id": 400067,
        "NameTextMapHash": 461141697,
        "DescTextMapHash": 48142794,
        "Icon": "UI_RelicIcon_14001_4",
        "ItemType": "ITEM_DISPLAY"
    },
    {
        "TypeDescTextMapHash": 970463127,
        "RankLevel": 4,
        "Param": 14001,
        "Id": 400068,
        "NameTextMapHash": 874178113,
        "DescTextMapHash": 3058634266,
        "Icon": "UI_RelicIcon_14001_4",
        "ItemType": "ITEM_DISPLAY"
    },
    {
        "TypeDescTextMapHash": 471183463,
        "RankLevel": 5,
        "Param": 14001,
        "Id": 400069,
        "NameTextMapHash": 3044182913,
        "DescTextMapHash": 1181711826,
        "Icon": "UI_RelicIcon_14001_4",
        "ItemType": "ITEM_DISPLAY"
    },
    {
        "TypeDescTextMapHash": 3841157215,
        "RankLevel": 1,
        "Param": 14002,
        "Id": 400070,
        "NameTextMapHash": 3111849345,
        "DescTextMapHash": 411040122,
        "Icon": "UI_RelicIcon_14002_4",
        "ItemType": "ITEM_DISPLAY"
    },
    {
        "TypeDescTextMapHash": 130762495,
        "RankLevel": 2,
        "Param": 14002,
        "Id": 400071,
        "NameTextMapHash": 4202140537,
        "DescTextMapHash": 3333592634,
        "Icon": "UI_RelicIcon_14002_4",
        "ItemType": "ITEM_DISPLAY"
    },
    {
        "TypeDescTextMapHash": 2739444975,
        "RankLevel": 3,
        "Param": 14002,
        "Id": 400072,
        "NameTextMapHash": 1051997641,
        "DescTextMapHash": 888066378,
        "Icon": "UI_RelicIcon_14002_4",
        "ItemType": "ITEM_DISPLAY"
    },
    {
        "TypeDescTextMapHash": 1108564823,
        "RankLevel": 4,
        "Param": 14002,
        "Id": 400073,
        "NameTextMapHash": 809005113,
        "DescTextMapHash": 2212623330,
        "Icon": "UI_RelicIcon_14002_4",
        "ItemType": "ITEM_DISPLAY"
    },
    {
        "TypeDescTextMapHash": 1022812047,
        "RankLevel": 5,
        "Param": 14002,
        "Id": 400074,
        "NameTextMapHash": 2907139945,
        "DescTextMapHash": 2871838658,
        "Icon": "UI_RelicIcon_14002_4",
        "ItemType": "ITEM_DISPLAY"
    },
    {
        "TypeDescTextMapHash": 3855180839,
        "RankLevel": 1,
        "Param": 14003,
        "Id": 400075,
        "NameTextMapHash": 3812264553,
        "DescTextMapHash": 4223193178,
        "Icon": "UI_RelicIcon_14003_4",
        "ItemType": "ITEM_DISPLAY"
    },
    {
        "TypeDescTextMapHash": 4168399599,
        "RankLevel": 2,
        "Param": 14003,
        "Id": 400076,
        "NameTextMapHash": 3077650225,
        "DescTextMapHash": 743259586,
        "Icon": "UI_RelicIcon_14003_4",
        "ItemType": "ITEM_DISPLAY"
    },
    {
        "TypeDescTextMapHash": 3257042215,
        "RankLevel": 3,
        "Param": 14003,
        "Id": 400077,
        "NameTextMapHash": 817784209,
        "DescTextMapHash": 4004125890,
        "Icon": "UI_RelicIcon_14003_4",
        "ItemType": "ITEM_DISPLAY"
    },
    {
        "TypeDescTextMapHash": 2866509695,
        "RankLevel": 4,
        "Param": 14003,
        "Id": 400078,
        "NameTextMapHash": 1862663065,
        "DescTextMapHash": 3086353242,
        "Icon": "UI_RelicIcon_14003_4",
        "ItemType": "ITEM_DISPLAY"
    },
    {
        "TypeDescTextMapHash": 1009827815,
        "RankLevel": 5,
        "Param": 14003,
        "Id": 400079,
        "NameTextMapHash": 2705999809,
        "DescTextMapHash": 3166642786,
        "Icon": "UI_RelicIcon_14003_4",
        "ItemType": "ITEM_DISPLAY"
    },
    {
        "TypeDescTextMapHash": 2922338975,
        "RankLevel": 1,
        "Param": 14004,
        "Id": 400080,
        "NameTextMapHash": 191175537,
        "DescTextMapHash": 4069632922,
        "Icon": "UI_RelicIcon_14004_4",
        "ItemType": "ITEM_DISPLAY"
    },
    {
        "TypeDescTextMapHash": 4223863871,
        "RankLevel": 2,
        "Param": 14004,
        "Id": 400081,
        "NameTextMapHash": 4251805129,
        "DescTextMapHash": 1013196194,
        "Icon": "UI_RelicIcon_14004_4",
        "ItemType": "ITEM_DISPLAY"
    },
    {
        "TypeDescTextMapHash": 3511054711,
        "RankLevel": 3,
        "Param": 14004,
        "Id": 400082,
        "NameTextMapHash": 2543704793,
        "DescTextMapHash": 119746754,
        "Icon": "UI_RelicIcon_14004_4",
        "ItemType": "ITEM_DISPLAY"
    },
    {
        "TypeDescTextMapHash": 1768321455,
        "RankLevel": 4,
        "Param": 14004,
        "Id": 400083,
        "NameTextMapHash": 3262423929,
        "DescTextMapHash": 3098987474,
        "Icon": "UI_RelicIcon_14004_4",
        "ItemType": "ITEM_DISPLAY"
    },
    {
        "TypeDescTextMapHash": 1754392615,
        "RankLevel": 5,
        "Param": 14004,
        "Id": 400084,
        "NameTextMapHash": 3153452425,
        "DescTextMapHash": 1422663682,
        "Icon": "UI_RelicIcon_14004_4",
        "ItemType": "ITEM_DISPLAY"
    },
    {
        "TypeDescTextMapHash": 450053679,
        "RankLevel": 1,
        "Param": 15001,
        "Id": 400085,
        "NameTextMapHash": 163914217,
        "DescTextMapHash": 3119019442,
        "Icon": "UI_RelicIcon_15001_4",
        "ItemType": "ITEM_DISPLAY"
    },
    {
        "TypeDescTextMapHash": 3766625767,
        "RankLevel": 2,
        "Param": 15001,
        "Id": 400086,
        "NameTextMapHash": 2701026001,
        "DescTextMapHash": 1935007530,
        "Icon": "UI_RelicIcon_15001_4",
        "ItemType": "ITEM_DISPLAY"
    },
    {
        "TypeDescTextMapHash": 1791393023,
        "RankLevel": 3,
        "Param": 15001,
        "Id": 400087,
        "NameTextMapHash": 3675935833,
        "DescTextMapHash": 1433091642,
        "Icon": "UI_RelicIcon_15001_4",
        "ItemType": "ITEM_DISPLAY"
    },
    {
        "TypeDescTextMapHash": 2910709375,
        "RankLevel": 4,
        "Param": 15001,
        "Id": 400088,
        "NameTextMapHash": 2063221481,
        "DescTextMapHash": 3298131930,
        "Icon": "UI_RelicIcon_15001_4",
        "ItemType": "ITEM_DISPLAY"
    },
    {
        "TypeDescTextMapHash": 860733855,
        "RankLevel": 5,
        "Param": 15001,
        "Id": 400089,
        "NameTextMapHash": 802240673,
        "DescTextMapHash": 1869990810,
        "Icon": "UI_RelicIcon_15001_4",
        "ItemType": "ITEM_DISPLAY"
    },
    {
        "TypeDescTextMapHash": 1916445559,
        "RankLevel": 1,
        "Param": 15002,
        "Id": 400090,
        "NameTextMapHash": 3969435777,
        "DescTextMapHash": 2171165954,
        "Icon": "UI_RelicIcon_15002_4",
        "ItemType": "ITEM_DISPLAY"
    },
    {
        "TypeDescTextMapHash": 2764245151,
        "RankLevel": 2,
        "Param": 15002,
        "Id": 400091,
        "NameTextMapHash": 3642628225,
        "DescTextMapHash": 1109631986,
        "Icon": "UI_RelicIcon_15002_4",
        "ItemType": "ITEM_DISPLAY"
    },
    {
        "TypeDescTextMapHash": 3553694415,
        "RankLevel": 3,
        "Param": 15002,
        "Id": 400092,
        "NameTextMapHash": 3707638457,
        "DescTextMapHash": 3580239138,
        "Icon": "UI_RelicIcon_15002_4",
        "ItemType": "ITEM_DISPLAY"
    },
    {
        "TypeDescTextMapHash": 1817495503,
        "RankLevel": 4,
        "Param": 15002,
        "Id": 400093,
        "NameTextMapHash": 2439963817,
        "DescTextMapHash": 1293398410,
        "Icon": "UI_RelicIcon_15002_4",
        "ItemType": "ITEM_DISPLAY"
    },
    {
        "TypeDescTextMapHash": 569300095,
        "RankLevel": 5,
        "Param": 15002,
        "Id": 400094,
        "NameTextMapHash": 3489672513,
        "DescTextMapHash": 363841578,
        "Icon": "UI_RelicIcon_15002_4",
        "ItemType": "ITEM_DISPLAY"
    },
    {
        "TypeDescTextMapHash": 3104250951,
        "RankLevel": 1,
        "Param": 15003,
        "Id": 400095,
        "NameTextMapHash": 2936488761,
        "DescTextMapHash": 2934699754,
        "Icon": "UI_RelicIcon_15003_4",
        "ItemType": "ITEM_DISPLAY"
    },
    {
        "TypeDescTextMapHash": 2136846967,
        "RankLevel": 2,
        "Param": 15003,
        "Id": 400096,
        "NameTextMapHash": 552894225,
        "DescTextMapHash": 348901442,
        "Icon": "UI_RelicIcon_15003_4",
        "ItemType": "ITEM_DISPLAY"
    },
    {
        "TypeDescTextMapHash": 11674999,
        "RankLevel": 3,
        "Param": 15003,
        "Id": 400097,
        "NameTextMapHash": 3738082673,
        "DescTextMapHash": 706220378,
        "Icon": "UI_RelicIcon_15003_4",
        "ItemType": "ITEM_DISPLAY"
    },
    {
        "TypeDescTextMapHash": 1609701823,
        "RankLevel": 4,
        "Param": 15003,
        "Id": 400098,
        "NameTextMapHash": 185640969,
        "DescTextMapHash": 1223547034,
        "Icon": "UI_RelicIcon_15003_4",
        "ItemType": "ITEM_DISPLAY"
    },
    {
        "TypeDescTextMapHash": 3838229759,
        "RankLevel": 5,
        "Param": 15003,
        "Id": 400099,
        "NameTextMapHash": 2334795545,
        "DescTextMapHash": 4207966954,
        "Icon": "UI_RelicIcon_15003_4",
        "ItemType": "ITEM_DISPLAY"
    },
    {
        "TypeDescTextMapHash": 1627459111,
        "RankLevel": 1,
        "Param": 15004,
        "Id": 400100,
        "NameTextMapHash": 1362850481,
        "DescTextMapHash": 4202359378,
        "Icon": "UI_RelicIcon_15004_4",
        "ItemType": "ITEM_DISPLAY"
    },
    {
        "TypeDescTextMapHash": 4030110055,
        "RankLevel": 2,
        "Param": 15004,
        "Id": 400101,
        "NameTextMapHash": 2856774425,
        "DescTextMapHash": 3551404906,
        "Icon": "UI_RelicIcon_15004_4",
        "ItemType": "ITEM_DISPLAY"
    },
    {
        "TypeDescTextMapHash": 1124247311,
        "RankLevel": 3,
        "Param": 15004,
        "Id": 400102,
        "NameTextMapHash": 2839857201,
        "DescTextMapHash": 3898958722,
        "Icon": "UI_RelicIcon_15004_4",
        "ItemType": "ITEM_DISPLAY"
    },
    {
        "TypeDescTextMapHash": 2793060663,
        "RankLevel": 4,
        "Param": 15004,
        "Id": 400103,
        "NameTextMapHash": 2487138265,
        "DescTextMapHash": 3543757418,
        "Icon": "UI_RelicIcon_15004_4",
        "ItemType": "ITEM_DISPLAY"
    },
    {
        "TypeDescTextMapHash": 2770744487,
        "RankLevel": 5,
        "Param": 15004,
        "Id": 400104,
        "NameTextMapHash": 2938335329,
        "DescTextMapHash": 4192097786,
        "Icon": "UI_RelicIcon_15004_4",
        "ItemType": "ITEM_DISPLAY"
    },
    {
        "TypeDescTextMapHash": 2040913495,
        "RankLevel": 1,
        "Param": 15005,
        "Id": 400105,
        "NameTextMapHash": 461367369,
        "DescTextMapHash": 2141028746,
        "Icon": "UI_RelicIcon_15005_4",
        "ItemType": "ITEM_DISPLAY"
    },
    {
        "TypeDescTextMapHash": 3721187903,
        "RankLevel": 2,
        "Param": 15005,
        "Id": 400106,
        "NameTextMapHash": 1863932681,
        "DescTextMapHash": 325718626,
        "Icon": "UI_RelicIcon_15005_4",
        "ItemType": "ITEM_DISPLAY"
    },
    {
        "TypeDescTextMapHash": 4175952975,
        "RankLevel": 3,
        "Param": 15005,
        "Id": 400107,
        "NameTextMapHash": 959951473,
        "DescTextMapHash": 4242774362,
        "Icon": "UI_RelicIcon_15005_4",
        "ItemType": "ITEM_DISPLAY"
    },
    {
        "TypeDescTextMapHash": 2008943023,
        "RankLevel": 4,
        "Param": 15005,
        "Id": 400108,
        "NameTextMapHash": 77282553,
        "DescTextMapHash": 3161780314,
        "Icon": "UI_RelicIcon_15005_4",
        "ItemType": "ITEM_DISPLAY"
    },
    {
        "TypeDescTextMapHash": 1220683919,
        "RankLevel": 5,
        "Param": 15005,
        "Id": 400109,
        "NameTextMapHash": 4057190225,
        "DescTextMapHash": 2394996594,
        "Icon": "UI_RelicIcon_15005_4",
        "ItemType": "ITEM_DISPLAY"
    },
    {
        "TypeDescTextMapHash": 1008942495,
        "RankLevel": 1,
        "Param": 15006,
        "Id": 400110,
        "NameTextMapHash": 1014415945,
        "DescTextMapHash": 2713849250,
        "Icon": "UI_RelicIcon_15006_4",
        "ItemType": "ITEM_DISPLAY"
    },
    {
        "TypeDescTextMapHash": 2014286807,
        "RankLevel": 2,
        "Param": 15006,
        "Id": 400111,
        "NameTextMapHash": 278145233,
        "DescTextMapHash": 2151208778,
        "Icon": "UI_RelicIcon_15006_4",
        "ItemType": "ITEM_DISPLAY"
    },
    {
        "TypeDescTextMapHash": 4220329471,
        "RankLevel": 3,
        "Param": 15006,
        "Id": 400112,
        "NameTextMapHash": 3196015065,
        "DescTextMapHash": 2262195018,
        "Icon": "UI_RelicIcon_15006_4",
        "ItemType": "ITEM_DISPLAY"
    },
    {
        "TypeDescTextMapHash": 367408839,
        "RankLevel": 4,
        "Param": 15006,
        "Id": 400113,
        "NameTextMapHash": 1377102065,
        "DescTextMapHash": 1257951402,
        "Icon": "UI_RelicIcon_15006_4",
        "ItemType": "ITEM_DISPLAY"
    },
    {
        "TypeDescTextMapHash": 623423991,
        "RankLevel": 5,
        "Param": 15006,
        "Id": 400114,
        "NameTextMapHash": 1174446721,
        "DescTextMapHash": 1593977690,
        "Icon": "UI_RelicIcon_15006_4",
        "ItemType": "ITEM_DISPLAY"
    },
    {
        "TypeDescTextMapHash": 1191598583,
        "RankLevel": 1,
        "Param": 15007,
        "Id": 400115,
        "NameTextMapHash": 913281913,
        "DescTextMapHash": 4015439746,
        "Icon": "UI_RelicIcon_15007_4",
        "ItemType": "ITEM_DISPLAY"
    },
    {
        "TypeDescTextMapHash": 3694599743,
        "RankLevel": 2,
        "Param": 15007,
        "Id": 400116,
        "NameTextMapHash": 2619393169,
        "DescTextMapHash": 4253558890,
        "Icon": "UI_RelicIcon_15007_4",
        "ItemType": "ITEM_DISPLAY"
    },
    {
        "TypeDescTextMapHash": 2568123647,
        "RankLevel": 3,
        "Param": 15007,
        "Id": 400117,
        "NameTextMapHash": 3457597953,
        "DescTextMapHash": 500919794,
        "Icon": "UI_RelicIcon_15007_4",
        "ItemType": "ITEM_DISPLAY"
    },
    {
        "TypeDescTextMapHash": 3542861287,
        "RankLevel": 4,
        "Param": 15007,
        "Id": 400118,
        "NameTextMapHash": 3009732577,
        "DescTextMapHash": 674938442,
        "Icon": "UI_RelicIcon_15007_4",
        "ItemType": "ITEM_DISPLAY"
    },
    {
        "TypeDescTextMapHash": 3780183719,
        "RankLevel": 5,
        "Param": 15007,
        "Id": 400119,
        "NameTextMapHash": 2803938137,
        "DescTextMapHash": 756822010,
        "Icon": "UI_RelicIcon_15007_4",
        "ItemType": "ITEM_DISPLAY"
    },
    {
        "TypeDescTextMapHash": 1192286303,
        "RankLevel": 1,
        "Param": 15008,
        "Id": 400120,
        "NameTextMapHash": 2416827057,
        "DescTextMapHash": 4182274066,
        "Icon": "UI_RelicIcon_15008_4",
        "ItemType": "ITEM_DISPLAY"
    },
    {
        "TypeDescTextMapHash": 912243127,
        "RankLevel": 2,
        "Param": 15008,
        "Id": 400121,
        "NameTextMapHash": 2962237801,
        "DescTextMapHash": 2534203066,
        "Icon": "UI_RelicIcon_15008_4",
        "ItemType": "ITEM_DISPLAY"
    },
    {
        "TypeDescTextMapHash": 1973817519,
        "RankLevel": 3,
        "Param": 15008,
        "Id": 400122,
        "NameTextMapHash": 3184745785,
        "DescTextMapHash": 307808586,
        "Icon": "UI_RelicIcon_15008_4",
        "ItemType": "ITEM_DISPLAY"
    },
    {
        "TypeDescTextMapHash": 2404215415,
        "RankLevel": 4,
        "Param": 15008,
        "Id": 400123,
        "NameTextMapHash": 3366606809,
        "DescTextMapHash": 3212416978,
        "Icon": "UI_RelicIcon_15008_4",
        "ItemType": "ITEM_DISPLAY"
    },
    {
        "TypeDescTextMapHash": 3189932967,
        "RankLevel": 5,
        "Param": 15008,
        "Id": 400124,
        "NameTextMapHash": 1010593545,
        "DescTextMapHash": 2425222234,
        "Icon": "UI_RelicIcon_15008_4",
        "ItemType": "ITEM_DISPLAY"
    },
    {
        "TypeDescTextMapHash": 3009112991,
        "RankLevel": 1,
        "Param": 15009,
        "Id": 400125,
        "NameTextMapHash": 3865669473,
        "DescTextMapHash": 64424770,
        "Icon": "UI_RelicIcon_15009_3",
        "ItemType": "ITEM_DISPLAY"
    },
    {
        "TypeDescTextMapHash": 3175594783,
        "RankLevel": 2,
        "Param": 15009,
        "Id": 400126,
        "NameTextMapHash": 2704833129,
        "DescTextMapHash": 2741873002,
        "Icon": "UI_RelicIcon_15009_3",
        "ItemType": "ITEM_DISPLAY"
    },
    {
        "TypeDescTextMapHash": 119537975,
        "RankLevel": 3,
        "Param": 15009,
        "Id": 400127,
        "NameTextMapHash": 3670092193,
        "DescTextMapHash": 3932611578,
        "Icon": "UI_RelicIcon_15009_3",
        "ItemType": "ITEM_DISPLAY"
    },
    {
        "TypeDescTextMapHash": 3185499367,
        "RankLevel": 4,
        "Param": 15009,
        "Id": 400128,
        "NameTextMapHash": 2887662793,
        "DescTextMapHash": 3901272050,
        "Icon": "UI_RelicIcon_15009_3",
        "ItemType": "ITEM_DISPLAY"
    },
    {
        "TypeDescTextMapHash": 3141995895,
        "RankLevel": 5,
        "Param": 15009,
        "Id": 400129,
        "NameTextMapHash": 3345039521,
        "DescTextMapHash": 1132330906,
        "Icon": "UI_RelicIcon_15009_3",
        "ItemType": "ITEM_DISPLAY"
    },
    {
        "TypeDescTextMapHash": 2412881687,
        "RankLevel": 1,
        "Param": 15010,
        "Id": 400130,
        "NameTextMapHash": 521235377,
        "DescTextMapHash": 84645498,
        "Icon": "UI_RelicIcon_15010_3",
        "ItemType": "ITEM_DISPLAY"
    },
    {
        "TypeDescTextMapHash": 183673327,
        "RankLevel": 2,
        "Param": 15010,
        "Id": 400131,
        "NameTextMapHash": 98606657,
        "DescTextMapHash": 2683512810,
        "Icon": "UI_RelicIcon_15010_3",
        "ItemType": "ITEM_DISPLAY"
    },
    {
        "TypeDescTextMapHash": 3136420847,
        "RankLevel": 3,
        "Param": 15010,
        "Id": 400132,
        "NameTextMapHash": 2016136193,
        "DescTextMapHash": 2156625514,
        "Icon": "UI_RelicIcon_15010_3",
        "ItemType": "ITEM_DISPLAY"
    },
    {
        "TypeDescTextMapHash": 361285583,
        "RankLevel": 4,
        "Param": 15010,
        "Id": 400133,
        "NameTextMapHash": 2272498361,
        "DescTextMapHash": 190057362,
        "Icon": "UI_RelicIcon_15010_3",
        "ItemType": "ITEM_DISPLAY"
    },
    {
        "TypeDescTextMapHash": 3822185263,
        "RankLevel": 5,
        "Param": 15010,
        "Id": 400134,
        "NameTextMapHash": 3997002617,
        "DescTextMapHash": 1163445850,
        "Icon": "UI_RelicIcon_15010_3",
        "ItemType": "ITEM_DISPLAY"
    },
    {
        "TypeDescTextMapHash": 1139234223,
        "RankLevel": 1,
        "Param": 15011,
        "Id": 400135,
        "NameTextMapHash": 4229222905,
        "DescTextMapHash": 2906807914,
        "Icon": "UI_RelicIcon_15011_3",
        "ItemType": "ITEM_DISPLAY"
    },
    {
        "TypeDescTextMapHash": 3390977399,
        "RankLevel": 2,
        "Param": 15011,
        "Id": 400136,
        "NameTextMapHash": 394047233,
        "DescTextMapHash": 373586306,
        "Icon": "UI_RelicIcon_15011_3",
        "ItemType": "ITEM_DISPLAY"
    },
    {
        "TypeDescTextMapHash": 136480575,
        "RankLevel": 3,
        "Param": 15011,
        "Id": 400137,
        "NameTextMapHash": 3023944209,
        "DescTextMapHash": 2351179586,
        "Icon": "UI_RelicIcon_15011_3",
        "ItemType": "ITEM_DISPLAY"
    },
    {
        "TypeDescTextMapHash": 2926956319,
        "RankLevel": 4,
        "Param": 15011,
        "Id": 400138,
        "NameTextMapHash": 1884810337,
        "DescTextMapHash": 3223657010,
        "Icon": "UI_RelicIcon_15011_3",
        "ItemType": "ITEM_DISPLAY"
    },
    {
        "TypeDescTextMapHash": 2901823663,
        "RankLevel": 5,
        "Param": 15011,
        "Id": 400139,
        "NameTextMapHash": 2019417977,
        "DescTextMapHash": 1034794146,
        "Icon": "UI_RelicIcon_15011_3",
        "ItemType": "ITEM_DISPLAY"
    },
    {
        "TypeDescTextMapHash": 2292866583,
        "RankLevel": 1,
        "Param": 15012,
        "Id": 400140,
        "NameTextMapHash": 3575070305,
        "DescTextMapHash": 1515860586,
        "Icon": "UI_RelicIcon_15012_3",
        "ItemType": "ITEM_DISPLAY"
    },
    {
        "TypeDescTextMapHash": 3520790455,
        "RankLevel": 2,
        "Param": 15012,
        "Id": 400141,
        "NameTextMapHash": 3370719257,
        "DescTextMapHash": 3831221634,
        "Icon": "UI_RelicIcon_15012_3",
        "ItemType": "ITEM_DISPLAY"
    },
    {
        "TypeDescTextMapHash": 2632975647,
        "RankLevel": 3,
        "Param": 15012,
        "Id": 400142,
        "NameTextMapHash": 518034073,
        "DescTextMapHash": 769617162,
        "Icon": "UI_RelicIcon_15012_3",
        "ItemType": "ITEM_DISPLAY"
    },
    {
        "TypeDescTextMapHash": 4280574599,
        "RankLevel": 4,
        "Param": 15012,
        "Id": 400143,
        "NameTextMapHash": 2033394089,
        "DescTextMapHash": 1673768562,
        "Icon": "UI_RelicIcon_15012_3",
        "ItemType": "ITEM_DISPLAY"
    },
    {
        "TypeDescTextMapHash": 1060136535,
        "RankLevel": 5,
        "Param": 15012,
        "Id": 400144,
        "NameTextMapHash": 3215920913,
        "DescTextMapHash": 2732987162,
        "Icon": "UI_RelicIcon_15012_3",
        "ItemType": "ITEM_DISPLAY"
    },
    {
        "TypeDescTextMapHash": 1134771247,
        "RankLevel": 1,
        "Param": 15013,
        "Id": 400145,
        "NameTextMapHash": 4120516785,
        "DescTextMapHash": 1989934842,
        "Icon": "UI_RelicIcon_15013_3",
        "ItemType": "ITEM_DISPLAY"
    },
    {
        "TypeDescTextMapHash": 321779359,
        "RankLevel": 2,
        "Param": 15013,
        "Id": 400146,
        "NameTextMapHash": 2294379529,
        "DescTextMapHash": 1873757626,
        "Icon": "UI_RelicIcon_15013_3",
        "ItemType": "ITEM_DISPLAY"
    },
    {
        "TypeDescTextMapHash": 1408397479,
        "RankLevel": 3,
        "Param": 15013,
        "Id": 400147,
        "NameTextMapHash": 793290745,
        "DescTextMapHash": 3655925418,
        "Icon": "UI_RelicIcon_15013_3",
        "ItemType": "ITEM_DISPLAY"
    },
    {
        "TypeDescTextMapHash": 2143950863,
        "RankLevel": 4,
        "Param": 15013,
        "Id": 400148,
        "NameTextMapHash": 1952579793,
        "DescTextMapHash": 3619478802,
        "Icon": "UI_RelicIcon_15013_3",
        "ItemType": "ITEM_DISPLAY"
    },
    {
        "TypeDescTextMapHash": 3245383143,
        "RankLevel": 5,
        "Param": 15013,
        "Id": 400149,
        "NameTextMapHash": 3269152153,
        "DescTextMapHash": 3057516250,
        "Icon": "UI_RelicIcon_15013_3",
        "ItemType": "ITEM_DISPLAY"
    },
    {
        "TypeDescTextMapHash": 417518607,
        "RankLevel": 1,
        "Param": 15014,
        "Id": 400150,
        "NameTextMapHash": 1900192521,
        "DescTextMapHash": 734805226,
        "Icon": "UI_RelicIcon_15014_4",
        "ItemType": "ITEM_DISPLAY"
    },
    {
        "TypeDescTextMapHash": 3074894295,
        "RankLevel": 2,
        "Param": 15014,
        "Id": 400151,
        "NameTextMapHash": 3771481633,
        "DescTextMapHash": 4110146026,
        "Icon": "UI_RelicIcon_15014_4",
        "ItemType": "ITEM_DISPLAY"
    },
    {
        "TypeDescTextMapHash": 942471999,
        "RankLevel": 3,
        "Param": 15014,
        "Id": 400152,
        "NameTextMapHash": 3755964937,
        "DescTextMapHash": 4215981090,
        "Icon": "UI_RelicIcon_15014_4",
        "ItemType": "ITEM_DISPLAY"
    },
    {
        "TypeDescTextMapHash": 4138913647,
        "RankLevel": 4,
        "Param": 15014,
        "Id": 400153,
        "NameTextMapHash": 1369877081,
        "DescTextMapHash": 77612450,
        "Icon": "UI_RelicIcon_15014_4",
        "ItemType": "ITEM_DISPLAY"
    },
    {
        "TypeDescTextMapHash": 3896683999,
        "RankLevel": 5,
        "Param": 15014,
        "Id": 400154,
        "NameTextMapHash": 1181556057,
        "DescTextMapHash": 2300691362,
        "Icon": "UI_RelicIcon_15014_4",
        "ItemType": "ITEM_DISPLAY"
    },
    {
        "TypeDescTextMapHash": 4236517895,
        "RankLevel": 1,
        "Param": 15015,
        "Id": 400155,
        "NameTextMapHash": 809663817,
        "DescTextMapHash": 3855672594,
        "Icon": "UI_RelicIcon_15015_4",
        "ItemType": "ITEM_DISPLAY"
    },
    {
        "TypeDescTextMapHash": 509417103,
        "RankLevel": 2,
        "Param": 15015,
        "Id": 400156,
        "NameTextMapHash": 1835597145,
        "DescTextMapHash": 3271242930,
        "Icon": "UI_RelicIcon_15015_4",
        "ItemType": "ITEM_DISPLAY"
    },
    {
        "TypeDescTextMapHash": 3318102983,
        "RankLevel": 3,
        "Param": 15015,
        "Id": 400157,
        "NameTextMapHash": 3120787865,
        "DescTextMapHash": 1975499402,
        "Icon": "UI_RelicIcon_15015_4",
        "ItemType": "ITEM_DISPLAY"
    },
    {
        "TypeDescTextMapHash": 3725785079,
        "RankLevel": 4,
        "Param": 15015,
        "Id": 400158,
        "NameTextMapHash": 3272236921,
        "DescTextMapHash": 2036850850,
        "Icon": "UI_RelicIcon_15015_4",
        "ItemType": "ITEM_DISPLAY"
    },
    {
        "TypeDescTextMapHash": 4153259263,
        "RankLevel": 5,
        "Param": 15015,
        "Id": 400159,
        "NameTextMapHash": 1222882825,
        "DescTextMapHash": 1637689554,
        "Icon": "UI_RelicIcon_15015_4",
        "ItemType": "ITEM_DISPLAY"
    },
    {
        "TypeDescTextMapHash": 863241655,
        "RankLevel": 1,
        "Param": 15016,
        "Id": 400160,
        "NameTextMapHash": 136617793,
        "DescTextMapHash": 1416502674,
        "Icon": "UI_RelicIcon_15016_4",
        "ItemType": "ITEM_DISPLAY"
    },
    {
        "TypeDescTextMapHash": 3822144951,
        "RankLevel": 2,
        "Param": 15016,
        "Id": 400161,
        "NameTextMapHash": 741797129,
        "DescTextMapHash": 1523147162,
        "Icon": "UI_RelicIcon_15016_4",
        "ItemType": "ITEM_DISPLAY"
    },
    {
        "TypeDescTextMapHash": 3152842911,
        "RankLevel": 3,
        "Param": 15016,
        "Id": 400162,
        "NameTextMapHash": 3626539121,
        "DescTextMapHash": 527025770,
        "Icon": "UI_RelicIcon_15016_4",
        "ItemType": "ITEM_DISPLAY"
    },
    {
        "TypeDescTextMapHash": 1523506751,
        "RankLevel": 4,
        "Param": 15016,
        "Id": 400163,
        "NameTextMapHash": 2038917049,
        "DescTextMapHash": 268669346,
        "Icon": "UI_RelicIcon_15016_4",
        "ItemType": "ITEM_DISPLAY"
    },
    {
        "TypeDescTextMapHash": 2595445319,
        "RankLevel": 5,
        "Param": 15016,
        "Id": 400164,
        "NameTextMapHash": 2783514185,
        "DescTextMapHash": 1227832146,
        "Icon": "UI_RelicIcon_15016_4",
        "ItemType": "ITEM_DISPLAY"
    },
    {
        "TypeDescTextMapHash": 241187423,
        "RankLevel": 1,
        "Param": 15017,
        "Id": 400165,
        "NameTextMapHash": 346769057,
        "DescTextMapHash": 3415676538,
        "Icon": "UI_RelicIcon_15017_4",
        "ItemType": "ITEM_DISPLAY"
    },
    {
        "TypeDescTextMapHash": 682234567,
        "RankLevel": 2,
        "Param": 15017,
        "Id": 400166,
        "NameTextMapHash": 277526977,
        "DescTextMapHash": 2573778106,
        "Icon": "UI_RelicIcon_15017_4",
        "ItemType": "ITEM_DISPLAY"
    },
    {
        "TypeDescTextMapHash": 2929355399,
        "RankLevel": 3,
        "Param": 15017,
        "Id": 400167,
        "NameTextMapHash": 2505371481,
        "DescTextMapHash": 2802576034,
        "Icon": "UI_RelicIcon_15017_4",
        "ItemType": "ITEM_DISPLAY"
    },
    {
        "TypeDescTextMapHash": 56926847,
        "RankLevel": 4,
        "Param": 15017,
        "Id": 400168,
        "NameTextMapHash": 3809966577,
        "DescTextMapHash": 1073577442,
        "Icon": "UI_RelicIcon_15017_4",
        "ItemType": "ITEM_DISPLAY"
    },
    {
        "TypeDescTextMapHash": 3793484935,
        "RankLevel": 5,
        "Param": 15017,
        "Id": 400169,
        "NameTextMapHash": 3722036745,
        "DescTextMapHash": 2890776402,
        "Icon": "UI_RelicIcon_15017_4",
        "ItemType": "ITEM_DISPLAY"
    },
    {
        "TypeDescTextMapHash": 292683511,
        "RankLevel": 1,
        "Param": 15018,
        "Id": 400170,
        "NameTextMapHash": 2029367273,
        "DescTextMapHash": 2600917778,
        "Icon": "UI_RelicIcon_15018_4",
        "ItemType": "ITEM_DISPLAY"
    },
    {
        "TypeDescTextMapHash": 858161239,
        "RankLevel": 2,
        "Param": 15018,
        "Id": 400171,
        "NameTextMapHash": 3306032761,
        "DescTextMapHash": 3867614874,
        "Icon": "UI_RelicIcon_15018_4",
        "ItemType": "ITEM_DISPLAY"
    },
    {
        "TypeDescTextMapHash": 1921725711,
        "RankLevel": 3,
        "Param": 15018,
        "Id": 400172,
        "NameTextMapHash": 809378017,
        "DescTextMapHash": 3672211258,
        "Icon": "UI_RelicIcon_15018_4",
        "ItemType": "ITEM_DISPLAY"
    },
    {
        "TypeDescTextMapHash": 897987359,
        "RankLevel": 4,
        "Param": 15018,
        "Id": 400173,
        "NameTextMapHash": 588361993,
        "DescTextMapHash": 3252228882,
        "Icon": "UI_RelicIcon_15018_4",
        "ItemType": "ITEM_DISPLAY"
    },
    {
        "TypeDescTextMapHash": 3904418255,
        "RankLevel": 5,
        "Param": 15018,
        "Id": 400174,
        "NameTextMapHash": 3723959073,
        "DescTextMapHash": 2930897602,
        "Icon": "UI_RelicIcon_15018_4",
        "ItemType": "ITEM_DISPLAY"
    }
]