[
    {
        "Id": 1001,
        "TransferConfig": [
            {
                "GroupId": 133003788,
                "ConfigId": 788171
            },
            {
                "GroupId": 133003788,
                "ConfigId": 788172
            },
            {
                "GroupId": 133003788,
                "ConfigId": 788173
            },
            {
                "GroupId": 133003788,
                "ConfigId": 788174
            }
        ],
        "SceneId": 3,
        "Exec": "DRAFT_EXEC_GALLERY",
        "Param": 1001,
        "EnableMp": true,
        "IsNeedAllAgree": true,
        "ConfirmCountDown": 20,
        "MinPlayerCount": 2,
        "IsNeedTwiceConfirm": true,
        "TwiceConfirmCountDown": 20
    },
    {
        "Id": 1003,
        "TransferConfig": [
            {
                "GroupId": 133003789,
                "ConfigId": 789159
            },
            {
                "GroupId": 133003789,
                "ConfigId": 789160
            },
            {
                "GroupId": 133003789,
                "ConfigId": 789161
            },
            {
                "GroupId": 133003789,
                "ConfigId": 789162
            }
        ],
        "SceneId": 3,
        "Exec": "DRAFT_EXEC_GALLERY",
        "Param": 1003,
        "EnableMp": true,
        "IsNeedAllAgree": true,
        "ConfirmCountDown": 20,
        "MinPlayerCount": 2,
        "IsNeedTwiceConfirm": true,
        "TwiceConfirmCountDown": 20
    },
    {
        "Id": 1004,
        "TransferConfig": [
            {
                "GroupId": 133002479,
                "ConfigId": 479209
            },
            {
                "GroupId": 133002479,
                "ConfigId": 479210
            },
            {
                "GroupId": 133002479,
                "ConfigId": 479211
            },
            {
                "GroupId": 133002479,
                "ConfigId": 479212
            }
        ],
        "SceneId": 3,
        "Exec": "DRAFT_EXEC_GALLERY",
        "Param": 1004,
        "EnableMp": true,
        "IsNeedAllAgree": true,
        "ConfirmCountDown": 20,
        "MinPlayerCount": 2,
        "IsNeedTwiceConfirm": true,
        "TwiceConfirmCountDown": 20
    },
    {
        "Id": 1005,
        "TransferConfig": [
            {
                "GroupId": 133004460,
                "ConfigId": 460152
            },
            {
                "GroupId": 133004460,
                "ConfigId": 460153
            },
            {
                "GroupId": 133004460,
                "ConfigId": 460154
            },
            {
                "GroupId": 133004460,
                "ConfigId": 460155
            }
        ],
        "SceneId": 3,
        "Exec": "DRAFT_EXEC_GALLERY",
        "Param": 1005,
        "EnableMp": true,
        "IsNeedAllAgree": true,
        "ConfirmCountDown": 20,
        "MinPlayerCount": 2,
        "IsNeedTwiceConfirm": true,
        "TwiceConfirmCountDown": 20
    },
    {
        "Id": 2001,
        "TransferConfig": [
            {
                "GroupId": 133001591,
                "ConfigId": 591001
            },
            {
                "GroupId": 133001591,
                "ConfigId": 591014
            },
            {
                "GroupId": 133001591,
                "ConfigId": 591015
            },
            {
                "GroupId": 133001591,
                "ConfigId": 591016
            }
        ],
        "SceneId": 3,
        "Exec": "DRAFT_EXEC_GALLERY",
        "Param": 2001,
        "EnableMp": true,
        "IsNeedAllAgree": true,
        "ConfirmCountDown": 20,
        "MinPlayerCount": 2,
        "IsNeedTwiceConfirm": true,
        "TwiceConfirmCountDown": 20
    },
    {
        "Id": 2002,
        "TransferConfig": [
            {
                "GroupId": 133001585,
                "ConfigId": 585001
            },
            {
                "GroupId": 133001585,
                "ConfigId": 585014
            },
            {
                "GroupId": 133001585,
                "ConfigId": 585015
            },
            {
                "GroupId": 133001585,
                "ConfigId": 585016
            }
        ],
        "SceneId": 3,
        "Exec": "DRAFT_EXEC_GALLERY",
        "Param": 2002,
        "EnableMp": true,
        "IsNeedAllAgree": true,
        "ConfirmCountDown": 20,
        "MinPlayerCount": 2,
        "IsNeedTwiceConfirm": true,
        "TwiceConfirmCountDown": 20
    },
    {
        "Id": 2003,
        "TransferConfig": [
            {
                "GroupId": 133004465,
                "ConfigId": 465001
            },
            {
                "GroupId": 133004465,
                "ConfigId": 465014
            },
            {
                "GroupId": 133004465,
                "ConfigId": 465015
            },
            {
                "GroupId": 133004465,
                "ConfigId": 465016
            }
        ],
        "SceneId": 3,
        "Exec": "DRAFT_EXEC_GALLERY",
        "Param": 2003,
        "EnableMp": true,
        "IsNeedAllAgree": true,
        "ConfirmCountDown": 20,
        "MinPlayerCount": 2,
        "IsNeedTwiceConfirm": true,
        "TwiceConfirmCountDown": 20
    },
    {
        "Id": 2004,
        "TransferConfig": [
            {
                "GroupId": 133004453,
                "ConfigId": 453001
            },
            {
                "GroupId": 133004453,
                "ConfigId": 453014
            },
            {
                "GroupId": 133004453,
                "ConfigId": 453015
            },
            {
                "GroupId": 133004453,
                "ConfigId": 453016
            }
        ],
        "SceneId": 3,
        "Exec": "DRAFT_EXEC_GALLERY",
        "Param": 2004,
        "EnableMp": true,
        "IsNeedAllAgree": true,
        "ConfirmCountDown": 20,
        "MinPlayerCount": 2,
        "IsNeedTwiceConfirm": true,
        "TwiceConfirmCountDown": 20
    },
    {
        "Id": 3001,
        "TransferConfig": [
            {},
            {},
            {},
            {}
        ],
        "SceneId": 3,
        "Exec": 2,
        "EnableMp": true,
        "IsNeedAllAgree": true,
        "ConfirmCountDown": 20,
        "MinPlayerCount": 2,
        "TwiceConfirmCountDown": 20
    }
]