[
    {
        "Id": 1,
        "DungeonEntryId": 48,
        "Type": "DUNGEN_ENTRY_TYPE_RELIQUARY",
        "DescTextMapHash": 1612886129,
        "CooldownTipsDungeonId": [],
        "CondComb": "LOGIC_OR",
        "SatisfiedCond": [
            {
                "Type": "DUNGEON_ENTRY_CONDITION_LEVEL",
                "Param1": 22
            },
            {
                "Type": "DUNGEON_ENTRY_CONDITION_QUEST",
                "Param1": 39604
            }
        ],
        "PicPath": "UI_DungeonPic_Cubic_Normal",
        "SystemOpenUiId": 4,
        "RewardDataId": 220404,
        "DescriptionCycleRewardList": [
            [],
            [],
            [],
            []
        ]
    },
    {
        "Id": 2,
        "DungeonEntryId": 50,
        "Type": "DUNGEN_ENTRY_TYPE_WEAPON_PROMOTE",
        "DescTextMapHash": 3914992809,
        "CooldownTipsDungeonId": [],
        "IsDailyRefresh": true,
        "CondComb": "LOGIC_OR",
        "SatisfiedCond": [
            {
                "Type": "DUNGEON_ENTRY_CONDITION_LEVEL",
                "Param1": 16
            },
            {
                "Type": "DUNGEON_ENTRY_CONDITION_QUEST",
                "Param1": 38406
            }
        ],
        "PicPath": "UI_DungeonPic_Water",
        "SystemOpenUiId": 8,
        "RewardDataId": 220402,
        "DescriptionCycleRewardList": [
            [
                114001,
                114002,
                114003,
                114004
            ],
            [
                114005,
                114006,
                114007,
                114008
            ],
            [
                114009,
                114010,
                114011,
                114012
            ],
            [
                114001,
                114002,
                114003,
                114004,
                114005,
                114006,
                114007,
                114008,
                114009,
                114010,
                114011,
                114012
            ]
        ]
    },
    {
        "Id": 3,
        "DungeonEntryId": 135,
        "Type": "DUNGEN_ENTRY_TYPE_WEAPON_PROMOTE",
        "DescTextMapHash": 1293176289,
        "CooldownTipsDungeonId": [],
        "IsDailyRefresh": true,
        "CondComb": "LOGIC_OR",
        "SatisfiedCond": [
            {
                "Type": "DUNGEON_ENTRY_CONDITION_LEVEL",
                "Param1": 16
            },
            {
                "Type": "DUNGEON_ENTRY_CONDITION_QUEST",
                "Param1": 38406
            }
        ],
        "PicPath": "UI_DungeonPic_Thunder",
        "RewardDataId": 220407,
        "DescriptionCycleRewardList": [
            [
                114013,
                114014,
                114015,
                114016
            ],
            [
                114017,
                114018,
                114019,
                114020
            ],
            [
                114021,
                114022,
                114023,
                114024
            ],
            [
                114013,
                114014,
                114015,
                114016,
                114017,
                114018,
                114019,
                114020,
                114021,
                114022,
                114023,
                114024
            ]
        ]
    },
    {
        "Id": 4,
        "DungeonEntryId": 117,
        "Type": "DUNGEON_ENTRY_TYPE_NORMAL",
        "DescTextMapHash": 77310385,
        "CooldownTipsDungeonId": [],
        "SatisfiedCond": [
            {},
            {}
        ],
        "PicPath": "UI_DungeonPic_HuZhongTian",
        "RewardDataId": 220406,
        "DescriptionCycleRewardList": [
            [],
            [],
            [],
            []
        ]
    },
    {
        "Id": 6,
        "DungeonEntryId": 42,
        "Type": "DUNGEN_ENTRY_TYPE_RELIQUARY",
        "DescTextMapHash": 2667941777,
        "CooldownTipsDungeonId": [],
        "CondComb": "LOGIC_OR",
        "SatisfiedCond": [
            {
                "Type": "DUNGEON_ENTRY_CONDITION_LEVEL",
                "Param1": 22
            },
            {
                "Type": "DUNGEON_ENTRY_CONDITION_QUEST",
                "Param1": 39604
            }
        ],
        "PicPath": "UI_DungeonPic_Cubic_Normal_1",
        "RewardDataId": 220405,
        "DescriptionCycleRewardList": [
            [],
            [],
            [],
            []
        ]
    },
    {
        "Id": 7,
        "DungeonEntryId": 137,
        "Type": "DUNGEN_ENTRY_TYPE_RELIQUARY",
        "DescTextMapHash": 767933225,
        "CooldownTipsDungeonId": [],
        "CondComb": "LOGIC_OR",
        "SatisfiedCond": [
            {
                "Type": "DUNGEON_ENTRY_CONDITION_LEVEL",
                "Param1": 22
            },
            {
                "Type": "DUNGEON_ENTRY_CONDITION_QUEST",
                "Param1": 39604
            }
        ],
        "PicPath": "UI_DungeonPic_Cubic_Normal_2",
        "RewardDataId": 220409,
        "DescriptionCycleRewardList": [
            [],
            [],
            [],
            []
        ]
    },
    {
        "Id": 8,
        "DungeonEntryId": 107,
        "Type": "DUNGEN_ENTRY_TYPE_RELIQUARY",
        "DescTextMapHash": 692041689,
        "CooldownTipsDungeonId": [],
        "CondComb": "LOGIC_OR",
        "SatisfiedCond": [
            {
                "Type": "DUNGEON_ENTRY_CONDITION_LEVEL",
                "Param1": 22
            },
            {
                "Type": "DUNGEON_ENTRY_CONDITION_QUEST",
                "Param1": 39604
            }
        ],
        "PicPath": "UI_DungeonPic_Cubic_Normal_3",
        "RewardDataId": 220410,
        "DescriptionCycleRewardList": [
            [],
            [],
            [],
            []
        ]
    },
    {
        "Id": 9,
        "DungeonEntryId": 139,
        "Type": "DUNGEN_ENTRY_TYPE_RELIQUARY",
        "DescTextMapHash": 142290817,
        "CooldownTipsDungeonId": [],
        "CondComb": "LOGIC_OR",
        "SatisfiedCond": [
            {
                "Type": "DUNGEON_ENTRY_CONDITION_LEVEL",
                "Param1": 22
            },
            {
                "Type": "DUNGEON_ENTRY_CONDITION_QUEST",
                "Param1": 39604
            }
        ],
        "PicPath": "UI_DungeonPic_Cubic_Normal_4",
        "RewardDataId": 220411,
        "DescriptionCycleRewardList": [
            [],
            [],
            [],
            []
        ]
    },
    {
        "Id": 10,
        "DungeonEntryId": 44,
        "Type": "DUNGEN_ENTRY_TYPE_AVATAR_TALENT",
        "DescTextMapHash": 2905358345,
        "CooldownTipsDungeonId": [],
        "IsDailyRefresh": true,
        "CondComb": "LOGIC_OR",
        "SatisfiedCond": [
            {
                "Type": "DUNGEON_ENTRY_CONDITION_LEVEL",
                "Param1": 27
            },
            {
                "Type": "DUNGEON_ENTRY_CONDITION_QUEST",
                "Param1": 101801
            }
        ],
        "PicPath": "UI_DungeonPic_Ice",
        "SystemOpenUiId": 6,
        "RewardDataId": 220403,
        "DescriptionCycleRewardList": [
            [
                104301,
                104302,
                104303
            ],
            [
                104304,
                104305,
                104306
            ],
            [
                104307,
                104308,
                104309
            ],
            [
                104301,
                104302,
                104303,
                104304,
                104305,
                104306,
                104307,
                104308,
                104309
            ]
        ]
    },
    {
        "Id": 11,
        "DungeonEntryId": 131,
        "Type": "DUNGEN_ENTRY_TYPE_AVATAR_TALENT",
        "DescTextMapHash": 2189301337,
        "CooldownTipsDungeonId": [],
        "IsDailyRefresh": true,
        "CondComb": "LOGIC_OR",
        "SatisfiedCond": [
            {
                "Type": "DUNGEON_ENTRY_CONDITION_LEVEL",
                "Param1": 27
            },
            {
                "Type": "DUNGEON_ENTRY_CONDITION_QUEST",
                "Param1": 101801
            }
        ],
        "PicPath": "UI_DungeonPic_Fire",
        "RewardDataId": 220408,
        "DescriptionCycleRewardList": [
            [
                104310,
                104311,
                104312
            ],
            [
                104313,
                104314,
                104315
            ],
            [
                104316,
                104317,
                104318
            ],
            [
                104310,
                104311,
                104312,
                104313,
                104314,
                104315,
                104316,
                104317,
                104318
            ]
        ]
    },
    {
        "Id": 12,
        "DungeonEntryId": 221,
        "Type": "DUNGEN_ENTRY_TYPE_RELIQUARY",
        "DescTextMapHash": 4215300953,
        "CooldownTipsDungeonId": [],
        "CondComb": "LOGIC_OR",
        "SatisfiedCond": [
            {
                "Type": "DUNGEON_ENTRY_CONDITION_LEVEL",
                "Param1": 22
            },
            {
                "Type": "DUNGEON_ENTRY_CONDITION_QUEST",
                "Param1": 39604
            }
        ],
        "PicPath": "UI_DungeonPic_Cubic_Cold_1",
        "RewardDataId": 220414,
        "DescriptionCycleRewardList": [
            [],
            [],
            [],
            []
        ]
    },
    {
        "Id": 13,
        "DungeonEntryId": 282,
        "Type": "DUNGEN_ENTRY_TYPE_RELIQUARY",
        "DescTextMapHash": 407495801,
        "CooldownTipsDungeonId": [],
        "CondComb": "LOGIC_OR",
        "SatisfiedCond": [
            {
                "Type": "DUNGEON_ENTRY_CONDITION_LEVEL",
                "Param1": 22
            },
            {
                "Type": "DUNGEON_ENTRY_CONDITION_QUEST",
                "Param1": 39604
            }
        ],
        "PicPath": "UI_DungeonPic_Cubic_Normal_1",
        "RewardDataId": 220415,
        "DescriptionCycleRewardList": [
            [],
            [],
            [],
            []
        ]
    },
    {
        "Id": 1001,
        "DungeonEntryId": 45,
        "Type": "DUNGEON_ENTRY_TYPE_OBSCURAE",
        "DescTextMapHash": 2708589641,
        "CooldownTipsDungeonId": [],
        "SatisfiedCond": [
            {
                "Type": "DUNGEON_ENTRY_CONDITION_LEVEL",
                "Param1": 20
            },
            {}
        ],
        "PicPath": "UI_DungeonPic_Tower_Normal",
        "SystemOpenUiId": 3,
        "RewardDataId": 220412,
        "DescriptionCycleRewardList": [
            [],
            [],
            [],
            []
        ]
    },
    {
        "Id": 1002,
        "DungeonEntryId": 1,
        "Type": "DUNGEON_ENTRY_TYPE_NORMAL",
        "DescTextMapHash": 3239234745,
        "CooldownTipsDungeonId": [],
        "SatisfiedCond": [
            {},
            {}
        ],
        "PicPath": "UI_DungeonPic_Kaeya",
        "DescriptionCycleRewardList": [
            [],
            [],
            [],
            []
        ]
    },
    {
        "Id": 1003,
        "DungeonEntryId": 20,
        "Type": "DUNGEON_ENTRY_TYPE_NORMAL",
        "DescTextMapHash": 1162985985,
        "CooldownTipsDungeonId": [],
        "SatisfiedCond": [
            {},
            {}
        ],
        "PicPath": "UI_DungeonPic_Amber",
        "DescriptionCycleRewardList": [
            [],
            [],
            [],
            []
        ]
    },
    {
        "Id": 1004,
        "DungeonEntryId": 22,
        "Type": "DUNGEON_ENTRY_TYPE_NORMAL",
        "DescTextMapHash": 3920998985,
        "CooldownTipsDungeonId": [],
        "SatisfiedCond": [
            {},
            {}
        ],
        "PicPath": "UI_DungeonPic_Lise",
        "DescriptionCycleRewardList": [
            [],
            [],
            [],
            []
        ]
    },
    {
        "Id": 1005,
        "DungeonEntryId": 40,
        "Type": "DUNGEON_ENTRY_TYPE_NORMAL",
        "DescTextMapHash": 1972150497,
        "CooldownTipsDungeonId": [],
        "SatisfiedCond": [
            {},
            {}
        ],
        "PicPath": "UI_DungeonPic_DragonTear",
        "DescriptionCycleRewardList": [
            [],
            [],
            [],
            []
        ]
    },
    {
        "Id": 1006,
        "DungeonEntryId": 38,
        "Type": "DUNGEON_ENTRY_TYPE_TRIAL",
        "DescTextMapHash": 792448241,
        "CooldownTipsDungeonId": [
            2020,
            2021,
            2022,
            2023,
            2024,
            2025
        ],
        "IsDefaultOpen": true,
        "SatisfiedCond": [
            {},
            {}
        ],
        "PicPath": "UI_DungeonPic_Stormterror",
        "DescriptionCycleRewardList": [
            [],
            [],
            [],
            []
        ]
    },
    {
        "Id": 1007,
        "DungeonEntryId": 52,
        "Type": "DUNGEON_ENTRY_TYPE_NORMAL",
        "DescTextMapHash": 3246634345,
        "CooldownTipsDungeonId": [],
        "SatisfiedCond": [
            {},
            {}
        ],
        "PicPath": "UI_DungeonPic_Kaeya",
        "DescriptionCycleRewardList": [
            [],
            [],
            [],
            []
        ]
    },
    {
        "Id": 1008,
        "DungeonEntryId": 113,
        "Type": "DUNGEON_ENTRY_TYPE_NORMAL",
        "DescTextMapHash": 332916601,
        "CooldownTipsDungeonId": [],
        "SatisfiedCond": [
            {},
            {}
        ],
        "PicPath": "UI_DungeonPic_Fatui",
        "DescriptionCycleRewardList": [
            [],
            [],
            [],
            []
        ]
    },
    {
        "Id": 1009,
        "DungeonEntryId": 102,
        "Type": "DUNGEON_ENTRY_TYPE_NORMAL",
        "DescTextMapHash": 1575215929,
        "CooldownTipsDungeonId": [],
        "SatisfiedCond": [
            {},
            {}
        ],
        "PicPath": "UI_DungeonPic_Diluc",
        "DescriptionCycleRewardList": [
            [],
            [],
            [],
            []
        ]
    },
    {
        "Id": 1010,
        "DungeonEntryId": 89,
        "Type": "DUNGEON_ENTRY_TYPE_NORMAL",
        "DescTextMapHash": 2484444193,
        "CooldownTipsDungeonId": [],
        "SatisfiedCond": [
            {},
            {}
        ],
        "PicPath": "UI_DungeonPic_Diluc",
        "DescriptionCycleRewardList": [
            [],
            [],
            [],
            []
        ]
    },
    {
        "Id": 1011,
        "DungeonEntryId": 119,
        "Type": "DUNGEON_ENTRY_TYPE_NORMAL",
        "DescTextMapHash": 4121744817,
        "CooldownTipsDungeonId": [],
        "SatisfiedCond": [
            {},
            {}
        ],
        "PicPath": "UI_DungeonPic_Diluc",
        "DescriptionCycleRewardList": [
            [],
            [],
            [],
            []
        ]
    },
    {
        "Id": 1012,
        "DungeonEntryId": 125,
        "Type": "DUNGEON_ENTRY_TYPE_NORMAL",
        "DescTextMapHash": 692976025,
        "CooldownTipsDungeonId": [],
        "SatisfiedCond": [
            {},
            {}
        ],
        "PicPath": "UI_DungeonPic_XiangLing",
        "DescriptionCycleRewardList": [
            [],
            [],
            [],
            []
        ]
    },
    {
        "Id": 1013,
        "DungeonEntryId": 129,
        "Type": "DUNGEON_ENTRY_TYPE_NORMAL",
        "DescTextMapHash": 2511450889,
        "CooldownTipsDungeonId": [],
        "SatisfiedCond": [
            {},
            {}
        ],
        "PicPath": "UI_DungeonPic_Diluc",
        "DescriptionCycleRewardList": [
            [],
            [],
            [],
            []
        ]
    },
    {
        "Id": 1014,
        "DungeonEntryId": 146,
        "Type": "DUNGEON_ENTRY_TYPE_NORMAL",
        "DescTextMapHash": 3994909113,
        "CooldownTipsDungeonId": [],
        "SatisfiedCond": [
            {},
            {}
        ],
        "PicPath": "UI_DungeonPic_YunHai",
        "DescriptionCycleRewardList": [
            [],
            [],
            [],
            []
        ]
    },
    {
        "Id": 1015,
        "DungeonEntryId": 133,
        "Type": "DUNGEON_ENTRY_TYPE_NORMAL",
        "DescTextMapHash": 3007793081,
        "CooldownTipsDungeonId": [],
        "SatisfiedCond": [
            {},
            {}
        ],
        "PicPath": "UI_DungeonPic_YunHai",
        "DescriptionCycleRewardList": [
            [],
            [],
            [],
            []
        ]
    },
    {
        "Id": 1016,
        "DungeonEntryId": 218,
        "Type": "DUNGEON_ENTRY_TYPE_TRIAL",
        "DescTextMapHash": 1047671777,
        "CooldownTipsDungeonId": [
            103,
            104,
            105,
            106
        ],
        "IsDefaultOpen": true,
        "SatisfiedCond": [
            {},
            {}
        ],
        "PicPath": "UI_DungeonPic_Goldenhouse",
        "DescriptionCycleRewardList": [
            [],
            [],
            [],
            []
        ]
    },
    {
        "Id": 1017,
        "DungeonEntryId": 223,
        "Type": "DUNGEON_ENTRY_TYPE_EFFIGY",
        "DescTextMapHash": 2923105409,
        "CooldownTipsDungeonId": [],
        "IsDefaultOpen": true,
        "SatisfiedCond": [
            {},
            {}
        ],
        "PicPath": "UI_DungeonPic_EffigyChallenge",
        "DescriptionCycleRewardList": [
            [],
            [],
            [],
            []
        ]
    },
    {
        "Id": 1018,
        "DungeonEntryId": 265,
        "Type": "DUNGEON_ENTRY_TYPE_FLEUR_FAIR",
        "DescTextMapHash": 3303313457,
        "CooldownTipsDungeonId": [
            5310
        ],
        "IsDefaultOpen": true,
        "SatisfiedCond": [
            {},
            {}
        ],
        "PicPath": "UI_DungeonPic_FleurFair",
        "DescriptionCycleRewardList": [
            [],
            [],
            [],
            []
        ]
    },
    {
        "Id": 1019,
        "DungeonEntryId": 274,
        "Type": 12,
        "DescTextMapHash": 2262718049,
        "CooldownTipsDungeonId": [
            7202
        ],
        "IsDefaultOpen": true,
        "SatisfiedCond": [
            {},
            {}
        ],
        "PicPath": "UI_DungeonPic_Kaeya",
        "DescriptionCycleRewardList": [
            [],
            [],
            [],
            []
        ]
    },
    {
        "Id": 1020,
        "DungeonEntryId": 276,
        "Type": 12,
        "DescTextMapHash": 2797072865,
        "CooldownTipsDungeonId": [
            7203
        ],
        "IsDefaultOpen": true,
        "SatisfiedCond": [
            {},
            {}
        ],
        "PicPath": "UI_DungeonPic_XiangLing",
        "DescriptionCycleRewardList": [
            [],
            [],
            [],
            []
        ]
    },
    {
        "Id": 1021,
        "DungeonEntryId": 278,
        "Type": 12,
        "DescTextMapHash": 2491644225,
        "CooldownTipsDungeonId": [
            7201
        ],
        "IsDefaultOpen": true,
        "SatisfiedCond": [
            {},
            {}
        ],
        "PicPath": "UI_DungeonPic_DragonTear",
        "DescriptionCycleRewardList": [
            [],
            [],
            [],
            []
        ]
    },
    {
        "Id": 1022,
        "DungeonEntryId": 280,
        "Type": 11,
        "DescTextMapHash": 350839273,
        "CooldownTipsDungeonId": [
            7204
        ],
        "IsDefaultOpen": true,
        "SatisfiedCond": [
            {},
            {}
        ],
        "PicPath": "UI_DungeonPic_ChannellerSlab",
        "DescriptionCycleRewardList": [
            [],
            [],
            [],
            []
        ]
    },
    {
        "Id": 1023,
        "DungeonEntryId": 271,
        "Type": "DUNGEON_ENTRY_TYPE_TRIAL",
        "DescTextMapHash": 3790866161,
        "CooldownTipsDungeonId": [
            110,
            111,
            112,
            113,
            114,
            115,
            116,
            117,
            118,
            119,
            120,
            121,
            122,
            123,
            124,
            125
        ],
        "IsDefaultOpen": true,
        "SatisfiedCond": [
            {},
            {}
        ],
        "PicPath": "UI_DungeonPic_DahakaBoss_1",
        "DescriptionCycleRewardList": [
            [],
            [],
            [],
            []
        ]
    }
]