[
    {
        "ClientId": 10000,
        "Id": 1,
        "Show": true,
        "LevelConfigName": "Level_Avatar_DefenseDown",
        "DescTextMapHash": 3109256178
    },
    {
        "ClientId": 10001,
        "Id": 2,
        "Show": true,
        "LevelConfigName": "LevelEntity_ElementAddHurt_Electric",
        "DescTextMapHash": 3935856410
    },
    {
        "ClientId": 10002,
        "Id": 3,
        "Show": true,
        "LevelConfigName": "LevelEntity_ElementAddHurt_Fire",
        "DescTextMapHash": 2165783538
    },
    {
        "ClientId": 10003,
        "Id": 4,
        "Show": true,
        "LevelConfigName": "LevelEntity_ElementAddHurt_Wind",
        "DescTextMapHash": 323728106
    },
    {
        "ClientId": 10004,
        "Id": 5,
        "Show": true,
        "LevelConfigName": "LevelEntity_ElementAddHurt_Ice",
        "DescTextMapHash": 749862618
    },
    {
        "ClientId": 10005,
        "Id": 6,
        "Show": true,
        "LevelConfigName": "LevelEntity_ElementAddHurt_Water",
        "DescTextMapHash": 364338386
    },
    {
        "ClientId": 10006,
        "Id": 7,
        "Show": true,
        "LevelConfigName": "LevelEntity_ElementAddHurt_Grass",
        "DescTextMapHash": 2044372618
    },
    {
        "ClientId": 10007,
        "Id": 8,
        "Show": true,
        "LevelConfigName": "LevelEntity_ElementAddHurt_Rock",
        "DescTextMapHash": 3206664354
    },
    {
        "ClientId": 10008,
        "Id": 9,
        "Show": true,
        "LevelConfigName": "LevelEntity_ElementBeHurtDamageDown_Electric",
        "DescTextMapHash": 1121743490
    },
    {
        "ClientId": 10009,
        "Id": 10,
        "Show": true,
        "LevelConfigName": "LevelEntity_ElementBeHurtDamageDown_Fire",
        "DescTextMapHash": 3841742506
    },
    {
        "ClientId": 10010,
        "Id": 11,
        "Show": true,
        "LevelConfigName": "LevelEntity_ElementBeHurtDamageDown_Wind",
        "DescTextMapHash": 2616124290
    },
    {
        "ClientId": 10011,
        "Id": 12,
        "Show": true,
        "LevelConfigName": "LevelEntity_ElementBeHurtDamageDown_Ice",
        "DescTextMapHash": 293828714
    },
    {
        "ClientId": 10012,
        "Id": 13,
        "Show": true,
        "LevelConfigName": "LevelEntity_ElementBeHurtDamageDown_Water",
        "DescTextMapHash": 4052529698
    },
    {
        "ClientId": 10013,
        "Id": 14,
        "Show": true,
        "LevelConfigName": "LevelEntity_ElementBeHurtDamageDown_Grass",
        "DescTextMapHash": 752183178
    },
    {
        "ClientId": 10014,
        "Id": 15,
        "Show": true,
        "LevelConfigName": "LevelEntity_ElementBeHurtDamageDown_Rock",
        "DescTextMapHash": 3217463890
    },
    {
        "ClientId": 10015,
        "Id": 16,
        "Show": true,
        "LevelConfigName": "LevelEntity_Heal_Down",
        "DescTextMapHash": 3852311098
    },
    {
        "ClientId": 10016,
        "Id": 17,
        "Show": true,
        "LevelConfigName": "LevelEntity_ElementBeHurtDamageUp_Electric",
        "DescTextMapHash": 199834394
    },
    {
        "ClientId": 10017,
        "Id": 18,
        "Show": true,
        "LevelConfigName": "LevelEntity_ElementBeHurtDamageUp_Fire",
        "DescTextMapHash": 4289104738
    },
    {
        "ClientId": 10018,
        "Id": 19,
        "Show": true,
        "LevelConfigName": "LevelEntity_ElementBeHurtDamageUp_Wind",
        "DescTextMapHash": 4248143754
    },
    {
        "ClientId": 10019,
        "Id": 20,
        "Show": true,
        "LevelConfigName": "LevelEntity_ElementBeHurtDamageUp_Ice",
        "DescTextMapHash": 922981514
    },
    {
        "ClientId": 10020,
        "Id": 21,
        "Show": true,
        "LevelConfigName": "LevelEntity_ElementBeHurtDamageUp_Water",
        "DescTextMapHash": 1658476274
    },
    {
        "ClientId": 10021,
        "Id": 22,
        "Show": true,
        "LevelConfigName": "LevelEntity_ElementBeHurtDamageUp_Grass",
        "DescTextMapHash": 2869715682
    },
    {
        "ClientId": 10022,
        "Id": 23,
        "Show": true,
        "LevelConfigName": "LevelEntity_ElementBeHurtDamageUp_Rock",
        "DescTextMapHash": 4162996914
    },
    {
        "ClientId": 10023,
        "Id": 24,
        "Show": true,
        "LevelConfigName": "LevelEntity_MeleeAttackDamageUp",
        "DescTextMapHash": 2298797658
    },
    {
        "ClientId": 10024,
        "Id": 25,
        "Show": true,
        "LevelConfigName": "LevelEntity_RangeAttackDamageUp",
        "DescTextMapHash": 2221785706
    },
    {
        "ClientId": 10025,
        "Id": 26,
        "Show": true,
        "LevelConfigName": "LevelEntity_MaleAddHurt",
        "DescTextMapHash": 552046058
    },
    {
        "ClientId": 10026,
        "Id": 27,
        "Show": true,
        "LevelConfigName": "LevelEntity_FemaleAddHurt",
        "DescTextMapHash": 987434674
    },
    {
        "ClientId": 10027,
        "Id": 28,
        "Show": true,
        "LevelConfigName": "LevelEntity_SwordAddHurt",
        "DescTextMapHash": 687548210
    },
    {
        "ClientId": 10028,
        "Id": 29,
        "Show": true,
        "LevelConfigName": "LevelEntity_ClaymoreAddHurt",
        "DescTextMapHash": 1589719226
    },
    {
        "ClientId": 10029,
        "Id": 30,
        "Show": true,
        "LevelConfigName": "LevelEntity_PoleAddHurt",
        "DescTextMapHash": 1216884570
    },
    {
        "ClientId": 10030,
        "Id": 31,
        "Show": true,
        "LevelConfigName": "LevelEntity_CatalystAddHurt",
        "DescTextMapHash": 1042062754
    },
    {
        "ClientId": 10031,
        "Id": 32,
        "Show": true,
        "LevelConfigName": "LevelEntity_BowAddHurt",
        "DescTextMapHash": 3667991738
    },
    {
        "ClientId": 10032,
        "Id": 33,
        "Show": true,
        "LevelConfigName": "LevelEntity_AvatarDot_Fire",
        "DescTextMapHash": 2541895866
    },
    {
        "ClientId": 10033,
        "Id": 34,
        "Show": true,
        "LevelConfigName": "LevelEntity_AvatarDot_Electric",
        "DescTextMapHash": 2012350298
    },
    {
        "ClientId": 10034,
        "Id": 35,
        "Show": true,
        "LevelConfigName": "LevelEntity_AvatarDot_Water",
        "DescTextMapHash": 1246044738
    },
    {
        "ClientId": 10035,
        "Id": 36,
        "Show": true,
        "LevelConfigName": "LevelEntity_AvatarDot_Ice",
        "DescTextMapHash": 990535402
    },
    {
        "ClientId": 10036,
        "Id": 37,
        "Show": true,
        "LevelConfigName": "LevelEntity_AvatarDot_Wind",
        "DescTextMapHash": 3819281194
    },
    {
        "ClientId": 10037,
        "Id": 38,
        "Show": true,
        "LevelConfigName": "LevelEntity_AvatarDot_Rock",
        "DescTextMapHash": 2671028298
    },
    {
        "ClientId": 10038,
        "Id": 39,
        "Show": true,
        "LevelConfigName": "LevelEntity_AvatarDot_Grass",
        "DescTextMapHash": 1663658170
    },
    {
        "ClientId": 10039,
        "Id": 40,
        "Show": true,
        "LevelConfigName": "LevelEntity_RandomThunder",
        "DescTextMapHash": 565097242
    },
    {
        "ClientId": 10040,
        "Id": 41,
        "Show": true,
        "LevelConfigName": "Level_Electric_Test",
        "DescTextMapHash": 2769092058
    },
    {
        "ClientId": 10041,
        "Id": 42,
        "Show": true,
        "LevelConfigName": "Level_Explode_Test",
        "DescTextMapHash": 1176272362
    },
    {
        "ClientId": 10042,
        "Id": 43,
        "Show": true,
        "LevelConfigName": "Level_Superconductor_Test",
        "DescTextMapHash": 3267416482
    },
    {
        "ClientId": 10043,
        "Id": 44,
        "Show": true,
        "LevelConfigName": "Level_Melt_Test",
        "DescTextMapHash": 3994675138
    },
    {
        "ClientId": 10044,
        "Id": 45,
        "Show": true,
        "LevelConfigName": "Level_Stream_Test",
        "DescTextMapHash": 3986163610
    },
    {
        "ClientId": 10045,
        "Id": 46,
        "Show": true,
        "LevelConfigName": "Level_Freeze_Test",
        "DescTextMapHash": 2676159698
    },
    {
        "ClientId": 10046,
        "Id": 47,
        "Show": true,
        "LevelConfigName": "Level_Burning_Test",
        "DescTextMapHash": 3059640506
    },
    {
        "ClientId": 10047,
        "Id": 48,
        "Show": true,
        "LevelConfigName": "Level_Swril_Test",
        "DescTextMapHash": 1226662090
    },
    {
        "ClientId": 10048,
        "Id": 49,
        "Show": true,
        "LevelConfigName": "LevelEntity_Avatar_CriticalUp",
        "DescTextMapHash": 2594743074
    },
    {
        "ClientId": 10049,
        "Id": 50,
        "Show": true,
        "LevelConfigName": "LevelEntity_Avatar_CriticalHurtUp",
        "DescTextMapHash": 3994069002
    },
    {
        "ClientId": 10050,
        "Id": 51,
        "LevelConfigName": "LevelEntity_Monster_HpUp",
        "DescTextMapHash": 2120603194
    },
    {
        "ClientId": 10051,
        "Id": 52,
        "LevelConfigName": "LevelEntity_Monster_HpUp",
        "DescTextMapHash": 471653194
    },
    {
        "ClientId": 10052,
        "Id": 53,
        "LevelConfigName": "LevelEntity_Monster_HpUp",
        "DescTextMapHash": 654331522
    },
    {
        "ClientId": 10053,
        "Id": 54,
        "LevelConfigName": "LevelEntity_Monster_AttackUp",
        "DescTextMapHash": 1870939802
    },
    {
        "ClientId": 10054,
        "Id": 55,
        "LevelConfigName": "LevelEntity_Monster_AttackUp",
        "DescTextMapHash": 14713746
    },
    {
        "ClientId": 10055,
        "Id": 56,
        "LevelConfigName": "LevelEntity_Monster_AttackUp",
        "DescTextMapHash": 4005610922
    },
    {
        "ClientId": 10056,
        "Id": 57,
        "Show": true,
        "LevelConfigName": "LevelEntity_Avatar_ChargeEfficiencyDown",
        "DescTextMapHash": 693273602
    },
    {
        "ClientId": 10057,
        "Id": 58,
        "Show": true,
        "LevelConfigName": "LevelEntity_GenerateElemBall",
        "DescTextMapHash": 2662000594
    },
    {
        "ClientId": 10058,
        "Id": 59,
        "Show": true,
        "LevelConfigName": "LevelEntity_Monster_ElementBeHurtDamageDown_All",
        "DescTextMapHash": 2190070890
    },
    {
        "ClientId": 10059,
        "Id": 60,
        "Show": true,
        "LevelConfigName": "LevelEntity_PhysicalAddHurt",
        "DescTextMapHash": 3589382330
    },
    {
        "ClientId": 10060,
        "Id": 61,
        "Show": true,
        "LevelConfigName": "Level_Spiral_Abyss_Ball_AttackSpeed_Heal",
        "DescTextMapHash": 2241943954
    },
    {
        "ClientId": 10061,
        "Id": 62,
        "Show": true,
        "LevelConfigName": "Level_Spiral_Abyss_Ball_MoveSpeed_Defenc",
        "DescTextMapHash": 111992362
    },
    {
        "ClientId": 10062,
        "Id": 1000,
        "Show": true,
        "LevelConfigName": "Level_Avatar_DefenseDown",
        "DescTextMapHash": 313298138
    },
    {
        "ClientId": 10063,
        "Id": 1000,
        "Show": true,
        "LevelConfigName": "LevelEntity_ElementBeHurtDamageUp_Electric",
        "DescTextMapHash": 2574956682
    },
    {
        "ClientId": 10064,
        "Id": 1000,
        "Show": true,
        "LevelConfigName": "LevelEntity_ElementAddHurt_Fire",
        "DescTextMapHash": 3841139058
    },
    {
        "ClientId": 10065,
        "Id": 1001,
        "Show": true,
        "LevelConfigName": "Level_Avatar_DefenseDown",
        "DescTextMapHash": 4067299970
    },
    {
        "ClientId": 10066,
        "Id": 1001,
        "Show": true,
        "LevelConfigName": "LevelEntity_ElementBeHurtDamageUp_Fire",
        "DescTextMapHash": 1938435258
    },
    {
        "ClientId": 10067,
        "Id": 1001,
        "Show": true,
        "LevelConfigName": "LevelEntity_ElementAddHurt_Electric",
        "DescTextMapHash": 2981942066
    },
    {
        "ClientId": 10068,
        "Id": 1002,
        "Show": true,
        "LevelConfigName": "Level_Avatar_DefenseDown",
        "DescTextMapHash": 2573579834
    },
    {
        "ClientId": 10069,
        "Id": 1002,
        "Show": true,
        "LevelConfigName": "LevelEntity_ElementBeHurtDamageUp_Ice",
        "DescTextMapHash": 159022466
    },
    {
        "ClientId": 10070,
        "Id": 1002,
        "Show": true,
        "LevelConfigName": "LevelEntity_ElementAddHurt_Wind",
        "DescTextMapHash": 2728380970
    },
    {
        "ClientId": 10071,
        "Id": 1003,
        "Show": true,
        "LevelConfigName": "Level_Avatar_DefenseDown",
        "DescTextMapHash": 3899178122
    },
    {
        "ClientId": 10072,
        "Id": 1003,
        "Show": true,
        "LevelConfigName": "LevelEntity_ElementBeHurtDamageUp_Electric",
        "DescTextMapHash": 1208004866
    },
    {
        "ClientId": 10073,
        "Id": 1003,
        "Show": true,
        "LevelConfigName": "LevelEntity_ElementAddHurt_Ice",
        "DescTextMapHash": 1508642602
    },
    {
        "ClientId": 10074,
        "Id": 1004,
        "Show": true,
        "LevelConfigName": "Level_Avatar_DefenseDown",
        "DescTextMapHash": 2245769674
    },
    {
        "ClientId": 10075,
        "Id": 1004,
        "Show": true,
        "LevelConfigName": "LevelEntity_ElementBeHurtDamageUp_Fire",
        "DescTextMapHash": 1003737266
    },
    {
        "ClientId": 10076,
        "Id": 1004,
        "Show": true,
        "LevelConfigName": "LevelEntity_ElementAddHurt_Water",
        "DescTextMapHash": 162396994
    },
    {
        "ClientId": 10077,
        "Id": 1005,
        "Show": true,
        "LevelConfigName": "Level_Avatar_DefenseDown",
        "DescTextMapHash": 3216507194
    },
    {
        "ClientId": 10078,
        "Id": 1005,
        "Show": true,
        "LevelConfigName": "LevelEntity_ElementBeHurtDamageUp_Electric",
        "DescTextMapHash": 2832961706
    },
    {
        "ClientId": 10079,
        "Id": 1005,
        "Show": true,
        "LevelConfigName": "LevelEntity_ElementAddHurt_Grass",
        "DescTextMapHash": 878705842
    },
    {
        "ClientId": 10080,
        "Id": 1006,
        "Show": true,
        "LevelConfigName": "Level_Avatar_DefenseDown",
        "DescTextMapHash": 3028267906
    },
    {
        "ClientId": 10081,
        "Id": 1006,
        "Show": true,
        "LevelConfigName": "LevelEntity_ElementBeHurtDamageUp_Fire",
        "DescTextMapHash": 1765573322
    },
    {
        "ClientId": 10082,
        "Id": 1006,
        "Show": true,
        "LevelConfigName": "LevelEntity_ElementAddHurt_Rock",
        "DescTextMapHash": 1681004018
    },
    {
        "ClientId": 10083,
        "Id": 1007,
        "Show": true,
        "LevelConfigName": "LevelEntity_ElementBeHurtDamageDown_Electric",
        "DescTextMapHash": 431441130
    },
    {
        "ClientId": 10084,
        "Id": 1007,
        "Show": true,
        "LevelConfigName": "LevelEntity_ElementAddHurt_Fire",
        "DescTextMapHash": 2658411690
    },
    {
        "ClientId": 10085,
        "Id": 1007,
        "Show": true,
        "LevelConfigName": "LevelEntity_MeleeAttackDamageUp",
        "DescTextMapHash": 3530148466
    },
    {
        "ClientId": 10086,
        "Id": 1008,
        "Show": true,
        "LevelConfigName": "LevelEntity_ElementBeHurtDamageDown_Fire",
        "DescTextMapHash": 2635419666
    },
    {
        "ClientId": 10087,
        "Id": 1008,
        "Show": true,
        "LevelConfigName": "LevelEntity_ElementAddHurt_Electric",
        "DescTextMapHash": 2290386394
    },
    {
        "ClientId": 10088,
        "Id": 1008,
        "Show": true,
        "LevelConfigName": "LevelEntity_MeleeAttackDamageUp",
        "DescTextMapHash": 2725887754
    },
    {
        "ClientId": 10089,
        "Id": 1009,
        "Show": true,
        "LevelConfigName": "LevelEntity_ElementBeHurtDamageDown_Ice",
        "DescTextMapHash": 1565370090
    },
    {
        "ClientId": 10090,
        "Id": 1009,
        "Show": true,
        "LevelConfigName": "LevelEntity_ElementAddHurt_Fire",
        "DescTextMapHash": 1342230378
    },
    {
        "ClientId": 10091,
        "Id": 1009,
        "Show": true,
        "LevelConfigName": "LevelEntity_RangeAttackDamageUp",
        "DescTextMapHash": 285595154
    },
    {
        "ClientId": 10092,
        "Id": 1010,
        "Show": true,
        "LevelConfigName": "LevelEntity_Heal_Down",
        "DescTextMapHash": 2452293746
    },
    {
        "ClientId": 10093,
        "Id": 1010,
        "Show": true,
        "LevelConfigName": "LevelEntity_MeleeAttackDamageUp",
        "DescTextMapHash": 695945138
    },
    {
        "ClientId": 10094,
        "Id": 1010,
        "Show": true,
        "LevelConfigName": "LevelEntity_BowAddHurt",
        "DescTextMapHash": 1332027362
    },
    {
        "ClientId": 10095,
        "Id": 1050,
        "Show": true,
        "LevelConfigName": "Level_Spiral_Abyss_Charge",
        "DescTextMapHash": 3257312394
    },
    {
        "ClientId": 10096,
        "Id": 1050,
        "Show": true,
        "LevelConfigName": "LevelEntity_TowerBuff_SprintAreaAttack",
        "DescTextMapHash": 3475418714
    },
    {
        "ClientId": 10097,
        "Id": 1051,
        "Show": true,
        "LevelConfigName": "Level_Spiral_Abyss_SheildUp",
        "DescTextMapHash": 314060434
    },
    {
        "ClientId": 10098,
        "Id": 1051,
        "Show": true,
        "LevelConfigName": "LevelEntity_TowerBuff_HighStaminaAreaAttack",
        "DescTextMapHash": 1374671218
    },
    {
        "ClientId": 10099,
        "Id": 1052,
        "Show": true,
        "LevelConfigName": "Level_Spiral_Abyss_AttackSpeed",
        "DescTextMapHash": 3503708706
    },
    {
        "ClientId": 10100,
        "Id": 1052,
        "Show": true,
        "LevelConfigName": "LevelEntity_TowerBuff_AttackUpAreaAttack",
        "DescTextMapHash": 3816617762
    },
    {
        "ClientId": 10101,
        "Id": 1053,
        "Show": true,
        "LevelConfigName": "Level_Spiral_Abyss_CostReduce",
        "DescTextMapHash": 832247562
    },
    {
        "ClientId": 10102,
        "Id": 1053,
        "Show": true,
        "LevelConfigName": "LevelEntity_TowerBuff_ExtraAreaAttack",
        "DescTextMapHash": 3475694210
    },
    {
        "ClientId": 10103,
        "Id": 1054,
        "Show": true,
        "LevelConfigName": "Level_Spiral_Abyss_AttackSpeed",
        "DescTextMapHash": 3894747690
    },
    {
        "ClientId": 10104,
        "Id": 1054,
        "Show": true,
        "LevelConfigName": "Level_Spiral_Abyss_Ball_MoveSpeed",
        "DescTextMapHash": 179739018
    },
    {
        "ClientId": 10105,
        "Id": 1054,
        "Show": true,
        "LevelConfigName": "LevelEntity_TowerBuff_SprintAreaAttack",
        "DescTextMapHash": 2612942114
    },
    {
        "ClientId": 10106,
        "Id": 1055,
        "Show": true,
        "LevelConfigName": "Level_Spiral_Abyss_CostReduce",
        "DescTextMapHash": 1053407106
    },
    {
        "ClientId": 10107,
        "Id": 1055,
        "Show": true,
        "LevelConfigName": "Level_Spiral_Abyss_Ball_Heal",
        "DescTextMapHash": 3591149498
    },
    {
        "ClientId": 10108,
        "Id": 1055,
        "Show": true,
        "LevelConfigName": "LevelEntity_TowerBuff_HighStaminaAreaAttack",
        "DescTextMapHash": 1874715714
    },
    {
        "ClientId": 10109,
        "Id": 1056,
        "Show": true,
        "LevelConfigName": "Level_Spiral_Abyss_Charge",
        "DescTextMapHash": 2059614322
    },
    {
        "ClientId": 10110,
        "Id": 1056,
        "Show": true,
        "LevelConfigName": "Level_Spiral_Abyss_Ball_AttackSpeed",
        "DescTextMapHash": 105491298
    },
    {
        "ClientId": 10111,
        "Id": 1056,
        "Show": true,
        "LevelConfigName": "LevelEntity_TowerBuff_AttackUpAreaAttack",
        "DescTextMapHash": 3429740770
    },
    {
        "ClientId": 10112,
        "Id": 1057,
        "Show": true,
        "LevelConfigName": "Level_Spiral_Abyss_SheildUp",
        "DescTextMapHash": 4028440834
    },
    {
        "ClientId": 10113,
        "Id": 1057,
        "Show": true,
        "LevelConfigName": "Level_Spiral_Abyss_Ball_Defence",
        "DescTextMapHash": 2444906650
    },
    {
        "ClientId": 10114,
        "Id": 1057,
        "Show": true,
        "LevelConfigName": "LevelEntity_TowerBuff_ExtraAreaAttack",
        "DescTextMapHash": 3569583354
    },
    {
        "ClientId": 10115,
        "Id": 1060,
        "Show": true,
        "LevelConfigName": "LevelEntity_TowerBuff_ElementReactionAttack_Explode",
        "DescTextMapHash": 2571947322
    },
    {
        "ClientId": 10116,
        "Id": 1061,
        "Show": true,
        "LevelConfigName": "LevelEntity_TowerBuff_ElementReactionAttack_Superconductor",
        "DescTextMapHash": 2855024690
    },
    {
        "ClientId": 10117,
        "Id": 1062,
        "Show": true,
        "LevelConfigName": "LevelEntity_TowerBuff_ElementReactionAttack_Melt",
        "DescTextMapHash": 3878238466
    },
    {
        "ClientId": 10118,
        "Id": 1063,
        "Show": true,
        "LevelConfigName": "LevelEntity_TowerBuff_ElementReactionAttack_Stream",
        "DescTextMapHash": 4124797314
    },
    {
        "ClientId": 10119,
        "Id": 1064,
        "Show": true,
        "LevelConfigName": "LevelEntity_TowerBuff_ElementReactionAttack_Shock",
        "DescTextMapHash": 1354856090
    },
    {
        "ClientId": 10120,
        "Id": 1065,
        "Show": true,
        "LevelConfigName": "LevelEntity_TowerBuff_ElementReactionHurt_Explode",
        "DescTextMapHash": 164079170
    },
    {
        "ClientId": 10121,
        "Id": 1066,
        "Show": true,
        "LevelConfigName": "LevelEntity_TowerBuff_ElementReactionHurt_Superconductor",
        "DescTextMapHash": 1636659242
    },
    {
        "ClientId": 10122,
        "Id": 1067,
        "Show": true,
        "LevelConfigName": "LevelEntity_TowerBuff_ElementReactionHurt_Melt",
        "DescTextMapHash": 4293122490
    },
    {
        "ClientId": 10123,
        "Id": 1068,
        "Show": true,
        "LevelConfigName": "LevelEntity_TowerBuff_ElementReactionHurt_Stream",
        "DescTextMapHash": 555461666
    },
    {
        "ClientId": 10124,
        "Id": 1069,
        "Show": true,
        "LevelConfigName": "LevelEntity_TowerBuff_ElementReactionHurt_Shock",
        "DescTextMapHash": 291401802
    },
    {
        "ClientId": 10125,
        "Id": 1070,
        "Show": true,
        "LevelConfigName": "LevelEntity_TowerBuff_ElementReactionAttack_Melt",
        "DescTextMapHash": 1107441178
    },
    {
        "ClientId": 10126,
        "Id": 1070,
        "Show": true,
        "LevelConfigName": "LevelEntity_TowerBuff_ElementReactionHurt_Superconductor",
        "DescTextMapHash": 2449746522
    },
    {
        "ClientId": 10127,
        "Id": 1070,
        "Show": true,
        "LevelConfigName": "LevelEntity_TowerBuff_ElementReactionHurt_Stream",
        "DescTextMapHash": 2270908410
    },
    {
        "ClientId": 10128,
        "Id": 1071,
        "Show": true,
        "LevelConfigName": "LevelEntity_TowerBuff_ElementReactionAttack_Explode",
        "DescTextMapHash": 3383841962
    },
    {
        "ClientId": 10129,
        "Id": 1071,
        "Show": true,
        "LevelConfigName": "LevelEntity_TowerBuff_ElementReactionHurt_Melt",
        "DescTextMapHash": 2395299498
    },
    {
        "ClientId": 10130,
        "Id": 1071,
        "Show": true,
        "LevelConfigName": "LevelEntity_TowerBuff_ElementReactionHurt_Stream",
        "DescTextMapHash": 4056979274
    },
    {
        "ClientId": 10131,
        "Id": 1100,
        "Show": true,
        "LevelConfigName": "LevelEntity_TowerBuff_ElementReactionAttack_Explode",
        "DescTextMapHash": 2662671394
    },
    {
        "ClientId": 10132,
        "Id": 1101,
        "Show": true,
        "LevelConfigName": "LevelEntity_TowerBuff_ElementReactionAttack_Melt",
        "DescTextMapHash": 1015758474
    },
    {
        "ClientId": 10133,
        "Id": 1102,
        "Show": true,
        "LevelConfigName": "LevelEntity_TowerBuff_ElementReactionAttack_Explode",
        "DescTextMapHash": 800231858
    },
    {
        "ClientId": 10134,
        "Id": 1102,
        "Show": true,
        "LevelConfigName": "LevelEntity_TowerBuff_ElementReactionHurt_Superconductor",
        "DescTextMapHash": 1167520402
    },
    {
        "ClientId": 10135,
        "Id": 1103,
        "Show": true,
        "LevelConfigName": "LevelEntity_TowerBuff_ElementReactionAttack_Melt",
        "DescTextMapHash": 4147304714
    },
    {
        "ClientId": 10136,
        "Id": 1103,
        "Show": true,
        "LevelConfigName": "LevelEntity_TowerBuff_ElementReactionHurt_Superconductor",
        "DescTextMapHash": 2640963306
    },
    {
        "ClientId": 10137,
        "Id": 1104,
        "Show": true,
        "LevelConfigName": "LevelEntity_TowerBuff_ElementReactionAttack_Stream",
        "DescTextMapHash": 1405883634
    },
    {
        "ClientId": 10138,
        "Id": 1104,
        "Show": true,
        "LevelConfigName": "LevelEntity_TowerBuff_ElementReactionHurt_Shock",
        "DescTextMapHash": 2345998442
    },
    {
        "ClientId": 10139,
        "Id": 1105,
        "Show": true,
        "LevelConfigName": "LevelEntity_TowerBuff_ElementReactionAttack_Melt",
        "DescTextMapHash": 935129274
    },
    {
        "ClientId": 10140,
        "Id": 1105,
        "Show": true,
        "LevelConfigName": "LevelEntity_TowerBuff_ElementReactionHurt_Superconductor",
        "DescTextMapHash": 991294394
    },
    {
        "ClientId": 10141,
        "Id": 1106,
        "Show": true,
        "LevelConfigName": "LevelEntity_TowerBuff_ElementReactionAttack_Explode",
        "DescTextMapHash": 2609563922
    },
    {
        "ClientId": 10142,
        "Id": 1106,
        "Show": true,
        "LevelConfigName": "LevelEntity_TowerBuff_ElementReactionHurt_Superconductor",
        "DescTextMapHash": 1450993594
    },
    {
        "ClientId": 10143,
        "Id": 1107,
        "Show": true,
        "LevelConfigName": "LevelEntity_ElementAddHurt_Fire",
        "DescTextMapHash": 2604484714
    },
    {
        "ClientId": 10144,
        "Id": 1108,
        "Show": true,
        "LevelConfigName": "LevelEntity_PhysicalAddHurt",
        "DescTextMapHash": 1004901490
    },
    {
        "ClientId": 10145,
        "Id": 1109,
        "Show": true,
        "LevelConfigName": "LevelEntity_PhysicalAddHurt",
        "DescTextMapHash": 43431906
    },
    {
        "ClientId": 10146,
        "Id": 1110,
        "Show": true,
        "LevelConfigName": "LevelEntity_PhysicalAddHurt",
        "DescTextMapHash": 4002078290
    },
    {
        "ClientId": 10147,
        "Id": 1111,
        "Show": true,
        "LevelConfigName": "LevelEntity_PhysicalAddHurt",
        "DescTextMapHash": 2771248346
    },
    {
        "ClientId": 10148,
        "Id": 1112,
        "Show": true,
        "LevelConfigName": "LevelEntity_PhysicalAddHurt",
        "DescTextMapHash": 1026467626
    },
    {
        "ClientId": 10149,
        "Id": 1113,
        "Show": true,
        "LevelConfigName": "LevelEntity_PhysicalAddHurt",
        "DescTextMapHash": 3740324946
    },
    {
        "ClientId": 10150,
        "Id": 1114,
        "Show": true,
        "LevelConfigName": "Level_Electric_Test",
        "DescTextMapHash": 2886430042
    },
    {
        "ClientId": 10151,
        "Id": 1115,
        "Show": true,
        "LevelConfigName": "LevelEntity_TowerBuff_ElementReactionAttack_Explode",
        "DescTextMapHash": 1518088634
    },
    {
        "ClientId": 10152,
        "Id": 1116,
        "Show": true,
        "LevelConfigName": "LevelEntity_TowerBuff_ElementReactionAttack_Superconductor",
        "DescTextMapHash": 3655999154
    },
    {
        "ClientId": 10153,
        "Id": 1117,
        "Show": true,
        "LevelConfigName": "Level_Electric_Test",
        "DescTextMapHash": 3262904722
    },
    {
        "ClientId": 10154,
        "Id": 1118,
        "Show": true,
        "LevelConfigName": "LevelEntity_TowerBuff_ElementReactionAttack_Explode",
        "DescTextMapHash": 614896858
    },
    {
        "ClientId": 10155,
        "Id": 1118,
        "Show": true,
        "LevelConfigName": "LevelEntity_TowerBuff_ElementReactionHurt_Melt",
        "DescTextMapHash": 3198012202
    },
    {
        "ClientId": 10156,
        "Id": 1118,
        "Show": true,
        "LevelConfigName": "LevelEntity_TowerBuff_ElementReactionHurt_Stream",
        "DescTextMapHash": 1498136602
    },
    {
        "ClientId": 10157,
        "Id": 1119,
        "Show": true,
        "LevelConfigName": "LevelEntity_TowerBuff_ElementReactionAttack_Superconductor",
        "DescTextMapHash": 3497848066
    },
    {
        "ClientId": 10158,
        "Id": 1119,
        "Show": true,
        "LevelConfigName": "LevelEntity_TowerBuff_ElementReactionHurt_Melt",
        "DescTextMapHash": 3462265546
    },
    {
        "ClientId": 10159,
        "Id": 1119,
        "Show": true,
        "LevelConfigName": "LevelEntity_TowerBuff_ElementReactionHurt_Stream",
        "DescTextMapHash": 1215912466
    },
    {
        "ClientId": 10160,
        "Id": 1120,
        "Show": true,
        "LevelConfigName": "LevelEntity_ElementAddHurt_Electric",
        "DescTextMapHash": 3003233706
    },
    {
        "ClientId": 10161,
        "Id": 1121,
        "Show": true,
        "LevelConfigName": "Level_Freeze_Test",
        "DescTextMapHash": 1058931314
    },
    {
        "ClientId": 10162,
        "Id": 1121,
        "Show": true,
        "LevelConfigName": "LevelEntity_TowerBuff_ElementReactionAttack_Superconductor",
        "DescTextMapHash": 3195210154
    },
    {
        "ClientId": 10163,
        "Id": 1122,
        "Show": true,
        "LevelConfigName": "LevelEntity_TowerBuff_ElementReactionAttack_Melt",
        "DescTextMapHash": 1223682442
    },
    {
        "ClientId": 10164,
        "Id": 1122,
        "Show": true,
        "LevelConfigName": "LevelEntity_TowerBuff_ElementReactionHurt_Explode",
        "DescTextMapHash": 2581676866
    },
    {
        "ClientId": 10165,
        "Id": 1123,
        "Show": true,
        "LevelConfigName": "LevelEntity_TowerBuff_ElementReactionAttack_Superconductor",
        "DescTextMapHash": 2393611578
    },
    {
        "ClientId": 10166,
        "Id": 1123,
        "Show": true,
        "LevelConfigName": "LevelEntity_TowerBuff_ElementReactionHurt_Explode",
        "DescTextMapHash": 690746482
    },
    {
        "ClientId": 10167,
        "Id": 1124,
        "Show": true,
        "LevelConfigName": "LevelEntity_TowerBuff_ElementReactionAttack_Melt",
        "DescTextMapHash": 1232894650
    },
    {
        "ClientId": 10168,
        "Id": 1124,
        "Show": true,
        "LevelConfigName": "LevelEntity_TowerBuff_ElementReactionHurt_Explode",
        "DescTextMapHash": 2746461074
    },
    {
        "ClientId": 10169,
        "Id": 1125,
        "Show": true,
        "LevelConfigName": "Level_Melt_Test",
        "DescTextMapHash": 1720410066
    },
    {
        "ClientId": 10170,
        "Id": 1126,
        "Show": true,
        "LevelConfigName": "LevelEntity_ElementAddHurt_Rock",
        "DescTextMapHash": 2453463594
    },
    {
        "ClientId": 10171,
        "Id": 1127,
        "Show": true,
        "LevelConfigName": "LevelEntity_ElementAddHurt_Rock",
        "DescTextMapHash": 1453373442
    },
    {
        "ClientId": 10172,
        "Id": 1128,
        "Show": true,
        "LevelConfigName": "LevelEntity_ElementAddHurt_Rock",
        "DescTextMapHash": 2452733498
    },
    {
        "ClientId": 10173,
        "Id": 1129,
        "Show": true,
        "LevelConfigName": "LevelEntity_PhysicalAddHurt",
        "DescTextMapHash": 227767066
    },
    {
        "ClientId": 10174,
        "Id": 1129,
        "Show": true,
        "LevelConfigName": "LevelEntity_Avatar_CriticalUp",
        "DescTextMapHash": 1726500442
    },
    {
        "ClientId": 10175,
        "Id": 1130,
        "LevelConfigName": "LevelEntity_Monster_HpUp",
        "DescTextMapHash": 1975271354
    },
    {
        "ClientId": 10176,
        "Id": 1131,
        "LevelConfigName": "LevelEntity_Monster_HpUp",
        "DescTextMapHash": 3101582170
    },
    {
        "ClientId": 10177,
        "Id": 1131,
        "LevelConfigName": "LevelEntity_Monster_AttackUp",
        "DescTextMapHash": 2243525538
    },
    {
        "ClientId": 10178,
        "Id": 1132,
        "LevelConfigName": "LevelEntity_Monster_HpUp",
        "DescTextMapHash": 2619732106
    },
    {
        "ClientId": 10179,
        "Id": 1133,
        "LevelConfigName": "LevelEntity_Monster_AttackUp",
        "DescTextMapHash": 3139625826
    },
    {
        "ClientId": 10180,
        "Id": 1134,
        "LevelConfigName": "LevelEntity_Monster_AttackUp",
        "DescTextMapHash": 3551814986
    },
    {
        "ClientId": 10181,
        "Id": 1135,
        "LevelConfigName": "LevelEntity_Monster_HpUp",
        "DescTextMapHash": 3154081794
    },
    {
        "ClientId": 10182,
        "Id": 1135,
        "LevelConfigName": "LevelEntity_Monster_AttackUp",
        "DescTextMapHash": 1953360890
    },
    {
        "ClientId": 10183,
        "Id": 1136,
        "LevelConfigName": "LevelEntity_Monster_HpUp",
        "DescTextMapHash": 3312564242
    },
    {
        "ClientId": 10184,
        "Id": 1137,
        "LevelConfigName": "LevelEntity_Monster_HpUp",
        "DescTextMapHash": 293165154
    },
    {
        "ClientId": 10185,
        "Id": 1137,
        "LevelConfigName": "LevelEntity_Monster_AttackUp",
        "DescTextMapHash": 2820874170
    },
    {
        "ClientId": 10186,
        "Id": 1138,
        "LevelConfigName": "LevelEntity_Monster_HpUp",
        "DescTextMapHash": 656061794
    },
    {
        "ClientId": 10187,
        "Id": 1139,
        "LevelConfigName": "LevelEntity_Monster_HpUp",
        "DescTextMapHash": 971958506
    },
    {
        "ClientId": 10188,
        "Id": 1139,
        "LevelConfigName": "LevelEntity_Monster_AttackUp",
        "DescTextMapHash": 3151371634
    },
    {
        "ClientId": 10189,
        "Id": 1150,
        "Show": true,
        "LevelConfigName": "LevelEntity_ElementAddHurt_Fire",
        "DescTextMapHash": 1690927338
    },
    {
        "ClientId": 10190,
        "Id": 1150,
        "Show": true,
        "LevelConfigName": "Level_Explode_Test",
        "DescTextMapHash": 3133787834
    },
    {
        "ClientId": 10191,
        "Id": 1150,
        "LevelConfigName": "LevelEntity_Monster_HpUp_Lv1",
        "DescTextMapHash": 82603434
    },
    {
        "ClientId": 10192,
        "Id": 1151,
        "Show": true,
        "LevelConfigName": "LevelEntity_ElementAddHurt_Ice",
        "DescTextMapHash": 4065652722
    },
    {
        "ClientId": 10193,
        "Id": 1151,
        "Show": true,
        "LevelConfigName": "Level_Freeze_Test",
        "DescTextMapHash": 4253180066
    },
    {
        "ClientId": 10194,
        "Id": 1151,
        "LevelConfigName": "LevelEntity_Monster_HpUp_Lv2",
        "DescTextMapHash": 806823714
    },
    {
        "ClientId": 10195,
        "Id": 1152,
        "Show": true,
        "LevelConfigName": "LevelEntity_ElementAddHurt_Electric",
        "DescTextMapHash": 3556034098
    },
    {
        "ClientId": 10196,
        "Id": 1152,
        "Show": true,
        "LevelConfigName": "Level_Electric_Test",
        "DescTextMapHash": 1990364058
    },
    {
        "ClientId": 10197,
        "Id": 1152,
        "LevelConfigName": "LevelEntity_Monster_HpUp_Lv1",
        "DescTextMapHash": 3346517434
    },
    {
        "ClientId": 10198,
        "Id": 1153,
        "Show": true,
        "LevelConfigName": "LevelEntity_ElementAddHurt_Fire",
        "DescTextMapHash": 1671088698
    },
    {
        "ClientId": 10199,
        "Id": 1153,
        "Show": true,
        "LevelConfigName": "LevelEntity_ElementAddHurt_Ice",
        "DescTextMapHash": 3622592762
    },
    {
        "ClientId": 10200,
        "Id": 1153,
        "Show": true,
        "LevelConfigName": "Level_Melt_Test",
        "DescTextMapHash": 1070824778
    },
    {
        "ClientId": 10201,
        "Id": 1153,
        "LevelConfigName": "LevelEntity_Monster_HpUp_Lv1",
        "DescTextMapHash": 2844728426
    },
    {
        "ClientId": 10202,
        "Id": 1154,
        "Show": true,
        "LevelConfigName": "LevelEntity_ElementAddHurt_Fire",
        "DescTextMapHash": 2220947274
    },
    {
        "ClientId": 10203,
        "Id": 1154,
        "Show": true,
        "LevelConfigName": "LevelEntity_ElementAddHurt_Electric",
        "DescTextMapHash": 4207839586
    },
    {
        "ClientId": 10204,
        "Id": 1154,
        "Show": true,
        "LevelConfigName": "Level_Explode_Test",
        "DescTextMapHash": 484213202
    },
    {
        "ClientId": 10205,
        "Id": 1154,
        "LevelConfigName": "LevelEntity_Monster_HpUp_Lv2",
        "DescTextMapHash": 1753040570
    },
    {
        "ClientId": 10206,
        "Id": 1140,
        "Show": true,
        "LevelConfigName": "Level_Swril_Test",
        "DescTextMapHash": 2566076098
    },
    {
        "ClientId": 10207,
        "Id": 1140,
        "Show": true,
        "LevelConfigName": "LevelEntity_ElementAddHurt_Wind",
        "DescTextMapHash": 1727678882
    },
    {
        "ClientId": 10208,
        "Id": 1140,
        "LevelConfigName": "LevelEntity_Monster_HpUp_Lv2",
        "DescTextMapHash": 1609757122
    },
    {
        "ClientId": 10209,
        "Id": 1141,
        "Show": true,
        "LevelConfigName": "LevelEntity_ElementAddHurt_Electric",
        "DescTextMapHash": 26702082
    },
    {
        "ClientId": 10210,
        "Id": 1141,
        "Show": true,
        "LevelConfigName": "Level_Electric_Test",
        "DescTextMapHash": 1916801482
    },
    {
        "ClientId": 10211,
        "Id": 1141,
        "LevelConfigName": "LevelEntity_Monster_HpUp_Lv3",
        "DescTextMapHash": 3834234618
    },
    {
        "ClientId": 10212,
        "Id": 1142,
        "Show": true,
        "LevelConfigName": "LevelEntity_ElementAddHurt_Rock",
        "DescTextMapHash": 279529802
    },
    {
        "ClientId": 10213,
        "Id": 1142,
        "Show": true,
        "LevelConfigName": "Level_Freeze_Test",
        "DescTextMapHash": 3795754930
    },
    {
        "ClientId": 10214,
        "Id": 1142,
        "Show": true,
        "LevelConfigName": "LevelEntity_ClaymoreAddHurt",
        "DescTextMapHash": 1364065922
    },
    {
        "ClientId": 10215,
        "Id": 1142,
        "LevelConfigName": "LevelEntity_Monster_HpUp_Lv5",
        "DescTextMapHash": 2262209402
    },
    {
        "ClientId": 10216,
        "Id": 1143,
        "Show": true,
        "LevelConfigName": "LevelEntity_ElementAddHurt_Water",
        "DescTextMapHash": 3572258818
    },
    {
        "ClientId": 10217,
        "Id": 1143,
        "Show": true,
        "LevelConfigName": "LevelEntity_ElementAddHurt_Fire",
        "DescTextMapHash": 2928137002
    },
    {
        "ClientId": 10218,
        "Id": 1143,
        "Show": true,
        "LevelConfigName": "Level_Stream_Test",
        "DescTextMapHash": 372354778
    },
    {
        "ClientId": 10219,
        "Id": 1143,
        "LevelConfigName": "LevelEntity_Monster_HpUp_Lv2",
        "DescTextMapHash": 3799529874
    },
    {
        "ClientId": 10220,
        "Id": 1144,
        "Show": true,
        "LevelConfigName": "LevelEntity_ElementAddHurt_Electric",
        "DescTextMapHash": 1382236122
    },
    {
        "ClientId": 10221,
        "Id": 1144,
        "Show": true,
        "LevelConfigName": "LevelEntity_ElementAddHurt_Ice",
        "DescTextMapHash": 1212502994
    },
    {
        "ClientId": 10222,
        "Id": 1144,
        "Show": true,
        "LevelConfigName": "Level_Superconductor_Test",
        "DescTextMapHash": 3902967722
    },
    {
        "ClientId": 10223,
        "Id": 1144,
        "LevelConfigName": "LevelEntity_Monster_HpUp_Lv3",
        "DescTextMapHash": 3703378314
    },
    {
        "ClientId": 10224,
        "Id": 1155,
        "Show": true,
        "LevelConfigName": "LevelEntity_Avatar_CriticalHurtUp",
        "DescTextMapHash": 294644906
    },
    {
        "ClientId": 10225,
        "Id": 1155,
        "LevelConfigName": "LevelEntity_Monster_HpUp_Lv4",
        "DescTextMapHash": 4131141562
    },
    {
        "ClientId": 10226,
        "Id": 1156,
        "Show": true,
        "LevelConfigName": "LevelEntity_PhysicalAddHurt",
        "DescTextMapHash": 467595474
    },
    {
        "ClientId": 10227,
        "Id": 1156,
        "LevelConfigName": "LevelEntity_Monster_HpUp_Lv3",
        "DescTextMapHash": 1981886906
    },
    {
        "ClientId": 10228,
        "Id": 1157,
        "Show": true,
        "LevelConfigName": "Level_Spiral_Abyss_Charge_Empty",
        "DescTextMapHash": 1278779578
    },
    {
        "ClientId": 10229,
        "Id": 1157,
        "LevelConfigName": "LevelEntity_Monster_HpUp_Lv3",
        "DescTextMapHash": 3098764138
    },
    {
        "ClientId": 10230,
        "Id": 1157,
        "Show": true,
        "LevelConfigName": "LevelEntity_TowerBuff_HealUp",
        "DescTextMapHash": 1062424210
    },
    {
        "ClientId": 10231,
        "Id": 1158,
        "Show": true,
        "LevelConfigName": "Level_Spiral_Abyss_Charge_Empty",
        "DescTextMapHash": 1888307370
    },
    {
        "ClientId": 10232,
        "Id": 1158,
        "LevelConfigName": "LevelEntity_Monster_HpUp_Lv5",
        "DescTextMapHash": 3546088826
    },
    {
        "ClientId": 10233,
        "Id": 1158,
        "Show": true,
        "LevelConfigName": "LevelEntity_TowerBuff_TowerBuff_CriticalDropElementBall",
        "DescTextMapHash": 675115306
    },
    {
        "ClientId": 10234,
        "Id": 1159,
        "Show": true,
        "LevelConfigName": "Level_Spiral_Abyss_Charge_Empty",
        "DescTextMapHash": 4064836234
    },
    {
        "ClientId": 10235,
        "Id": 1159,
        "Show": true,
        "LevelConfigName": "LevelEntity_ElementAddHurt_Fire",
        "DescTextMapHash": 927466538
    },
    {
        "ClientId": 10236,
        "Id": 1159,
        "LevelConfigName": "LevelEntity_Monster_HpUp_Lv4",
        "DescTextMapHash": 1110897562
    },
    {
        "ClientId": 10237,
        "Id": 1160,
        "Show": true,
        "LevelConfigName": "Level_Spiral_Abyss_Charge_Empty",
        "DescTextMapHash": 2621093042
    },
    {
        "ClientId": 10238,
        "Id": 1160,
        "Show": true,
        "LevelConfigName": "Level_Stream_Test",
        "DescTextMapHash": 2558591162
    },
    {
        "ClientId": 10239,
        "Id": 1160,
        "LevelConfigName": "LevelEntity_Monster_HpUp_Lv5",
        "DescTextMapHash": 2118095530
    },
    {
        "ClientId": 10240,
        "Id": 1161,
        "Show": true,
        "LevelConfigName": "LevelEntity_TowerBuff_AtkDefUpHighHP",
        "DescTextMapHash": 2932374578
    },
    {
        "ClientId": 10241,
        "Id": 1161,
        "LevelConfigName": "LevelEntity_Monster_HpUp_Lv3",
        "DescTextMapHash": 2099495794
    },
    {
        "ClientId": 10242,
        "Id": 1162,
        "Show": true,
        "LevelConfigName": "LevelEntity_PhysicalAddHurt",
        "DescTextMapHash": 1115216922
    },
    {
        "ClientId": 10243,
        "Id": 1162,
        "Show": true,
        "LevelConfigName": "LevelEntity_Monster_ElementBeHurtDamageDown_All",
        "DescTextMapHash": 1952890626
    },
    {
        "ClientId": 10244,
        "Id": 1162,
        "LevelConfigName": "LevelEntity_Monster_HpUp_Lv4",
        "DescTextMapHash": 318664578
    },
    {
        "ClientId": 10245,
        "Id": 1163,
        "Show": true,
        "LevelConfigName": "LevelEntity_TowerBuff_TowerBuff_CriticalDropElementBall",
        "DescTextMapHash": 1192521962
    },
    {
        "ClientId": 10246,
        "Id": 1163,
        "LevelConfigName": "LevelEntity_Monster_HpUp_Lv5",
        "DescTextMapHash": 577378826
    },
    {
        "ClientId": 10247,
        "Id": 1164,
        "Show": true,
        "LevelConfigName": "LevelEntity_TowerBuff_ChargeEfficiency",
        "DescTextMapHash": 597372458
    },
    {
        "ClientId": 10248,
        "Id": 1164,
        "LevelConfigName": "LevelEntity_Monster_HpUp_Lv5",
        "DescTextMapHash": 2281676746
    },
    {
        "ClientId": 10249,
        "Id": 1165,
        "Show": true,
        "LevelConfigName": "LevelEntity_TowerBuff_UltimateSkillAllBuff",
        "DescTextMapHash": 2464183306
    },
    {
        "ClientId": 10250,
        "Id": 1165,
        "LevelConfigName": "LevelEntity_Monster_HpUp_Lv5",
        "DescTextMapHash": 99628242
    },
    {
        "ClientId": 10251,
        "Id": 1166,
        "Show": true,
        "LevelConfigName": "LevelEntity_TowerBuff_AtkDefUpLowHP",
        "DescTextMapHash": 3182393114
    },
    {
        "ClientId": 10252,
        "Id": 1166,
        "LevelConfigName": "LevelEntity_Monster_HpUp_Lv5",
        "DescTextMapHash": 1522564058
    },
    {
        "ClientId": 10253,
        "Id": 1167,
        "Show": true,
        "LevelConfigName": "LevelEntity_TowerBuff_ChargeEfficiency",
        "DescTextMapHash": 911761730
    },
    {
        "ClientId": 10254,
        "Id": 1200,
        "Show": true,
        "LevelConfigName": "LevelEntity_ElementAddHurt_Fire",
        "DescTextMapHash": 3508493090
    },
    {
        "ClientId": 10255,
        "Id": 1200,
        "Show": true,
        "LevelConfigName": "Level_Explode_Test",
        "DescTextMapHash": 3671455578
    },
    {
        "ClientId": 10256,
        "Id": 1201,
        "Show": true,
        "LevelConfigName": "LevelEntity_ElementAddHurt_Ice",
        "DescTextMapHash": 1835520338
    },
    {
        "ClientId": 10257,
        "Id": 1201,
        "Show": true,
        "LevelConfigName": "Level_Freeze_Test",
        "DescTextMapHash": 788007594
    },
    {
        "ClientId": 10258,
        "Id": 1202,
        "Show": true,
        "LevelConfigName": "Level_Swril_Test",
        "DescTextMapHash": 2316069210
    },
    {
        "ClientId": 10259,
        "Id": 1202,
        "Show": true,
        "LevelConfigName": "LevelEntity_ElementAddHurt_Wind",
        "DescTextMapHash": 76632138
    },
    {
        "ClientId": 10260,
        "Id": 1202,
        "LevelConfigName": "LevelEntity_Monster_HpUp_Lv2",
        "DescTextMapHash": 3075480170
    },
    {
        "ClientId": 10261,
        "Id": 1203,
        "Show": true,
        "LevelConfigName": "LevelEntity_ElementAddHurt_Electric",
        "DescTextMapHash": 3055873738
    },
    {
        "ClientId": 10262,
        "Id": 1203,
        "Show": true,
        "LevelConfigName": "Level_Electric_Test",
        "DescTextMapHash": 3754469754
    },
    {
        "ClientId": 10263,
        "Id": 1203,
        "LevelConfigName": "LevelEntity_Monster_HpUp_Lv2",
        "DescTextMapHash": 3097333978
    },
    {
        "ClientId": 10264,
        "Id": 1204,
        "Show": true,
        "LevelConfigName": "LevelEntity_TowerBuff_AtkDefUpHighHP",
        "DescTextMapHash": 3567075034
    },
    {
        "ClientId": 10265,
        "Id": 1204,
        "LevelConfigName": "LevelEntity_Monster_HpUp_Lv2",
        "DescTextMapHash": 3622277442
    },
    {
        "ClientId": 10266,
        "Id": 1205,
        "Show": true,
        "LevelConfigName": "LevelEntity_TowerBuff_ChargeEfficiency",
        "DescTextMapHash": 518037170
    },
    {
        "ClientId": 10267,
        "Id": 1205,
        "Show": true,
        "LevelConfigName": "LevelEntity_TowerBuff_UltimateSkillAllBuff",
        "DescTextMapHash": 1131631770
    },
    {
        "ClientId": 10268,
        "Id": 1205,
        "LevelConfigName": "LevelEntity_Monster_HpUp_Lv2",
        "DescTextMapHash": 1112585642
    },
    {
        "ClientId": 10269,
        "Id": 1206,
        "Show": true,
        "LevelConfigName": "LevelEntity_TowerBuff_TowerBuff_CriticalDropElementBall",
        "DescTextMapHash": 1308424554
    },
    {
        "ClientId": 10270,
        "Id": 1206,
        "Show": true,
        "LevelConfigName": "LevelEntity_Avatar_CriticalHurtUp",
        "DescTextMapHash": 412647506
    },
    {
        "ClientId": 10271,
        "Id": 1206,
        "LevelConfigName": "LevelEntity_Monster_HpUp_Lv3",
        "DescTextMapHash": 235006458
    },
    {
        "ClientId": 10272,
        "Id": 1207,
        "Show": true,
        "LevelConfigName": "LevelEntity_TowerBuff_AtkDefUpLowHP",
        "DescTextMapHash": 944979874
    },
    {
        "ClientId": 10273,
        "Id": 1207,
        "LevelConfigName": "LevelEntity_Monster_HpUp_Lv5",
        "DescTextMapHash": 2775902610
    },
    {
        "ClientId": 10274,
        "Id": 1208,
        "Show": true,
        "LevelConfigName": "LevelEntity_TowerBuff_AtkSpeedLowHP",
        "DescTextMapHash": 1711662402
    },
    {
        "ClientId": 10275,
        "Id": 1209,
        "Show": true,
        "LevelConfigName": "LevelEntity_TowerBuff_AtkSpeedHighHP",
        "DescTextMapHash": 3905463922
    },
    {
        "ClientId": 10276,
        "Id": 1210,
        "Show": true,
        "LevelConfigName": "LevelEntity_TowerBuff_MoveSpeedLowHP",
        "DescTextMapHash": 3044417802
    },
    {
        "ClientId": 10277,
        "Id": 1211,
        "Show": true,
        "LevelConfigName": "LevelEntity_TowerBuff_MoveSpeedHighHP",
        "DescTextMapHash": 575147770
    },
    {
        "ClientId": 10278,
        "Id": 1212,
        "Show": true,
        "LevelConfigName": "LevelEntity_TowerBuff_CriticalUpLowHP",
        "DescTextMapHash": 3845950114
    },
    {
        "ClientId": 10279,
        "Id": 1213,
        "Show": true,
        "LevelConfigName": "LevelEntity_TowerBuff_CriticalUpHighHP",
        "DescTextMapHash": 58734794
    },
    {
        "ClientId": 10280,
        "Id": 1214,
        "Show": true,
        "LevelConfigName": "LevelEntity_TowerBuff_AtkDefUpAfterULT",
        "DescTextMapHash": 2666972506
    },
    {
        "ClientId": 10281,
        "Id": 1215,
        "Show": true,
        "LevelConfigName": "LevelEntity_TowerBuff_AtkDefUpAfterULT",
        "DescTextMapHash": 16603986
    },
    {
        "ClientId": 10282,
        "Id": 1215,
        "LevelConfigName": "LevelEntity_Monster_HpUp_Lv2",
        "DescTextMapHash": 1653816290
    },
    {
        "ClientId": 10283,
        "Id": 1216,
        "Show": true,
        "LevelConfigName": "LevelEntity_TowerBuff_MoveSpeedHighHP",
        "DescTextMapHash": 164464626
    },
    {
        "ClientId": 10284,
        "Id": 1216,
        "Show": true,
        "LevelConfigName": "LevelEntity_TowerBuff_AtkSpeedLowHP",
        "DescTextMapHash": 1901514874
    },
    {
        "ClientId": 10285,
        "Id": 1216,
        "Show": true,
        "LevelConfigName": "LevelEntity_TowerBuff_CriticalUpLowHP",
        "DescTextMapHash": 3470340634
    },
    {
        "ClientId": 10286,
        "Id": 1216,
        "LevelConfigName": "LevelEntity_Monster_HpUp_Lv3",
        "DescTextMapHash": 3755675570
    },
    {
        "ClientId": 10287,
        "Id": 1217,
        "Show": true,
        "LevelConfigName": "LevelEntity_TowerBuff_AtkDefUpHighHP",
        "DescTextMapHash": 4170510546
    },
    {
        "ClientId": 10288,
        "Id": 1217,
        "Show": true,
        "LevelConfigName": "LevelEntity_TowerBuff_AtkSpeedHighHP",
        "DescTextMapHash": 3644277890
    },
    {
        "ClientId": 10289,
        "Id": 1217,
        "Show": true,
        "LevelConfigName": "LevelEntity_TowerBuff_MoveSpeedHighHP",
        "DescTextMapHash": 288182610
    },
    {
        "ClientId": 10290,
        "Id": 1217,
        "Show": true,
        "LevelConfigName": "LevelEntity_TowerBuff_CriticalUpHighHP",
        "DescTextMapHash": 1552040202
    },
    {
        "ClientId": 10291,
        "Id": 1217,
        "LevelConfigName": "LevelEntity_Monster_HpUp_Lv2",
        "DescTextMapHash": 596216162
    },
    {
        "ClientId": 10292,
        "Id": 1218,
        "Show": true,
        "LevelConfigName": "LevelEntity_TowerBuff_AtkDefUpLowHP",
        "DescTextMapHash": 1392977530
    },
    {
        "ClientId": 10293,
        "Id": 1218,
        "Show": true,
        "LevelConfigName": "LevelEntity_TowerBuff_AtkSpeedLowHP",
        "DescTextMapHash": 2125560282
    },
    {
        "ClientId": 10294,
        "Id": 1218,
        "Show": true,
        "LevelConfigName": "LevelEntity_TowerBuff_MoveSpeedLowHP",
        "DescTextMapHash": 1060571170
    },
    {
        "ClientId": 10295,
        "Id": 1218,
        "Show": true,
        "LevelConfigName": "LevelEntity_TowerBuff_CriticalUpLowHP",
        "DescTextMapHash": 3029566458
    },
    {
        "ClientId": 10296,
        "Id": 1218,
        "LevelConfigName": "LevelEntity_Monster_HpUp_Lv5",
        "DescTextMapHash": 3701229970
    },
    {
        "ClientId": 10297,
        "Id": 1219,
        "Show": true,
        "LevelConfigName": "LevelEntity_ElementAddHurt_Fire",
        "DescTextMapHash": 3851638770
    },
    {
        "ClientId": 10298,
        "Id": 1219,
        "Show": true,
        "LevelConfigName": "LevelEntity_ElementAddHurt_Electric",
        "DescTextMapHash": 3952719866
    },
    {
        "ClientId": 10299,
        "Id": 1219,
        "Show": true,
        "LevelConfigName": "Level_Explode_Test",
        "DescTextMapHash": 1119987418
    },
    {
        "ClientId": 10300,
        "Id": 1219,
        "LevelConfigName": "LevelEntity_Monster_HpUp_Lv3",
        "DescTextMapHash": 495356306
    },
    {
        "ClientId": 10301,
        "Id": 1220,
        "Show": true,
        "LevelConfigName": "Level_Spiral_Abyss_Charge_Empty",
        "DescTextMapHash": 3590153546
    },
    {
        "ClientId": 10302,
        "Id": 1220,
        "Show": true,
        "LevelConfigName": "LevelEntity_TowerBuff_HealUp",
        "DescTextMapHash": 1451671442
    },
    {
        "ClientId": 10303,
        "Id": 1220,
        "LevelConfigName": "LevelEntity_Monster_HpUp_Lv3",
        "DescTextMapHash": 2911643466
    },
    {
        "ClientId": 10304,
        "Id": 1221,
        "Show": true,
        "LevelConfigName": "LevelEntity_ElementAddHurt_Electric",
        "DescTextMapHash": 685761794
    },
    {
        "ClientId": 10305,
        "Id": 1221,
        "Show": true,
        "LevelConfigName": "LevelEntity_ElementAddHurt_Ice",
        "DescTextMapHash": 1117921522
    },
    {
        "ClientId": 10306,
        "Id": 1221,
        "Show": true,
        "LevelConfigName": "Level_Superconductor_Test",
        "DescTextMapHash": 383813282
    },
    {
        "ClientId": 10307,
        "Id": 1221,
        "LevelConfigName": "LevelEntity_Monster_HpUp_Lv3",
        "DescTextMapHash": 1944550002
    },
    {
        "ClientId": 10308,
        "Id": 1222,
        "Show": true,
        "LevelConfigName": "Level_Spiral_Abyss_Charge_Empty",
        "DescTextMapHash": 3638540962
    },
    {
        "ClientId": 10309,
        "Id": 1222,
        "Show": true,
        "LevelConfigName": "LevelEntity_ElementAddHurt_Fire",
        "DescTextMapHash": 616209498
    },
    {
        "ClientId": 10310,
        "Id": 1222,
        "LevelConfigName": "LevelEntity_Monster_HpUp_Lv4",
        "DescTextMapHash": 750742706
    },
    {
        "ClientId": 10311,
        "Id": 1300,
        "Show": true,
        "LevelConfigName": "Level_Spiral_Abyss_Charge_Empty",
        "DescTextMapHash": 1363988730
    },
    {
        "ClientId": 10312,
        "Id": 1301,
        "Show": true,
        "LevelConfigName": "Level_Spiral_Abyss_Charge_Empty",
        "DescTextMapHash": 3115449794
    },
    {
        "ClientId": 10313,
        "Id": 1302,
        "Show": true,
        "LevelConfigName": "Level_Spiral_Abyss_Charge_Empty",
        "DescTextMapHash": 282939290
    },
    {
        "ClientId": 10314,
        "Id": 1303,
        "Show": true,
        "LevelConfigName": "Level_Spiral_Abyss_Charge_Empty",
        "DescTextMapHash": 2739839178
    },
    {
        "ClientId": 10315,
        "Id": 1304,
        "Show": true,
        "LevelConfigName": "Level_Spiral_Abyss_Charge_Empty",
        "DescTextMapHash": 1015211514
    },
    {
        "ClientId": 10316,
        "Id": 1305,
        "Show": true,
        "LevelConfigName": "Level_Spiral_Abyss_Charge_Empty",
        "DescTextMapHash": 3785968906
    },
    {
        "ClientId": 10317,
        "Id": 1306,
        "Show": true,
        "LevelConfigName": "LevelEntity_TowerBuff_AtkDefUpHighHP",
        "DescTextMapHash": 2764826386
    },
    {
        "ClientId": 10318,
        "Id": 1306,
        "Show": true,
        "LevelConfigName": "LevelEntity_TowerBuff_AtkSpeedHighHP",
        "DescTextMapHash": 1648872226
    },
    {
        "ClientId": 10319,
        "Id": 1306,
        "Show": true,
        "LevelConfigName": "LevelEntity_TowerBuff_MoveSpeedHighHP",
        "DescTextMapHash": 398464858
    },
    {
        "ClientId": 10320,
        "Id": 1306,
        "Show": true,
        "LevelConfigName": "LevelEntity_TowerBuff_CriticalUpHighHP",
        "DescTextMapHash": 3827391098
    },
    {
        "ClientId": 10321,
        "Id": 1306,
        "LevelConfigName": "LevelEntity_Monster_HpUp_Lv2",
        "DescTextMapHash": 813744714
    },
    {
        "ClientId": 10322,
        "Id": 1307,
        "Show": true,
        "LevelConfigName": "LevelEntity_TowerBuff_AtkDefUpAfterULT",
        "DescTextMapHash": 4217392786
    },
    {
        "ClientId": 10323,
        "Id": 1307,
        "LevelConfigName": "LevelEntity_Monster_HpUp_Lv2",
        "DescTextMapHash": 3251013754
    },
    {
        "ClientId": 10324,
        "Id": 1308,
        "Show": true,
        "LevelConfigName": "LevelEntity_TowerBuff_TowerBuff_CriticalDropElementBall",
        "DescTextMapHash": 1412133530
    },
    {
        "ClientId": 10325,
        "Id": 1308,
        "Show": true,
        "LevelConfigName": "LevelEntity_Avatar_CriticalHurtUp",
        "DescTextMapHash": 4142036442
    },
    {
        "ClientId": 10326,
        "Id": 1308,
        "LevelConfigName": "LevelEntity_Monster_HpUp_Lv2",
        "DescTextMapHash": 707189594
    },
    {
        "ClientId": 10327,
        "Id": 1309,
        "Show": true,
        "LevelConfigName": "LevelEntity_TowerBuff_AtkDefUpLowHP",
        "DescTextMapHash": 3182514810
    },
    {
        "ClientId": 10328,
        "Id": 1309,
        "Show": true,
        "LevelConfigName": "LevelEntity_TowerBuff_AtkSpeedLowHP",
        "DescTextMapHash": 891956626
    },
    {
        "ClientId": 10329,
        "Id": 1309,
        "Show": true,
        "LevelConfigName": "LevelEntity_TowerBuff_MoveSpeedLowHP",
        "DescTextMapHash": 1505697018
    },
    {
        "ClientId": 10330,
        "Id": 1309,
        "Show": true,
        "LevelConfigName": "LevelEntity_TowerBuff_CriticalUpLowHP",
        "DescTextMapHash": 4015945658
    },
    {
        "ClientId": 10331,
        "Id": 1309,
        "LevelConfigName": "LevelEntity_Monster_HpUp_Lv3",
        "DescTextMapHash": 2624390354
    },
    {
        "ClientId": 10332,
        "Id": 1310,
        "Show": true,
        "LevelConfigName": "LevelEntity_TowerBuff_ShieldEnhanceAtk",
        "DescTextMapHash": 3790000890
    },
    {
        "ClientId": 10333,
        "Id": 1311,
        "Show": true,
        "LevelConfigName": "LevelEntity_TowerBuff_GainShieldDoDamage",
        "DescTextMapHash": 2984396106
    },
    {
        "ClientId": 10334,
        "Id": 1312,
        "Show": true,
        "LevelConfigName": "LevelEntity_TowerBuff_ShieldOnBeingHitDoDamage",
        "DescTextMapHash": 3541742922
    },
    {
        "ClientId": 10335,
        "Id": 1313,
        "Show": true,
        "LevelConfigName": "Level_Spiral_Abyss_Charge_Empty",
        "DescTextMapHash": 1364787402
    },
    {
        "ClientId": 10336,
        "Id": 1313,
        "Show": true,
        "LevelConfigName": "Level_Spiral_Abyss_Charge_Empty",
        "DescTextMapHash": 3372415026
    },
    {
        "ClientId": 10337,
        "Id": 1313,
        "LevelConfigName": "LevelEntity_Monster_HpUp_Lv3",
        "DescTextMapHash": 3295992474
    },
    {
        "ClientId": 10338,
        "Id": 1314,
        "Show": true,
        "LevelConfigName": "Level_Spiral_Abyss_Charge_Empty",
        "DescTextMapHash": 3869720354
    },
    {
        "ClientId": 10339,
        "Id": 1314,
        "Show": true,
        "LevelConfigName": "Level_Spiral_Abyss_Charge_Empty",
        "DescTextMapHash": 2436622402
    },
    {
        "ClientId": 10340,
        "Id": 1314,
        "LevelConfigName": "LevelEntity_Monster_HpUp_Lv3",
        "DescTextMapHash": 3466746018
    },
    {
        "ClientId": 10341,
        "Id": 1315,
        "Show": true,
        "LevelConfigName": "LevelEntity_ElementAddHurt_Rock",
        "DescTextMapHash": 737517898
    },
    {
        "ClientId": 10342,
        "Id": 1315,
        "LevelConfigName": "LevelEntity_Monster_HpUp_Lv4",
        "DescTextMapHash": 3642223034
    },
    {
        "ClientId": 10343,
        "Id": 1316,
        "Show": true,
        "LevelConfigName": "Level_Spiral_Abyss_Charge_Empty",
        "DescTextMapHash": 4112856746
    },
    {
        "ClientId": 10344,
        "Id": 1316,
        "Show": true,
        "LevelConfigName": "LevelEntity_ElementAddHurt_Ice",
        "DescTextMapHash": 202574490
    },
    {
        "ClientId": 10345,
        "Id": 1316,
        "LevelConfigName": "LevelEntity_Monster_HpUp_Lv3",
        "DescTextMapHash": 3295200034
    },
    {
        "ClientId": 10346,
        "Id": 1317,
        "Show": true,
        "LevelConfigName": "LevelEntity_TowerBuff_GainShieldDoDamage_Ice",
        "DescTextMapHash": 3589622938
    },
    {
        "ClientId": 10347,
        "Id": 1317,
        "Show": true,
        "LevelConfigName": "LevelEntity_TowerBuff_GainShieldReduceCD_Ice",
        "DescTextMapHash": 4134609602
    },
    {
        "ClientId": 10348,
        "Id": 1318,
        "Show": true,
        "LevelConfigName": "LevelEntity_TowerBuff_GainShieldAtkSpeedUp_Ice",
        "DescTextMapHash": 561398154
    },
    {
        "ClientId": 10349,
        "Id": 1319,
        "Show": true,
        "LevelConfigName": "LevelEntity_TowerBuff_GainShieldCriticalUp_Ice",
        "DescTextMapHash": 3440098746
    },
    {
        "ClientId": 10350,
        "Id": 1320,
        "Show": true,
        "LevelConfigName": "LevelEntity_EffigyChallenge_ElementBeHurtDamageDown_Electric",
        "DescTextMapHash": 2856340298
    },
    {
        "ClientId": 10351,
        "Id": 1320,
        "Show": true,
        "LevelConfigName": "LevelEntity_EffigyChallenge_CriticalDown",
        "DescTextMapHash": 37504162
    },
    {
        "ClientId": 10352,
        "Id": 1320,
        "Show": true,
        "LevelConfigName": "LevelEntity_EffigyChallenge_BeHurtDamageUpAfterULT",
        "DescTextMapHash": 1545401402
    },
    {
        "ClientId": 10353,
        "Id": 1320,
        "Show": true,
        "LevelConfigName": "LevelEntity_EffigyChallenge_AtkDownHighHP",
        "DescTextMapHash": 4089606298
    },
    {
        "ClientId": 10354,
        "Id": 1320,
        "Show": true,
        "LevelConfigName": "LevelEntity_EffigyChallenge_DashStamina_Increment",
        "DescTextMapHash": 1465057466
    },
    {
        "ClientId": 10355,
        "Id": 1320,
        "Show": true,
        "LevelConfigName": "LevelEntity_EffigyChallenge_SkillCDIncrement",
        "DescTextMapHash": 858514418
    },
    {
        "ClientId": 10356,
        "Id": 1320,
        "Show": true,
        "LevelConfigName": "LevelEntity_EffigyChallenge_ShieldCostMinus",
        "DescTextMapHash": 527146146
    },
    {
        "ClientId": 10357,
        "Id": 1320,
        "Show": true,
        "LevelConfigName": "LevelEntity_EffigyChallenge_AtkSpeed",
        "DescTextMapHash": 3611770946
    },
    {
        "ClientId": 10358,
        "Id": 1321,
        "Show": true,
        "LevelConfigName": "LevelEntity_EffigyChallenge_ElementBeHurtDamageDown_Fire",
        "DescTextMapHash": 2848432874
    },
    {
        "ClientId": 10359,
        "Id": 1321,
        "Show": true,
        "LevelConfigName": "LevelEntity_EffigyChallenge_CriticalHurtDown",
        "DescTextMapHash": 2914298738
    },
    {
        "ClientId": 10360,
        "Id": 1321,
        "Show": true,
        "LevelConfigName": "LevelEntity_EffigyChallenge_AtkDownLowHP",
        "DescTextMapHash": 2123217730
    },
    {
        "ClientId": 10361,
        "Id": 1321,
        "Show": true,
        "LevelConfigName": "LevelEntity_EffigyChallenge_AttackUp",
        "DescTextMapHash": 2497739586
    },
    {
        "ClientId": 10362,
        "Id": 1321,
        "Show": true,
        "LevelConfigName": "LevelEntity_EffigyChallenge_MoveSpeed",
        "DescTextMapHash": 4294309314
    },
    {
        "ClientId": 10363,
        "Id": 1322,
        "Show": true,
        "LevelConfigName": "LevelEntity_EffigyChallenge_ElementBeHurtDamageDown_Ice",
        "DescTextMapHash": 2222393370
    },
    {
        "ClientId": 10364,
        "Id": 1322,
        "Show": true,
        "LevelConfigName": "LevelEntity_EffigyChallenge_AtkDefUpHighHP",
        "DescTextMapHash": 3793278530
    },
    {
        "ClientId": 10365,
        "Id": 1322,
        "Show": true,
        "LevelConfigName": "LevelEntity_EffigyChallenge_ShieldCostMinusDown",
        "DescTextMapHash": 489720194
    },
    {
        "ClientId": 10366,
        "Id": 1323,
        "Show": true,
        "LevelConfigName": "LevelEntity_EffigyChallenge_PhysicalDown",
        "DescTextMapHash": 520713690
    },
    {
        "ClientId": 10367,
        "Id": 1323,
        "Show": true,
        "LevelConfigName": "LevelEntity_EffigyChallenge_AtkDefUpLowHP",
        "DescTextMapHash": 2950033442
    },
    {
        "ClientId": 10368,
        "Id": 1323,
        "Show": true,
        "LevelConfigName": "LevelEntity_EffigyChallenge_MoveSpeedDown",
        "DescTextMapHash": 401632850
    },
    {
        "ClientId": 10369,
        "Id": 1323,
        "Show": true,
        "LevelConfigName": "LevelEntity_EffigyChallenge_SprintBeHurtDamageUp",
        "DescTextMapHash": 2873480570
    },
    {
        "ClientId": 10370,
        "Id": 1324,
        "Show": true,
        "LevelConfigName": "LevelEntity_EffigyChallenge_ElementBeHurtDamageDown_Electric",
        "DescTextMapHash": 2867337282
    },
    {
        "ClientId": 10371,
        "Id": 1325,
        "Show": true,
        "LevelConfigName": "LevelEntity_EffigyChallenge_CriticalDown",
        "DescTextMapHash": 4190500042
    },
    {
        "ClientId": 10372,
        "Id": 1326,
        "Show": true,
        "LevelConfigName": "LevelEntity_EffigyChallenge_BeHurtDamageUpAfterULT",
        "DescTextMapHash": 3020115066
    },
    {
        "ClientId": 10373,
        "Id": 1327,
        "Show": true,
        "LevelConfigName": "LevelEntity_EffigyChallenge_AtkDownHighHP",
        "DescTextMapHash": 2287250026
    },
    {
        "ClientId": 10374,
        "Id": 1328,
        "Show": true,
        "LevelConfigName": "LevelEntity_EffigyChallenge_DashStamina_Increment",
        "DescTextMapHash": 3577949266
    },
    {
        "ClientId": 10375,
        "Id": 1329,
        "Show": true,
        "LevelConfigName": "LevelEntity_EffigyChallenge_SkillCDIncrement",
        "DescTextMapHash": 3710409466
    },
    {
        "ClientId": 10376,
        "Id": 1330,
        "Show": true,
        "LevelConfigName": "LevelEntity_EffigyChallenge_ShieldCostMinus_Ver2",
        "DescTextMapHash": 3888340418
    },
    {
        "ClientId": 10377,
        "Id": 1331,
        "Show": true,
        "LevelConfigName": "LevelEntity_EffigyChallenge_AtkSpeed",
        "DescTextMapHash": 287912642
    },
    {
        "ClientId": 10378,
        "Id": 1332,
        "Show": true,
        "LevelConfigName": "LevelEntity_EffigyChallenge_ElementBeHurtDamageDown_Fire",
        "DescTextMapHash": 2338578490
    },
    {
        "ClientId": 10379,
        "Id": 1333,
        "Show": true,
        "LevelConfigName": "LevelEntity_EffigyChallenge_CriticalHurtDown",
        "DescTextMapHash": 1884290034
    },
    {
        "ClientId": 10380,
        "Id": 1334,
        "Show": true,
        "LevelConfigName": "LevelEntity_EffigyChallenge_AtkDownLowHP",
        "DescTextMapHash": 2943473986
    },
    {
        "ClientId": 10381,
        "Id": 1335,
        "Show": true,
        "LevelConfigName": "LevelEntity_EffigyChallenge_AttackUp",
        "DescTextMapHash": 1282438826
    },
    {
        "ClientId": 10382,
        "Id": 1336,
        "Show": true,
        "LevelConfigName": "LevelEntity_EffigyChallenge_MoveSpeed",
        "DescTextMapHash": 843406882
    },
    {
        "ClientId": 10383,
        "Id": 1337,
        "Show": true,
        "LevelConfigName": "LevelEntity_EffigyChallenge_ElementBeHurtDamageDown_Ice",
        "DescTextMapHash": 3108184218
    },
    {
        "ClientId": 10384,
        "Id": 1338,
        "Show": true,
        "LevelConfigName": "LevelEntity_EffigyChallenge_AtkDefUpHighHP",
        "DescTextMapHash": 1755901394
    },
    {
        "ClientId": 10385,
        "Id": 1339,
        "Show": true,
        "LevelConfigName": "LevelEntity_EffigyChallenge_ShieldCostMinusDown",
        "DescTextMapHash": 4170849074
    },
    {
        "ClientId": 10386,
        "Id": 1340,
        "Show": true,
        "LevelConfigName": "LevelEntity_EffigyChallenge_PhysicalDown",
        "DescTextMapHash": 3998443314
    },
    {
        "ClientId": 10387,
        "Id": 1341,
        "Show": true,
        "LevelConfigName": "LevelEntity_EffigyChallenge_AtkDefUpLowHP",
        "DescTextMapHash": 184389242
    },
    {
        "ClientId": 10388,
        "Id": 1342,
        "Show": true,
        "LevelConfigName": "LevelEntity_EffigyChallenge_MoveSpeedDown",
        "DescTextMapHash": 1726065514
    },
    {
        "ClientId": 10389,
        "Id": 1343,
        "Show": true,
        "LevelConfigName": "LevelEntity_EffigyChallenge_SprintBeHurtDamageUp",
        "DescTextMapHash": 3308214634
    },
    {
        "ClientId": 10390,
        "Id": 1344,
        "Show": true,
        "LevelConfigName": "Level_Spiral_Abyss_Charge_Empty",
        "DescTextMapHash": 1075570370
    },
    {
        "ClientId": 10391,
        "Id": 1344,
        "Show": true,
        "LevelConfigName": "Level_Spiral_Abyss_Charge_Empty",
        "DescTextMapHash": 3909891906
    },
    {
        "ClientId": 10392,
        "Id": 1344,
        "Show": true,
        "LevelConfigName": "Level_Spiral_Abyss_Charge_Empty",
        "DescTextMapHash": 2451588826
    },
    {
        "ClientId": 10393,
        "Id": 1345,
        "Show": true,
        "LevelConfigName": "LevelEntity_Heal_Down_Ver2",
        "DescTextMapHash": 1028535922
    },
    {
        "ClientId": 10394,
        "Id": 1346,
        "Show": true,
        "LevelConfigName": "LevelEntity_Avatar_ChargeEfficiencyDown",
        "DescTextMapHash": 1719058322
    },
    {
        "ClientId": 10395,
        "Id": 1347,
        "Show": true,
        "LevelConfigName": "LevelEntity_EffigyChallenge_BeHurtDamageUpAfterChangeAvatar",
        "DescTextMapHash": 3884578722
    },
    {
        "ClientId": 10396,
        "Id": 1348,
        "Show": true,
        "LevelConfigName": "LevelEntity_EffigyChallenge_NoShieldAtkDown",
        "DescTextMapHash": 3764874674
    },
    {
        "ClientId": 10397,
        "Id": 1349,
        "Show": true,
        "LevelConfigName": "LevelEntity_TowerBuff_ChargeEfficiency_Ver2",
        "DescTextMapHash": 381563794
    },
    {
        "ClientId": 10398,
        "Id": 1350,
        "Show": true,
        "LevelConfigName": "LevelEntity_TowerBuff_CriticalUpLowHP_Ver2",
        "DescTextMapHash": 3500653562
    },
    {
        "ClientId": 10399,
        "Id": 1351,
        "Show": true,
        "LevelConfigName": "LevelEntity_TowerBuff_CriticalUpHighHP_Ver2",
        "DescTextMapHash": 3272335986
    },
    {
        "ClientId": 10400,
        "Id": 1352,
        "LevelConfigName": "LevelEntity_Monster_HpUp_Lv2",
        "DescTextMapHash": 782541426
    },
    {
        "ClientId": 10401,
        "Id": 1353,
        "LevelConfigName": "LevelEntity_EffigyChallenge_SpecialAvatarDamageUp_01",
        "DescTextMapHash": 1473956554
    },
    {
        "ClientId": 10402,
        "Id": 1354,
        "LevelConfigName": "LevelEntity_EffigyChallenge_SpecialAvatarDamageUp_02",
        "DescTextMapHash": 3083179754
    },
    {
        "ClientId": 10403,
        "Id": 1355,
        "LevelConfigName": "LevelEntity_EffigyChallenge_SpecialAvatarDamageUp_03",
        "DescTextMapHash": 1539905810
    },
    {
        "ClientId": 10404,
        "Id": 1356,
        "LevelConfigName": "LevelEntity_EffigyChallenge_SpecialAvatarDamageUp_04",
        "DescTextMapHash": 3198001738
    },
    {
        "ClientId": 10405,
        "Id": 1357,
        "Show": true,
        "LevelConfigName": "LevelEntity_TowerBuff_AtkAtkSpeedUpLowHP_Ver_1_13",
        "DescTextMapHash": 327650490
    },
    {
        "ClientId": 10406,
        "Id": 1357,
        "Show": true,
        "LevelConfigName": "LevelEntity_TowerBuff_CriticalUpLowHP_Ver_1_13",
        "DescTextMapHash": 1523622242
    },
    {
        "ClientId": 10407,
        "Id": 1358,
        "Show": true,
        "LevelConfigName": "LevelEntity_TowerBuff_AreaAttackLowHP_Ver_1_13",
        "DescTextMapHash": 4206201274
    },
    {
        "ClientId": 10408,
        "Id": 1359,
        "Show": true,
        "LevelConfigName": "LevelEntity_TowerBuff_AttackUpAreaDamageLowHP_Ver_1_13",
        "DescTextMapHash": 567287546
    },
    {
        "ClientId": 10409,
        "Id": 1360,
        "Show": true,
        "LevelConfigName": "LevelEntity_EffigyChallenge_MonsterHp_025",
        "DescTextMapHash": 1887663610
    },
    {
        "ClientId": 10410,
        "Id": 1361,
        "Show": true,
        "LevelConfigName": "LevelEntity_EffigyChallenge_MonsterHp_050",
        "DescTextMapHash": 3199084258
    },
    {
        "ClientId": 10411,
        "Id": 1362,
        "Show": true,
        "LevelConfigName": "LevelEntity_EffigyChallenge_MonsterHp_100",
        "DescTextMapHash": 2324193386
    },
    {
        "ClientId": 10412,
        "Id": 1363,
        "Show": true,
        "LevelConfigName": "Level_Spiral_Abyss_Charge_Empty",
        "DescTextMapHash": 1098050194
    },
    {
        "ClientId": 10413,
        "Id": 1363,
        "LevelConfigName": "LevelEntity_Monster_HpUp_Lv4",
        "DescTextMapHash": 50003562
    },
    {
        "ClientId": 10414,
        "Id": 1364,
        "Show": true,
        "LevelConfigName": "LevelEntity_EffigyChallenge_AtkSpeed",
        "DescTextMapHash": 1428048994
    },
    {
        "ClientId": 10415,
        "Id": 1364,
        "Show": true,
        "LevelConfigName": "LevelEntity_TowerBuff_AttackUpAreaAttack",
        "DescTextMapHash": 3167988130
    },
    {
        "ClientId": 10416,
        "Id": 1364,
        "Show": true,
        "LevelConfigName": "LevelEntity_TowerBuff_ExtraAreaAttack",
        "DescTextMapHash": 3482174410
    },
    {
        "ClientId": 10417,
        "Id": 1365,
        "LevelConfigName": "LevelEntity_Activity_TowerDefence_AvatarDebuff",
        "DescTextMapHash": 1091727858
    },
    {
        "ClientId": 10418,
        "Id": 1363,
        "Show": true,
        "LevelConfigName": "Level_Spiral_Abyss_Charge_Empty",
        "DescTextMapHash": 4281087034
    },
    {
        "ClientId": 10419,
        "Id": 1366,
        "Show": true,
        "LevelConfigName": "LevelEntity_TowerBuff_AreaNoEnemyAttackUp_Ver_1_14",
        "DescTextMapHash": 2153546114
    },
    {
        "ClientId": 10420,
        "Id": 1367,
        "Show": true,
        "LevelConfigName": "LevelEntity_TowerBuff_EnemyDefDownOnFallingAttack_Ver_1_14",
        "DescTextMapHash": 2081704354
    },
    {
        "ClientId": 10421,
        "Id": 1368,
        "Show": true,
        "LevelConfigName": "LevelEntity_TowerBuff_DropElementBallOnFallingAttack_Ver_1_14",
        "DescTextMapHash": 23145610
    },
    {
        "ClientId": 10422,
        "Id": 1369,
        "Show": true,
        "LevelConfigName": "Level_MaoCheng_Test",
        "DescTextMapHash": 1231111370
    },
    {
        "ClientId": 10423,
        "Id": 1369,
        "Show": true,
        "LevelConfigName": "Level_Spiral_Abyss_Charge_Empty",
        "DescTextMapHash": 3685157042
    },
    {
        "ClientId": 10424,
        "Id": 1369,
        "Show": true,
        "LevelConfigName": "Level_Spiral_Abyss_Charge_Empty",
        "DescTextMapHash": 1219452482
    },
    {
        "ClientId": 10425,
        "Id": 1369,
        "Show": true,
        "LevelConfigName": "Level_Spiral_Abyss_Charge_Empty",
        "DescTextMapHash": 346622594
    },
    {
        "ClientId": 10426,
        "Id": 1370,
        "Show": true,
        "LevelConfigName": "Level_Electric_Test",
        "DescTextMapHash": 772159954
    },
    {
        "ClientId": 10427,
        "Id": 1370,
        "Show": true,
        "LevelConfigName": "LevelEntity_TowerBuff_ElementReactionAttack_Shock",
        "DescTextMapHash": 1614774714
    },
    {
        "ClientId": 10428,
        "Id": 1370,
        "Show": true,
        "LevelConfigName": "LevelEntity_TowerBuff_GainShieldDoDamage",
        "DescTextMapHash": 3411770186
    },
    {
        "ClientId": 10429,
        "Id": 1370,
        "Show": true,
        "LevelConfigName": "LevelEntity_TowerBuff_ShieldOnBeingHitDoDamage",
        "DescTextMapHash": 1057181194
    },
    {
        "ClientId": 10430,
        "Id": 1371,
        "Show": true,
        "LevelConfigName": "ActivityAbility_SuperTrial_FallingBuff",
        "DescTextMapHash": 3018784778
    },
    {
        "ClientId": 10431,
        "Id": 1371,
        "Show": true,
        "LevelConfigName": "ActivityAbility_SuperTrial_FallingAreaAttack",
        "DescTextMapHash": 1682404442
    },
    {
        "ClientId": 10432,
        "Id": 1372,
        "Show": true,
        "LevelConfigName": "ActivityAbility_SuperTrial_ShieldDamageUp",
        "DescTextMapHash": 1145785466
    },
    {
        "ClientId": 10433,
        "Id": 1372,
        "Show": true,
        "LevelConfigName": "ActivityAbility_SuperTrial_GainShieldAreaAttack",
        "DescTextMapHash": 3569750850
    },
    {
        "ClientId": 10434,
        "Id": 1373,
        "Show": true,
        "LevelConfigName": "ActivityAbility_SuperTrial_HealingDamageUp",
        "DescTextMapHash": 4208463834
    },
    {
        "ClientId": 10435,
        "Id": 1373,
        "Show": true,
        "LevelConfigName": "ActivityAbility_SuperTrial_HealingReviveElemEnergy",
        "DescTextMapHash": 18448762
    },
    {
        "ClientId": 10436,
        "Id": 1374,
        "Show": true,
        "LevelConfigName": "ActivityAbility_SuperTrial_ElementMasteryUp",
        "DescTextMapHash": 3933111130
    },
    {
        "ClientId": 10437,
        "Id": 1374,
        "Show": true,
        "LevelConfigName": "ActivityAbility_SuperTrial_ElementReactionAttack",
        "DescTextMapHash": 818397130
    },
    {
        "ClientId": 10438,
        "Id": 1375,
        "Show": true,
        "LevelConfigName": "ActivityAbility_SuperTrial_MeleeDamageUp",
        "DescTextMapHash": 4008773466
    },
    {
        "ClientId": 10439,
        "Id": 1375,
        "Show": true,
        "LevelConfigName": "ActivityAbility_SuperTrial_MeleeAreaAttack",
        "DescTextMapHash": 1125082842
    },
    {
        "ClientId": 10440,
        "Id": 1376,
        "Show": true,
        "LevelConfigName": "ActivityAbility_SuperTrial_RangeNoEnemyAttackUp",
        "DescTextMapHash": 3590149434
    },
    {
        "ClientId": 10441,
        "Id": 1376,
        "Show": true,
        "LevelConfigName": "ActivityAbility_SuperTrial_RangeNoEnemyStaminaReduction",
        "DescTextMapHash": 1539845554
    },
    {
        "ClientId": 10442,
        "Id": 1377,
        "Show": true,
        "LevelConfigName": "LevelEntity_Avatar_ShieldOnBeingHitDoDamage_Ver_1_15",
        "DescTextMapHash": 2458609962
    },
    {
        "ClientId": 10443,
        "Id": 1378,
        "Show": true,
        "LevelConfigName": "LevelEntity_Avatar_ShieldOnBeingHitDoDamage_Ver_1_15",
        "DescTextMapHash": 3172276522
    },
    {
        "ClientId": 10444,
        "Id": 1378,
        "LevelConfigName": "LevelEntity_HpUp_20p",
        "DescTextMapHash": 2137092786
    },
    {
        "ClientId": 10445,
        "Id": 1379,
        "Show": true,
        "LevelConfigName": "LevelEntity_Avatar_ShieldOnBeingHitDoDamage_Ver_1_15",
        "DescTextMapHash": 1265049562
    },
    {
        "ClientId": 10446,
        "Id": 1379,
        "LevelConfigName": "LevelEntity_Monster_HpUp_Lv2",
        "DescTextMapHash": 1217814818
    },
    {
        "ClientId": 10447,
        "Id": 1380,
        "Show": true,
        "LevelConfigName": "Level_Spiral_Abyss_Charge_Empty",
        "DescTextMapHash": 3771216626
    },
    {
        "ClientId": 10448,
        "Id": 1380,
        "Show": true,
        "LevelConfigName": "LevelEntity_PhysicalAddHurt",
        "DescTextMapHash": 3689198738
    },
    {
        "ClientId": 10449,
        "Id": 1380,
        "LevelConfigName": "LevelEntity_Monster_HpUp_Lv3",
        "DescTextMapHash": 3516956202
    },
    {
        "ClientId": 10450,
        "Id": 1381,
        "Show": true,
        "LevelConfigName": "Level_Spiral_Abyss_Charge_Empty",
        "DescTextMapHash": 3442011586
    },
    {
        "ClientId": 10451,
        "Id": 1381,
        "LevelConfigName": "LevelEntity_Monster_HpUp_Lv4",
        "DescTextMapHash": 3535287602
    },
    {
        "ClientId": 10452,
        "Id": 1382,
        "Show": true,
        "LevelConfigName": "LevelEntity_TowerBuff_PhysicalHurtUpAreaAttack",
        "DescTextMapHash": 352431130
    },
    {
        "ClientId": 10453,
        "Id": 1383,
        "Show": true,
        "LevelConfigName": "LevelEntity_TowerBuff_ShieldBeingHitDoAttack",
        "DescTextMapHash": 2681302058
    },
    {
        "ClientId": 10454,
        "Id": 1384,
        "Show": true,
        "LevelConfigName": "LevelEntity_TowerBuff_CriticalUpAreaAttack",
        "DescTextMapHash": 1420294130
    },
    {
        "ClientId": 10455,
        "Id": 1401,
        "Show": true,
        "LevelConfigName": "LevelEntity_EnergyDisk_Lv1_HpUp",
        "DescTextMapHash": 1376549770
    },
    {
        "ClientId": 10456,
        "Id": 1402,
        "Show": true,
        "LevelConfigName": "LevelEntity_EnergyDisk_Lv2_HpUp",
        "DescTextMapHash": 1209113762
    },
    {
        "ClientId": 10457,
        "Id": 1403,
        "Show": true,
        "LevelConfigName": "LevelEntity_EnergyDisk_Lv3_HpUp",
        "DescTextMapHash": 1040336506
    },
    {
        "ClientId": 10458,
        "Id": 1411,
        "Show": true,
        "LevelConfigName": "LevelEntity_EnergyDisk_Lv1_ElecSubHurtDelta",
        "DescTextMapHash": 501018842
    },
    {
        "ClientId": 10459,
        "Id": 1412,
        "Show": true,
        "LevelConfigName": "LevelEntity_EnergyDisk_Lv1_FireSubHurtDelta",
        "DescTextMapHash": 3693878986
    },
    {
        "ClientId": 10460,
        "Id": 1413,
        "Show": true,
        "LevelConfigName": "LevelEntity_EnergyDisk_Lv2_RockSubHurtDelta",
        "DescTextMapHash": 3227943610
    },
    {
        "ClientId": 10461,
        "Id": 1414,
        "Show": true,
        "LevelConfigName": "LevelEntity_EnergyDisk_Lv3_Actor_IceSubHurtDelta",
        "DescTextMapHash": 2101579090
    },
    {
        "ClientId": 10462,
        "Id": 1415,
        "Show": true,
        "LevelConfigName": "LevelEntity_EnergyDisk_Lv3_Actor_WaterSubHurtDelta",
        "DescTextMapHash": 1948273658
    },
    {
        "ClientId": 10463,
        "Id": 1416,
        "Show": true,
        "LevelConfigName": "LevelEntity_EnergyDisk_Lv2_WindSubHurtDelta",
        "DescTextMapHash": 1953066442
    },
    {
        "ClientId": 10464,
        "Id": 1417,
        "Show": true,
        "LevelConfigName": "LevelEntity_EnergyDisk_Lv4_PhysicalSubHurt",
        "DescTextMapHash": 3072930698
    },
    {
        "ClientId": 10465,
        "Id": 1418,
        "Show": true,
        "LevelConfigName": "LevelEntity_EnergyDisk_Lv1_AtkUp",
        "DescTextMapHash": 913866530
    },
    {
        "ClientId": 10466,
        "Id": 1421,
        "Show": true,
        "LevelConfigName": "LevelEntity_EnergyDisk_Lv3_ShieldCostMinusDown",
        "DescTextMapHash": 3896648890
    },
    {
        "ClientId": 10467,
        "Id": 1422,
        "Show": true,
        "LevelConfigName": "LevelEntity_EnergyDisk_Lv1_MoveSpeedDown",
        "DescTextMapHash": 3182178722
    },
    {
        "ClientId": 10468,
        "Id": 1423,
        "Show": true,
        "LevelConfigName": "LevelEntity_EnergyDisk_Lv1_HealDown",
        "DescTextMapHash": 1904857938
    },
    {
        "ClientId": 10469,
        "Id": 1424,
        "Show": true,
        "LevelConfigName": "LevelEntity_EnergyDisk_Lv1_ChargeEfficiencyDown",
        "DescTextMapHash": 2531400490
    },
    {
        "ClientId": 10470,
        "Id": 1431,
        "Show": true,
        "LevelConfigName": "LevelEntity_EnergyDisk_Lv1_DashStaminaUp",
        "DescTextMapHash": 2272532802
    },
    {
        "ClientId": 10471,
        "Id": 1432,
        "Show": true,
        "LevelConfigName": "LevelEntity_EnergyDisk_Lv3_SkillCDIncrement",
        "DescTextMapHash": 1800033282
    },
    {
        "ClientId": 10472,
        "Id": 1433,
        "Show": true,
        "LevelConfigName": "LevelEntity_EnergyDisk_Lv1_RecoverStaminaRatioDown",
        "DescTextMapHash": 3996931146
    },
    {
        "ClientId": 10473,
        "Id": 1434,
        "Show": true,
        "LevelConfigName": "LevelEntity_EnergyDisk_Lv1_NoShieldAtkDown",
        "DescTextMapHash": 4020580866
    },
    {
        "ClientId": 10474,
        "Id": 1435,
        "Show": true,
        "LevelConfigName": "LevelEntity_EnergyDisk_Lv3_AtkDownHighHP",
        "DescTextMapHash": 3446322066
    },
    {
        "ClientId": 10475,
        "Id": 1436,
        "Show": true,
        "LevelConfigName": "LevelEntity_EnergyDisk_Lv3_AtkDownLowHP",
        "DescTextMapHash": 404032298
    },
    {
        "ClientId": 10476,
        "Id": 1437,
        "Show": true,
        "LevelConfigName": "LevelEntity_EnergyDisk_Lv3_SpeedDownLowHP",
        "DescTextMapHash": 3318236874
    },
    {
        "ClientId": 10477,
        "Id": 1438,
        "Show": true,
        "LevelConfigName": "LevelEntity_EnergyDisk_Lv3_SprintBeHurtDamageUp",
        "DescTextMapHash": 4173284538
    },
    {
        "ClientId": 10478,
        "Id": 1439,
        "Show": true,
        "LevelConfigName": "LevelEntity_EnergyDisk_Lv3_BeHurtDamageUpAfterChangeAvatar",
        "DescTextMapHash": 3003213578
    },
    {
        "ClientId": 10479,
        "Id": 1440,
        "Show": true,
        "LevelConfigName": "LevelEntity_EnergyDisk_Lv4_BeHurtDamageUpAfterULT",
        "DescTextMapHash": 3359924938
    },
    {
        "ClientId": 10480,
        "Id": 1441,
        "Show": true,
        "LevelConfigName": "LevelEntity_EnergyDisk_Lv2_AtkDownLowHP",
        "DescTextMapHash": 1588351266
    },
    {
        "ClientId": 10490,
        "Id": 1451,
        "Show": true,
        "LevelConfigName": "LevelEntity_EnergyDisk_DeathRattleCrystal_ExtraLifeTime",
        "DescTextMapHash": 2537501106
    },
    {
        "ClientId": 10491,
        "Id": 1452,
        "Show": true,
        "LevelConfigName": "LevelEntity_EnergyDisk_DeathRattleCrystal_ExtraTimes",
        "DescTextMapHash": 1679500210
    },
    {
        "ClientId": 10492,
        "Id": 1453,
        "Show": true,
        "LevelConfigName": "LevelEntity_EnergyDisk_Sovereign_ExtraHeal",
        "DescTextMapHash": 2225924842
    },
    {
        "ClientId": 10493,
        "Id": 1454,
        "Show": true,
        "LevelConfigName": "LevelEntity_EnergyDisk_Sovereign_AtkUp",
        "DescTextMapHash": 319397050
    },
    {
        "ClientId": 10494,
        "Id": 1461,
        "Show": true,
        "LevelConfigName": "Level_Spiral_Abyss_Charge_Empty",
        "DescTextMapHash": 3407606170
    },
    {
        "ClientId": 10495,
        "Id": 1462,
        "Show": true,
        "LevelConfigName": "Level_Spiral_Abyss_Charge_Empty",
        "DescTextMapHash": 1079412098
    },
    {
        "ClientId": 10496,
        "Id": 1463,
        "Show": true,
        "LevelConfigName": "Level_Spiral_Abyss_Charge_Empty",
        "DescTextMapHash": 790337874
    },
    {
        "ClientId": 10497,
        "Id": 1464,
        "Show": true,
        "LevelConfigName": "Level_Spiral_Abyss_Charge_Empty",
        "DescTextMapHash": 4050188194
    },
    {
        "ClientId": 10498,
        "Id": 1465,
        "Show": true,
        "LevelConfigName": "Level_Spiral_Abyss_Charge_Empty",
        "DescTextMapHash": 2554443354
    },
    {
        "ClientId": 10499,
        "Id": 1466,
        "Show": true,
        "LevelConfigName": "Level_Spiral_Abyss_Charge_Empty",
        "DescTextMapHash": 2660133498
    },
    {
        "ClientId": 10500,
        "Id": 1467,
        "Show": true,
        "LevelConfigName": "Level_Spiral_Abyss_Charge_Empty",
        "DescTextMapHash": 3297239514
    }
]