[
    {
        "Id": 1,
        "ChallengeId": 1,
        "MonsterDifficulty": "EFFIGY_DIFFICULTY_PRIMER",
        "MonsterLevel": 19,
        "ScoreRatio": 1.0
    },
    {
        "Id": 2,
        "ChallengeId": 1,
        "MonsterDifficulty": "EFFIGY_DIFFICULTY_NORMAL",
        "MonsterLevel": 39,
        "ScoreRatio": 1.5
    },
    {
        "Id": 3,
        "ChallengeId": 1,
        "MonsterDifficulty": "EFFIGY_DIFFICULTY_HARD",
        "MonsterLevel": 59,
        "ScoreRatio": 2.5
    },
    {
        "Id": 4,
        "ChallengeId": 1,
        "MonsterDifficulty": "EFFIGY_DIFFICULTY_EXPERT",
        "MonsterLevel": 79,
        "ScoreRatio": 4.5
    },
    {
        "Id": 5,
        "ChallengeId": 2,
        "MonsterDifficulty": "EFFIGY_DIFFICULTY_PRIMER",
        "MonsterLevel": 19,
        "ScoreRatio": 1.0
    },
    {
        "Id": 6,
        "ChallengeId": 2,
        "MonsterDifficulty": "EFFIGY_DIFFICULTY_NORMAL",
        "MonsterLevel": 39,
        "ScoreRatio": 1.5
    },
    {
        "Id": 7,
        "ChallengeId": 2,
        "MonsterDifficulty": "EFFIGY_DIFFICULTY_HARD",
        "MonsterLevel": 59,
        "ScoreRatio": 2.5
    },
    {
        "Id": 8,
        "ChallengeId": 2,
        "MonsterDifficulty": "EFFIGY_DIFFICULTY_EXPERT",
        "MonsterLevel": 79,
        "ScoreRatio": 4.5
    },
    {
        "Id": 9,
        "ChallengeId": 3,
        "MonsterDifficulty": "EFFIGY_DIFFICULTY_PRIMER",
        "MonsterLevel": 19,
        "ScoreRatio": 1.0
    },
    {
        "Id": 10,
        "ChallengeId": 3,
        "MonsterDifficulty": "EFFIGY_DIFFICULTY_NORMAL",
        "MonsterLevel": 39,
        "ScoreRatio": 1.5
    },
    {
        "Id": 11,
        "ChallengeId": 3,
        "MonsterDifficulty": "EFFIGY_DIFFICULTY_HARD",
        "MonsterLevel": 59,
        "ScoreRatio": 2.5
    },
    {
        "Id": 12,
        "ChallengeId": 3,
        "MonsterDifficulty": "EFFIGY_DIFFICULTY_EXPERT",
        "MonsterLevel": 79,
        "ScoreRatio": 4.5
    },
    {
        "Id": 13,
        "ChallengeId": 4,
        "MonsterDifficulty": "EFFIGY_DIFFICULTY_PRIMER",
        "MonsterLevel": 19,
        "ScoreRatio": 1.0
    },
    {
        "Id": 14,
        "ChallengeId": 4,
        "MonsterDifficulty": "EFFIGY_DIFFICULTY_NORMAL",
        "MonsterLevel": 39,
        "ScoreRatio": 1.5
    },
    {
        "Id": 15,
        "ChallengeId": 4,
        "MonsterDifficulty": "EFFIGY_DIFFICULTY_HARD",
        "MonsterLevel": 59,
        "ScoreRatio": 2.5
    },
    {
        "Id": 16,
        "ChallengeId": 4,
        "MonsterDifficulty": "EFFIGY_DIFFICULTY_EXPERT",
        "MonsterLevel": 79,
        "ScoreRatio": 4.5
    },
    {
        "Id": 17,
        "ChallengeId": 5,
        "MonsterDifficulty": "EFFIGY_DIFFICULTY_PRIMER",
        "MonsterLevel": 19,
        "ScoreRatio": 1.0
    },
    {
        "Id": 18,
        "ChallengeId": 5,
        "MonsterDifficulty": "EFFIGY_DIFFICULTY_NORMAL",
        "MonsterLevel": 39,
        "ScoreRatio": 1.5
    },
    {
        "Id": 19,
        "ChallengeId": 5,
        "MonsterDifficulty": "EFFIGY_DIFFICULTY_HARD",
        "MonsterLevel": 59,
        "ScoreRatio": 2.5
    },
    {
        "Id": 20,
        "ChallengeId": 5,
        "MonsterDifficulty": "EFFIGY_DIFFICULTY_EXPERT",
        "MonsterLevel": 79,
        "ScoreRatio": 4.5
    },
    {
        "Id": 21,
        "ChallengeId": 6,
        "MonsterDifficulty": "EFFIGY_DIFFICULTY_PRIMER",
        "MonsterLevel": 19,
        "ScoreRatio": 1.0
    },
    {
        "Id": 22,
        "ChallengeId": 6,
        "MonsterDifficulty": "EFFIGY_DIFFICULTY_NORMAL",
        "MonsterLevel": 39,
        "ScoreRatio": 1.5
    },
    {
        "Id": 23,
        "ChallengeId": 6,
        "MonsterDifficulty": "EFFIGY_DIFFICULTY_HARD",
        "MonsterLevel": 59,
        "ScoreRatio": 2.5
    },
    {
        "Id": 24,
        "ChallengeId": 6,
        "MonsterDifficulty": "EFFIGY_DIFFICULTY_EXPERT",
        "MonsterLevel": 79,
        "ScoreRatio": 4.5
    },
    {
        "Id": 25,
        "ChallengeId": 7,
        "MonsterDifficulty": "EFFIGY_DIFFICULTY_PRIMER",
        "MonsterLevel": 19,
        "ScoreRatio": 1.0
    },
    {
        "Id": 26,
        "ChallengeId": 7,
        "MonsterDifficulty": "EFFIGY_DIFFICULTY_NORMAL",
        "MonsterLevel": 39,
        "ScoreRatio": 1.5
    },
    {
        "Id": 27,
        "ChallengeId": 7,
        "MonsterDifficulty": "EFFIGY_DIFFICULTY_HARD",
        "MonsterLevel": 59,
        "ScoreRatio": 2.5
    },
    {
        "Id": 28,
        "ChallengeId": 7,
        "MonsterDifficulty": "EFFIGY_DIFFICULTY_EXPERT",
        "MonsterLevel": 79,
        "ScoreRatio": 4.5
    }
]