[
    {
        "TagID": 1001,
        "TagName": "蒙德",
        "TagDesp": "角色属于蒙德"
    },
    {
        "TagID": 1002,
        "TagName": "璃月",
        "TagDesp": "角色属于璃月"
    },
    {
        "TagID": 1003,
        "TagName": "稻妻",
        "TagDesp": "角色属于稻妻"
    },
    {
        "TagID": 1011,
        "TagName": "主角",
        "TagDesp": "男主/女主分类"
    },
    {
        "TagID": 1012,
        "TagName": "魔神",
        "TagDesp": "目前用于判断 陨石活动中神之眼是否会闪烁（因为魔神的神之眼是假的）"
    },
    {
        "TagID": 1041,
        "TagName": "成男体型",
        "TagDesp": ""
    },
    {
        "TagID": 1042,
        "TagName": "成女体型",
        "TagDesp": ""
    },
    {
        "TagID": 1043,
        "TagName": "少男体型",
        "TagDesp": ""
    },
    {
        "TagID": 1044,
        "TagName": "少女体型",
        "TagDesp": ""
    },
    {
        "TagID": 1045,
        "TagName": "萝莉体型",
        "TagDesp": ""
    },
    {
        "TagID": 1051,
        "TagName": "单手剑武器",
        "TagDesp": ""
    },
    {
        "TagID": 1052,
        "TagName": "双手剑武器",
        "TagDesp": ""
    },
    {
        "TagID": 1053,
        "TagName": "长柄武器",
        "TagDesp": ""
    },
    {
        "TagID": 1054,
        "TagName": "法器武器",
        "TagDesp": ""
    },
    {
        "TagID": 1055,
        "TagName": "弓箭武器",
        "TagDesp": ""
    },
    {
        "TagID": 1095,
        "TagName": "阿贝多",
        "TagDesp": ""
    },
    {
        "TagID": 1096,
        "TagName": "诺艾尔",
        "TagDesp": ""
    },
    {
        "TagID": 1097,
        "TagName": "北斗",
        "TagDesp": ""
    },
    {
        "TagID": 1098,
        "TagName": "行秋",
        "TagDesp": ""
    },
    {
        "TagID": 1099,
        "TagName": "钟离",
        "TagDesp": ""
    },
    {
        "TagID": 3001,
        "TagName": "生物",
        "TagDesp": ""
    },
    {
        "TagID": 3002,
        "TagName": "非生物",
        "TagDesp": ""
    },
    {
        "TagID": 3003,
        "TagName": "人形",
        "TagDesp": ""
    },
    {
        "TagID": 3004,
        "TagName": "非人形",
        "TagDesp": ""
    },
    {
        "TagID": 3005,
        "TagName": "自带元素",
        "TagDesp": ""
    },
    {
        "TagID": 4001,
        "TagName": "丘丘人",
        "TagDesp": "任意类丘丘人"
    },
    {
        "TagID": 4002,
        "TagName": "史莱姆",
        "TagDesp": "任意类史莱姆"
    },
    {
        "TagID": 4003,
        "TagName": "元素球",
        "TagDesp": "任意类元素球"
    },
    {
        "TagID": 4004,
        "TagName": "萨满怪",
        "TagDesp": "任意类萨满"
    },
    {
        "TagID": 4005,
        "TagName": "遗迹怪",
        "TagDesp": "任意类遗迹怪"
    },
    {
        "TagID": 4006,
        "TagName": "盗宝团",
        "TagDesp": "盗宝团怪物"
    },
    {
        "TagID": 4007,
        "TagName": "千岩军",
        "TagDesp": "千岩军怪物"
    },
    {
        "TagID": 4008,
        "TagName": "植物怪",
        "TagDesp": "植物怪怪物"
    },
    {
        "TagID": 4009,
        "TagName": "愚人众先遣队",
        "TagDesp": "任意类愚人众先遣队"
    },
    {
        "TagID": 4901,
        "TagName": "远程怪",
        "TagDesp": "怪物分类_远程"
    },
    {
        "TagID": 4902,
        "TagName": "近战怪",
        "TagDesp": "怪物分类_近战"
    },
    {
        "TagID": 4903,
        "TagName": "队长怪",
        "TagDesp": "怪物分类 队长"
    },
    {
        "TagID": 9001,
        "TagName": "动物",
        "TagDesp": ""
    },
    {
        "TagID": 10016,
        "TagName": "迪卢克",
        "TagDesp": ""
    },
    {
        "TagID": 10020,
        "TagName": "雷泽",
        "TagDesp": ""
    },
    {
        "TagID": 10023,
        "TagName": "香菱",
        "TagDesp": ""
    },
    {
        "TagID": 10025,
        "TagName": "行秋",
        "TagDesp": ""
    },
    {
        "TagID": 10026,
        "TagName": "魈",
        "TagDesp": "魈——用作魈地城判定"
    },
    {
        "TagID": 10029,
        "TagName": "可莉",
        "TagDesp": ""
    },
    {
        "TagID": 10030,
        "TagName": "钟离",
        "TagDesp": ""
    },
    {
        "TagID": 10031,
        "TagName": "菲谢尔",
        "TagDesp": ""
    },
    {
        "TagID": 10032,
        "TagName": "班尼特",
        "TagDesp": ""
    },
    {
        "TagID": 10034,
        "TagName": "诺埃尔",
        "TagDesp": ""
    },
    {
        "TagID": 10036,
        "TagName": "重云",
        "TagDesp": ""
    },
    {
        "TagID": 10037,
        "TagName": "甘雨",
        "TagDesp": ""
    },
    {
        "TagID": 10038,
        "TagName": "阿贝多",
        "TagDesp": ""
    },
    {
        "TagID": 10042,
        "TagName": "刻晴",
        "TagDesp": ""
    },
    {
        "TagID": 10043,
        "TagName": "砂糖",
        "TagDesp": ""
    },
    {
        "TagID": 10052,
        "TagName": "雷电将军",
        "TagDesp": ""
    }
]