[
    {
        "AvatarId": 10000021,
        "FetterLevel": 10,
        "RewardId": 241001
    },
    {
        "AvatarId": 10000029,
        "FetterLevel": 10,
        "RewardId": 241002
    },
    {
        "AvatarId": 10000016,
        "FetterLevel": 10,
        "RewardId": 241003
    },
    {
        "AvatarId": 10000020,
        "FetterLevel": 10,
        "RewardId": 241004
    },
    {
        "AvatarId": 10000022,
        "FetterLevel": 10,
        "RewardId": 241005
    },
    {
        "AvatarId": 10000003,
        "FetterLevel": 10,
        "RewardId": 241006
    },
    {
        "AvatarId": 10000014,
        "FetterLevel": 10,
        "RewardId": 241007
    },
    {
        "AvatarId": 10000015,
        "FetterLevel": 10,
        "RewardId": 241008
    },
    {
        "AvatarId": 10000006,
        "FetterLevel": 10,
        "RewardId": 241009
    },
    {
        "AvatarId": 10000043,
        "FetterLevel": 10,
        "RewardId": 241010
    },
    {
        "AvatarId": 10000031,
        "FetterLevel": 10,
        "RewardId": 241011
    },
    {
        "AvatarId": 10000034,
        "FetterLevel": 10,
        "RewardId": 241012
    },
    {
        "AvatarId": 10000041,
        "FetterLevel": 10,
        "RewardId": 241013
    },
    {
        "AvatarId": 10000032,
        "FetterLevel": 10,
        "RewardId": 241014
    },
    {
        "AvatarId": 10000023,
        "FetterLevel": 10,
        "RewardId": 241015
    },
    {
        "AvatarId": 10000025,
        "FetterLevel": 10,
        "RewardId": 241016
    },
    {
        "AvatarId": 10000035,
        "FetterLevel": 10,
        "RewardId": 241017
    },
    {
        "AvatarId": 10000042,
        "FetterLevel": 10,
        "RewardId": 241018
    },
    {
        "AvatarId": 10000027,
        "FetterLevel": 10,
        "RewardId": 241019
    },
    {
        "AvatarId": 10000024,
        "FetterLevel": 10,
        "RewardId": 241020
    },
    {
        "AvatarId": 10000036,
        "FetterLevel": 10,
        "RewardId": 241021
    },
    {
        "AvatarId": 10000039,
        "FetterLevel": 10,
        "RewardId": 241022
    },
    {
        "AvatarId": 10000030,
        "FetterLevel": 10,
        "RewardId": 241023
    },
    {
        "AvatarId": 10000044,
        "FetterLevel": 10,
        "RewardId": 241024
    },
    {
        "AvatarId": 10000033,
        "FetterLevel": 10,
        "RewardId": 241025
    },
    {
        "AvatarId": 10000037,
        "FetterLevel": 10,
        "RewardId": 241026
    },
    {
        "AvatarId": 10000038,
        "FetterLevel": 10,
        "RewardId": 241027
    },
    {
        "AvatarId": 10000026,
        "FetterLevel": 10,
        "RewardId": 241028
    },
    {
        "AvatarId": 10000046,
        "FetterLevel": 10,
        "RewardId": 241029
    },
    {
        "AvatarId": 10000045,
        "FetterLevel": 10,
        "RewardId": 241030
    },
    {
        "AvatarId": 10000048,
        "FetterLevel": 10,
        "RewardId": 241031
    },
    {
        "AvatarId": 10000051,
        "FetterLevel": 10,
        "RewardId": 241032
    }
]