[
    {
        "Id": 11001,
        "PlayerLevel": 2,
        "IsDefaultShow": true,
        "EffectiveWorldLevels": [
            0,
            1,
            2,
            3,
            4,
            5,
            6,
            7,
            8
        ],
        "ForgeType": 1,
        "ShowItemId": 104011,
        "ResultItemId": 104011,
        "ResultItemCount": 1,
        "ForgeTime": 3,
        "QueueNum": 20,
        "ScoinCost": 5,
        "RandomItems": [
            {}
        ],
        "MaterialItems": [
            {
                "Id": 101001,
                "Count": 2
            },
            {},
            {}
        ],
        "Priority": 450,
        "ForgePoint": 400,
        "ForgePointNoticeTextMapHash": 1106263712
    },
    {
        "Id": 11002,
        "PlayerLevel": 2,
        "IsDefaultShow": true,
        "EffectiveWorldLevels": [
            0,
            1,
            2,
            3,
            4,
            5,
            6,
            7,
            8
        ],
        "ForgeType": 1,
        "ShowItemId": 104012,
        "ResultItemId": 104012,
        "ResultItemCount": 1,
        "ForgeTime": 6,
        "QueueNum": 10,
        "ScoinCost": 10,
        "RandomItems": [
            {}
        ],
        "MaterialItems": [
            {
                "Id": 101002,
                "Count": 3
            },
            {},
            {}
        ],
        "Priority": 450,
        "ForgePoint": 2000,
        "ForgePointNoticeTextMapHash": 1652126048
    },
    {
        "Id": 11003,
        "PlayerLevel": 5,
        "IsDefaultShow": true,
        "EffectiveWorldLevels": [
            0,
            1,
            2,
            3,
            4,
            5,
            6,
            7,
            8
        ],
        "ForgeType": 1,
        "ShowItemId": 104013,
        "ResultItemId": 104013,
        "ResultItemCount": 1,
        "ForgeTime": 180,
        "QueueNum": 5,
        "ScoinCost": 50,
        "RandomItems": [
            {}
        ],
        "MaterialItems": [
            {
                "Id": 101003,
                "Count": 4
            },
            {},
            {}
        ],
        "Priority": 450,
        "ForgePoint": 10000,
        "ForgePointNoticeTextMapHash": 110208304
    },
    {
        "Id": 11004,
        "PlayerLevel": 2,
        "IsDefaultShow": true,
        "EffectiveWorldLevels": [
            0,
            1,
            2,
            3,
            4,
            5,
            6,
            7,
            8
        ],
        "ForgeType": 1,
        "ShowItemId": 104012,
        "ResultItemId": 104012,
        "ResultItemCount": 1,
        "ForgeTime": 6,
        "QueueNum": 10,
        "ScoinCost": 10,
        "RandomItems": [
            {}
        ],
        "MaterialItems": [
            {
                "Id": 101006,
                "Count": 3
            },
            {},
            {}
        ],
        "Priority": 450,
        "ForgePoint": 2000,
        "ForgePointNoticeTextMapHash": 905054512
    },
    {
        "Id": 12001,
        "PlayerLevel": 30,
        "IsDefaultShow": true,
        "EffectiveWorldLevels": [
            3,
            4,
            5,
            6,
            7,
            8
        ],
        "ForgeType": 1,
        "ShowItemId": 104013,
        "ResultItemCount": 6,
        "MainRandomDropId": 208001500,
        "ForgeTime": 5,
        "QueueNum": 1,
        "ScoinCost": 100,
        "RandomItems": [
            {}
        ],
        "MaterialItems": [
            {
                "Id": 101004,
                "Count": 3
            },
            {
                "Id": 106,
                "Count": 10
            },
            {}
        ],
        "Priority": 460,
        "ForgePointNoticeTextMapHash": 3982284160
    },
    {
        "Id": 13001,
        "PlayerLevel": 5,
        "IsDefaultShow": true,
        "EffectiveWorldLevels": [
            0,
            1,
            2,
            3,
            4,
            5,
            6,
            7,
            8
        ],
        "ForgeType": 3,
        "ShowItemId": 11406,
        "ResultItemId": 11406,
        "ResultItemCount": 1,
        "ForgeTime": 10,
        "QueueNum": 1,
        "ScoinCost": 500,
        "RandomItems": [
            {}
        ],
        "MaterialItems": [
            {
                "Id": 101101,
                "Count": 1
            },
            {
                "Id": 101003,
                "Count": 50
            },
            {
                "Id": 101002,
                "Count": 50
            }
        ],
        "Priority": 250,
        "ForgePointNoticeTextMapHash": 20496128
    },
    {
        "Id": 13002,
        "PlayerLevel": 5,
        "IsDefaultShow": true,
        "EffectiveWorldLevels": [
            0,
            1,
            2,
            3,
            4,
            5,
            6,
            7,
            8
        ],
        "ForgeType": 3,
        "ShowItemId": 11407,
        "ResultItemId": 11407,
        "ResultItemCount": 1,
        "ForgeTime": 10,
        "QueueNum": 1,
        "ScoinCost": 500,
        "RandomItems": [
            {}
        ],
        "MaterialItems": [
            {
                "Id": 101101,
                "Count": 1
            },
            {
                "Id": 101003,
                "Count": 50
            },
            {
                "Id": 101002,
                "Count": 50
            }
        ],
        "Priority": 250,
        "ForgePointNoticeTextMapHash": 493535288
    },
    {
        "Id": 13003,
        "PlayerLevel": 5,
        "IsDefaultShow": true,
        "EffectiveWorldLevels": [
            0,
            1,
            2,
            3,
            4,
            5,
            6,
            7,
            8
        ],
        "ForgeType": 4,
        "ShowItemId": 15406,
        "ResultItemId": 15406,
        "ResultItemCount": 1,
        "ForgeTime": 10,
        "QueueNum": 1,
        "ScoinCost": 500,
        "RandomItems": [
            {}
        ],
        "MaterialItems": [
            {
                "Id": 101102,
                "Count": 1
            },
            {
                "Id": 101003,
                "Count": 50
            },
            {
                "Id": 101002,
                "Count": 50
            }
        ],
        "Priority": 250,
        "ForgePointNoticeTextMapHash": 1712470968
    },
    {
        "Id": 13004,
        "PlayerLevel": 5,
        "IsDefaultShow": true,
        "EffectiveWorldLevels": [
            0,
            1,
            2,
            3,
            4,
            5,
            6,
            7,
            8
        ],
        "ForgeType": 4,
        "ShowItemId": 15407,
        "ResultItemId": 15407,
        "ResultItemCount": 1,
        "ForgeTime": 10,
        "QueueNum": 1,
        "ScoinCost": 500,
        "RandomItems": [
            {}
        ],
        "MaterialItems": [
            {
                "Id": 101102,
                "Count": 1
            },
            {
                "Id": 101003,
                "Count": 50
            },
            {
                "Id": 101002,
                "Count": 50
            }
        ],
        "Priority": 250,
        "ForgePointNoticeTextMapHash": 3589092064
    },
    {
        "Id": 13005,
        "PlayerLevel": 5,
        "IsDefaultShow": true,
        "EffectiveWorldLevels": [
            0,
            1,
            2,
            3,
            4,
            5,
            6,
            7,
            8
        ],
        "ForgeType": 5,
        "ShowItemId": 12406,
        "ResultItemId": 12406,
        "ResultItemCount": 1,
        "ForgeTime": 10,
        "QueueNum": 1,
        "ScoinCost": 500,
        "RandomItems": [
            {}
        ],
        "MaterialItems": [
            {
                "Id": 101103,
                "Count": 1
            },
            {
                "Id": 101003,
                "Count": 50
            },
            {
                "Id": 101002,
                "Count": 50
            }
        ],
        "Priority": 250,
        "ForgePointNoticeTextMapHash": 488352224
    },
    {
        "Id": 13006,
        "PlayerLevel": 5,
        "IsDefaultShow": true,
        "EffectiveWorldLevels": [
            0,
            1,
            2,
            3,
            4,
            5,
            6,
            7,
            8
        ],
        "ForgeType": 5,
        "ShowItemId": 12407,
        "ResultItemId": 12407,
        "ResultItemCount": 1,
        "ForgeTime": 10,
        "QueueNum": 1,
        "ScoinCost": 500,
        "RandomItems": [
            {}
        ],
        "MaterialItems": [
            {
                "Id": 101103,
                "Count": 1
            },
            {
                "Id": 101003,
                "Count": 50
            },
            {
                "Id": 101002,
                "Count": 50
            }
        ],
        "Priority": 250,
        "ForgePointNoticeTextMapHash": 1084737336
    },
    {
        "Id": 13007,
        "PlayerLevel": 5,
        "IsDefaultShow": true,
        "EffectiveWorldLevels": [
            0,
            1,
            2,
            3,
            4,
            5,
            6,
            7,
            8
        ],
        "ForgeType": 6,
        "ShowItemId": 14406,
        "ResultItemId": 14406,
        "ResultItemCount": 1,
        "ForgeTime": 10,
        "QueueNum": 1,
        "ScoinCost": 500,
        "RandomItems": [
            {}
        ],
        "MaterialItems": [
            {
                "Id": 101104,
                "Count": 1
            },
            {
                "Id": 101003,
                "Count": 50
            },
            {
                "Id": 101002,
                "Count": 50
            }
        ],
        "Priority": 250,
        "ForgePointNoticeTextMapHash": 2673803024
    },
    {
        "Id": 13008,
        "PlayerLevel": 5,
        "IsDefaultShow": true,
        "EffectiveWorldLevels": [
            0,
            1,
            2,
            3,
            4,
            5,
            6,
            7,
            8
        ],
        "ForgeType": 6,
        "ShowItemId": 14407,
        "ResultItemId": 14407,
        "ResultItemCount": 1,
        "ForgeTime": 10,
        "QueueNum": 1,
        "ScoinCost": 500,
        "RandomItems": [
            {}
        ],
        "MaterialItems": [
            {
                "Id": 101104,
                "Count": 1
            },
            {
                "Id": 101003,
                "Count": 50
            },
            {
                "Id": 101002,
                "Count": 50
            }
        ],
        "Priority": 250,
        "ForgePointNoticeTextMapHash": 3848920016
    },
    {
        "Id": 13009,
        "PlayerLevel": 5,
        "IsDefaultShow": true,
        "EffectiveWorldLevels": [
            0,
            1,
            2,
            3,
            4,
            5,
            6,
            7,
            8
        ],
        "ForgeType": 7,
        "ShowItemId": 13402,
        "ResultItemId": 13402,
        "ResultItemCount": 1,
        "ForgeTime": 10,
        "QueueNum": 1,
        "ScoinCost": 500,
        "RandomItems": [
            {}
        ],
        "MaterialItems": [
            {
                "Id": 101105,
                "Count": 1
            },
            {
                "Id": 101003,
                "Count": 50
            },
            {
                "Id": 101002,
                "Count": 50
            }
        ],
        "Priority": 250,
        "ForgePointNoticeTextMapHash": 987328312
    },
    {
        "Id": 13010,
        "PlayerLevel": 5,
        "IsDefaultShow": true,
        "EffectiveWorldLevels": [
            0,
            1,
            2,
            3,
            4,
            5,
            6,
            7,
            8
        ],
        "ForgeType": 7,
        "ShowItemId": 13403,
        "ResultItemId": 13403,
        "ResultItemCount": 1,
        "ForgeTime": 10,
        "QueueNum": 1,
        "ScoinCost": 500,
        "RandomItems": [
            {}
        ],
        "MaterialItems": [
            {
                "Id": 101105,
                "Count": 1
            },
            {
                "Id": 101003,
                "Count": 50
            },
            {
                "Id": 101002,
                "Count": 50
            }
        ],
        "Priority": 250,
        "ForgePointNoticeTextMapHash": 2741051016
    },
    {
        "Id": 13011,
        "PlayerLevel": 10,
        "EffectiveWorldLevels": [
            0,
            1,
            2,
            3,
            4,
            5,
            6,
            7,
            8
        ],
        "ForgeType": 5,
        "ShowItemId": 12411,
        "ResultItemId": 12411,
        "ResultItemCount": 1,
        "ForgeTime": 10,
        "QueueNum": 1,
        "ScoinCost": 500,
        "RandomItems": [
            {}
        ],
        "MaterialItems": [
            {
                "Id": 101103,
                "Count": 1
            },
            {
                "Id": 101003,
                "Count": 50
            },
            {
                "Id": 101006,
                "Count": 50
            }
        ],
        "Priority": 250,
        "ForgePointNoticeTextMapHash": 2400094520
    },
    {
        "Id": 13012,
        "PlayerLevel": 10,
        "EffectiveWorldLevels": [
            0,
            1,
            2,
            3,
            4,
            5,
            6,
            7,
            8
        ],
        "ForgeType": 6,
        "ShowItemId": 14412,
        "ResultItemId": 14412,
        "ResultItemCount": 1,
        "ForgeTime": 10,
        "QueueNum": 1,
        "ScoinCost": 500,
        "RandomItems": [
            {}
        ],
        "MaterialItems": [
            {
                "Id": 101104,
                "Count": 1
            },
            {
                "Id": 101003,
                "Count": 50
            },
            {
                "Id": 101006,
                "Count": 50
            }
        ],
        "Priority": 250,
        "ForgePointNoticeTextMapHash": 1129506432
    },
    {
        "Id": 13013,
        "PlayerLevel": 10,
        "EffectiveWorldLevels": [
            0,
            1,
            2,
            3,
            4,
            5,
            6,
            7,
            8
        ],
        "ForgeType": 7,
        "ShowItemId": 13409,
        "ResultItemId": 13409,
        "ResultItemCount": 1,
        "ForgeTime": 10,
        "QueueNum": 1,
        "ScoinCost": 500,
        "RandomItems": [
            {}
        ],
        "MaterialItems": [
            {
                "Id": 101105,
                "Count": 1
            },
            {
                "Id": 101006,
                "Count": 50
            },
            {
                "Id": 100619,
                "Count": 8
            }
        ],
        "Priority": 250,
        "ForgePointNoticeTextMapHash": 2947367136
    },
    {
        "Id": 14003,
        "PlayerLevel": 10,
        "EffectiveWorldLevels": [
            0,
            1,
            2,
            3,
            4,
            5,
            6,
            7,
            8
        ],
        "ForgeType": 8,
        "ShowItemId": 220003,
        "ResultItemId": 220003,
        "ResultItemCount": 1,
        "ForgeTime": 30,
        "QueueNum": 1,
        "ScoinCost": 50000,
        "RandomItems": [
            {}
        ],
        "MaterialItems": [
            {
                "Id": 112037,
                "Count": 10
            },
            {
                "Id": 100058,
                "Count": 30
            },
            {
                "Id": 101003,
                "Count": 50
            }
        ],
        "Priority": 168,
        "ForgePointNoticeTextMapHash": 3517182960
    },
    {
        "Id": 14004,
        "PlayerLevel": 10,
        "EffectiveWorldLevels": [
            0,
            1,
            2,
            3,
            4,
            5,
            6,
            7,
            8
        ],
        "ForgeType": 8,
        "ShowItemId": 220004,
        "ResultItemId": 220004,
        "ResultItemCount": 1,
        "ForgeTime": 30,
        "QueueNum": 1,
        "ScoinCost": 50000,
        "RandomItems": [
            {}
        ],
        "MaterialItems": [
            {
                "Id": 113001,
                "Count": 10
            },
            {
                "Id": 100024,
                "Count": 30
            },
            {
                "Id": 101003,
                "Count": 50
            }
        ],
        "Priority": 150,
        "ForgePointNoticeTextMapHash": 2246103744
    },
    {
        "Id": 14006,
        "PlayerLevel": 10,
        "EffectiveWorldLevels": [
            0,
            1,
            2,
            3,
            4,
            5,
            6,
            7,
            8
        ],
        "ForgeType": 8,
        "ShowItemId": 220006,
        "ResultItemId": 220006,
        "ResultItemCount": 1,
        "ForgeTime": 10,
        "QueueNum": 5,
        "ScoinCost": 500,
        "RandomItems": [
            {}
        ],
        "MaterialItems": [
            {
                "Id": 111013,
                "Count": 1
            },
            {
                "Id": 100085,
                "Count": 2
            },
            {
                "Id": 101001,
                "Count": 2
            }
        ],
        "Priority": 150,
        "ForgePointNoticeTextMapHash": 4261089576
    },
    {
        "Id": 14008,
        "PlayerLevel": 10,
        "EffectiveWorldLevels": [
            0,
            1,
            2,
            3,
            4,
            5,
            6,
            7,
            8
        ],
        "ForgeType": 8,
        "ShowItemId": 220008,
        "ResultItemId": 220008,
        "ResultItemCount": 1,
        "ForgeTime": 30,
        "QueueNum": 1,
        "ScoinCost": 50000,
        "RandomItems": [
            {}
        ],
        "MaterialItems": [
            {
                "Id": 100083,
                "Count": 20
            },
            {
                "Id": 112024,
                "Count": 20
            },
            {
                "Id": 100054,
                "Count": 50
            }
        ],
        "Priority": 150,
        "ForgePointNoticeTextMapHash": 3478351816
    },
    {
        "Id": 14009,
        "PlayerLevel": 10,
        "EffectiveWorldLevels": [
            0,
            1,
            2,
            3,
            4,
            5,
            6,
            7,
            8
        ],
        "ForgeType": 8,
        "ShowItemId": 220009,
        "ResultItemId": 220009,
        "ResultItemCount": 1,
        "ForgeTime": 30,
        "QueueNum": 1,
        "ScoinCost": 50000,
        "RandomItems": [
            {}
        ],
        "MaterialItems": [
            {
                "Id": 112037,
                "Count": 10
            },
            {
                "Id": 100025,
                "Count": 30
            },
            {
                "Id": 101003,
                "Count": 50
            }
        ],
        "Priority": 169,
        "ForgePointNoticeTextMapHash": 2169744520
    },
    {
        "Id": 14017,
        "PlayerLevel": 10,
        "EffectiveWorldLevels": [
            0,
            1,
            2,
            3,
            4,
            5,
            6,
            7,
            8
        ],
        "ForgeType": 8,
        "ShowItemId": 220017,
        "ResultItemId": 220017,
        "ResultItemCount": 1,
        "ForgeTime": 10,
        "QueueNum": 5,
        "ScoinCost": 500,
        "RandomItems": [
            {}
        ],
        "MaterialItems": [
            {
                "Id": 100053,
                "Count": 2
            },
            {
                "Id": 101006,
                "Count": 2
            },
            {}
        ],
        "Priority": 150,
        "ForgePointNoticeTextMapHash": 749734432
    }
]