[
    {
        "Id": 1,
        "UseCondenseResin": true,
        "TitleTextMapHash": 199263255,
        "EHDPKJCADNC": 1281378490,
        "KICBKHEEKMN": 3214651515,
        "PIMINOBPPKI": 561684598,
        "CDCCIJCJHMM": 4170048797,
        "LKMBOMDADOF": 1507534642,
        "KHLNGNKNICF": 3412402354,
        "ConfirmTextMapHash": 660364109,
        "ResinMonthlyTextMapHash": 1136415638,
        "InsufficientTextMapHash": 3240396851,
        "InsufficientUseitemTextMapHash": 442489723,
        "CondenseResinTextMapHash": 3072733076
    },
    {
        "Id": 2,
        "UseCondenseResin": true,
        "TitleTextMapHash": 2943681175,
        "EHDPKJCADNC": 3159959474,
        "KICBKHEEKMN": 2554031987,
        "PIMINOBPPKI": 939839270,
        "CDCCIJCJHMM": 2391101933,
        "LKMBOMDADOF": 267985834,
        "KHLNGNKNICF": 480120826,
        "ConfirmTextMapHash": 3780944325,
        "ResinMonthlyTextMapHash": 1580928974,
        "InsufficientTextMapHash": 1019822211,
        "InsufficientUseitemTextMapHash": 2851492515,
        "CondenseResinTextMapHash": 1844005148
    },
    {
        "Id": 3,
        "TitleTextMapHash": 4221217519,
        "EHDPKJCADNC": 581234010,
        "KICBKHEEKMN": 2445721555,
        "PIMINOBPPKI": 3041755142,
        "CDCCIJCJHMM": 4273280581,
        "LKMBOMDADOF": 299847562,
        "KHLNGNKNICF": 797974522,
        "ConfirmTextMapHash": 2128749677,
        "ResinMonthlyTextMapHash": 2482396278,
        "InsufficientTextMapHash": 1819045707,
        "InsufficientUseitemTextMapHash": 560610243,
        "CondenseResinTextMapHash": 1606174516
    },
    {
        "Id": 4,
        "TitleTextMapHash": 1024496391,
        "EHDPKJCADNC": 3625520098,
        "KICBKHEEKMN": 2154626611,
        "PIMINOBPPKI": 2335624198,
        "CDCCIJCJHMM": 3680985669,
        "LKMBOMDADOF": 3784969250,
        "KHLNGNKNICF": 2169192938,
        "ConfirmTextMapHash": 3667884565,
        "ResinMonthlyTextMapHash": 2342728198,
        "InsufficientTextMapHash": 3363128555,
        "InsufficientUseitemTextMapHash": 1944143091,
        "CondenseResinTextMapHash": 3821931532
    },
    {
        "Id": 5,
        "TitleTextMapHash": 849949647,
        "EHDPKJCADNC": 676923610,
        "KICBKHEEKMN": 2346605891,
        "PIMINOBPPKI": 2436785942,
        "CDCCIJCJHMM": 3633209549,
        "LKMBOMDADOF": 410256498,
        "KHLNGNKNICF": 1670073378,
        "ConfirmTextMapHash": 3591651357,
        "ResinMonthlyTextMapHash": 3410695510,
        "InsufficientTextMapHash": 2839031571,
        "InsufficientUseitemTextMapHash": 2617210003,
        "CondenseResinTextMapHash": 1410088636
    },
    {
        "Id": 6,
        "RewardSourceSystem": "MPPlay",
        "RewardSourceSystemPara": 4,
        "TitleTextMapHash": 1867173935,
        "EHDPKJCADNC": 1310290114,
        "KICBKHEEKMN": 2641050507,
        "PIMINOBPPKI": 3610196990,
        "CDCCIJCJHMM": 2923177925,
        "LKMBOMDADOF": 3420925202,
        "KHLNGNKNICF": 3855246034,
        "ConfirmTextMapHash": 3955976269,
        "ResinMonthlyTextMapHash": 800860598,
        "InsufficientTextMapHash": 2867220683,
        "InsufficientUseitemTextMapHash": 2965950611,
        "CondenseResinTextMapHash": 1085106236
    }
]