[
    {
        "GuideName": "GuideWeaponChange",
        "Type": "GET_NEW_ITEM",
        "OpenState": "OPEN_STATE_WEAPON_CHANGE_GUIDE"
    },
    {
        "GuideName": "GuideAvatarUpgrade",
        "Type": "GET_NEW_ITEM",
        "OpenState": "OPEN_STATE_PLAYER_LVUP_GUIDE"
    },
    {
        "GuideName": "GuideRelic",
        "Type": "GET_NEW_ITEM",
        "OpenState": "OPEN_STATE_GUIDE_RELIC"
    },
    {
        "GuideName": "GuideWeaponUpgrade",
        "Type": "OPENSTATE_CHANGE",
        "OpenState": "OPEN_STATE_WEAPON_PROMOTE_GUIDE"
    },
    {
        "GuideName": "GuideTalent",
        "Type": "OPENSTATE_CHANGE",
        "OpenState": "OPEN_STATE_GUIDE_TALENT"
    },
    {
        "GuideName": "GuideRelicPromote",
        "Type": "OPENSTATE_CHANGE",
        "OpenState": "OPEN_STATE_GUIDE_RELIC_PROM"
    },
    {
        "GuideName": "GuideGacha",
        "Type": "OPENSTATE_CHANGE",
        "OpenState": "OPEN_STATE_GUIDE_GACHA"
    },
    {
        "GuideName": "GuideTeam",
        "Type": "HAS_AVATAR_NUM",
        "Param1": 5
    },
    {
        "GuideName": "GuideAvatarPromote",
        "Type": "ANY_AVATAR_LEVEL",
        "Param1": 20
    },
    {
        "GuideName": "GuideBag",
        "Type": "GET_NEW_ITEM",
        "OpenState": "OPEN_STATE_GUIDE_BAG"
    },
    {
        "GuideName": "GuideMultiplayer",
        "Type": "OPENSTATE_CHANGE",
        "OpenState": "OPEN_STATE_GUIDE_MULTIPLAYER"
    },
    {
        "GuideName": "GuideDungeonReward",
        "Type": "OPENSTATE_CHANGE",
        "OpenState": "OPEN_STATE_GUIDE_DUNGEONREWARD"
    },
    {
        "GuideName": "GuidePersonalLine",
        "Type": "OPENSTATE_CHANGE",
        "OpenState": "OPEN_STATE_GUIDE_PERSONAL_LINE"
    },
    {
        "GuideName": "GuideAppearance",
        "Type": "OPENSTATE_CHANGE",
        "OpenState": "OPEN_STATE_GUIDE_APPEARANCE"
    },
    {
        "GuideName": "GuidePersonalLineKey",
        "Type": "PERSONALLINE_KEY",
        "OpenState": "OPEN_STATE_GUIDE_PERSONAL_LINE_KEY"
    },
    {
        "GuideName": "GuideProcess",
        "Type": "OPENSTATE_CHANGE",
        "OpenState": "OPEN_STATE_GUIDE_PROCESS"
    },
    {
        "GuideName": "GuideWidget",
        "Type": "GET_NEW_ITEM",
        "OpenState": "OPEN_STATE_GUIDE_WIDGET"
    },
    {
        "GuideName": "GuideExitMultiplayer",
        "Type": "WORLDPLAYER_UPDATE",
        "OpenState": "OPEN_STATE_GUIDE_EXITMULTIPLAYER"
    },
    {
        "GuideName": "GuideColdClimateEntry",
        "Type": "CLIMATE_TYPE_CHANGE",
        "OpenState": "OPEN_STATE_GUIDE_COLDCLIMATE"
    },
    {
        "GuideName": "GuideTheatreMachanicusBuildios",
        "Type": "OPENSTATE_CHANGE",
        "OpenState": "OPEN_STATE_GUIDE_THEATREMACHANICUS_BUILD"
    },
    {
        "GuideName": "GuideTheatreMachanicusRebuildios",
        "Type": "OPENSTATE_CHANGE",
        "OpenState": "OPEN_STATE_GUIDE_THEATREMACHANICUS_REBUILD"
    },
    {
        "GuideName": "GuideTheatreMachanicusCardios",
        "Type": "OPENSTATE_CHANGE",
        "OpenState": "OPEN_STATE_GUIDE_THEATREMACHANICUS_CARD"
    },
    {
        "GuideName": "GuideTheatreMachanicusMissionCheck",
        "Type": "OPENSTATE_CHANGE",
        "OpenState": "OPEN_STATE_GUIDE_THEATREMACHANICUS_MISSION_CHECK"
    },
    {
        "GuideName": "GuideTheatreMachanicusBuildSelect",
        "Type": "OPENSTATE_CHANGE",
        "OpenState": "OPEN_STATE_GUIDE_THEATREMACHANICUS_BUILD_SELECT"
    },
    {
        "GuideName": "GuideTheatreMachanicusChallegeStart",
        "Type": "OPENSTATE_CHANGE",
        "OpenState": "OPEN_STATE_GUIDE_THEATREMACHANICUS_CHALLENGE_START"
    },
    {
        "GuideName": "GuideTheatreMachanicusMonsterios",
        "Type": "OPENSTATE_CHANGE",
        "OpenState": "OPEN_STATE_GUIDE_THEATREMACHANICUS_MONSTER"
    },
    {
        "GuideName": "GuideSynthesisConvert",
        "Type": "OPENSTATE_CHANGE",
        "OpenState": "OPEN_STATE_GUIDE_CONVERT"
    },
    {
        "GuideName": "GuideTheatreMachanicusMultiplayerios",
        "Type": "OPENSTATE_CHANGE",
        "OpenState": "OPEN_STATE_GUIDE_THEATREMACHANICUS_MULTIPLAYER"
    },
    {
        "GuideName": "GuideCoopTask",
        "Type": "OPENSTATE_CHANGE",
        "OpenState": "OPEN_STATE_GUIDE_COOP_TASK"
    },
    {
        "GuideName": "GuideAdeptiAbode",
        "Type": "GET_NEW_ITEM",
        "OpenState": 77
    },
    {
        "GuideName": "GuideChannellerSlabEquip",
        "Type": "OPENSTATE_CHANGE",
        "OpenState": 79
    },
    {
        "GuideName": "GuideChannellerSlabMpSolution",
        "Type": "OPENSTATE_CHANGE",
        "OpenState": 80
    },
    {
        "GuideName": "GuideChannellerSlabPower",
        "Type": "OPENSTATE_CHANGE",
        "OpenState": 81
    },
    {
        "GuideName": "GuideHideandSeekSkill",
        "Type": "OPENSTATE_CHANGE",
        "OpenState": 82
    }
]