[
    {
        "QuestId": 6000001,
        "InvestigationId": 10001,
        "RewardId": 450101,
        "Icon": "UI_MarkGoddess5",
        "Image": "UI_HandbookPic_God_Statue",
        "InfoDesTextMapHash": 1184812606,
        "Guide": {
            "Param": [
                ""
            ]
        },
        "Id": 60001,
        "TriggerConfig": {
            "TriggerType": "TRIGGER_UNLOCK_AREA",
            "ParamList": [
                "2",
                "",
                ""
            ]
        },
        "Progress": 1
    },
    {
        "QuestId": 6000002,
        "InvestigationId": 10001,
        "RewardId": 450102,
        "Icon": "UI_MarkTransPoint",
        "Image": "UI_HandbookPic_Teleport",
        "InfoDesTextMapHash": 3701389390,
        "Guide": {
            "Param": [
                ""
            ]
        },
        "Id": 60002,
        "TriggerConfig": {
            "TriggerType": "TRIGGER_UNLOCK_TRANS_POINT",
            "ParamList": [
                "",
                "",
                ""
            ]
        },
        "Progress": 3
    },
    {
        "QuestId": 6000003,
        "InvestigationId": 10001,
        "RewardId": 450103,
        "Icon": "UI_MarkQuest_Box",
        "Image": "UI_HandbookPic_Treasure",
        "InfoDesTextMapHash": 3471438926,
        "Guide": {
            "Param": [
                ""
            ]
        },
        "Id": 60003,
        "TriggerConfig": {
            "TriggerType": "TRIGGER_OPEN_CHEST_WITH_GADGET_ID",
            "ParamList": [
                "70210001;70210002;70210003;70210004;70210005;70210006;70210011;70210012;70210013;70210014;70210021;70210022;70210023;70210024;70210031;70210032;70210033;70210034;70210041;70210042;70210043;70210044;70210051;70210052;70210053;70210054;70211001;70211002;70211011;70211012;70211021;70211022;70211031;70211032;70211101;70211102;70211103;70211104;70211111;70211112;70211121;70211122;70211123;70211131;70211132",
                "",
                ""
            ]
        },
        "Progress": 15
    },
    {
        "QuestId": 6000004,
        "InvestigationId": 10001,
        "RewardId": 450104,
        "Icon": "UI_MarkGoddess5",
        "Image": "UI_HandbookPic_Statue_Serving",
        "InfoDesTextMapHash": 3260623126,
        "Guide": {
            "Param": [
                ""
            ]
        },
        "Id": 60004,
        "TriggerConfig": {
            "TriggerType": "TRIGGER_CITY_LEVEL_UP",
            "ParamList": [
                "1",
                "2",
                ""
            ]
        },
        "Progress": 1
    },
    {
        "QuestId": 6000005,
        "InvestigationId": 10002,
        "RewardId": 450201,
        "Icon": "UI_MarkTransPoint",
        "Image": "UI_HandbookPic_Teleport",
        "InfoDesTextMapHash": 2172723334,
        "Guide": {
            "Param": [
                ""
            ]
        },
        "Id": 60005,
        "TriggerConfig": {
            "TriggerType": "TRIGGER_UNLOCK_TRANS_POINT",
            "ParamList": [
                "",
                "",
                ""
            ]
        },
        "Progress": 6
    },
    {
        "QuestId": 6000006,
        "InvestigationId": 10002,
        "RewardId": 450202,
        "Icon": "UI_MarkQuest_Box",
        "Image": "UI_HandbookPic_Treasure",
        "InfoDesTextMapHash": 3798580590,
        "Guide": {
            "Param": [
                ""
            ]
        },
        "Id": 60006,
        "TriggerConfig": {
            "TriggerType": "TRIGGER_OPEN_CHEST_WITH_GADGET_ID",
            "ParamList": [
                "70210001;70210002;70210003;70210004;70210005;70210006;70210011;70210012;70210013;70210014;70210021;70210022;70210023;70210024;70210031;70210032;70210033;70210034;70210041;70210042;70210043;70210044;70210051;70210052;70210053;70210054;70211001;70211002;70211011;70211012;70211021;70211022;70211031;70211032;70211101;70211102;70211103;70211104;70211111;70211112;70211121;70211122;70211123;70211131;70211132",
                "",
                ""
            ]
        },
        "Progress": 30
    },
    {
        "QuestId": 6000007,
        "InvestigationId": 10002,
        "RewardId": 450203,
        "Icon": "UI_MarkGoddess5",
        "Image": "UI_HandbookPic_Statue_Serving",
        "InfoDesTextMapHash": 2498945566,
        "Guide": {
            "Param": [
                ""
            ]
        },
        "Id": 60007,
        "TriggerConfig": {
            "TriggerType": "TRIGGER_CITY_LEVEL_UP",
            "ParamList": [
                "1",
                "4",
                ""
            ]
        },
        "Progress": 1
    },
    {
        "QuestId": 6000008,
        "InvestigationId": 10002,
        "RewardId": 450204,
        "Icon": "UI_MarkCustom_TagMonster",
        "Image": "UI_HandbookPic_Witcher",
        "InfoDesTextMapHash": 4125664014,
        "Guide": {
            "Type": "QUEST_GUIDE_LOCATION",
            "Param": [
                "AM0001SYFS"
            ],
            "GuideScene": 3,
            "GuideStyle": "QUEST_GUIDE_STYLE_POINT",
            "GuideLayer": "QUEST_GUIDE_LAYER_SCENE"
        },
        "Id": 60008,
        "TriggerConfig": {
            "TriggerType": "TRIGGER_MONSTER_DIE",
            "ParamList": [
                "22010201",
                "可联机",
                ""
            ]
        },
        "Progress": 1
    },
    {
        "QuestId": 6000009,
        "InvestigationId": 10002,
        "RewardId": 450205,
        "Icon": "UI_MarkPoint_Restaurant",
        "Image": "UI_HandbookPic_Cooking",
        "InfoDesTextMapHash": 2607195454,
        "Guide": {
            "Param": [
                ""
            ]
        },
        "Id": 60009,
        "TriggerConfig": {
            "TriggerType": "TRIGGER_DO_COOK",
            "ParamList": [
                "1",
                "",
                ""
            ]
        },
        "Progress": 5
    },
    {
        "QuestId": 6000010,
        "InvestigationId": 10002,
        "RewardId": 450206,
        "Icon": "UI_Mark_Common",
        "Image": "UI_HandbookPic_Weapon_Levelup",
        "InfoDesTextMapHash": 3451195086,
        "Guide": {
            "Param": [
                ""
            ]
        },
        "Id": 60010,
        "TriggerConfig": {
            "TriggerType": "TRIGGER_WEAPON_UPGRADE",
            "ParamList": [
                "10",
                "",
                ""
            ]
        },
        "Progress": 1
    },
    {
        "QuestId": 6000011,
        "InvestigationId": 10002,
        "RewardId": 450207,
        "Icon": "UI_Mark_Common",
        "Image": "UI_HandbookPic_Equipment_Breakthrough",
        "InfoDesTextMapHash": 3896599366,
        "Guide": {
            "Param": [
                ""
            ]
        },
        "Id": 60011,
        "TriggerConfig": {
            "TriggerType": "TRIGGER_WEAR_RELIQUARY",
            "ParamList": [
                "4",
                "",
                ""
            ]
        },
        "Progress": 1
    },
    {
        "QuestId": 6000012,
        "InvestigationId": 10003,
        "RewardId": 450301,
        "Icon": "UI_MarkTransPoint",
        "Image": "UI_HandbookPic_Teleport",
        "InfoDesTextMapHash": 2652761742,
        "Guide": {
            "Param": [
                ""
            ]
        },
        "Id": 60012,
        "TriggerConfig": {
            "TriggerType": "TRIGGER_UNLOCK_TRANS_POINT",
            "ParamList": [
                "",
                "",
                ""
            ]
        },
        "Progress": 10
    },
    {
        "QuestId": 6000013,
        "InvestigationId": 10003,
        "RewardId": 450302,
        "Icon": "UI_MarkGoddess5",
        "Image": "UI_HandbookPic_God_Statue",
        "InfoDesTextMapHash": 1732054398,
        "Guide": {
            "Param": [
                ""
            ]
        },
        "Id": 60013,
        "TriggerConfig": {
            "TriggerType": "TRIGGER_UNLOCK_AREA",
            "ParamList": [
                "3",
                "",
                ""
            ]
        },
        "Progress": 1
    },
    {
        "QuestId": 6000014,
        "InvestigationId": 10003,
        "RewardId": 450303,
        "Icon": "UI_MarkQuest_Box",
        "Image": "UI_HandbookPic_Treasure",
        "InfoDesTextMapHash": 1889264598,
        "Guide": {
            "Param": [
                ""
            ]
        },
        "Id": 60014,
        "TriggerConfig": {
            "TriggerType": "TRIGGER_OPEN_CHEST_WITH_GADGET_ID",
            "ParamList": [
                "70210001;70210002;70210003;70210004;70210005;70210006;70210011;70210012;70210013;70210014;70210021;70210022;70210023;70210024;70210031;70210032;70210033;70210034;70210041;70210042;70210043;70210044;70210051;70210052;70210053;70210054;70211001;70211002;70211011;70211012;70211021;70211022;70211031;70211032;70211101;70211102;70211103;70211104;70211111;70211112;70211121;70211122;70211123;70211131;70211132",
                "",
                ""
            ]
        },
        "Progress": 45
    },
    {
        "QuestId": 6000015,
        "InvestigationId": 10003,
        "RewardId": 450304,
        "Icon": "UI_MarkCustom_TagMonster",
        "Image": "UI_HandbookPic_Guardian",
        "InfoDesTextMapHash": 1509148646,
        "Guide": {
            "Type": "QUEST_GUIDE_LOCATION",
            "Param": [
                "AM0001YJSW"
            ],
            "GuideScene": 3,
            "GuideStyle": "QUEST_GUIDE_STYLE_POINT",
            "GuideLayer": "QUEST_GUIDE_LAYER_SCENE"
        },
        "Id": 60015,
        "TriggerConfig": {
            "TriggerType": "TRIGGER_MONSTER_DIE",
            "ParamList": [
                "24010101",
                "可联机",
                ""
            ]
        },
        "Progress": 1
    },
    {
        "QuestId": 6000016,
        "InvestigationId": 10003,
        "RewardId": 450305,
        "Icon": "UI_MarkPoint_Blacksmith",
        "Image": "UI_HandbookPic_Forge",
        "InfoDesTextMapHash": 327502254,
        "Guide": {
            "Param": [
                ""
            ]
        },
        "Id": 60016,
        "TriggerConfig": {
            "TriggerType": "TRIGGER_DO_FORGE",
            "ParamList": [
                "",
                "",
                ""
            ]
        },
        "Progress": 1
    },
    {
        "QuestId": 6000017,
        "InvestigationId": 10003,
        "RewardId": 450306,
        "Icon": "UI_MarkPoint_Restaurant",
        "Image": "UI_HandbookPic_Ingredient",
        "InfoDesTextMapHash": 4064062734,
        "Guide": {
            "Param": [
                ""
            ]
        },
        "Id": 60017,
        "TriggerConfig": {
            "TriggerType": "TRIGGER_DO_COMPOUND",
            "ParamList": [
                "",
                "",
                ""
            ]
        },
        "Progress": 3
    },
    {
        "QuestId": 6000018,
        "InvestigationId": 10003,
        "RewardId": 450307,
        "Icon": "UI_Mark_Common",
        "Image": "UI_HandbookPic_Levelup",
        "InfoDesTextMapHash": 2107887638,
        "Guide": {
            "Param": [
                ""
            ]
        },
        "Id": 60018,
        "TriggerConfig": {
            "TriggerType": "TRIGGER_AVATAR_UPGRADE",
            "ParamList": [
                "20",
                "",
                ""
            ]
        },
        "Progress": 1
    },
    {
        "QuestId": 6000019,
        "InvestigationId": 10003,
        "RewardId": 450308,
        "Icon": "UI_Mark_Common",
        "Image": "UI_HandbookPic_Equipement_Levelup",
        "InfoDesTextMapHash": 2377643182,
        "Guide": {
            "Param": [
                ""
            ]
        },
        "Id": 60019,
        "TriggerConfig": {
            "TriggerType": "TRIGGER_RELIQUARY_UPGRADE",
            "ParamList": [
                "5",
                "1",
                "1"
            ]
        },
        "Progress": 1
    },
    {
        "QuestId": 6000020,
        "InvestigationId": 10004,
        "RewardId": 450401,
        "Icon": "UI_MarkGoddess5",
        "Image": "UI_HandbookPic_God_Statue",
        "InfoDesTextMapHash": 53084726,
        "Guide": {
            "Param": [
                ""
            ]
        },
        "Id": 60020,
        "TriggerConfig": {
            "TriggerType": "TRIGGER_UNLOCK_AREA",
            "ParamList": [
                "4",
                "",
                ""
            ]
        },
        "Progress": 1
    },
    {
        "QuestId": 6000021,
        "InvestigationId": 10004,
        "RewardId": 450402,
        "Icon": "UI_MarkGoddess5",
        "Image": "UI_HandbookPic_Statue_Serving",
        "InfoDesTextMapHash": 3062014174,
        "Guide": {
            "Param": [
                ""
            ]
        },
        "Id": 60021,
        "TriggerConfig": {
            "TriggerType": "TRIGGER_CITY_LEVEL_UP",
            "ParamList": [
                "1",
                "6",
                ""
            ]
        },
        "Progress": 1
    },
    {
        "QuestId": 6000022,
        "InvestigationId": 10004,
        "RewardId": 450403,
        "Icon": "UI_Mark_Common",
        "Image": "UI_HandbookPic_Equipement_Levelup",
        "InfoDesTextMapHash": 3741363318,
        "Guide": {
            "Param": [
                ""
            ]
        },
        "Id": 60022,
        "TriggerConfig": {
            "TriggerType": "TRIGGER_RELIQUARY_UPGRADE",
            "ParamList": [
                "5",
                "1",
                "1"
            ]
        },
        "Progress": 6
    },
    {
        "QuestId": 6000023,
        "InvestigationId": 10004,
        "RewardId": 450404,
        "Icon": "UI_MarkCustom_TagMonster",
        "Image": "UI_HandbookPic_Boss_Reward",
        "InfoDesTextMapHash": 1256774582,
        "Guide": {
            "Param": [
                ""
            ]
        },
        "Id": 60023,
        "TriggerConfig": {
            "TriggerType": "TRIGGER_OPEN_BLOSSOM_CHEST",
            "ParamList": [
                "1;3",
                "",
                ""
            ]
        },
        "Progress": 3
    },
    {
        "QuestId": 6000024,
        "InvestigationId": 10004,
        "RewardId": 450405,
        "Icon": "UI_MarkPoint_Explore",
        "Image": "UI_HandbookPic_Explore",
        "InfoDesTextMapHash": 625790206,
        "Guide": {
            "Param": [
                ""
            ]
        },
        "Id": 60024,
        "TriggerConfig": {
            "TriggerType": "TRIGGER_AVATAR_EXPEDITION",
            "ParamList": [
                "",
                "",
                ""
            ]
        },
        "Progress": 1
    },
    {
        "QuestId": 6000025,
        "InvestigationId": 10004,
        "RewardId": 450406,
        "Icon": "UI_Mark_Common",
        "Image": "UI_HandbookPic_Level_Breakthrough",
        "InfoDesTextMapHash": 1905726390,
        "Guide": {
            "Param": [
                ""
            ]
        },
        "Id": 60025,
        "TriggerConfig": {
            "TriggerType": "TRIGGER_AVATAR_PROMOTE",
            "ParamList": [
                "1",
                "",
                ""
            ]
        },
        "Progress": 3
    },
    {
        "QuestId": 6000026,
        "InvestigationId": 10004,
        "RewardId": 450407,
        "Icon": "UI_Mark_Common",
        "Image": "UI_HandbookPic_Weapon_Levelup",
        "InfoDesTextMapHash": 315792486,
        "Guide": {
            "Param": [
                ""
            ]
        },
        "Id": 60026,
        "TriggerConfig": {
            "TriggerType": "TRIGGER_WEAPON_UPGRADE",
            "ParamList": [
                "20",
                "",
                ""
            ]
        },
        "Progress": 1
    },
    {
        "QuestId": 6000027,
        "InvestigationId": 10004,
        "RewardId": 450408,
        "Icon": "UI_MarkPoint_Combine",
        "Image": "UI_HandbookPic_Compose",
        "InfoDesTextMapHash": 2424694294,
        "Guide": {
            "Param": [
                ""
            ]
        },
        "Id": 60027,
        "TriggerConfig": {
            "TriggerType": "TRIGGER_DO_COMBINE",
            "ParamList": [
                "",
                "",
                ""
            ]
        },
        "Progress": 1
    },
    {
        "QuestId": 6000028,
        "InvestigationId": 10004,
        "RewardId": 450409,
        "Icon": "UI_MarkCustom_TagMonster",
        "Image": "UI_HandbookPic_Warlock",
        "InfoDesTextMapHash": 3817961246,
        "Guide": {
            "Type": "QUEST_GUIDE_LOCATION",
            "Param": [
                "AM0001LYSS"
            ],
            "GuideScene": 3,
            "GuideStyle": "QUEST_GUIDE_STYLE_POINT",
            "GuideLayer": "QUEST_GUIDE_LAYER_SCENE"
        },
        "Id": 60028,
        "TriggerConfig": {
            "TriggerType": "TRIGGER_MONSTER_DIE",
            "ParamList": [
                "23030101",
                "可联机",
                ""
            ]
        },
        "Progress": 1
    },
    {
        "QuestId": 6000029,
        "InvestigationId": 10004,
        "RewardId": 450410,
        "Icon": "UI_MarkTower",
        "Image": "UI_HandbookPic_Shrine",
        "InfoDesTextMapHash": 113673934,
        "Guide": {
            "Param": [
                ""
            ]
        },
        "Id": 60029,
        "TriggerConfig": {
            "TriggerType": "TRIGGER_UNLOCK_GATE_TEMPLE",
            "ParamList": [
                "70360041;70360068",
                "",
                ""
            ]
        },
        "Progress": 1
    },
    {
        "QuestId": 6000030,
        "InvestigationId": 10005,
        "RewardId": 450501,
        "Icon": "UI_MarkGoddess5",
        "Image": "UI_HandbookPic_God_Statue",
        "InfoDesTextMapHash": 885499878,
        "Guide": {
            "Param": [
                ""
            ]
        },
        "Id": 60030,
        "TriggerConfig": {
            "TriggerType": "TRIGGER_UNLOCK_AREA",
            "ParamList": [
                "7",
                "",
                ""
            ]
        },
        "Progress": 1
    },
    {
        "QuestId": 6000031,
        "InvestigationId": 10005,
        "RewardId": 450502,
        "Icon": "UI_MarkTower_Tower",
        "Image": "UI_HandbookPic_Tower",
        "InfoDesTextMapHash": 3446032590,
        "Guide": {
            "Param": [
                ""
            ]
        },
        "Id": 60031,
        "TriggerConfig": {
            "TriggerType": "TRIGGER_FINISH_TOWER_LEVEL",
            "ParamList": [
                "1",
                "3",
                ""
            ]
        },
        "Progress": 1
    },
    {
        "QuestId": 6000032,
        "InvestigationId": 10005,
        "RewardId": 450503,
        "Icon": "UI_MarkPoint_Restaurant",
        "Image": "UI_HandbookPic_Cuisine",
        "InfoDesTextMapHash": 1405753398,
        "Guide": {
            "Param": [
                ""
            ]
        },
        "Id": 60032,
        "TriggerConfig": {
            "TriggerType": "TRIGGER_UNLOCK_RECIPE",
            "ParamList": [
                "",
                "",
                ""
            ]
        },
        "Progress": 10
    },
    {
        "QuestId": 6000033,
        "InvestigationId": 10005,
        "RewardId": 450504,
        "Icon": "UI_MarkCustom_TagMonster",
        "Image": "UI_HandbookPic_Boss_Reward",
        "InfoDesTextMapHash": 371835422,
        "Guide": {
            "Param": [
                ""
            ]
        },
        "Id": 60033,
        "TriggerConfig": {
            "TriggerType": "TRIGGER_OPEN_BLOSSOM_CHEST",
            "ParamList": [
                "1;3",
                "",
                ""
            ]
        },
        "Progress": 10
    },
    {
        "QuestId": 6000034,
        "InvestigationId": 10005,
        "RewardId": 450505,
        "Icon": "UI_MarkTower_Weekly",
        "Image": "UI_HandbookPic_Dungeon",
        "InfoDesTextMapHash": 2293013238,
        "Guide": {
            "Param": [
                ""
            ]
        },
        "Id": 60034,
        "TriggerConfig": {
            "TriggerType": "TRIGGER_FINISH_DUNGEON",
            "ParamList": [
                "4300;4301;4302;4303;4310;4311;4312;4313;4320;4321;4322;4323;4330;4331;4332;4333;5210;5211;5212;5213;5214;5215;5216;5217;5218;5219;5220;5221;5222;5223;5224;5225",
                "",
                ""
            ]
        },
        "Progress": 3
    },
    {
        "QuestId": 6000035,
        "InvestigationId": 10005,
        "RewardId": 450506,
        "Icon": "UI_Mark_Common",
        "Image": "UI_HandbookPic_Weapon_Levelup",
        "InfoDesTextMapHash": 171291326,
        "Guide": {
            "Param": [
                ""
            ]
        },
        "Id": 60035,
        "TriggerConfig": {
            "TriggerType": "TRIGGER_WEAPON_UPGRADE",
            "ParamList": [
                "40",
                "",
                ""
            ]
        },
        "Progress": 3
    },
    {
        "QuestId": 6000036,
        "InvestigationId": 10005,
        "RewardId": 450507,
        "Icon": "UI_Mark_Common",
        "Image": "UI_HandbookPic_Levelup",
        "InfoDesTextMapHash": 3890308358,
        "Guide": {
            "Param": [
                ""
            ]
        },
        "Id": 60036,
        "TriggerConfig": {
            "TriggerType": "TRIGGER_AVATAR_UPGRADE",
            "ParamList": [
                "40",
                "",
                ""
            ]
        },
        "Progress": 3
    },
    {
        "QuestId": 6000037,
        "InvestigationId": 10005,
        "RewardId": 450508,
        "Icon": "UI_MarkQuest_Box",
        "Image": "UI_HandbookPic_Treasure",
        "InfoDesTextMapHash": 2570520478,
        "Guide": {
            "Param": [
                ""
            ]
        },
        "Id": 60037,
        "TriggerConfig": {
            "TriggerType": "TRIGGER_OPEN_CHEST_WITH_GADGET_ID",
            "ParamList": [
                "70210001;70210002;70210003;70210004;70210005;70210006;70210011;70210012;70210013;70210014;70210021;70210022;70210023;70210024;70210031;70210032;70210033;70210034;70210041;70210042;70210043;70210044;70210051;70210052;70210053;70210054;70211001;70211002;70211011;70211012;70211021;70211022;70211031;70211032;70211101;70211102;70211103;70211104;70211111;70211112;70211121;70211122;70211123;70211131;70211132",
                "",
                ""
            ]
        },
        "Progress": 100
    },
    {
        "QuestId": 6000038,
        "InvestigationId": 10005,
        "RewardId": 450509,
        "Icon": "UI_Mark_Common",
        "Image": "UI_HandbookPic_Equipement_Levelup",
        "InfoDesTextMapHash": 4065171542,
        "Guide": {
            "Param": [
                ""
            ]
        },
        "Id": 60038,
        "TriggerConfig": {
            "TriggerType": "TRIGGER_RELIQUARY_UPGRADE",
            "ParamList": [
                "5",
                "",
                "1"
            ]
        },
        "Progress": 12
    },
    {
        "QuestId": 6000039,
        "InvestigationId": 10005,
        "RewardId": 450510,
        "Icon": "UI_MarkCustom_TagMonster",
        "Image": "UI_HandbookPic_Hunter",
        "InfoDesTextMapHash": 2545337310,
        "Guide": {
            "Type": "QUEST_GUIDE_LOCATION",
            "Param": [
                "AM0001YJLZ"
            ],
            "GuideScene": 3,
            "GuideStyle": "QUEST_GUIDE_STYLE_POINT",
            "GuideLayer": "QUEST_GUIDE_LAYER_SCENE"
        },
        "Id": 60039,
        "TriggerConfig": {
            "TriggerType": "TRIGGER_MONSTER_DIE",
            "ParamList": [
                "24010201",
                "可联机",
                ""
            ]
        },
        "Progress": 1
    },
    {
        "QuestId": 6000040,
        "InvestigationId": 10006,
        "RewardId": 450601,
        "Icon": "UI_MarkTower_Weekly",
        "Image": "UI_HandbookPic_Dungeon",
        "InfoDesTextMapHash": 3650439430,
        "Guide": {
            "Param": [
                ""
            ]
        },
        "Id": 60040,
        "TriggerConfig": {
            "TriggerType": "TRIGGER_FINISH_DUNGEON",
            "ParamList": [
                "5000;5001;5002;5003;5004;5005;5006;5007;5008;5009;5010;5011;5012;5013;5100;5101;5102;5103;5104;5105;5106;5107;5108;5109;5110;5111;5112;5113;5114;5115;5120;5121;5122;5123",
                "",
                ""
            ]
        },
        "Progress": 3
    },
    {
        "QuestId": 6000041,
        "InvestigationId": 10006,
        "RewardId": 450602,
        "Icon": "UI_MarkTower_Tower",
        "Image": "UI_HandbookPic_Tower",
        "InfoDesTextMapHash": 3367438358,
        "Guide": {
            "Param": [
                ""
            ]
        },
        "Id": 60041,
        "TriggerConfig": {
            "TriggerType": "TRIGGER_FINISH_TOWER_LEVEL",
            "ParamList": [
                "2",
                "3",
                ""
            ]
        },
        "Progress": 1
    },
    {
        "QuestId": 6000042,
        "InvestigationId": 10006,
        "RewardId": 450603,
        "Icon": "UI_MarkCustom_TagMonster",
        "Image": "UI_HandbookPic_Monster_Thunder",
        "InfoDesTextMapHash": 4022242806,
        "Guide": {
            "Type": "QUEST_GUIDE_LOCATION",
            "Param": [
                "AM0001WXZL"
            ],
            "GuideScene": 3,
            "GuideStyle": "QUEST_GUIDE_STYLE_POINT",
            "GuideLayer": "QUEST_GUIDE_LAYER_SCENE"
        },
        "Id": 60042,
        "TriggerConfig": {
            "TriggerType": "TRIGGER_MONSTER_DIE",
            "ParamList": [
                "20040101",
                "需单人",
                ""
            ]
        },
        "Progress": 1
    },
    {
        "QuestId": 6000043,
        "InvestigationId": 10006,
        "RewardId": 450604,
        "Icon": "UI_MarkCustom_TagMonster",
        "Image": "UI_HandbookPic_Monster_Wind",
        "InfoDesTextMapHash": 2328058054,
        "Guide": {
            "Type": "QUEST_GUIDE_LOCATION",
            "Param": [
                "AM0001WXZF"
            ],
            "GuideScene": 3,
            "GuideStyle": "QUEST_GUIDE_STYLE_POINT",
            "GuideLayer": "QUEST_GUIDE_LAYER_SCENE"
        },
        "Id": 60043,
        "TriggerConfig": {
            "TriggerType": "TRIGGER_MONSTER_DIE",
            "ParamList": [
                "20040201",
                "需单人",
                ""
            ]
        },
        "Progress": 1
    },
    {
        "QuestId": 6000044,
        "InvestigationId": 10006,
        "RewardId": 450605,
        "Icon": "UI_MarkCustom_TagMonster",
        "Image": "UI_HandbookPic_Monster_Rock",
        "InfoDesTextMapHash": 2494479878,
        "Guide": {
            "Type": "QUEST_GUIDE_LOCATION",
            "Param": [
                "AM0001WXZY"
            ],
            "GuideScene": 3,
            "GuideStyle": "QUEST_GUIDE_STYLE_POINT",
            "GuideLayer": "QUEST_GUIDE_LAYER_SCENE"
        },
        "Id": 60044,
        "TriggerConfig": {
            "TriggerType": "TRIGGER_MONSTER_DIE",
            "ParamList": [
                "20040301",
                "需单人",
                ""
            ]
        },
        "Progress": 1
    },
    {
        "QuestId": 6000045,
        "InvestigationId": 10006,
        "RewardId": 450606,
        "Icon": "UI_Mark_Common",
        "Image": "UI_HandbookPic_Weapon_Breakthrough",
        "InfoDesTextMapHash": 191304046,
        "Guide": {
            "Param": [
                ""
            ]
        },
        "Id": 60045,
        "TriggerConfig": {
            "TriggerType": "TRIGGER_WEAPON_PROMOTE",
            "ParamList": [
                "2",
                "",
                ""
            ]
        },
        "Progress": 3
    },
    {
        "QuestId": 6000046,
        "InvestigationId": 10006,
        "RewardId": 450607,
        "Icon": "UI_Mark_Common",
        "Image": "UI_HandbookPic_Equipment_Breakthrough",
        "InfoDesTextMapHash": 98555686,
        "Guide": {
            "Param": [
                ""
            ]
        },
        "Id": 60046,
        "TriggerConfig": {
            "TriggerType": "TRIGGER_RELIQUARY_SET_NUM",
            "ParamList": [
                "3",
                "",
                ""
            ]
        },
        "Progress": 1
    },
    {
        "QuestId": 6000047,
        "InvestigationId": 10006,
        "RewardId": 450608,
        "Icon": "UI_Mark_Common",
        "Image": "UI_HandbookPic_Weapon_Breakthrough",
        "InfoDesTextMapHash": 3546539558,
        "Guide": {
            "Param": [
                ""
            ]
        },
        "Id": 60047,
        "TriggerConfig": {
            "TriggerType": "TRIGGER_WEAPON_PROMOTE",
            "ParamList": [
                "3",
                "",
                ""
            ]
        },
        "Progress": 1
    },
    {
        "QuestId": 6000048,
        "InvestigationId": 10006,
        "RewardId": 450609,
        "Icon": "UI_Mark_Common",
        "Image": "UI_HandbookPic_Level_Breakthrough",
        "InfoDesTextMapHash": 137032670,
        "Guide": {
            "Param": [
                ""
            ]
        },
        "Id": 60048,
        "TriggerConfig": {
            "TriggerType": "TRIGGER_AVATAR_PROMOTE",
            "ParamList": [
                "2",
                "",
                ""
            ]
        },
        "Progress": 3
    },
    {
        "QuestId": 6000049,
        "InvestigationId": 10006,
        "RewardId": 450610,
        "Icon": "UI_Mark_Common",
        "Image": "UI_HandbookPic_Equipement_Levelup",
        "InfoDesTextMapHash": 1405668030,
        "Guide": {
            "Param": [
                ""
            ]
        },
        "Id": 60049,
        "TriggerConfig": {
            "TriggerType": "TRIGGER_RELIQUARY_UPGRADE",
            "ParamList": [
                "9",
                "1",
                "1"
            ]
        },
        "Progress": 8
    },
    {
        "QuestId": 6000050,
        "InvestigationId": 10006,
        "RewardId": 450611,
        "Icon": "UI_MarkPoint_Souvenir",
        "Image": "UI_HandbookPic_Souvenir",
        "InfoDesTextMapHash": 1168226630,
        "Guide": {
            "Param": [
                ""
            ]
        },
        "Id": 60050,
        "TriggerConfig": {
            "TriggerType": "TRIGGER_BUY_SHOP_GOODS",
            "ParamList": [
                "1002;1009",
                "",
                ""
            ]
        },
        "Progress": 1
    },
    {
        "QuestId": 6000051,
        "InvestigationId": 10006,
        "RewardId": 450612,
        "Icon": "UI_MarkTower",
        "Image": "UI_HandbookPic_Shrine",
        "InfoDesTextMapHash": 3963065670,
        "Guide": {
            "Param": [
                ""
            ]
        },
        "Id": 60051,
        "TriggerConfig": {
            "TriggerType": "TRIGGER_UNLOCK_GATE_TEMPLE",
            "ParamList": [
                "70360041;70360068",
                "",
                ""
            ]
        },
        "Progress": 5
    },
    {
        "QuestId": 6000052,
        "InvestigationId": 10007,
        "RewardId": 450701,
        "Icon": "UI_MarkTower_Weekly",
        "Image": "UI_HandbookPic_Dungeon",
        "InfoDesTextMapHash": 3300261454,
        "Guide": {
            "Param": [
                ""
            ]
        },
        "Id": 60052,
        "TriggerConfig": {
            "TriggerType": "TRIGGER_FINISH_DUNGEON",
            "ParamList": [
                "4200;4201;4202;4203;4210;4211;4212;4213;4220;4221;4222;4223;4230;4231;4232;4233;5250;5251;5252;5253;5254;5255;5256;5257;5258;5259;5260;5261;5262;5263;5264;5265",
                "",
                ""
            ]
        },
        "Progress": 3
    },
    {
        "QuestId": 6000053,
        "InvestigationId": 10007,
        "RewardId": 450702,
        "Icon": "UI_Mark_Common",
        "Image": "UI_HandbookPic_Talent",
        "InfoDesTextMapHash": 4081356670,
        "Guide": {
            "Param": [
                ""
            ]
        },
        "Id": 60053,
        "TriggerConfig": {
            "TriggerType": "TRIGGER_UPGRADE_TALENT",
            "ParamList": [
                "",
                "",
                ""
            ]
        },
        "Progress": 3
    },
    {
        "QuestId": 6000054,
        "InvestigationId": 10007,
        "RewardId": 450703,
        "Icon": "UI_MarkGoddess5",
        "Image": "UI_HandbookPic_Statue_Serving",
        "InfoDesTextMapHash": 4148558270,
        "Guide": {
            "Param": [
                ""
            ]
        },
        "Id": 60054,
        "TriggerConfig": {
            "TriggerType": "TRIGGER_CITY_LEVEL_UP",
            "ParamList": [
                "1",
                "9",
                ""
            ]
        },
        "Progress": 1
    },
    {
        "QuestId": 6000055,
        "InvestigationId": 10007,
        "RewardId": 450704,
        "Icon": "UI_MarkCustom_TagMonster",
        "Image": "UI_HandbookPic_Boss_Reward",
        "InfoDesTextMapHash": 3721599358,
        "Guide": {
            "Param": [
                ""
            ]
        },
        "Id": 60055,
        "TriggerConfig": {
            "TriggerType": "TRIGGER_WORLD_BOSS_REWARD",
            "ParamList": [
                "1",
                "",
                ""
            ]
        },
        "Progress": 10
    },
    {
        "QuestId": 6000056,
        "InvestigationId": 10007,
        "RewardId": 450705,
        "Icon": "UI_MarkCustom_TagMonster",
        "Image": "UI_HandbookPic_WolfKing",
        "InfoDesTextMapHash": 3706527622,
        "Guide": {
            "Type": "QUEST_GUIDE_LOCATION",
            "Param": [
                "AM0001BFL"
            ],
            "GuideScene": 3,
            "GuideStyle": "QUEST_GUIDE_STYLE_POINT",
            "GuideLayer": "QUEST_GUIDE_LAYER_SCENE"
        },
        "Id": 60056,
        "TriggerConfig": {
            "TriggerType": "TRIGGER_MONSTER_DIE",
            "ParamList": [
                "29020102",
                "需单人",
                ""
            ]
        },
        "Progress": 1
    },
    {
        "QuestId": 6000057,
        "InvestigationId": 10007,
        "RewardId": 450706,
        "Icon": "UI_MarkTower_Tower",
        "Image": "UI_HandbookPic_Tower",
        "InfoDesTextMapHash": 2461919766,
        "Guide": {
            "Param": [
                ""
            ]
        },
        "Id": 60057,
        "TriggerConfig": {
            "TriggerType": "TRIGGER_FINISH_TOWER_LEVEL",
            "ParamList": [
                "4",
                "3",
                ""
            ]
        },
        "Progress": 1
    },
    {
        "QuestId": 6000058,
        "InvestigationId": 10007,
        "RewardId": 450707,
        "Icon": "UI_MarkPoint_Blacksmith",
        "Image": "UI_HandbookPic_Forge",
        "InfoDesTextMapHash": 2718306038,
        "Guide": {
            "Param": [
                ""
            ]
        },
        "Id": 60058,
        "TriggerConfig": {
            "TriggerType": "TRIGGER_FORGE_WEAPON",
            "ParamList": [
                "4",
                "",
                ""
            ]
        },
        "Progress": 2
    },
    {
        "QuestId": 6000059,
        "InvestigationId": 10007,
        "RewardId": 450708,
        "Icon": "UI_MarkQuest_Box",
        "Image": "UI_HandbookPic_Treasure",
        "InfoDesTextMapHash": 3344287198,
        "Guide": {
            "Param": [
                ""
            ]
        },
        "Id": 60059,
        "TriggerConfig": {
            "TriggerType": "TRIGGER_OPEN_CHEST_WITH_GADGET_ID",
            "ParamList": [
                "70210001;70210002;70210003;70210004;70210005;70210006;70210011;70210012;70210013;70210014;70210021;70210022;70210023;70210024;70210031;70210032;70210033;70210034;70210041;70210042;70210043;70210044;70210051;70210052;70210053;70210054;70211001;70211002;70211011;70211012;70211021;70211022;70211031;70211032;70211101;70211102;70211103;70211104;70211111;70211112;70211121;70211122;70211123;70211131;70211132",
                "",
                ""
            ]
        },
        "Progress": 300
    },
    {
        "QuestId": 6000060,
        "InvestigationId": 10007,
        "RewardId": 450709,
        "Icon": "UI_Mark_Common",
        "Image": "UI_HandbookPic_Weapon_Breakthrough",
        "InfoDesTextMapHash": 3981091342,
        "Guide": {
            "Param": [
                ""
            ]
        },
        "Id": 60060,
        "TriggerConfig": {
            "TriggerType": "TRIGGER_WEAPON_PROMOTE",
            "ParamList": [
                "3",
                "",
                ""
            ]
        },
        "Progress": 3
    },
    {
        "QuestId": 6000061,
        "InvestigationId": 10007,
        "RewardId": 450710,
        "Icon": "UI_Mark_Common",
        "Image": "UI_HandbookPic_Level_Breakthrough",
        "InfoDesTextMapHash": 736830862,
        "Guide": {
            "Param": [
                ""
            ]
        },
        "Id": 60061,
        "TriggerConfig": {
            "TriggerType": "TRIGGER_AVATAR_PROMOTE",
            "ParamList": [
                "3",
                "",
                ""
            ]
        },
        "Progress": 3
    },
    {
        "QuestId": 6000062,
        "InvestigationId": 10007,
        "RewardId": 450711,
        "Icon": "UI_Mark_Common",
        "Image": "UI_HandbookPic_Equipement_Levelup",
        "InfoDesTextMapHash": 4121711758,
        "Guide": {
            "Param": [
                ""
            ]
        },
        "Id": 60062,
        "TriggerConfig": {
            "TriggerType": "TRIGGER_RELIQUARY_UPGRADE",
            "ParamList": [
                "13",
                "1",
                "1"
            ]
        },
        "Progress": 8
    },
    {
        "QuestId": 6000063,
        "InvestigationId": 10007,
        "RewardId": 450712,
        "Icon": "UI_Mark_Common",
        "Image": "UI_HandbookPic_Levelup",
        "InfoDesTextMapHash": 228412470,
        "Guide": {
            "Param": [
                ""
            ]
        },
        "Id": 60063,
        "TriggerConfig": {
            "TriggerType": "TRIGGER_AVATAR_UPGRADE",
            "ParamList": [
                "60",
                "",
                ""
            ]
        },
        "Progress": 3
    },
    {
        "QuestId": 6000064,
        "InvestigationId": 10007,
        "RewardId": 450713,
        "Icon": "UI_Mark_Common",
        "Image": "UI_HandbookPic_Weapon_Levelup",
        "InfoDesTextMapHash": 56258486,
        "Guide": {
            "Param": [
                ""
            ]
        },
        "Id": 60064,
        "TriggerConfig": {
            "TriggerType": "TRIGGER_WEAPON_UPGRADE",
            "ParamList": [
                "70",
                "",
                ""
            ]
        },
        "Progress": 1
    },
    {
        "QuestId": 6000065,
        "InvestigationId": 10008,
        "RewardId": 450801,
        "Icon": "UI_MarkGoddess5",
        "Image": "UI_HandbookPic_Statue_Serving",
        "InfoDesTextMapHash": 3314938166,
        "Guide": {
            "Param": [
                ""
            ]
        },
        "Id": 60065,
        "TriggerConfig": {
            "TriggerType": "TRIGGER_CITY_LEVEL_UP",
            "ParamList": [
                "2",
                "9",
                ""
            ]
        },
        "Progress": 1
    },
    {
        "QuestId": 6000066,
        "InvestigationId": 10008,
        "RewardId": 450802,
        "Icon": "UI_MarkCustom_TagMonster",
        "Image": "UI_HandbookPic_Boss_Reward",
        "InfoDesTextMapHash": 3979927838,
        "Guide": {
            "Param": [
                ""
            ]
        },
        "Id": 60066,
        "TriggerConfig": {
            "TriggerType": "TRIGGER_WORLD_BOSS_REWARD",
            "ParamList": [
                "1",
                "",
                ""
            ]
        },
        "Progress": 20
    },
    {
        "QuestId": 6000067,
        "InvestigationId": 10008,
        "RewardId": 450803,
        "Icon": "UI_MarkTower_Weekly",
        "Image": "UI_HandbookPic_Dungeon",
        "InfoDesTextMapHash": 4034076382,
        "Guide": {
            "Param": [
                ""
            ]
        },
        "Id": 60067,
        "TriggerConfig": {
            "TriggerType": "TRIGGER_FINISH_DUNGEON",
            "ParamList": [
                "2021",
                "",
                ""
            ]
        },
        "Progress": 1
    },
    {
        "QuestId": 6000068,
        "InvestigationId": 10008,
        "RewardId": 450804,
        "Icon": "UI_MarkTower_Tower",
        "Image": "UI_HandbookPic_Tower",
        "InfoDesTextMapHash": 3274885046,
        "Guide": {
            "Param": [
                ""
            ]
        },
        "Id": 60068,
        "TriggerConfig": {
            "TriggerType": "TRIGGER_FINISH_TOWER_LEVEL",
            "ParamList": [
                "5",
                "3",
                ""
            ]
        },
        "Progress": 1
    },
    {
        "QuestId": 6000069,
        "InvestigationId": 10008,
        "RewardId": 450805,
        "Icon": "UI_Mark_Common",
        "Image": "UI_HandbookPic_Levelup",
        "InfoDesTextMapHash": 3042852878,
        "Guide": {
            "Param": [
                ""
            ]
        },
        "Id": 60069,
        "TriggerConfig": {
            "TriggerType": "TRIGGER_AVATAR_UPGRADE",
            "ParamList": [
                "70",
                "",
                ""
            ]
        },
        "Progress": 3
    },
    {
        "QuestId": 6000070,
        "InvestigationId": 10008,
        "RewardId": 450806,
        "Icon": "UI_Mark_Common",
        "Image": "UI_HandbookPic_Equipment_Breakthrough",
        "InfoDesTextMapHash": 1726000702,
        "Guide": {
            "Param": [
                ""
            ]
        },
        "Id": 60070,
        "TriggerConfig": {
            "TriggerType": "TRIGGER_RELIQUARY_SET_NUM",
            "ParamList": [
                "4",
                "",
                ""
            ]
        },
        "Progress": 2
    },
    {
        "QuestId": 6000071,
        "InvestigationId": 10008,
        "RewardId": 450807,
        "Icon": "UI_Mark_Common",
        "Image": "UI_HandbookPic_Equipement_Levelup",
        "InfoDesTextMapHash": 2735363310,
        "Guide": {
            "Param": [
                ""
            ]
        },
        "Id": 60071,
        "TriggerConfig": {
            "TriggerType": "TRIGGER_RELIQUARY_UPGRADE",
            "ParamList": [
                "17",
                "4",
                "1"
            ]
        },
        "Progress": 8
    },
    {
        "QuestId": 6000072,
        "InvestigationId": 10008,
        "RewardId": 450808,
        "Icon": "UI_Mark_Common",
        "Image": "UI_HandbookPic_Weapon_Levelup",
        "InfoDesTextMapHash": 986613902,
        "Guide": {
            "Param": [
                ""
            ]
        },
        "Id": 60072,
        "TriggerConfig": {
            "TriggerType": "TRIGGER_WEAPON_UPGRADE",
            "ParamList": [
                "70",
                "",
                ""
            ]
        },
        "Progress": 3
    },
    {
        "QuestId": 6000073,
        "InvestigationId": 10008,
        "RewardId": 450809,
        "Icon": "UI_Mark_Common",
        "Image": "UI_HandbookPic_Weapon_Breakthrough",
        "InfoDesTextMapHash": 3732718054,
        "Guide": {
            "Param": [
                ""
            ]
        },
        "Id": 60073,
        "TriggerConfig": {
            "TriggerType": "TRIGGER_WEAPON_PROMOTE",
            "ParamList": [
                "5",
                "",
                ""
            ]
        },
        "Progress": 1
    },
    {
        "QuestId": 6000074,
        "InvestigationId": 10008,
        "RewardId": 450810,
        "Icon": "UI_Mark_Common",
        "Image": "UI_HandbookPic_Level_Breakthrough",
        "InfoDesTextMapHash": 2311665990,
        "Guide": {
            "Param": [
                ""
            ]
        },
        "Id": 60074,
        "TriggerConfig": {
            "TriggerType": "TRIGGER_AVATAR_PROMOTE",
            "ParamList": [
                "5",
                "",
                ""
            ]
        },
        "Progress": 1
    },
    {
        "QuestId": 6000075,
        "InvestigationId": 10008,
        "RewardId": 450811,
        "Icon": "UI_MarkTower",
        "Image": "UI_HandbookPic_Shrine",
        "InfoDesTextMapHash": 1124257190,
        "Guide": {
            "Param": [
                ""
            ]
        },
        "Id": 60075,
        "TriggerConfig": {
            "TriggerType": "TRIGGER_UNLOCK_GATE_TEMPLE",
            "ParamList": [
                "70360041;70360068",
                "",
                ""
            ]
        },
        "Progress": 15
    },
    {
        "QuestId": 6000076,
        "InvestigationId": 10008,
        "RewardId": 450812,
        "Icon": "UI_MarkPoint_Wind",
        "Image": "UI_HandbookPic_Wind_Sign",
        "InfoDesTextMapHash": 274611670,
        "Guide": {
            "Param": [
                ""
            ]
        },
        "Id": 60076,
        "TriggerConfig": {
            "TriggerType": "TRIGGER_COST_MATERIAL",
            "ParamList": [
                "305",
                "",
                ""
            ]
        },
        "Progress": 300
    },
    {
        "QuestId": 6000077,
        "InvestigationId": 10008,
        "RewardId": 450813,
        "Icon": "UI_MarkPoint_Rock",
        "Image": "UI_HandbookPic_Rock_Sign",
        "InfoDesTextMapHash": 1194018598,
        "Guide": {
            "Param": [
                ""
            ]
        },
        "Id": 60077,
        "TriggerConfig": {
            "TriggerType": "TRIGGER_COST_MATERIAL",
            "ParamList": [
                "307",
                "",
                ""
            ]
        },
        "Progress": 300
    },
    {
        "QuestId": 6000078,
        "InvestigationId": 10009,
        "RewardId": 450901,
        "Icon": "UI_MarkTower_Weekly",
        "Image": "UI_HandbookPic_Dungeon",
        "InfoDesTextMapHash": 2284577750,
        "Guide": {
            "Param": [
                ""
            ]
        },
        "Id": 60078,
        "TriggerConfig": {
            "TriggerType": "TRIGGER_FINISH_DUNGEON",
            "ParamList": [
                "2022",
                "",
                ""
            ]
        },
        "Progress": 1
    },
    {
        "QuestId": 6000079,
        "InvestigationId": 10009,
        "RewardId": 450902,
        "Icon": "UI_MarkTower",
        "Image": "UI_HandbookPic_Shrine",
        "InfoDesTextMapHash": 809261782,
        "Guide": {
            "Param": [
                ""
            ]
        },
        "Id": 60079,
        "TriggerConfig": {
            "TriggerType": "TRIGGER_UNLOCK_GATE_TEMPLE",
            "ParamList": [
                "70360041;70360068",
                "",
                ""
            ]
        },
        "Progress": 18
    },
    {
        "QuestId": 6000080,
        "InvestigationId": 10009,
        "RewardId": 450903,
        "Icon": "UI_MarkTower_Tower",
        "Image": "UI_HandbookPic_Tower",
        "InfoDesTextMapHash": 1106890782,
        "Guide": {
            "Param": [
                ""
            ]
        },
        "Id": 60080,
        "TriggerConfig": {
            "TriggerType": "TRIGGER_FINISH_TOWER_LEVEL",
            "ParamList": [
                "6",
                "3",
                ""
            ]
        },
        "Progress": 1
    },
    {
        "QuestId": 6000081,
        "InvestigationId": 10009,
        "RewardId": 450904,
        "Icon": "UI_Mark_Common",
        "Image": "UI_HandbookPic_Level_Breakthrough",
        "InfoDesTextMapHash": 1556198782,
        "Guide": {
            "Param": [
                ""
            ]
        },
        "Id": 60081,
        "TriggerConfig": {
            "TriggerType": "TRIGGER_AVATAR_PROMOTE",
            "ParamList": [
                "5",
                "",
                ""
            ]
        },
        "Progress": 3
    },
    {
        "QuestId": 6000082,
        "InvestigationId": 10009,
        "RewardId": 450905,
        "Icon": "UI_Mark_Common",
        "Image": "UI_HandbookPic_Levelup",
        "InfoDesTextMapHash": 4111548534,
        "Guide": {
            "Param": [
                ""
            ]
        },
        "Id": 60082,
        "TriggerConfig": {
            "TriggerType": "TRIGGER_AVATAR_UPGRADE",
            "ParamList": [
                "80",
                "",
                ""
            ]
        },
        "Progress": 1
    },
    {
        "QuestId": 6000083,
        "InvestigationId": 10009,
        "RewardId": 450906,
        "Icon": "UI_Mark_Common",
        "Image": "UI_HandbookPic_Equipment_Breakthrough",
        "InfoDesTextMapHash": 1452530222,
        "Guide": {
            "Param": [
                ""
            ]
        },
        "Id": 60083,
        "TriggerConfig": {
            "TriggerType": "TRIGGER_RELIQUARY_SET_NUM",
            "ParamList": [
                "5",
                "",
                ""
            ]
        },
        "Progress": 2
    },
    {
        "QuestId": 6000084,
        "InvestigationId": 10009,
        "RewardId": 450907,
        "Icon": "UI_Mark_Common",
        "Image": "UI_HandbookPic_Equipement_Levelup",
        "InfoDesTextMapHash": 4221402286,
        "Guide": {
            "Param": [
                ""
            ]
        },
        "Id": 60084,
        "TriggerConfig": {
            "TriggerType": "TRIGGER_RELIQUARY_UPGRADE",
            "ParamList": [
                "21",
                "5",
                "1"
            ]
        },
        "Progress": 8
    },
    {
        "QuestId": 6000085,
        "InvestigationId": 10009,
        "RewardId": 450908,
        "Icon": "UI_Mark_Common",
        "Image": "UI_HandbookPic_Weapon_Breakthrough",
        "InfoDesTextMapHash": 239841718,
        "Guide": {
            "Param": [
                ""
            ]
        },
        "Id": 60085,
        "TriggerConfig": {
            "TriggerType": "TRIGGER_WEAPON_PROMOTE",
            "ParamList": [
                "5",
                "",
                ""
            ]
        },
        "Progress": 3
    },
    {
        "QuestId": 6000086,
        "InvestigationId": 10009,
        "RewardId": 450909,
        "Icon": "UI_Mark_Common",
        "Image": "UI_HandbookPic_Weapon_Levelup",
        "InfoDesTextMapHash": 2116885982,
        "Guide": {
            "Param": [
                ""
            ]
        },
        "Id": 60086,
        "TriggerConfig": {
            "TriggerType": "TRIGGER_WEAPON_UPGRADE",
            "ParamList": [
                "80",
                "",
                ""
            ]
        },
        "Progress": 1
    },
    {
        "QuestId": 6000087,
        "InvestigationId": 10009,
        "RewardId": 450910,
        "Icon": "UI_MarkPoint_Wind",
        "Image": "UI_HandbookPic_Wind_Sign",
        "InfoDesTextMapHash": 1688461054,
        "Guide": {
            "Param": [
                ""
            ]
        },
        "Id": 60087,
        "TriggerConfig": {
            "TriggerType": "TRIGGER_COST_MATERIAL",
            "ParamList": [
                "305",
                "",
                ""
            ]
        },
        "Progress": 500
    },
    {
        "QuestId": 6000088,
        "InvestigationId": 10009,
        "RewardId": 450911,
        "Icon": "UI_MarkPoint_Rock",
        "Image": "UI_HandbookPic_Rock_Sign",
        "InfoDesTextMapHash": 1515484078,
        "Guide": {
            "Param": [
                ""
            ]
        },
        "Id": 60088,
        "TriggerConfig": {
            "TriggerType": "TRIGGER_COST_MATERIAL",
            "ParamList": [
                "307",
                "",
                ""
            ]
        },
        "Progress": 500
    },
    {
        "InvestigationId": 20001,
        "RewardId": 4100101,
        "Icon": "",
        "Image": "",
        "InfoDesTextMapHash": 2412514314,
        "Guide": {
            "Param": [
                ""
            ]
        },
        "Id": 61101,
        "TriggerConfig": {
            "TriggerType": "TRIGGER_OBTAIN_MATERIAL_NUM",
            "ParamList": [
                "101301;101302;101303;101304;101305;101306;101307;101308",
                "",
                ""
            ]
        },
        "Progress": 30
    },
    {
        "InvestigationId": 20001,
        "RewardId": 4100102,
        "Icon": "",
        "Image": "",
        "InfoDesTextMapHash": 41454282,
        "Guide": {
            "Param": [
                ""
            ]
        },
        "Id": 61102,
        "TriggerConfig": {
            "TriggerType": 1000,
            "ParamList": [
                "",
                "",
                ""
            ]
        },
        "Progress": 3
    },
    {
        "InvestigationId": 20001,
        "RewardId": 4100103,
        "Icon": "",
        "Image": "",
        "InfoDesTextMapHash": 2784684962,
        "Guide": {
            "Param": [
                ""
            ]
        },
        "Id": 61110,
        "TriggerConfig": {
            "TriggerType": 437,
            "ParamList": [
                "8",
                "",
                ""
            ]
        },
        "Progress": 1
    },
    {
        "InvestigationId": 20001,
        "RewardId": 4100104,
        "Icon": "",
        "Image": "",
        "InfoDesTextMapHash": 4247688650,
        "Guide": {
            "Param": [
                ""
            ]
        },
        "Id": 61120,
        "TriggerConfig": {
            "TriggerType": 437,
            "ParamList": [
                "7",
                "",
                ""
            ]
        },
        "Progress": 1
    },
    {
        "InvestigationId": 20001,
        "RewardId": 4100105,
        "Icon": "",
        "Image": "",
        "InfoDesTextMapHash": 329713834,
        "Guide": {
            "Param": [
                ""
            ]
        },
        "Id": 61130,
        "TriggerConfig": {
            "TriggerType": 1002,
            "ParamList": [
                "",
                "",
                ""
            ]
        },
        "Progress": 3
    },
    {
        "InvestigationId": 20001,
        "RewardId": 4100106,
        "Icon": "",
        "Image": "",
        "InfoDesTextMapHash": 2844473170,
        "Guide": {
            "Param": [
                ""
            ]
        },
        "Id": 61140,
        "TriggerConfig": {
            "TriggerType": 1003,
            "ParamList": [
                "",
                "",
                ""
            ]
        },
        "Progress": 3
    },
    {
        "InvestigationId": 20001,
        "RewardId": 4100107,
        "Icon": "",
        "Image": "",
        "InfoDesTextMapHash": 2601000650,
        "Guide": {
            "Param": [
                ""
            ]
        },
        "Id": 61150,
        "TriggerConfig": {
            "TriggerType": 1009,
            "ParamList": [
                "0",
                "",
                ""
            ]
        },
        "Progress": 1
    },
    {
        "InvestigationId": 20001,
        "RewardId": 4100108,
        "Icon": "",
        "Image": "",
        "InfoDesTextMapHash": 2339658922,
        "Guide": {
            "Param": [
                ""
            ]
        },
        "Id": 61160,
        "TriggerConfig": {
            "TriggerType": 1005,
            "ParamList": [
                "",
                "",
                ""
            ]
        },
        "Progress": 100
    },
    {
        "InvestigationId": 20001,
        "RewardId": 4100109,
        "Icon": "",
        "Image": "",
        "InfoDesTextMapHash": 3577278538,
        "Guide": {
            "Param": [
                ""
            ]
        },
        "Id": 61161,
        "TriggerConfig": {
            "TriggerType": 1004,
            "ParamList": [
                "2",
                "",
                ""
            ]
        },
        "Progress": 1
    },
    {
        "InvestigationId": 20001,
        "RewardId": 4100110,
        "Icon": "",
        "Image": "",
        "InfoDesTextMapHash": 340684010,
        "Guide": {
            "Param": [
                ""
            ]
        },
        "Id": 61162,
        "TriggerConfig": {
            "TriggerType": 1006,
            "ParamList": [
                "2",
                "",
                ""
            ]
        },
        "Progress": 1
    },
    {
        "InvestigationId": 20002,
        "RewardId": 4100201,
        "Icon": "",
        "Image": "",
        "InfoDesTextMapHash": 2395321138,
        "Guide": {
            "Param": [
                ""
            ]
        },
        "Id": 61201,
        "TriggerConfig": {
            "TriggerType": "TRIGGER_OBTAIN_MATERIAL_NUM",
            "ParamList": [
                "101301;101302;101303;101304;101305;101306;101307;101308",
                "",
                ""
            ]
        },
        "Progress": 100
    },
    {
        "InvestigationId": 20002,
        "RewardId": 4100202,
        "Icon": "",
        "Image": "",
        "InfoDesTextMapHash": 3602996706,
        "Guide": {
            "Param": [
                ""
            ]
        },
        "Id": 61202,
        "TriggerConfig": {
            "TriggerType": 1000,
            "ParamList": [
                "",
                "",
                ""
            ]
        },
        "Progress": 7
    },
    {
        "InvestigationId": 20002,
        "RewardId": 4100203,
        "Icon": "",
        "Image": "",
        "InfoDesTextMapHash": 915307082,
        "Guide": {
            "Param": [
                ""
            ]
        },
        "Id": 61210,
        "TriggerConfig": {
            "TriggerType": 1002,
            "ParamList": [
                "",
                "",
                ""
            ]
        },
        "Progress": 10
    },
    {
        "InvestigationId": 20002,
        "RewardId": 4100204,
        "Icon": "",
        "Image": "",
        "InfoDesTextMapHash": 1598441042,
        "Guide": {
            "Param": [
                ""
            ]
        },
        "Id": 61220,
        "TriggerConfig": {
            "TriggerType": 1003,
            "ParamList": [
                "",
                "",
                ""
            ]
        },
        "Progress": 15
    },
    {
        "InvestigationId": 20002,
        "RewardId": 4100205,
        "Icon": "",
        "Image": "",
        "InfoDesTextMapHash": 2038811474,
        "Guide": {
            "Param": [
                ""
            ]
        },
        "Id": 61230,
        "TriggerConfig": {
            "TriggerType": 1009,
            "ParamList": [
                "10002",
                "",
                ""
            ]
        },
        "Progress": 20
    },
    {
        "InvestigationId": 20002,
        "RewardId": 4100206,
        "Icon": "",
        "Image": "",
        "InfoDesTextMapHash": 2529718906,
        "Guide": {
            "Param": [
                ""
            ]
        },
        "Id": 61240,
        "TriggerConfig": {
            "TriggerType": 1008,
            "ParamList": [
                "",
                "",
                ""
            ]
        },
        "Progress": 1
    },
    {
        "InvestigationId": 20002,
        "RewardId": 4100207,
        "Icon": "",
        "Image": "",
        "InfoDesTextMapHash": 3568936058,
        "Guide": {
            "Param": [
                ""
            ]
        },
        "Id": 61250,
        "TriggerConfig": {
            "TriggerType": 1005,
            "ParamList": [
                "",
                "",
                ""
            ]
        },
        "Progress": 500
    },
    {
        "InvestigationId": 20002,
        "RewardId": 4100208,
        "Icon": "",
        "Image": "",
        "InfoDesTextMapHash": 1928170010,
        "Guide": {
            "Param": [
                ""
            ]
        },
        "Id": 61260,
        "TriggerConfig": {
            "TriggerType": 1006,
            "ParamList": [
                "3",
                "",
                ""
            ]
        },
        "Progress": 1
    },
    {
        "InvestigationId": 20002,
        "RewardId": 4100209,
        "Icon": "",
        "Image": "",
        "InfoDesTextMapHash": 3760301066,
        "Guide": {
            "Param": [
                ""
            ]
        },
        "Id": 61270,
        "TriggerConfig": {
            "TriggerType": 1004,
            "ParamList": [
                "3",
                "",
                ""
            ]
        },
        "Progress": 1
    },
    {
        "InvestigationId": 20003,
        "RewardId": 4100301,
        "Icon": "",
        "Image": "",
        "InfoDesTextMapHash": 1878547162,
        "Guide": {
            "Param": [
                ""
            ]
        },
        "Id": 61300,
        "TriggerConfig": {
            "TriggerType": 1002,
            "ParamList": [
                "",
                "",
                ""
            ]
        },
        "Progress": 40
    },
    {
        "InvestigationId": 20003,
        "RewardId": 4100302,
        "Icon": "",
        "Image": "",
        "InfoDesTextMapHash": 2825238034,
        "Guide": {
            "Param": [
                ""
            ]
        },
        "Id": 61310,
        "TriggerConfig": {
            "TriggerType": 1003,
            "ParamList": [
                "",
                "",
                ""
            ]
        },
        "Progress": 40
    },
    {
        "InvestigationId": 20003,
        "RewardId": 4100303,
        "Icon": "",
        "Image": "",
        "InfoDesTextMapHash": 1812196626,
        "Guide": {
            "Param": [
                ""
            ]
        },
        "Id": 61320,
        "TriggerConfig": {
            "TriggerType": 1009,
            "ParamList": [
                "10003;10004",
                "",
                ""
            ]
        },
        "Progress": 20
    },
    {
        "InvestigationId": 20003,
        "RewardId": 4100304,
        "Icon": "",
        "Image": "",
        "InfoDesTextMapHash": 2571796786,
        "Guide": {
            "Param": [
                ""
            ]
        },
        "Id": 61330,
        "TriggerConfig": {
            "TriggerType": 1008,
            "ParamList": [
                "",
                "",
                ""
            ]
        },
        "Progress": 3
    },
    {
        "InvestigationId": 20003,
        "RewardId": 4100305,
        "Icon": "",
        "Image": "",
        "InfoDesTextMapHash": 3932067586,
        "Guide": {
            "Param": [
                ""
            ]
        },
        "Id": 61340,
        "TriggerConfig": {
            "TriggerType": 1005,
            "ParamList": [
                "",
                "",
                ""
            ]
        },
        "Progress": 2000
    },
    {
        "InvestigationId": 20003,
        "RewardId": 4100306,
        "Icon": "",
        "Image": "",
        "InfoDesTextMapHash": 2339479090,
        "Guide": {
            "Param": [
                ""
            ]
        },
        "Id": 61350,
        "TriggerConfig": {
            "TriggerType": 1007,
            "ParamList": [
                "",
                "",
                ""
            ]
        },
        "Progress": 1
    },
    {
        "InvestigationId": 20003,
        "RewardId": 4100307,
        "Icon": "",
        "Image": "",
        "InfoDesTextMapHash": 1162341138,
        "Guide": {
            "Param": [
                ""
            ]
        },
        "Id": 61360,
        "TriggerConfig": {
            "TriggerType": 1006,
            "ParamList": [
                "5",
                "",
                ""
            ]
        },
        "Progress": 1
    },
    {
        "InvestigationId": 20003,
        "RewardId": 4100308,
        "Icon": "",
        "Image": "",
        "InfoDesTextMapHash": 1945210122,
        "Guide": {
            "Param": [
                ""
            ]
        },
        "Id": 61370,
        "TriggerConfig": {
            "TriggerType": 1004,
            "ParamList": [
                "5",
                "",
                ""
            ]
        },
        "Progress": 1
    },
    {
        "InvestigationId": 20004,
        "RewardId": 4100401,
        "Icon": "",
        "Image": "",
        "InfoDesTextMapHash": 475446010,
        "Guide": {
            "Param": [
                ""
            ]
        },
        "Id": 61400,
        "TriggerConfig": {
            "TriggerType": 1002,
            "ParamList": [
                "",
                "",
                ""
            ]
        },
        "Progress": 80
    },
    {
        "InvestigationId": 20004,
        "RewardId": 4100402,
        "Icon": "",
        "Image": "",
        "InfoDesTextMapHash": 1966163210,
        "Guide": {
            "Param": [
                ""
            ]
        },
        "Id": 61410,
        "TriggerConfig": {
            "TriggerType": 1003,
            "ParamList": [
                "",
                "",
                ""
            ]
        },
        "Progress": 200
    },
    {
        "InvestigationId": 20004,
        "RewardId": 4100403,
        "Icon": "",
        "Image": "",
        "InfoDesTextMapHash": 622702042,
        "Guide": {
            "Param": [
                ""
            ]
        },
        "Id": 61420,
        "TriggerConfig": {
            "TriggerType": 1008,
            "ParamList": [
                "",
                "",
                ""
            ]
        },
        "Progress": 10
    },
    {
        "InvestigationId": 20004,
        "RewardId": 4100404,
        "Icon": "",
        "Image": "",
        "InfoDesTextMapHash": 2926044538,
        "Guide": {
            "Param": [
                ""
            ]
        },
        "Id": 61430,
        "TriggerConfig": {
            "TriggerType": 1005,
            "ParamList": [
                "",
                "",
                ""
            ]
        },
        "Progress": 5000
    },
    {
        "InvestigationId": 20004,
        "RewardId": 4100405,
        "Icon": "",
        "Image": "",
        "InfoDesTextMapHash": 539556010,
        "Guide": {
            "Param": [
                ""
            ]
        },
        "Id": 61440,
        "TriggerConfig": {
            "TriggerType": 1007,
            "ParamList": [
                "",
                "",
                ""
            ]
        },
        "Progress": 10
    },
    {
        "InvestigationId": 20004,
        "RewardId": 4100406,
        "Icon": "",
        "Image": "",
        "InfoDesTextMapHash": 726214426,
        "Guide": {
            "Param": [
                ""
            ]
        },
        "Id": 61450,
        "TriggerConfig": {
            "TriggerType": 1006,
            "ParamList": [
                "7",
                "",
                ""
            ]
        },
        "Progress": 1
    },
    {
        "InvestigationId": 20004,
        "RewardId": 4100407,
        "Icon": "",
        "Image": "",
        "InfoDesTextMapHash": 2368364250,
        "Guide": {
            "Param": [
                ""
            ]
        },
        "Id": 61460,
        "TriggerConfig": {
            "TriggerType": 1004,
            "ParamList": [
                "7",
                "",
                ""
            ]
        },
        "Progress": 1
    }
]