[
    {
        "MechanicusMapID": 1,
        "LOGALCLHBMD": 1475164514,
        "DescTextMapHash": 2307439985,
        "UnlockTipsTextMapHash": 1244849258,
        "MapIconPath": "UI_TheatreMechanicusMap_03",
        "BuildGearLimit": 14,
        "DungeonID": 7001
    },
    {
        "MechanicusMapID": 2,
        "LOGALCLHBMD": 734622890,
        "DescTextMapHash": 840560537,
        "UnlockTipsTextMapHash": 486340930,
        "MapIconPath": "UI_TheatreMechanicusMap_02",
        "BuildGearLimit": 14,
        "DungeonID": 7002
    },
    {
        "MechanicusMapID": 3,
        "LOGALCLHBMD": 2623689378,
        "DescTextMapHash": 3683769305,
        "UnlockTipsTextMapHash": 2963517858,
        "MapIconPath": "UI_TheatreMechanicusMap_01",
        "BuildGearLimit": 14,
        "DungeonID": 7003
    },
    {
        "MechanicusMapID": 4,
        "LOGALCLHBMD": 4233947482,
        "DescTextMapHash": 1409636481,
        "UnlockTipsTextMapHash": 325912354,
        "MapIconPath": "UI_TheatreMechanicusMap_04",
        "BuildGearLimit": 14,
        "DungeonID": 7004
    },
    {
        "MechanicusMapID": 5,
        "LOGALCLHBMD": 590449066,
        "DescTextMapHash": 2412403881,
        "UnlockTipsTextMapHash": 2764074410,
        "MapIconPath": "UI_TheatreMechanicusMap_07",
        "BuildGearLimit": 14,
        "DungeonID": 7005
    },
    {
        "MechanicusMapID": 6,
        "LOGALCLHBMD": 1508298762,
        "DescTextMapHash": 3671066689,
        "UnlockTipsTextMapHash": 326345578,
        "MapIconPath": "UI_TheatreMechanicusMap_05",
        "BuildGearLimit": 14,
        "DungeonID": 7006
    },
    {
        "MechanicusMapID": 7,
        "LOGALCLHBMD": 361597978,
        "DescTextMapHash": 3270171537,
        "UnlockTipsTextMapHash": 1233455810,
        "MapIconPath": "UI_TheatreMechanicusMap_06",
        "BuildGearLimit": 14,
        "DungeonID": 7007
    },
    {
        "MechanicusMapID": 8,
        "LOGALCLHBMD": 3329205482,
        "DescTextMapHash": 3765838497,
        "UnlockTipsTextMapHash": 2472341322,
        "MapIconPath": "UI_TheatreMechanicusMap_07",
        "BuildGearLimit": 14,
        "DungeonID": 7008
    },
    {
        "MechanicusMapID": 9,
        "LOGALCLHBMD": 3020967442,
        "DescTextMapHash": 4274969297,
        "UnlockTipsTextMapHash": 303287586,
        "MapIconPath": "UI_TheatreMechanicusMap_02",
        "BuildGearLimit": 14,
        "DungeonID": 7009
    },
    {
        "MechanicusMapID": 10,
        "LOGALCLHBMD": 4253636610,
        "DescTextMapHash": 3472984505,
        "UnlockTipsTextMapHash": 1514125514,
        "MapIconPath": "UI_TheatreMechanicusMap_01",
        "BuildGearLimit": 14,
        "DungeonID": 7010
    },
    {
        "MechanicusMapID": 11,
        "LOGALCLHBMD": 3751458698,
        "DescTextMapHash": 3910449937,
        "UnlockTipsTextMapHash": 3276210338,
        "MapIconPath": "UI_TheatreMechanicusMap_04",
        "BuildGearLimit": 14,
        "DungeonID": 7011
    },
    {
        "MechanicusMapID": 12,
        "LOGALCLHBMD": 2287081082,
        "DescTextMapHash": 738716193,
        "UnlockTipsTextMapHash": 1927786946,
        "MapIconPath": "UI_TheatreMechanicusMap_07",
        "BuildGearLimit": 14,
        "DungeonID": 7012
    },
    {
        "MechanicusMapID": 13,
        "LOGALCLHBMD": 1910941930,
        "DescTextMapHash": 2062290585,
        "UnlockTipsTextMapHash": 2542003570,
        "MapIconPath": "UI_TheatreMechanicusMap_05",
        "BuildGearLimit": 14,
        "DungeonID": 7013
    },
    {
        "MechanicusMapID": 14,
        "LOGALCLHBMD": 609981530,
        "DescTextMapHash": 90506761,
        "UnlockTipsTextMapHash": 3872397410,
        "MapIconPath": "UI_TheatreMechanicusMap_03",
        "BuildGearLimit": 14,
        "DungeonID": 7000
    }
]