[
    {
        "Id": 101,
        "TagStr": "史莱姆",
        "MonsterRarity": "MONSTER_RARITY_SMALL_MONSTER"
    },
    {
        "Id": 102,
        "TagStr": "大史莱姆",
        "MonsterRarity": "MONSTER_RARITY_SMALL_MONSTER"
    },
    {
        "Id": 103,
        "TagStr": "史莱姆",
        "MonsterRarity": "MONSTER_RARITY_SMALL_MONSTER"
    },
    {
        "Id": 104,
        "TagStr": "大史莱姆",
        "MonsterRarity": "MONSTER_RARITY_SMALL_MONSTER"
    },
    {
        "Id": 105,
        "TagStr": "史莱姆",
        "MonsterRarity": "MONSTER_RARITY_SMALL_MONSTER"
    },
    {
        "Id": 106,
        "TagStr": "大史莱姆",
        "MonsterRarity": "MONSTER_RARITY_SMALL_MONSTER"
    },
    {
        "Id": 107,
        "TagStr": "大史莱姆",
        "MonsterRarity": "MONSTER_RARITY_SMALL_MONSTER"
    },
    {
        "Id": 108,
        "TagStr": "史莱姆",
        "MonsterRarity": "MONSTER_RARITY_SMALL_MONSTER"
    },
    {
        "Id": 109,
        "TagStr": "大史莱姆",
        "MonsterRarity": "MONSTER_RARITY_SMALL_MONSTER"
    },
    {
        "Id": 110,
        "TagStr": "史莱姆",
        "MonsterRarity": "MONSTER_RARITY_SMALL_MONSTER"
    },
    {
        "Id": 111,
        "TagStr": "大史莱姆",
        "MonsterRarity": "MONSTER_RARITY_SMALL_MONSTER"
    },
    {
        "Id": 112,
        "TagStr": "史莱姆",
        "MonsterRarity": "MONSTER_RARITY_SMALL_MONSTER"
    },
    {
        "Id": 113,
        "TagStr": "大史莱姆",
        "MonsterRarity": "MONSTER_RARITY_SMALL_MONSTER"
    },
    {
        "Id": 114,
        "TagStr": "史莱姆",
        "MonsterRarity": "MONSTER_RARITY_SMALL_MONSTER"
    },
    {
        "Id": 115,
        "TagStr": "大史莱姆",
        "MonsterRarity": "MONSTER_RARITY_SMALL_MONSTER"
    },
    {
        "Id": 201,
        "TagStr": "元素之核",
        "MonsterRarity": "MONSTER_RARITY_ELITE_MONSTER"
    },
    {
        "Id": 401,
        "TagStr": "无相之雷",
        "MonsterRarity": "MONSTER_RARITY_BOSS_MONSTER"
    },
    {
        "Id": 402,
        "TagStr": "无相之风",
        "MonsterRarity": "MONSTER_RARITY_BOSS_MONSTER"
    },
    {
        "Id": 403,
        "TagStr": "无相之岩",
        "MonsterRarity": "MONSTER_RARITY_BOSS_MONSTER"
    },
    {
        "Id": 405,
        "TagStr": "无相之冰",
        "MonsterRarity": "MONSTER_RARITY_BOSS_MONSTER"
    },
    {
        "Id": 501,
        "TagStr": "纯水精灵",
        "MonsterRarity": "MONSTER_RARITY_BOSS_MONSTER"
    },
    {
        "Id": 502,
        "TagStr": "魔法生物",
        "MonsterRarity": "MONSTER_RARITY_SMALL_ENV_ANIMAL"
    },
    {
        "Id": 503,
        "TagStr": "魔法生物",
        "MonsterRarity": "MONSTER_RARITY_SMALL_ENV_ANIMAL"
    },
    {
        "Id": 504,
        "TagStr": "魔法生物",
        "MonsterRarity": "MONSTER_RARITY_SMALL_ENV_ANIMAL"
    },
    {
        "Id": 505,
        "TagStr": "魔法生物",
        "MonsterRarity": "MONSTER_RARITY_SMALL_ENV_ANIMAL"
    },
    {
        "Id": 506,
        "TagStr": "魔法生物",
        "MonsterRarity": "MONSTER_RARITY_SMALL_ENV_ANIMAL"
    },
    {
        "Id": 507,
        "TagStr": "魔法生物",
        "MonsterRarity": "MONSTER_RARITY_SMALL_ENV_ANIMAL"
    },
    {
        "Id": 508,
        "TagStr": "魔法生物",
        "MonsterRarity": "MONSTER_RARITY_SMALL_ENV_ANIMAL"
    },
    {
        "Id": 509,
        "TagStr": "魔法生物",
        "MonsterRarity": "MONSTER_RARITY_SMALL_ENV_ANIMAL"
    },
    {
        "Id": 10101,
        "TagStr": "丘丘人",
        "MonsterRarity": "MONSTER_RARITY_SMALL_MONSTER"
    },
    {
        "Id": 10102,
        "TagStr": "丘丘人",
        "MonsterRarity": "MONSTER_RARITY_SMALL_MONSTER"
    },
    {
        "Id": 10103,
        "TagStr": "丘丘人",
        "MonsterRarity": "MONSTER_RARITY_SMALL_MONSTER"
    },
    {
        "Id": 10104,
        "TagStr": "远程丘丘人",
        "MonsterRarity": "MONSTER_RARITY_SMALL_MONSTER"
    },
    {
        "Id": 10105,
        "TagStr": "远程丘丘人",
        "MonsterRarity": "MONSTER_RARITY_SMALL_MONSTER"
    },
    {
        "Id": 10106,
        "TagStr": "丘丘人",
        "MonsterRarity": "MONSTER_RARITY_SMALL_MONSTER"
    },
    {
        "Id": 10107,
        "TagStr": "丘丘人",
        "MonsterRarity": "MONSTER_RARITY_SMALL_MONSTER"
    },
    {
        "Id": 10108,
        "TagStr": "丘丘人",
        "MonsterRarity": "MONSTER_RARITY_SMALL_MONSTER"
    },
    {
        "Id": 10109,
        "TagStr": "远程丘丘人",
        "MonsterRarity": "MONSTER_RARITY_SMALL_MONSTER"
    },
    {
        "Id": 10110,
        "TagStr": "远程丘丘人",
        "MonsterRarity": "MONSTER_RARITY_SMALL_MONSTER"
    },
    {
        "Id": 10111,
        "TagStr": "丘丘人",
        "MonsterRarity": "MONSTER_RARITY_SMALL_MONSTER"
    },
    {
        "Id": 10112,
        "TagStr": "丘丘人",
        "MonsterRarity": "MONSTER_RARITY_SMALL_MONSTER"
    },
    {
        "Id": 10113,
        "TagStr": "丘丘人",
        "MonsterRarity": "MONSTER_RARITY_SMALL_MONSTER"
    },
    {
        "Id": 10114,
        "TagStr": "丘丘人",
        "MonsterRarity": "MONSTER_RARITY_SMALL_MONSTER"
    },
    {
        "Id": 10115,
        "TagStr": "丘丘人",
        "MonsterRarity": "MONSTER_RARITY_SMALL_MONSTER"
    },
    {
        "Id": 10201,
        "TagStr": "丘丘暴徒",
        "MonsterRarity": "MONSTER_RARITY_ELITE_MONSTER"
    },
    {
        "Id": 10202,
        "TagStr": "丘丘暴徒",
        "MonsterRarity": "MONSTER_RARITY_ELITE_MONSTER"
    },
    {
        "Id": 10203,
        "TagStr": "丘丘暴徒",
        "MonsterRarity": "MONSTER_RARITY_ELITE_MONSTER"
    },
    {
        "Id": 10204,
        "TagStr": "丘丘岩盔王",
        "MonsterRarity": "MONSTER_RARITY_ELITE_MONSTER"
    },
    {
        "Id": 10205,
        "TagStr": "丘丘岩盔王",
        "MonsterRarity": "MONSTER_RARITY_ELITE_MONSTER"
    },
    {
        "Id": 10206,
        "TagStr": "丘丘暴徒",
        "MonsterRarity": "MONSTER_RARITY_ELITE_MONSTER"
    },
    {
        "Id": 10301,
        "TagStr": "丘丘萨满",
        "MonsterRarity": "MONSTER_RARITY_SMALL_MONSTER"
    },
    {
        "Id": 10302,
        "TagStr": "丘丘萨满",
        "MonsterRarity": "MONSTER_RARITY_SMALL_MONSTER"
    },
    {
        "Id": 10303,
        "TagStr": "丘丘萨满",
        "MonsterRarity": "MONSTER_RARITY_SMALL_MONSTER"
    },
    {
        "Id": 10304,
        "TagStr": "丘丘萨满",
        "MonsterRarity": "MONSTER_RARITY_SMALL_MONSTER"
    },
    {
        "Id": 10305,
        "TagStr": "丘丘萨满",
        "MonsterRarity": "MONSTER_RARITY_SMALL_MONSTER"
    },
    {
        "Id": 20101,
        "TagStr": "深渊法师",
        "MonsterRarity": "MONSTER_RARITY_ELITE_MONSTER"
    },
    {
        "Id": 20102,
        "TagStr": "深渊法师",
        "MonsterRarity": "MONSTER_RARITY_ELITE_MONSTER"
    },
    {
        "Id": 20103,
        "TagStr": "深渊法师",
        "MonsterRarity": "MONSTER_RARITY_ELITE_MONSTER"
    },
    {
        "Id": 20201,
        "TagStr": "深渊法师",
        "MonsterRarity": "MONSTER_RARITY_ELITE_MONSTER"
    },
    {
        "Id": 20301,
        "TagStr": "深渊法师",
        "MonsterRarity": "MONSTER_RARITY_ELITE_MONSTER"
    },
    {
        "Id": 30101,
        "TagStr": "先遣队",
        "MonsterRarity": "MONSTER_RARITY_SMALL_MONSTER"
    },
    {
        "Id": 30102,
        "TagStr": "先遣队",
        "MonsterRarity": "MONSTER_RARITY_SMALL_MONSTER"
    },
    {
        "Id": 30103,
        "TagStr": "先遣队",
        "MonsterRarity": "MONSTER_RARITY_SMALL_MONSTER"
    },
    {
        "Id": 30104,
        "TagStr": "先遣队",
        "MonsterRarity": "MONSTER_RARITY_SMALL_MONSTER"
    },
    {
        "Id": 30105,
        "TagStr": "先遣队",
        "MonsterRarity": "MONSTER_RARITY_SMALL_MONSTER"
    },
    {
        "Id": 30106,
        "TagStr": "先遣队",
        "MonsterRarity": "MONSTER_RARITY_SMALL_MONSTER"
    },
    {
        "Id": 30201,
        "TagStr": "债务处理人",
        "MonsterRarity": "MONSTER_RARITY_ELITE_MONSTER"
    },
    {
        "Id": 30301,
        "TagStr": "召唤师",
        "MonsterRarity": "MONSTER_RARITY_ELITE_MONSTER"
    },
    {
        "Id": 30401,
        "TagStr": "召唤师",
        "MonsterRarity": "MONSTER_RARITY_ELITE_MONSTER"
    },
    {
        "Id": 40101,
        "TagStr": "遗迹守卫",
        "MonsterRarity": "MONSTER_RARITY_ELITE_MONSTER"
    },
    {
        "Id": 40102,
        "TagStr": "遗迹守卫",
        "MonsterRarity": "MONSTER_RARITY_ELITE_MONSTER"
    },
    {
        "Id": 40103,
        "TagStr": "遗迹重机",
        "MonsterRarity": "MONSTER_RARITY_ELITE_MONSTER"
    },
    {
        "Id": 50101,
        "TagStr": "盗宝团",
        "MonsterRarity": "MONSTER_RARITY_SMALL_MONSTER"
    },
    {
        "Id": 50102,
        "TagStr": "盗宝团",
        "MonsterRarity": "MONSTER_RARITY_SMALL_MONSTER"
    },
    {
        "Id": 50103,
        "TagStr": "盗宝团",
        "MonsterRarity": "MONSTER_RARITY_SMALL_MONSTER"
    },
    {
        "Id": 50104,
        "TagStr": "盗宝团",
        "MonsterRarity": "MONSTER_RARITY_SMALL_MONSTER"
    },
    {
        "Id": 50105,
        "TagStr": "盗宝团",
        "MonsterRarity": "MONSTER_RARITY_SMALL_MONSTER"
    },
    {
        "Id": 50106,
        "TagStr": "盗宝团",
        "MonsterRarity": "MONSTER_RARITY_SMALL_MONSTER"
    },
    {
        "Id": 50107,
        "TagStr": "盗宝团",
        "MonsterRarity": "MONSTER_RARITY_SMALL_MONSTER"
    },
    {
        "Id": 50201,
        "TagStr": "盗宝团",
        "MonsterRarity": "MONSTER_RARITY_SMALL_MONSTER"
    },
    {
        "Id": 50202,
        "TagStr": "盗宝团",
        "MonsterRarity": "MONSTER_RARITY_SMALL_MONSTER"
    },
    {
        "Id": 50301,
        "TagStr": "盗宝团",
        "MonsterRarity": "MONSTER_RARITY_SMALL_MONSTER"
    },
    {
        "Id": 50302,
        "TagStr": "盗宝团",
        "MonsterRarity": "MONSTER_RARITY_SMALL_MONSTER"
    },
    {
        "Id": 50303,
        "TagStr": "盗宝团",
        "MonsterRarity": "MONSTER_RARITY_SMALL_MONSTER"
    },
    {
        "Id": 50401,
        "TagStr": "盗宝团",
        "MonsterRarity": "MONSTER_RARITY_SMALL_MONSTER"
    },
    {
        "Id": 50501,
        "TagStr": "盗宝团",
        "MonsterRarity": "MONSTER_RARITY_SMALL_MONSTER"
    },
    {
        "Id": 50502,
        "TagStr": "盗宝团",
        "MonsterRarity": "MONSTER_RARITY_SMALL_MONSTER"
    },
    {
        "Id": 50601,
        "TagStr": "盗宝团",
        "MonsterRarity": "MONSTER_RARITY_SMALL_MONSTER"
    },
    {
        "Id": 50701,
        "TagStr": "盗宝团",
        "MonsterRarity": "MONSTER_RARITY_SMALL_MONSTER"
    },
    {
        "Id": 60101,
        "TagStr": "骗骗花",
        "MonsterRarity": "MONSTER_RARITY_SMALL_MONSTER"
    },
    {
        "Id": 60102,
        "TagStr": "骗骗花",
        "MonsterRarity": "MONSTER_RARITY_SMALL_MONSTER"
    },
    {
        "Id": 60201,
        "TagStr": "急冻树",
        "MonsterRarity": "MONSTER_RARITY_BOSS_MONSTER"
    },
    {
        "Id": 60202,
        "TagStr": "爆炎树",
        "MonsterRarity": "MONSTER_RARITY_BOSS_MONSTER"
    },
    {
        "Id": 60301,
        "TagStr": "幼岩龙蜥",
        "MonsterRarity": "MONSTER_RARITY_ELITE_MONSTER"
    },
    {
        "Id": 60401,
        "TagStr": "岩龙蜥",
        "MonsterRarity": "MONSTER_RARITY_ELITE_MONSTER"
    },
    {
        "Id": 60501,
        "TagStr": "古岩龙蜥水",
        "MonsterRarity": "MONSTER_RARITY_BOSS_MONSTER"
    },
    {
        "Id": 60502,
        "TagStr": "古岩龙蜥火",
        "MonsterRarity": "MONSTER_RARITY_BOSS_MONSTER"
    },
    {
        "Id": 60503,
        "TagStr": "古岩龙蜥冰",
        "MonsterRarity": "MONSTER_RARITY_BOSS_MONSTER"
    },
    {
        "Id": 60504,
        "TagStr": "古岩龙蜥电",
        "MonsterRarity": "MONSTER_RARITY_BOSS_MONSTER"
    },
    {
        "Id": 60601,
        "TagStr": "雷萤",
        "MonsterRarity": "MONSTER_RARITY_SMALL_MONSTER"
    },
    {
        "Id": 60602,
        "TagStr": "雷萤",
        "MonsterRarity": "MONSTER_RARITY_SMALL_MONSTER"
    },
    {
        "Id": 60603,
        "TagStr": "雷萤",
        "MonsterRarity": "MONSTER_RARITY_SMALL_MONSTER"
    },
    {
        "Id": 80101,
        "TagStr": "采集动物",
        "MonsterRarity": "MONSTER_RARITY_SMALL_ENV_ANIMAL"
    },
    {
        "Id": 80102,
        "TagStr": "采集动物",
        "MonsterRarity": "MONSTER_RARITY_SMALL_ENV_ANIMAL"
    },
    {
        "Id": 80103,
        "TagStr": "采集动物",
        "MonsterRarity": "MONSTER_RARITY_SMALL_ENV_ANIMAL"
    },
    {
        "Id": 80201,
        "TagStr": "走兽",
        "MonsterRarity": "MONSTER_RARITY_SMALL_ENV_ANIMAL"
    },
    {
        "Id": 80202,
        "TagStr": "走兽",
        "MonsterRarity": "MONSTER_RARITY_SMALL_ENV_ANIMAL"
    },
    {
        "Id": 80203,
        "TagStr": "走兽",
        "MonsterRarity": "MONSTER_RARITY_SMALL_ENV_ANIMAL"
    },
    {
        "Id": 80204,
        "TagStr": "走兽",
        "MonsterRarity": "MONSTER_RARITY_SMALL_ENV_ANIMAL"
    },
    {
        "Id": 80205,
        "TagStr": "走兽",
        "MonsterRarity": "MONSTER_RARITY_SMALL_ENV_ANIMAL"
    },
    {
        "Id": 80206,
        "TagStr": "走兽",
        "MonsterRarity": "MONSTER_RARITY_SMALL_ENV_ANIMAL"
    },
    {
        "Id": 80301,
        "TagStr": "鸟类",
        "MonsterRarity": "MONSTER_RARITY_SMALL_ENV_ANIMAL"
    },
    {
        "Id": 80302,
        "TagStr": "鸟类",
        "MonsterRarity": "MONSTER_RARITY_SMALL_ENV_ANIMAL"
    },
    {
        "Id": 80303,
        "TagStr": "鸟类",
        "MonsterRarity": "MONSTER_RARITY_SMALL_ENV_ANIMAL"
    },
    {
        "Id": 80304,
        "TagStr": "鸟类",
        "MonsterRarity": "MONSTER_RARITY_SMALL_ENV_ANIMAL"
    },
    {
        "Id": 80305,
        "TagStr": "鸟类",
        "MonsterRarity": "MONSTER_RARITY_SMALL_ENV_ANIMAL"
    },
    {
        "Id": 80401,
        "TagStr": "水族",
        "MonsterRarity": "MONSTER_RARITY_SMALL_ENV_ANIMAL"
    },
    {
        "Id": 80501,
        "TagStr": "魔法生物",
        "MonsterRarity": "MONSTER_RARITY_SMALL_ENV_ANIMAL"
    },
    {
        "Id": 81203,
        "TagStr": "家园走兽",
        "MonsterRarity": "MONSTER_RARITY_SMALL_ENV_ANIMAL"
    },
    {
        "Id": 81204,
        "TagStr": "家园走兽",
        "MonsterRarity": "MONSTER_RARITY_SMALL_ENV_ANIMAL"
    },
    {
        "Id": 81205,
        "TagStr": "家园走兽",
        "MonsterRarity": "MONSTER_RARITY_SMALL_ENV_ANIMAL"
    },
    {
        "Id": 81301,
        "TagStr": "家园鸟类",
        "MonsterRarity": "MONSTER_RARITY_SMALL_ENV_ANIMAL"
    },
    {
        "Id": 82203,
        "TagStr": "家园走兽",
        "MonsterRarity": "MONSTER_RARITY_SMALL_ENV_ANIMAL"
    },
    {
        "Id": 82204,
        "TagStr": "家园走兽",
        "MonsterRarity": "MONSTER_RARITY_SMALL_ENV_ANIMAL"
    },
    {
        "Id": 82205,
        "TagStr": "家园走兽",
        "MonsterRarity": "MONSTER_RARITY_SMALL_ENV_ANIMAL"
    },
    {
        "Id": 82301,
        "TagStr": "家园鸟类",
        "MonsterRarity": "MONSTER_RARITY_SMALL_ENV_ANIMAL"
    },
    {
        "Id": 90101,
        "TagStr": "风魔龙",
        "MonsterRarity": "MONSTER_RARITY_BIG_BOSS_MONSTER"
    },
    {
        "Id": 90201,
        "TagStr": "北风狼",
        "MonsterRarity": "MONSTER_RARITY_BIG_BOSS_MONSTER"
    },
    {
        "Id": 90301,
        "TagStr": "公子",
        "MonsterRarity": "MONSTER_RARITY_BIG_BOSS_MONSTER"
    },
    {
        "Id": 90401,
        "TagStr": "若陀龙王",
        "MonsterRarity": "MONSTER_RARITY_BIG_BOSS_MONSTER"
    }
]