[
    {
        "TitleID": 101,
        "TitleNameTextMapHash": 611289343,
        "IsInverted": true,
        "Desc": "风龙一阶段空战"
    },
    {
        "TitleID": 102,
        "TitleNameTextMapHash": 1863790967,
        "IsInverted": true,
        "Desc": "风龙三阶段空战"
    },
    {
        "TitleID": 103,
        "TitleNameTextMapHash": 1683437439,
        "IsInverted": true,
        "Desc": "风龙三阶段地面"
    },
    {
        "TitleID": 111,
        "TitleNameTextMapHash": 1610694895,
        "IsInverted": true,
        "Desc": "北风狼剧情战"
    },
    {
        "TitleID": 112,
        "TitleNameTextMapHash": 2071156167,
        "IsInverted": true,
        "Desc": "北风狼循环"
    },
    {
        "TitleID": 121,
        "TitleNameTextMapHash": 1786437831,
        "IsInverted": true,
        "Desc": "公子boss战一阶段"
    },
    {
        "TitleID": 122,
        "TitleNameTextMapHash": 456265943,
        "IsInverted": true,
        "Desc": "公子boss战二阶段"
    },
    {
        "TitleID": 123,
        "TitleNameTextMapHash": 1407733695,
        "IsInverted": true,
        "Desc": "公子boss战三阶段"
    },
    {
        "TitleID": 131,
        "TitleNameTextMapHash": 3648933895,
        "IsInverted": true,
        "Desc": "若陀龙王"
    },
    {
        "TitleID": 1001,
        "TitleNameTextMapHash": 3442676239,
        "Desc": "草史莱姆"
    },
    {
        "TitleID": 1002,
        "TitleNameTextMapHash": 1907026423,
        "Desc": "风史莱姆"
    },
    {
        "TitleID": 1003,
        "TitleNameTextMapHash": 826927551,
        "Desc": "雷史莱姆"
    },
    {
        "TitleID": 1004,
        "TitleNameTextMapHash": 50110623,
        "Desc": "冰史莱姆"
    },
    {
        "TitleID": 1005,
        "TitleNameTextMapHash": 3162776823,
        "Desc": "水史莱姆"
    },
    {
        "TitleID": 1006,
        "TitleNameTextMapHash": 812925943,
        "Desc": "火史莱姆"
    },
    {
        "TitleID": 1007,
        "TitleNameTextMapHash": 1884823111,
        "Desc": "岩史莱姆"
    },
    {
        "TitleID": 1011,
        "TitleNameTextMapHash": 1126712863,
        "Desc": "大型草史莱姆"
    },
    {
        "TitleID": 1021,
        "TitleNameTextMapHash": 1066398151,
        "Desc": "大型风史莱姆"
    },
    {
        "TitleID": 1031,
        "TitleNameTextMapHash": 1095536183,
        "Desc": "大型雷史莱姆"
    },
    {
        "TitleID": 1032,
        "TitleNameTextMapHash": 1694877743,
        "Desc": "变异雷史莱姆"
    },
    {
        "TitleID": 1041,
        "TitleNameTextMapHash": 4183094271,
        "Desc": "大型冰史莱姆"
    },
    {
        "TitleID": 1051,
        "TitleNameTextMapHash": 1456938855,
        "Desc": "大型水史莱姆"
    },
    {
        "TitleID": 1061,
        "TitleNameTextMapHash": 1149332895,
        "Desc": "大型火史莱姆"
    },
    {
        "TitleID": 1071,
        "TitleNameTextMapHash": 3162896055,
        "Desc": "大型岩史莱姆"
    },
    {
        "TitleID": 1101,
        "TitleNameTextMapHash": 2915077007,
        "Desc": "雷萤"
    },
    {
        "TitleID": 1102,
        "TitleNameTextMapHash": 3489578911,
        "Desc": "水萤"
    },
    {
        "TitleID": 1103,
        "TitleNameTextMapHash": 1464476751,
        "Desc": "冰萤"
    },
    {
        "TitleID": 1201,
        "TitleNameTextMapHash": 641743687,
        "Desc": "狂风之核"
    },
    {
        "TitleID": 1202,
        "TitleNameTextMapHash": 2866324807,
        "Desc": "雷电之核"
    },
    {
        "TitleID": 2001,
        "TitleNameTextMapHash": 3372311639,
        "Desc": "无相之雷"
    },
    {
        "TitleID": 2002,
        "TitleNameTextMapHash": 4787039,
        "Desc": "无相之风"
    },
    {
        "TitleID": 2003,
        "TitleNameTextMapHash": 3502543183,
        "Desc": "无相之岩"
    },
    {
        "TitleID": 2005,
        "TitleNameTextMapHash": 1433877471,
        "Desc": "无相之冰"
    },
    {
        "TitleID": 2101,
        "TitleNameTextMapHash": 3272662991,
        "Desc": "冰骗骗花"
    },
    {
        "TitleID": 2102,
        "TitleNameTextMapHash": 2763565143,
        "Desc": "火骗骗花"
    },
    {
        "TitleID": 2111,
        "TitleNameTextMapHash": 382592143,
        "Desc": "急冻树"
    },
    {
        "TitleID": 2112,
        "TitleNameTextMapHash": 1260004983,
        "Desc": "爆炎树"
    },
    {
        "TitleID": 2201,
        "TitleNameTextMapHash": 705562231,
        "IsInverted": true,
        "Desc": "一般纯水精灵"
    },
    {
        "TitleID": 2211,
        "TitleNameTextMapHash": 1764723215,
        "IsInverted": true,
        "Desc": "轻策后山BOSS纯水精灵"
    },
    {
        "TitleID": 2221,
        "TitleNameTextMapHash": 2109139647,
        "Desc": "纯水之猪"
    },
    {
        "TitleID": 2222,
        "TitleNameTextMapHash": 826570055,
        "Desc": "纯水之鹤"
    },
    {
        "TitleID": 2223,
        "TitleNameTextMapHash": 783836327,
        "Desc": "纯水之蟹"
    },
    {
        "TitleID": 2224,
        "TitleNameTextMapHash": 2299711455,
        "Desc": "纯水之雀"
    },
    {
        "TitleID": 2225,
        "TitleNameTextMapHash": 2339276447,
        "Desc": "纯水之鸭"
    },
    {
        "TitleID": 2226,
        "TitleNameTextMapHash": 3598397775,
        "Desc": "纯水之鼠"
    },
    {
        "TitleID": 2227,
        "TitleNameTextMapHash": 3236505111,
        "Desc": "纯水之蛙"
    },
    {
        "TitleID": 2228,
        "TitleNameTextMapHash": 2763133887,
        "Desc": "纯水之鹰"
    },
    {
        "TitleID": 3001,
        "TitleNameTextMapHash": 4275091487,
        "Desc": "丘丘人大类"
    },
    {
        "TitleID": 3011,
        "TitleNameTextMapHash": 2119774575,
        "Desc": "射手丘丘人大类"
    },
    {
        "TitleID": 3090,
        "TitleNameTextMapHash": 1619610175,
        "Desc": "奇怪的丘丘人"
    },
    {
        "TitleID": 3101,
        "TitleNameTextMapHash": 3041589367,
        "Desc": "木盾丘丘暴徒"
    },
    {
        "TitleID": 3102,
        "TitleNameTextMapHash": 71501855,
        "Desc": "火斧丘丘暴徒"
    },
    {
        "TitleID": 3103,
        "TitleNameTextMapHash": 2732729943,
        "Desc": "岩盾丘丘暴徒"
    },
    {
        "TitleID": 3104,
        "TitleNameTextMapHash": 2938534431,
        "Desc": "冰盾丘丘暴徒"
    },
    {
        "TitleID": 3111,
        "TitleNameTextMapHash": 3207163591,
        "Desc": "丘丘岩盔王"
    },
    {
        "TitleID": 3112,
        "TitleNameTextMapHash": 2455323215,
        "Desc": "丘丘霜铠王"
    },
    {
        "TitleID": 3201,
        "TitleNameTextMapHash": 3138720183,
        "Desc": "水丘丘萨满"
    },
    {
        "TitleID": 3202,
        "TitleNameTextMapHash": 752200839,
        "Desc": "草丘丘萨满"
    },
    {
        "TitleID": 3203,
        "TitleNameTextMapHash": 3144530879,
        "Desc": "风丘丘萨满"
    },
    {
        "TitleID": 3204,
        "TitleNameTextMapHash": 2461230975,
        "Desc": "岩丘丘萨满"
    },
    {
        "TitleID": 3205,
        "TitleNameTextMapHash": 172091855,
        "Desc": "冰丘丘萨满"
    },
    {
        "TitleID": 4001,
        "TitleNameTextMapHash": 1400868983,
        "IsInverted": true,
        "Desc": "火深渊法师"
    },
    {
        "TitleID": 4002,
        "TitleNameTextMapHash": 2296200775,
        "IsInverted": true,
        "Desc": "冰深渊法师"
    },
    {
        "TitleID": 4003,
        "TitleNameTextMapHash": 715089791,
        "IsInverted": true,
        "Desc": "水深渊法师"
    },
    {
        "TitleID": 4011,
        "TitleNameTextMapHash": 1822534847,
        "IsInverted": true,
        "Desc": "深渊使徒"
    },
    {
        "TitleID": 4021,
        "TitleNameTextMapHash": 2054457567,
        "IsInverted": true,
        "Desc": "深渊咏者"
    },
    {
        "TitleID": 5001,
        "TitleNameTextMapHash": 1306608279,
        "IsInverted": true,
        "Desc": "债务处理人"
    },
    {
        "TitleID": 5002,
        "TitleNameTextMapHash": 510473727,
        "IsInverted": true,
        "Desc": "雷萤术士"
    },
    {
        "TitleID": 5003,
        "TitleNameTextMapHash": 553527231,
        "IsInverted": true,
        "Desc": "冰萤术士"
    },
    {
        "TitleID": 5101,
        "TitleNameTextMapHash": 3682481871,
        "IsInverted": true,
        "Desc": "愚人众 先遣队 成男 岩属性双手杖"
    },
    {
        "TitleID": 5102,
        "TitleNameTextMapHash": 4062303479,
        "IsInverted": true,
        "Desc": "愚人众 先遣队 成男 火枪"
    },
    {
        "TitleID": 5111,
        "TitleNameTextMapHash": 3368507119,
        "IsInverted": true,
        "Desc": "愚人众 先遣队 胖男 冰喷射枪"
    },
    {
        "TitleID": 5112,
        "TitleNameTextMapHash": 2112511879,
        "IsInverted": true,
        "Desc": "愚人众 先遣队 胖男 水喷射枪"
    },
    {
        "TitleID": 5121,
        "TitleNameTextMapHash": 4135901895,
        "IsInverted": true,
        "Desc": "愚人众 先遣队 壮男 雷重锤"
    },
    {
        "TitleID": 5122,
        "TitleNameTextMapHash": 3742072615,
        "IsInverted": true,
        "Desc": "愚人众 先遣队 壮男 风属性拳套"
    },
    {
        "TitleID": 6001,
        "TitleNameTextMapHash": 1074946407,
        "Desc": "遗迹守卫"
    },
    {
        "TitleID": 6002,
        "TitleNameTextMapHash": 1867418743,
        "Desc": "遗迹猎者"
    },
    {
        "TitleID": 6003,
        "TitleNameTextMapHash": 3768379127,
        "Desc": "遗迹重机"
    },
    {
        "TitleID": 7001,
        "TitleNameTextMapHash": 2475795295,
        "Desc": "盗宝团斥候"
    },
    {
        "TitleID": 7002,
        "TitleNameTextMapHash": 1400128311,
        "Desc": "盗宝团神射手"
    },
    {
        "TitleID": 7003,
        "TitleNameTextMapHash": 1902406215,
        "Desc": "盗宝团掘墓者"
    },
    {
        "TitleID": 7004,
        "TitleNameTextMapHash": 3843706759,
        "Desc": "盗宝团女斧手"
    },
    {
        "TitleID": 7005,
        "TitleNameTextMapHash": 1327255903,
        "Desc": "「溜溜」"
    },
    {
        "TitleID": 7006,
        "TitleNameTextMapHash": 505271079,
        "Desc": "「怪鸟」"
    },
    {
        "TitleID": 7007,
        "TitleNameTextMapHash": 2072107391,
        "Desc": "「卡门」"
    },
    {
        "TitleID": 7008,
        "TitleNameTextMapHash": 1341597039,
        "Desc": "「大姐头」"
    },
    {
        "TitleID": 7011,
        "TitleNameTextMapHash": 3021789503,
        "Desc": "千岩军士兵"
    },
    {
        "TitleID": 7012,
        "TitleNameTextMapHash": 701893295,
        "Desc": "千岩军教头"
    },
    {
        "TitleID": 7111,
        "TitleNameTextMapHash": 898493423,
        "Desc": "盗宝团空手胖"
    },
    {
        "TitleID": 7112,
        "TitleNameTextMapHash": 3498832663,
        "Desc": "盗宝团船橹"
    },
    {
        "TitleID": 7121,
        "TitleNameTextMapHash": 2877411191,
        "Desc": "盗宝团投掷火"
    },
    {
        "TitleID": 7122,
        "TitleNameTextMapHash": 1290509175,
        "Desc": "盗宝团投掷水"
    },
    {
        "TitleID": 7123,
        "TitleNameTextMapHash": 748026823,
        "Desc": "盗宝团投掷电"
    },
    {
        "TitleID": 7124,
        "TitleNameTextMapHash": 459203023,
        "Desc": "盗宝团投掷冰"
    },
    {
        "TitleID": 7131,
        "TitleNameTextMapHash": 1459083847,
        "Desc": "盗宝团肌肉男空手"
    },
    {
        "TitleID": 7132,
        "TitleNameTextMapHash": 1958846447,
        "Desc": "盗宝团肌肉男单手锤"
    },
    {
        "TitleID": 8001,
        "TitleNameTextMapHash": 174961871,
        "Desc": "幼岩龙蜥"
    },
    {
        "TitleID": 8002,
        "TitleNameTextMapHash": 2926371463,
        "Desc": "岩龙蜥"
    },
    {
        "TitleID": 8003,
        "TitleNameTextMapHash": 282390671,
        "Desc": "古岩龙蜥"
    },
    {
        "TitleID": 10001,
        "TitleNameTextMapHash": 841627719,
        "Desc": "香菱线冰史莱姆-精英"
    },
    {
        "TitleID": 10002,
        "TitleNameTextMapHash": 3521985375,
        "Desc": "钟离线债务处理人-精英"
    },
    {
        "TitleID": 10003,
        "TitleNameTextMapHash": 225429327,
        "Desc": "远古野猪王"
    },
    {
        "TitleID": 10004,
        "TitleNameTextMapHash": 170546951,
        "Desc": "历战无相雷"
    },
    {
        "TitleID": 10005,
        "TitleNameTextMapHash": 412604943,
        "Desc": "历战无相风"
    },
    {
        "TitleID": 10006,
        "TitleNameTextMapHash": 1828698055,
        "Desc": "历战无相岩"
    },
    {
        "TitleID": 10007,
        "TitleNameTextMapHash": 166226487,
        "Desc": "魈线盗宝团斥候"
    },
    {
        "TitleID": 10008,
        "TitleNameTextMapHash": 1534503967,
        "Desc": "雪山活动急冻树"
    },
    {
        "TitleID": 10009,
        "TitleNameTextMapHash": 3529736143,
        "IsInverted": true,
        "Desc": "双子线特殊"
    },
    {
        "TitleID": 10010,
        "TitleNameTextMapHash": 1434721479,
        "Desc": "优菈线债务处理人-精英"
    }
]