[
    {
        "MusicID": 1,
        "MusicTime": 80,
        "LevelId": [
            1,
            2,
            3
        ],
        "LBMMNJGBPOL": 2252948913,
        "PLAGGIHMHDN": 3791680705
    },
    {
        "MusicID": 2,
        "MusicTime": 68,
        "LevelId": [
            4,
            5,
            6
        ],
        "LBMMNJGBPOL": 405969929,
        "PLAGGIHMHDN": 648893881
    },
    {
        "MusicID": 3,
        "MusicTime": 82,
        "LevelId": [
            7,
            8,
            9
        ],
        "LBMMNJGBPOL": 417687081,
        "PLAGGIHMHDN": 3810548329
    },
    {
        "MusicID": 4,
        "MusicTime": 73,
        "LevelId": [
            10,
            11,
            12
        ],
        "LBMMNJGBPOL": 3326281001,
        "PLAGGIHMHDN": 3083282617
    }
]