[
    {
        "Id": 1,
        "SaleType": "NEW_ACTIVITY_SALE_TYPE_WEAPON_UPGRADE",
        "SaleParam": [
            "11413",
            "1.5"
        ],
        "BufftipsTextMapHash": 1009858160
    },
    {
        "Id": 2,
        "SaleType": "NEW_ACTIVITY_SALE_TYPE_WEAPON_UPGRADE",
        "SaleParam": [
            "15413",
            "1.5"
        ],
        "BufftipsTextMapHash": 126576328
    }
]