[
    {
        "Id": 1001,
        "ActivityType": "NEW_ACTIVITY_SEA_LAMP",
        "SortPriority": 90,
        "TabIcon": "",
        "TabNameTextMapHash": 1672453206
    },
    {
        "Id": 2001,
        "ActivityType": "NEW_ACTIVITY_ASTER",
        "SortPriority": 90,
        "TabIcon": "UI_Icon_Activity_Aster",
        "TabNameTextMapHash": 1650331270
    },
    {
        "Id": 5001,
        "ActivityType": "NEW_ACTIVITY_CRUCIBLE",
        "SortPriority": 70,
        "TabIcon": "UI_Icon_Activity_CrucibleTab",
        "TabNameTextMapHash": 117499134
    },
    {
        "Id": 5002,
        "ActivityType": "NEW_ACTIVITY_TRIAL_AVATAR",
        "SortPriority": 25,
        "TabIcon": "UI_Icon_Activity_TrialTab",
        "TabNameTextMapHash": 4245195038
    },
    {
        "Id": 5003,
        "ActivityType": "NEW_ACTIVITY_SALESMAN",
        "SortPriority": 25,
        "TabIcon": "UI_Icon_Activity_MiscsmarvsTab",
        "TabNameTextMapHash": 2297438894
    },
    {
        "Id": 50001,
        "ActivityType": "NEW_ACTIVITY_BONUS",
        "SortPriority": 30,
        "TabIcon": "UI_Icon_Activity_XLTab",
        "TabNameTextMapHash": 215869918
    },
    {
        "Id": 50002,
        "ActivityType": "NEW_ACTIVITY_BONUS",
        "SortPriority": 31,
        "TabIcon": "UI_Icon_Activity_Tab_Barbara",
        "TabNameTextMapHash": 1508553022
    },
    {
        "Id": 10001,
        "ActivityType": "NEW_ACTIVITY_SIGNIN",
        "SortPriority": 32,
        "TabIcon": "UI_Icon_Activity_SignInTab",
        "TabNameTextMapHash": 1356554342
    },
    {
        "Id": 10002,
        "ActivityType": "NEW_ACTIVITY_SIGNIN",
        "SortPriority": 33,
        "TabIcon": "UI_Icon_Activity_SignInTab",
        "TabNameTextMapHash": 3567654574
    },
    {
        "Id": 10003,
        "ActivityType": "NEW_ACTIVITY_SIGNIN",
        "SortPriority": 34,
        "TabIcon": "UI_Icon_Activity_SignInTab",
        "TabNameTextMapHash": 2398562718
    },
    {
        "Id": 10004,
        "ActivityType": "NEW_ACTIVITY_SIGNIN",
        "SortPriority": 35,
        "TabIcon": "UI_Icon_Activity_SignInTab",
        "TabNameTextMapHash": 3869274134
    },
    {
        "Id": 10010,
        "ActivityType": "NEW_ACTIVITY_SIGNIN",
        "SortPriority": 36,
        "TabIcon": "UI_Icon_Activity_SignInTab",
        "TabNameTextMapHash": 189378790
    },
    {
        "Id": 101,
        "ActivityType": "NEW_ACTIVITY_NEWBEEBONUS",
        "SortPriority": 99,
        "TabIcon": "UI_Icon_Activity_NoviceReward",
        "TabNameTextMapHash": 840257302
    },
    {
        "Id": 5004,
        "ActivityType": "NEW_ACTIVITY_PERSONAL_LIINE",
        "SortPriority": 50,
        "TabIcon": "UI_Icon_Activity_LegendQuestTab",
        "TabNameTextMapHash": 2920773934
    },
    {
        "Id": 5006,
        "ActivityType": "NEW_ACTIVITY_DELIVERY",
        "SortPriority": 50,
        "TabIcon": "UI_Icon_Activity_FoodDelivery",
        "TabNameTextMapHash": 3506708102
    },
    {
        "Id": 10005,
        "ActivityType": "NEW_ACTIVITY_SIGNIN",
        "SortPriority": 36,
        "TabIcon": "UI_Icon_Activity_SignInTab",
        "TabNameTextMapHash": 3161090262
    },
    {
        "Id": 10006,
        "ActivityType": "NEW_ACTIVITY_SIGNIN",
        "SortPriority": 37,
        "TabIcon": "UI_Icon_Activity_SignInTab",
        "TabNameTextMapHash": 3415735334
    },
    {
        "Id": 10007,
        "ActivityType": "NEW_ACTIVITY_SIGNIN",
        "SortPriority": 38,
        "TabIcon": "UI_Icon_Activity_SignInTab",
        "TabNameTextMapHash": 1950149766
    },
    {
        "Id": 10011,
        "ActivityType": "NEW_ACTIVITY_SIGNIN",
        "SortPriority": 35,
        "TabIcon": "UI_Icon_Activity_SignInTab",
        "TabNameTextMapHash": 3852671102
    },
    {
        "Id": 10012,
        "ActivityType": "NEW_ACTIVITY_SIGNIN",
        "SortPriority": 39,
        "TabIcon": "UI_Icon_Activity_SignInTab",
        "TabNameTextMapHash": 644788062
    },
    {
        "Id": 5007,
        "ActivityType": "NEW_ACTIVITY_FLIGHT",
        "SortPriority": 50,
        "TabIcon": "UI_Icon_Activity_FlightChallenge",
        "TabNameTextMapHash": 3799775974
    },
    {
        "Id": 3001,
        "ActivityType": "NEW_ACTIVITY_DRAGONSPINE",
        "SortPriority": 90,
        "TabIcon": "UI_Icon_Activity_Dragonspine",
        "TabNameTextMapHash": 476260294
    },
    {
        "Id": 5008,
        "ActivityType": "NEW_ACTIVITY_PERSONAL_LIINE",
        "SortPriority": 50,
        "TabIcon": "UI_Icon_Activity_LegendQuestTab",
        "TabNameTextMapHash": 2719947006
    },
    {
        "Id": 5009,
        "ActivityType": "NEW_ACTIVITY_PERSONAL_LIINE",
        "SortPriority": 50,
        "TabIcon": "UI_Icon_Activity_LegendQuestTab",
        "TabNameTextMapHash": 374955214
    },
    {
        "Id": 5010,
        "ActivityType": "NEW_ACTIVITY_PERSONAL_LIINE",
        "SortPriority": 50,
        "TabIcon": "UI_Icon_Activity_LegendQuestTab",
        "TabNameTextMapHash": 861892598
    },
    {
        "Id": 5011,
        "ActivityType": "NEW_ACTIVITY_TREASURE_MAP",
        "SortPriority": 50,
        "TabIcon": "UI_Icon_Activity_TreasureHunt",
        "TabNameTextMapHash": 3544181374
    },
    {
        "Id": 5012,
        "ActivityType": "NEW_ACTIVITY_SALESMAN",
        "SortPriority": 41,
        "TabIcon": "UI_Icon_Activity_MiscsmarvsTab",
        "TabNameTextMapHash": 2875621118
    },
    {
        "Id": 6001,
        "ActivityType": "NEW_ACTIVITY_TOWER_RESET",
        "SortPriority": 25,
        "TabIcon": "UI_Icon_Activity_TowerReset",
        "TabNameTextMapHash": 3084922870
    },
    {
        "Id": 5014,
        "ActivityType": "NEW_ACTIVITY_EFFIGY",
        "SortPriority": 50,
        "TabIcon": "UI_BtnIcon_RestrictionsTips",
        "TabNameTextMapHash": 1274496574
    },
    {
        "Id": 5015,
        "ActivityType": "NEW_ACTIVITY_PERSONAL_LIINE",
        "SortPriority": 50,
        "TabIcon": "UI_Icon_Activity_LegendQuestTab",
        "TabNameTextMapHash": 2202219758
    },
    {
        "Id": 8001,
        "ActivityType": "NEW_ACTIVITY_REUNION",
        "SortPriority": 99,
        "TabIcon": "UI_Icon_Activity_Reunion",
        "TabNameTextMapHash": 603266982
    },
    {
        "Id": 5016,
        "ActivityType": "NEW_ACTIVITY_BLESSING",
        "SortPriority": 50,
        "TabIcon": "UI_Icon_Activity_Blessing",
        "TabNameTextMapHash": 3632693822,
        "Duration": 7
    },
    {
        "Id": 5017,
        "ActivityType": "NEW_ACTIVITY_EXPEDITION",
        "SortPriority": 50,
        "TabIcon": "UI_Icon_Activity_Explore",
        "TabNameTextMapHash": 4108839494
    },
    {
        "Id": 2002,
        "ActivityType": "NEW_ACTIVITY_SEA_LAMP_NEW",
        "SortPriority": 90,
        "TabIcon": "UI_Icon_Activity_LanternRite",
        "TabNameTextMapHash": 722459430,
        "Duration": 18
    },
    {
        "Id": 6002,
        "ActivityType": "NEW_ACTIVITY_MONSTER_BANNER_DRAKE_PRIMO_ROCK",
        "SortPriority": 20,
        "TabIcon": "UI_Icon_Activity_Drake_Primo_Rock",
        "TabNameTextMapHash": 1072459198
    },
    {
        "Id": 6003,
        "ActivityType": "NEW_ACTIVITY_SIGNIN_COMPANION",
        "SortPriority": 10,
        "TabIcon": "UI_Icon_Activity_SignInTab",
        "TabNameTextMapHash": 1463435918
    },
    {
        "Id": 5018,
        "ActivityType": "NEW_ACTIVITY_PERSONAL_LIINE",
        "SortPriority": 50,
        "TabIcon": "UI_Icon_Activity_LegendQuestTab",
        "TabNameTextMapHash": 2872299398
    },
    {
        "Id": 5019,
        "ActivityType": "NEW_ACTIVITY_ARENA_CHALLENGE",
        "SortPriority": 50,
        "TabIcon": "UI_Icon_Activity_ArenaChallenge",
        "TabNameTextMapHash": 494252766
    },
    {
        "Id": 2003,
        "ActivityType": "NEW_ACTIVITY_FLEUR_FAIR",
        "SortPriority": 90,
        "TabIcon": "UI_Icon_Activity_FleurFair",
        "TabNameTextMapHash": 839028094,
        "Duration": 17
    },
    {
        "Id": 5020,
        "ActivityType": "NEW_ACTIVITY_WATER_SPIRIT_CHALLENGE",
        "SortPriority": 70,
        "TabIcon": "UI_Icon_Activity_WaterSpirit",
        "TabNameTextMapHash": 3224048310
    },
    {
        "Id": 5021,
        "ActivityType": "NEW_ACTIVITY_COOP",
        "SortPriority": 50,
        "TabIcon": "UI_BtnIcon_LegendQuestTab2",
        "TabNameTextMapHash": 1976908222
    },
    {
        "Id": 2004,
        "ActivityType": 1502,
        "SortPriority": 90,
        "TabIcon": "UI_Icon_Activity_ChannellerSlab",
        "TabNameTextMapHash": 258848926,
        "Duration": 29
    },
    {
        "Id": 5022,
        "ActivityType": 1503,
        "SortPriority": 70,
        "TabIcon": "UI_Icon_Activity_MistTrial",
        "TabNameTextMapHash": 3194594918
    },
    {
        "Id": 5023,
        "ActivityType": 1504,
        "SortPriority": 70,
        "TabIcon": "UI_Icon_Activity_HideandSeek",
        "TabNameTextMapHash": 3626524094
    },
    {
        "Id": 5024,
        "ActivityType": 1505,
        "SortPriority": 70,
        "TabIcon": "UI_Icon_Activity_MiniTomo",
        "TabNameTextMapHash": 1183102718,
        "Duration": 18
    },
    {
        "Id": 5025,
        "ActivityType": "NEW_ACTIVITY_PERSONAL_LIINE",
        "SortPriority": 50,
        "TabIcon": "UI_Icon_Activity_LegendQuestTab",
        "TabNameTextMapHash": 1367367902
    },
    {
        "Id": 5026,
        "ActivityType": 1506,
        "SortPriority": 20,
        "TabIcon": "UI_BtnIcon_RestrictionsTips",
        "TabNameTextMapHash": 3296745606
    },
    {
        "Id": 5027,
        "ActivityType": 1507,
        "SortPriority": 20,
        "TabIcon": "UI_Icon_Activity_Homeworld",
        "TabNameTextMapHash": 2330601654
    },
    {
        "Id": 5028,
        "ActivityType": "NEW_ACTIVITY_COOP",
        "SortPriority": 50,
        "TabIcon": "UI_BtnIcon_LegendQuestTab2",
        "TabNameTextMapHash": 2771069558
    },
    {
        "Id": 5029,
        "ActivityType": "NEW_ACTIVITY_PERSONAL_LIINE",
        "SortPriority": 50,
        "TabIcon": "UI_Icon_Activity_LegendQuestTab",
        "TabNameTextMapHash": 854589558
    }
]