[
    {
        "ActivityId": 1001,
        "ActivityType": "NEW_ACTIVITY_SEA_LAMP",
        "NameTextMapHash": 529458835,
        "ActivitySceneTag": "Hdj",
        "IsLoadTerrain": true,
        "CondGroupId": [
            1
        ],
        "WatcherId": []
    },
    {
        "ActivityId": 5001,
        "ActivityType": "NEW_ACTIVITY_CRUCIBLE",
        "NameTextMapHash": 4016903435,
        "ActivitySceneTag": "",
        "CondGroupId": [
            500101
        ],
        "WatcherId": [
            1500101,
            1500102,
            1500103,
            1500104,
            1500105,
            1500106,
            1500107,
            1500108,
            1500109,
            1500110,
            1500111,
            1500112,
            1500113
        ]
    },
    {
        "ActivityId": 5002,
        "ActivityType": "NEW_ACTIVITY_TRIAL_AVATAR",
        "NameTextMapHash": 43085627,
        "ActivitySceneTag": "",
        "CondGroupId": [],
        "WatcherId": []
    },
    {
        "ActivityId": 5003,
        "ActivityType": "NEW_ACTIVITY_SALESMAN",
        "NameTextMapHash": 3202322827,
        "ActivitySceneTag": "",
        "CondGroupId": [
            500301
        ],
        "WatcherId": []
    },
    {
        "ActivityId": 2001,
        "ActivityType": "NEW_ACTIVITY_ASTER",
        "NameTextMapHash": 1976952875,
        "ActivitySceneTag": "",
        "CondGroupId": [
            2001001
        ],
        "WatcherId": [
            1200130,
            1200131,
            1200132
        ]
    },
    {
        "ActivityId": 5004,
        "ActivityType": "NEW_ACTIVITY_PERSONAL_LIINE",
        "NameTextMapHash": 3140529491,
        "ActivitySceneTag": "",
        "CondGroupId": [],
        "WatcherId": []
    },
    {
        "ActivityId": 5005,
        "ActivityType": "NEW_ACTIVITY_CRUCIBLE",
        "NameTextMapHash": 3680320923,
        "ActivitySceneTag": "",
        "CondGroupId": [],
        "WatcherId": []
    },
    {
        "ActivityId": 5006,
        "ActivityType": "NEW_ACTIVITY_DELIVERY",
        "NameTextMapHash": 1114072299,
        "ActivitySceneTag": "",
        "CondGroupId": [
            500601
        ],
        "WatcherId": []
    },
    {
        "ActivityId": 5007,
        "ActivityType": "NEW_ACTIVITY_FLIGHT",
        "NameTextMapHash": 2916747123,
        "ActivitySceneTag": "",
        "CondGroupId": [
            500701
        ],
        "WatcherId": [
            1501001,
            1501002,
            1501003,
            1502001,
            1502002,
            1502003,
            1503001,
            1503002,
            1503003,
            1504001,
            1504002,
            1504003,
            1505001,
            1505002,
            1505003,
            1506001,
            1506002,
            1506003,
            1507001,
            1507002,
            1507003
        ]
    },
    {
        "ActivityId": 3001,
        "ActivityType": "NEW_ACTIVITY_DRAGONSPINE",
        "NameTextMapHash": 2415983595,
        "ActivitySceneTag": "",
        "CondGroupId": [
            3001001
        ],
        "WatcherId": []
    },
    {
        "ActivityId": 5008,
        "ActivityType": "NEW_ACTIVITY_PERSONAL_LIINE",
        "NameTextMapHash": 3554662043,
        "ActivitySceneTag": "",
        "CondGroupId": [],
        "WatcherId": []
    },
    {
        "ActivityId": 5009,
        "ActivityType": "NEW_ACTIVITY_PERSONAL_LIINE",
        "NameTextMapHash": 2036640027,
        "ActivitySceneTag": "",
        "CondGroupId": [],
        "WatcherId": []
    },
    {
        "ActivityId": 5010,
        "ActivityType": "NEW_ACTIVITY_PERSONAL_LIINE",
        "NameTextMapHash": 412965627,
        "ActivitySceneTag": "",
        "CondGroupId": [],
        "WatcherId": []
    },
    {
        "ActivityId": 5011,
        "ActivityType": "NEW_ACTIVITY_TREASURE_MAP",
        "NameTextMapHash": 1696537731,
        "ActivitySceneTag": "",
        "CondGroupId": [
            501101
        ],
        "WatcherId": []
    },
    {
        "ActivityId": 5012,
        "ActivityType": "NEW_ACTIVITY_SALESMAN_MP",
        "NameTextMapHash": 642035203,
        "ActivitySceneTag": "",
        "CondGroupId": [
            501201
        ],
        "WatcherId": []
    },
    {
        "ActivityId": 5014,
        "ActivityType": "NEW_ACTIVITY_EFFIGY",
        "NameTextMapHash": 2213242907,
        "ActivitySceneTag": "",
        "CondGroupId": [
            501401
        ],
        "WatcherId": []
    },
    {
        "ActivityId": 5015,
        "ActivityType": "NEW_ACTIVITY_PERSONAL_LIINE",
        "NameTextMapHash": 574345899,
        "ActivitySceneTag": "",
        "CondGroupId": [],
        "WatcherId": []
    },
    {
        "ActivityId": 5016,
        "ActivityType": "NEW_ACTIVITY_BLESSING",
        "NameTextMapHash": 2385600771,
        "ActivitySceneTag": "",
        "CondGroupId": [
            501601
        ],
        "WatcherId": []
    },
    {
        "ActivityId": 5017,
        "ActivityType": "NEW_ACTIVITY_EXPEDITION",
        "NameTextMapHash": 1776393771,
        "ActivitySceneTag": "",
        "CondGroupId": [
            501701
        ],
        "WatcherId": []
    },
    {
        "ActivityId": 2002,
        "ActivityType": "NEW_ACTIVITY_SEA_LAMP_NEW",
        "NameTextMapHash": 3451329179,
        "ActivitySceneTag": "",
        "CondGroupId": [
            200201
        ],
        "WatcherId": [
            1200212,
            1200213,
            1200216,
            1200217,
            1200250,
            1200253,
            1200254,
            1200211,
            1200218,
            1200219,
            1200223,
            1200226,
            1200255,
            1200256,
            1200251,
            1200257,
            1200224,
            1200225,
            1200221,
            1200229,
            1200233,
            1200258,
            1200252,
            1200259,
            1200236,
            1200237,
            1200238,
            1200239,
            1200240,
            1200241
        ]
    },
    {
        "ActivityId": 6002,
        "ActivityType": "NEW_ACTIVITY_MONSTER_BANNER_DRAKE_PRIMO_ROCK",
        "NameTextMapHash": 2829736099,
        "ActivitySceneTag": "",
        "CondGroupId": [],
        "WatcherId": []
    },
    {
        "ActivityId": 6003,
        "ActivityType": "NEW_ACTIVITY_SIGNIN_COMPANION",
        "NameTextMapHash": 1256784235,
        "ActivitySceneTag": "",
        "CondGroupId": [
            600301
        ],
        "WatcherId": []
    },
    {
        "ActivityId": 5018,
        "ActivityType": "NEW_ACTIVITY_PERSONAL_LIINE",
        "NameTextMapHash": 3005335419,
        "ActivitySceneTag": "",
        "CondGroupId": [],
        "WatcherId": []
    },
    {
        "ActivityId": 5019,
        "ActivityType": "NEW_ACTIVITY_ARENA_CHALLENGE",
        "NameTextMapHash": 2924065171,
        "ActivitySceneTag": "",
        "CondGroupId": [
            501901
        ],
        "WatcherId": [
            1501901,
            1501902,
            1501903,
            1501904,
            1501905,
            1501906,
            1501907,
            1501908,
            1501909,
            1501910,
            1501911,
            1501912,
            1501913,
            1501914,
            1501915,
            1501916,
            1501917,
            1501918,
            1501919,
            1501920,
            1501921
        ]
    },
    {
        "ActivityId": 2003,
        "ActivityType": "NEW_ACTIVITY_FLEUR_FAIR",
        "NameTextMapHash": 3501499515,
        "ActivitySceneTag": "",
        "CondGroupId": [
            2003001
        ],
        "WatcherId": [
            1200311,
            1200312,
            1200313,
            1200314,
            1200315,
            1200316,
            1200317,
            1200318,
            1200319,
            1200320,
            1200321,
            1200322,
            1200323,
            1200324,
            1200325,
            1200326,
            1200327,
            1200328,
            1200329,
            1200330,
            1200331,
            1200332,
            1200333,
            1200334,
            1200335,
            1200336,
            1200337,
            1200338,
            1200339,
            1200340,
            1200341,
            1200342,
            1200343,
            1200344,
            1200345,
            1200346
        ]
    },
    {
        "ActivityId": 5020,
        "ActivityType": "NEW_ACTIVITY_WATER_SPIRIT_CHALLENGE",
        "NameTextMapHash": 2870842467,
        "ActivitySceneTag": "",
        "CondGroupId": [
            502001
        ],
        "WatcherId": [
            1502010
        ]
    },
    {
        "ActivityId": 5021,
        "ActivityType": "NEW_ACTIVITY_COOP",
        "NameTextMapHash": 2977233019,
        "ActivitySceneTag": "",
        "CondGroupId": [],
        "WatcherId": []
    },
    {
        "ActivityId": 2004,
        "ActivityType": 1502,
        "NameTextMapHash": 559253291,
        "ActivitySceneTag": "",
        "CondGroupId": [
            200401
        ],
        "WatcherId": []
    },
    {
        "ActivityId": 5022,
        "ActivityType": 1503,
        "NameTextMapHash": 1338316939,
        "ActivitySceneTag": "",
        "CondGroupId": [
            502201
        ],
        "WatcherId": [
            1502201,
            1502202,
            1502203,
            1502204,
            1502205,
            1502206,
            1502207,
            1502208,
            1502209,
            1502210,
            1502211,
            1502212,
            1502213,
            1502214,
            1502215,
            1502216,
            1502217,
            1502218,
            1502219,
            1502220,
            1502221,
            1502222,
            1502223,
            1502224,
            1502225,
            1502226,
            1502227,
            1502228,
            1502229,
            1502230
        ]
    },
    {
        "ActivityId": 5023,
        "ActivityType": 1504,
        "NameTextMapHash": 529127795,
        "ActivitySceneTag": "",
        "CondGroupId": [
            502301
        ],
        "WatcherId": []
    },
    {
        "ActivityId": 5024,
        "ActivityType": 1505,
        "NameTextMapHash": 277026539,
        "ActivitySceneTag": "",
        "CondGroupId": [
            502401
        ],
        "WatcherId": [
            1502401,
            1502402,
            1502403,
            1502404,
            1502405,
            1502406,
            1502407
        ]
    },
    {
        "ActivityId": 5025,
        "ActivityType": "NEW_ACTIVITY_PERSONAL_LIINE",
        "NameTextMapHash": 2942613467,
        "ActivitySceneTag": "",
        "CondGroupId": [],
        "WatcherId": []
    },
    {
        "ActivityId": 5026,
        "ActivityType": 1506,
        "NameTextMapHash": 1220324699,
        "ActivitySceneTag": "",
        "CondGroupId": [],
        "WatcherId": []
    },
    {
        "ActivityId": 5027,
        "ActivityType": 1507,
        "NameTextMapHash": 734691531,
        "ActivitySceneTag": "",
        "CondGroupId": [],
        "WatcherId": []
    },
    {
        "ActivityId": 5028,
        "ActivityType": "NEW_ACTIVITY_COOP",
        "NameTextMapHash": 617503499,
        "ActivitySceneTag": "",
        "CondGroupId": [],
        "WatcherId": []
    },
    {
        "ActivityId": 5029,
        "ActivityType": "NEW_ACTIVITY_PERSONAL_LIINE",
        "NameTextMapHash": 4129510835,
        "ActivitySceneTag": "",
        "CondGroupId": [],
        "WatcherId": []
    }
]