[
    {
        "ScheduleId": 2002001,
        "CondId": 2002164,
        "AvatarRewardList": [
            3008001,
            3008006,
            3008002,
            3008004,
            3008003,
            3008005
        ],
        "CostItemId": 115,
        "CostItemNum": 1000,
        "DescTextMapHash": 4093489151
    },
    {
        "ScheduleId": 2004001,
        "CondId": 2004001,
        "AvatarRewardList": [
            3015401
        ],
        "CostItemId": 122,
        "CostItemNum": 1000,
        "DescTextMapHash": 4209415871
    }
]