[
    {
        "Id": 1,
        "ContentTextMapHash": 3986805196,
        "InteeIconName": "UI_Icon_Intee_Mechanism"
    },
    {
        "Id": 2,
        "ContentTextMapHash": 4155522012,
        "InteeIconName": "UI_Icon_Intee_Mechanism"
    },
    {
        "Id": 3,
        "ContentTextMapHash": 2386700500,
        "InteeIconName": "UI_Icon_Intee_Mechanism"
    },
    {
        "Id": 4,
        "ContentTextMapHash": 862922300,
        "InteeIconName": "UI_Icon_Intee_Mechanism"
    },
    {
        "Id": 5,
        "ContentTextMapHash": 3285332588,
        "InteeIconName": "UI_Icon_Intee_Mechanism"
    },
    {
        "Id": 6,
        "ContentTextMapHash": 3003976172,
        "InteeIconName": "UI_Icon_Intee_Mechanism"
    },
    {
        "Id": 7,
        "ContentTextMapHash": 1495897684,
        "InteeIconName": "UI_Icon_Intee_Mechanism"
    },
    {
        "Id": 8,
        "ContentTextMapHash": 1092150828,
        "InteeIconName": "UI_Icon_Intee_Mechanism"
    },
    {
        "Id": 9,
        "ContentTextMapHash": 981523716,
        "InteeIconName": "UI_Icon_Intee_Mechanism"
    },
    {
        "Id": 10,
        "ContentTextMapHash": 1998359620,
        "InteeIconName": "UI_Icon_Intee_Mechanism"
    },
    {
        "Id": 11,
        "ContentTextMapHash": 3473422204,
        "InteeIconName": "UI_Icon_Intee_Mechanism"
    },
    {
        "Id": 12,
        "ContentTextMapHash": 2515237308,
        "InteeIconName": "UI_Icon_Intee_Mechanism"
    },
    {
        "Id": 13,
        "ContentTextMapHash": 2407586940,
        "InteeIconName": "UI_Icon_Intee_Mechanism"
    },
    {
        "Id": 14,
        "ContentTextMapHash": 639420644,
        "InteeIconName": "UI_Icon_Intee_Mechanism"
    },
    {
        "Id": 24,
        "ContentTextMapHash": 1024941732,
        "InteeIconName": "UI_Icon_Intee_Mechanism"
    },
    {
        "Id": 25,
        "ContentTextMapHash": 922578716,
        "InteeIconName": "UI_Icon_Intee_Mechanism"
    },
    {
        "Id": 30,
        "ContentTextMapHash": 1090168660,
        "InteeIconName": "UI_Icon_Intee_Investigation"
    },
    {
        "Id": 31,
        "ContentTextMapHash": 1529550540,
        "InteeIconName": "UI_Icon_Intee_Mechanism"
    },
    {
        "Id": 169,
        "ContentTextMapHash": 2770509716,
        "InteeIconName": "UI_Icon_Intee_Investigation"
    },
    {
        "Id": 170,
        "ContentTextMapHash": 2869833396,
        "InteeIconName": "UI_Icon_Intee_Investigation"
    },
    {
        "Id": 171,
        "ContentTextMapHash": 2935731244,
        "InteeIconName": "UI_Icon_Intee_Investigation"
    },
    {
        "Id": 173,
        "ContentTextMapHash": 224923484,
        "InteeIconName": ""
    },
    {
        "Id": 174,
        "ContentTextMapHash": 823689300,
        "InteeIconName": ""
    },
    {
        "Id": 175,
        "ContentTextMapHash": 782015604,
        "InteeIconName": "UI_Icon_Intee_Mechanism"
    },
    {
        "Id": 176,
        "ContentTextMapHash": 740948116,
        "InteeIconName": "UI_Icon_Intee_Mechanism"
    },
    {
        "Id": 177,
        "ContentTextMapHash": 3582844084,
        "InteeIconName": "UI_Icon_Intee_Mechanism"
    },
    {
        "Id": 178,
        "ContentTextMapHash": 3855934484,
        "InteeIconName": "UI_Icon_Intee_Mechanism"
    },
    {
        "Id": 179,
        "ContentTextMapHash": 1785792092,
        "InteeIconName": "UI_Icon_Intee_Mechanism"
    },
    {
        "Id": 180,
        "ContentTextMapHash": 1684537492,
        "InteeIconName": "UI_Icon_Intee_Mechanism"
    },
    {
        "Id": 181,
        "ContentTextMapHash": 3597822052,
        "InteeIconName": "UI_Icon_Intee_Mechanism"
    },
    {
        "Id": 182,
        "ContentTextMapHash": 2413501516,
        "InteeIconName": "UI_Icon_Intee_Mechanism"
    },
    {
        "Id": 183,
        "ContentTextMapHash": 4236252028,
        "InteeIconName": "UI_Icon_Intee_Mechanism"
    },
    {
        "Id": 184,
        "ContentTextMapHash": 524781724,
        "InteeIconName": "UI_Icon_Intee_Mechanism"
    },
    {
        "Id": 185,
        "ContentTextMapHash": 2877616908,
        "InteeIconName": "UI_Icon_Intee_Mechanism"
    },
    {
        "Id": 186,
        "ContentTextMapHash": 3668569732,
        "InteeIconName": "UI_Icon_Intee_Mechanism"
    },
    {
        "Id": 187,
        "ContentTextMapHash": 922799356,
        "InteeIconName": "UI_Icon_Intee_Mechanism"
    },
    {
        "Id": 188,
        "ContentTextMapHash": 1139167572,
        "InteeIconName": "UI_Icon_Intee_Investigation"
    },
    {
        "Id": 189,
        "ContentTextMapHash": 1317490588,
        "InteeIconName": "UI_Icon_Intee_Mechanism"
    },
    {
        "Id": 201,
        "ContentTextMapHash": 2917380004,
        "InteeIconName": "UI_Icon_Intee_Mechanism"
    },
    {
        "Id": 202,
        "ContentTextMapHash": 2096407020,
        "InteeIconName": "UI_Icon_Intee_Mechanism"
    },
    {
        "Id": 203,
        "ContentTextMapHash": 1644145980,
        "InteeIconName": "UI_Icon_Intee_Mechanism"
    },
    {
        "Id": 204,
        "ContentTextMapHash": 2196034780,
        "InteeIconName": "UI_Icon_Intee_PickUp"
    },
    {
        "Id": 205,
        "ContentTextMapHash": 1012895196,
        "InteeIconName": "UI_Icon_Intee_PickUp"
    },
    {
        "Id": 210,
        "ContentTextMapHash": 4009599588,
        "InteeIconName": "UI_Icon_Intee_Mechanism"
    },
    {
        "Id": 211,
        "ContentTextMapHash": 886774588,
        "InteeIconName": "UI_Icon_Intee_Mechanism"
    },
    {
        "Id": 212,
        "ContentTextMapHash": 1256815428,
        "InteeIconName": "UI_Icon_Intee_PickUp"
    },
    {
        "Id": 213,
        "ContentTextMapHash": 4266328188,
        "InteeIconName": "UI_Icon_Quest_Once"
    },
    {
        "Id": 214,
        "ContentTextMapHash": 3084995644,
        "InteeIconName": "UI_Icon_Intee_Mechanism",
        "GusetInteeButtonShow": true
    },
    {
        "Id": 1002,
        "ContentTextMapHash": 2085882156,
        "InteeIconName": "UI_Icon_Intee_Mechanism"
    },
    {
        "Id": 1003,
        "ContentTextMapHash": 3426563924,
        "InteeIconName": "UI_Icon_Intee_Mechanism"
    },
    {
        "Id": 2901,
        "ContentTextMapHash": 2579336188,
        "InteeIconName": "UI_Icon_Intee_Mechanism",
        "CancelOnlineMatch": true
    },
    {
        "Id": 2902,
        "ContentTextMapHash": 450905420,
        "InteeIconName": "UI_Icon_Intee_Mechanism",
        "CancelOnlineMatch": true
    },
    {
        "Id": 2903,
        "ContentTextMapHash": 3555117140,
        "InteeIconName": ""
    },
    {
        "Id": 2904,
        "ContentTextMapHash": 4248701588,
        "InteeIconName": "UI_Icon_Intee_Mechanism"
    },
    {
        "Id": 2905,
        "ContentTextMapHash": 168453452,
        "InteeIconName": "UI_Icon_Intee_Mechanism",
        "GusetInteeButtonShow": true
    },
    {
        "Id": 33,
        "ContentTextMapHash": 1708976684,
        "InteeIconName": "UI_Icon_Intee_Mechanism"
    },
    {
        "Id": 34,
        "ContentTextMapHash": 2216708244,
        "InteeIconName": "UI_Icon_Intee_Mechanism"
    },
    {
        "Id": 35,
        "ContentTextMapHash": 198634196,
        "InteeIconName": "UI_Icon_Intee_PickUp"
    },
    {
        "Id": 36,
        "ContentTextMapHash": 44099948,
        "InteeIconName": "UI_Icon_Intee_ItemIcon_109"
    },
    {
        "Id": 37,
        "ContentTextMapHash": 1740096508,
        "InteeIconName": "UI_Icon_Intee_Mechanism"
    },
    {
        "Id": 38,
        "ContentTextMapHash": 212827732,
        "InteeIconName": "UI_Icon_Intee_Mechanism"
    },
    {
        "Id": 39,
        "ContentTextMapHash": 1144305468,
        "InteeIconName": "UI_Icon_Intee_Mechanism"
    },
    {
        "Id": 40,
        "ContentTextMapHash": 4174202468,
        "InteeIconName": "UI_Icon_Intee_Mechanism_MP"
    },
    {
        "Id": 41,
        "ContentTextMapHash": 2289133380,
        "InteeIconName": "UI_Icon_Intee_Mechanism"
    },
    {
        "Id": 42,
        "ContentTextMapHash": 2520857540,
        "InteeIconName": "UI_Icon_Intee_Mechanism"
    },
    {
        "Id": 43,
        "ContentTextMapHash": 4224595684,
        "InteeIconName": "UI_Icon_Intee_Mechanism"
    },
    {
        "Id": 44,
        "ContentTextMapHash": 1373872316,
        "InteeIconName": "UI_Icon_Intee_Mechanism"
    },
    {
        "Id": 45,
        "ContentTextMapHash": 2428106780,
        "InteeIconName": "UI_Icon_Intee_Mechanism"
    },
    {
        "Id": 46,
        "ContentTextMapHash": 3113825596,
        "InteeIconName": "UI_Icon_Intee_Mechanism"
    },
    {
        "Id": 47,
        "ContentTextMapHash": 825939716,
        "InteeIconName": "UI_Icon_Intee_Investigation"
    },
    {
        "Id": 48,
        "ContentTextMapHash": 2090968340,
        "InteeIconName": "UI_Icon_Intee_Mechanism"
    },
    {
        "Id": 49,
        "ContentTextMapHash": 2363294268,
        "InteeIconName": "UI_Icon_Intee_Mechanism"
    },
    {
        "Id": 50,
        "ContentTextMapHash": 1809992924,
        "InteeIconName": "UI_Icon_Intee_Mechanism"
    },
    {
        "Id": 3001,
        "ContentTextMapHash": 3673168388,
        "InteeIconName": "UI_Icon_Intee_Mechanism"
    },
    {
        "Id": 3002,
        "ContentTextMapHash": 2568063612,
        "InteeIconName": "UI_Icon_Intee_Mechanism"
    },
    {
        "Id": 3003,
        "ContentTextMapHash": 3054753404,
        "InteeIconName": "UI_Icon_Intee_Mechanism"
    },
    {
        "Id": 3004,
        "ContentTextMapHash": 671316452,
        "InteeIconName": "UI_Icon_Intee_Mechanism"
    },
    {
        "Id": 3005,
        "ContentTextMapHash": 3138510268,
        "InteeIconName": "UI_Icon_Intee_Mechanism"
    },
    {
        "Id": 51,
        "ContentTextMapHash": 2351148756,
        "InteeIconName": "UI_Icon_Intee_Mechanism"
    },
    {
        "Id": 52,
        "ContentTextMapHash": 1373862572,
        "InteeIconName": "UI_Icon_Intee_Mechanism"
    },
    {
        "Id": 53,
        "ContentTextMapHash": 2307157596,
        "InteeIconName": "UI_Icon_Intee_Mechanism"
    },
    {
        "Id": 4001,
        "ContentTextMapHash": 622231132,
        "InteeIconName": "UI_Icon_Intee_BuildScore",
        "GusetInteeButtonShow": true
    },
    {
        "Id": 4002,
        "ContentTextMapHash": 2684658364,
        "InteeIconName": "UI_Icon_Intee_BuildScore",
        "GusetInteeButtonShow": true
    },
    {
        "Id": 4003,
        "ContentTextMapHash": 1512239364,
        "InteeIconName": "UI_Icon_Intee_BuildScore",
        "GusetInteeButtonShow": true
    },
    {
        "Id": 4004,
        "ContentTextMapHash": 1744908324,
        "InteeIconName": "UI_Icon_Intee_BuildScore",
        "GusetInteeButtonShow": true
    },
    {
        "Id": 4005,
        "ContentTextMapHash": 877714020,
        "InteeIconName": "UI_Icon_Intee_Mechanism",
        "GusetInteeButtonShow": true
    },
    {
        "Id": 71821,
        "ContentTextMapHash": 3419133180,
        "InteeIconName": "UI_Icon_Intee_PickUp"
    },
    {
        "Id": 4006,
        "ContentTextMapHash": 3064144876,
        "InteeIconName": "UI_Icon_Intee_Mechanism",
        "GusetInteeButtonShow": true
    },
    {
        "Id": 58,
        "ContentTextMapHash": 2489523540,
        "InteeIconName": "UI_Icon_Intee_Mechanism",
        "GusetInteeButtonShow": true
    },
    {
        "Id": 59,
        "ContentTextMapHash": 1476411844,
        "InteeIconName": "UI_Icon_Intee_Mechanism",
        "GusetInteeButtonShow": true
    }
]