[
    {
        "TierName": "Alternate_Tier_1",
        "VipPoint": 80
    },
    {
        "TierName": "Alternate_Tier_2",
        "VipPoint": 120
    },
    {
        "TierName": "Alternate_Tier_3",
        "VipPoint": 180
    },
    {
        "TierName": "Alternate_Tier_4",
        "VipPoint": 280
    },
    {
        "TierName": "Alternate_Tier_5",
        "VipPoint": 300
    },
    {
        "TierName": "Alternate_Tier_A",
        "VipPoint": 10
    },
    {
        "TierName": "Alternate_Tier_B",
        "VipPoint": 30
    },
    {
        "TierName": "Tier_1",
        "VipPoint": 60
    },
    {
        "TierName": "Tier_10",
        "VipPoint": 680
    },
    {
        "TierName": "Tier_11",
        "VipPoint": 730
    },
    {
        "TierName": "Tier_12",
        "VipPoint": 780
    },
    {
        "TierName": "Tier_13",
        "VipPoint": 880
    },
    {
        "TierName": "Tier_14",
        "VipPoint": 930
    },
    {
        "TierName": "Tier_15",
        "VipPoint": 980
    },
    {
        "TierName": "Tier_16",
        "VipPoint": 1080
    },
    {
        "TierName": "Tier_17",
        "VipPoint": 1130
    },
    {
        "TierName": "Tier_18",
        "VipPoint": 1180
    },
    {
        "TierName": "Tier_19",
        "VipPoint": 1230
    },
    {
        "TierName": "Tier_2",
        "VipPoint": 120
    },
    {
        "TierName": "Tier_20",
        "VipPoint": 1280
    },
    {
        "TierName": "Tier_21",
        "VipPoint": 1380
    },
    {
        "TierName": "Tier_22",
        "VipPoint": 1480
    },
    {
        "TierName": "Tier_23",
        "VipPoint": 1530
    },
    {
        "TierName": "Tier_24",
        "VipPoint": 1580
    },
    {
        "TierName": "Tier_25",
        "VipPoint": 1630
    },
    {
        "TierName": "Tier_26",
        "VipPoint": 1680
    },
    {
        "TierName": "Tier_27",
        "VipPoint": 1780
    },
    {
        "TierName": "Tier_28",
        "VipPoint": 1880
    },
    {
        "TierName": "Tier_29",
        "VipPoint": 1930
    },
    {
        "TierName": "Tier_3",
        "VipPoint": 180
    },
    {
        "TierName": "Tier_30",
        "VipPoint": 1980
    },
    {
        "TierName": "Tier_31",
        "VipPoint": 2080
    },
    {
        "TierName": "Tier_32",
        "VipPoint": 2180
    },
    {
        "TierName": "Tier_33",
        "VipPoint": 2230
    },
    {
        "TierName": "Tier_34",
        "VipPoint": 2280
    },
    {
        "TierName": "Tier_35",
        "VipPoint": 2330
    },
    {
        "TierName": "Tier_36",
        "VipPoint": 2380
    },
    {
        "TierName": "Tier_37",
        "VipPoint": 2430
    },
    {
        "TierName": "Tier_38",
        "VipPoint": 2480
    },
    {
        "TierName": "Tier_39",
        "VipPoint": 2530
    },
    {
        "TierName": "Tier_4",
        "VipPoint": 250
    },
    {
        "TierName": "Tier_40",
        "VipPoint": 2580
    },
    {
        "TierName": "Tier_41",
        "VipPoint": 2630
    },
    {
        "TierName": "Tier_42",
        "VipPoint": 2680
    },
    {
        "TierName": "Tier_43",
        "VipPoint": 2730
    },
    {
        "TierName": "Tier_44",
        "VipPoint": 2780
    },
    {
        "TierName": "Tier_45",
        "VipPoint": 2830
    },
    {
        "TierName": "Tier_46",
        "VipPoint": 2880
    },
    {
        "TierName": "Tier_47",
        "VipPoint": 2980
    },
    {
        "TierName": "Tier_48",
        "VipPoint": 3080
    },
    {
        "TierName": "Tier_49",
        "VipPoint": 3180
    },
    {
        "TierName": "Tier_5",
        "VipPoint": 300
    },
    {
        "TierName": "Tier_50",
        "VipPoint": 3280
    },
    {
        "TierName": "Tier_51",
        "VipPoint": 3480
    },
    {
        "TierName": "Tier_52",
        "VipPoint": 3880
    },
    {
        "TierName": "Tier_53",
        "VipPoint": 4180
    },
    {
        "TierName": "Tier_54",
        "VipPoint": 4480
    },
    {
        "TierName": "Tier_55",
        "VipPoint": 4880
    },
    {
        "TierName": "Tier_56",
        "VipPoint": 5180
    },
    {
        "TierName": "Tier_57",
        "VipPoint": 5480
    },
    {
        "TierName": "Tier_58",
        "VipPoint": 5880
    },
    {
        "TierName": "Tier_59",
        "VipPoint": 6180
    },
    {
        "TierName": "Tier_6",
        "VipPoint": 400
    },
    {
        "TierName": "Tier_60",
        "VipPoint": 6480
    },
    {
        "TierName": "Tier_61",
        "VipPoint": 6980
    },
    {
        "TierName": "Tier_62",
        "VipPoint": 7980
    },
    {
        "TierName": "Tier_63",
        "VipPoint": 8180
    },
    {
        "TierName": "Tier_64",
        "VipPoint": 8480
    },
    {
        "TierName": "Tier_65",
        "VipPoint": 8980
    },
    {
        "TierName": "Tier_66",
        "VipPoint": 9980
    },
    {
        "TierName": "Tier_67",
        "VipPoint": 10480
    },
    {
        "TierName": "Tier_68",
        "VipPoint": 10980
    },
    {
        "TierName": "Tier_69",
        "VipPoint": 11480
    },
    {
        "TierName": "Tier_7",
        "VipPoint": 450
    },
    {
        "TierName": "Tier_70",
        "VipPoint": 11980
    },
    {
        "TierName": "Tier_71",
        "VipPoint": 12480
    },
    {
        "TierName": "Tier_72",
        "VipPoint": 12980
    },
    {
        "TierName": "Tier_73",
        "VipPoint": 13980
    },
    {
        "TierName": "Tier_74",
        "VipPoint": 14480
    },
    {
        "TierName": "Tier_75",
        "VipPoint": 14980
    },
    {
        "TierName": "Tier_76",
        "VipPoint": 15980
    },
    {
        "TierName": "Tier_77",
        "VipPoint": 16480
    },
    {
        "TierName": "Tier_78",
        "VipPoint": 19980
    },
    {
        "TierName": "Tier_79",
        "VipPoint": 22980
    },
    {
        "TierName": "Tier_8",
        "VipPoint": 500
    },
    {
        "TierName": "Tier_80",
        "VipPoint": 25980
    },
    {
        "TierName": "Tier_9",
        "VipPoint": 600
    },
    {
        "TierName": "Test_Tier_1",
        "VipPoint": 1
    }
]