[
    {
        "Id": 71555001,
        "DescTextMapHash": 2572849437
    },
    {
        "Id": 71555002,
        "DescTextMapHash": 2234229277
    },
    {
        "Id": 71555003,
        "DescTextMapHash": 2691635837
    },
    {
        "Id": 45101,
        "DescTextMapHash": 801010893
    },
    {
        "Id": 45103,
        "DescTextMapHash": 3729894093
    },
    {
        "Id": 45104,
        "DescTextMapHash": 3685781669
    },
    {
        "Id": 45301,
        "DescTextMapHash": 1675439261
    },
    {
        "Id": 45302,
        "DescTextMapHash": 4041277821
    },
    {
        "Id": 45303,
        "DescTextMapHash": 4176713781
    },
    {
        "Id": 45401,
        "DescTextMapHash": 213215421
    },
    {
        "Id": 45403,
        "DescTextMapHash": 1452691893
    },
    {
        "Id": 45405,
        "DescTextMapHash": 771561637
    },
    {
        "Id": 45413,
        "DescTextMapHash": 911960845
    },
    {
        "Id": 45414,
        "DescTextMapHash": 3330945237
    },
    {
        "Id": 48101,
        "DescTextMapHash": 1196244853
    },
    {
        "Id": 48102,
        "DescTextMapHash": 634577957
    },
    {
        "Id": 48001,
        "DescTextMapHash": 2514150925
    },
    {
        "Id": 42701,
        "DescTextMapHash": 2410141661
    },
    {
        "Id": 42702,
        "DescTextMapHash": 1868451837
    },
    {
        "Id": 48401,
        "DescTextMapHash": 2730530933
    },
    {
        "Id": 48501,
        "DescTextMapHash": 644453149
    },
    {
        "Id": 48502,
        "DescTextMapHash": 2061988141
    },
    {
        "Id": 48503,
        "DescTextMapHash": 2622333469
    },
    {
        "Id": 48504,
        "DescTextMapHash": 3167337485
    },
    {
        "Id": 48505,
        "DescTextMapHash": 1468299085
    },
    {
        "Id": 48506,
        "DescTextMapHash": 1713782629
    },
    {
        "Id": 100002,
        "DescTextMapHash": 2880187605
    },
    {
        "Id": 100003,
        "DescTextMapHash": 1074535661
    },
    {
        "Id": 100004,
        "DescTextMapHash": 4144682661
    },
    {
        "Id": 100008,
        "DescTextMapHash": 3609304277
    },
    {
        "Id": 100015,
        "DescTextMapHash": 284686941
    },
    {
        "Id": 100201,
        "DescTextMapHash": 2336745445
    },
    {
        "Id": 100202,
        "DescTextMapHash": 1206233285
    },
    {
        "Id": 100204,
        "DescTextMapHash": 2891328749
    },
    {
        "Id": 100205,
        "DescTextMapHash": 1758638405
    },
    {
        "Id": 10020502,
        "DescTextMapHash": 3482877149
    },
    {
        "Id": 100301,
        "DescTextMapHash": 2904921445
    },
    {
        "Id": 100303,
        "DescTextMapHash": 2357559397
    },
    {
        "Id": 100307,
        "DescTextMapHash": 911581765
    },
    {
        "Id": 100802,
        "DescTextMapHash": 1003545613
    },
    {
        "Id": 100807,
        "DescTextMapHash": 2628816277
    },
    {
        "Id": 100914,
        "DescTextMapHash": 2997586461
    },
    {
        "Id": 101302,
        "DescTextMapHash": 1186621269
    },
    {
        "Id": 101317,
        "DescTextMapHash": 2956005357
    },
    {
        "Id": 101320,
        "DescTextMapHash": 692908853
    },
    {
        "Id": 37001,
        "DescTextMapHash": 497960525
    },
    {
        "Id": 37201,
        "DescTextMapHash": 842863605
    },
    {
        "Id": 37202,
        "DescTextMapHash": 1589215749
    },
    {
        "Id": 37203,
        "DescTextMapHash": 1577715645
    },
    {
        "Id": 37301,
        "DescTextMapHash": 3204412741
    },
    {
        "Id": 37401,
        "DescTextMapHash": 3830035333
    },
    {
        "Id": 37402,
        "DescTextMapHash": 3206191381
    },
    {
        "Id": 37601,
        "DescTextMapHash": 3010916973
    },
    {
        "Id": 37602,
        "DescTextMapHash": 187860197
    },
    {
        "Id": 37603,
        "DescTextMapHash": 1090281645
    },
    {
        "Id": 37701,
        "DescTextMapHash": 2470563325
    },
    {
        "Id": 2010101,
        "DescTextMapHash": 4105219749
    },
    {
        "Id": 2010102,
        "DescTextMapHash": 3071911277
    },
    {
        "Id": 38301,
        "DescTextMapHash": 3715460933
    },
    {
        "Id": 38401,
        "DescTextMapHash": 567770749
    },
    {
        "Id": 38402,
        "DescTextMapHash": 1124743453
    },
    {
        "Id": 1050001,
        "DescTextMapHash": 3000315477
    },
    {
        "Id": 1050002,
        "DescTextMapHash": 3195259317
    },
    {
        "Id": 1050101,
        "DescTextMapHash": 1833761701
    },
    {
        "Id": 1050102,
        "DescTextMapHash": 3373997493
    },
    {
        "Id": 46101,
        "DescTextMapHash": 1300974021
    },
    {
        "Id": 46102,
        "DescTextMapHash": 2548769701
    },
    {
        "Id": 46103,
        "DescTextMapHash": 2065598341
    },
    {
        "Id": 46104,
        "DescTextMapHash": 729286613
    },
    {
        "Id": 46201,
        "DescTextMapHash": 144847109
    },
    {
        "Id": 46202,
        "DescTextMapHash": 3689345453
    },
    {
        "Id": 46203,
        "DescTextMapHash": 1446486525
    },
    {
        "Id": 46204,
        "DescTextMapHash": 4143860749
    },
    {
        "Id": 46301,
        "DescTextMapHash": 2396550909
    },
    {
        "Id": 46302,
        "DescTextMapHash": 220622021
    },
    {
        "Id": 48601,
        "DescTextMapHash": 1596902469
    },
    {
        "Id": 48701,
        "DescTextMapHash": 1865172413
    },
    {
        "Id": 48702,
        "DescTextMapHash": 1419232557
    },
    {
        "Id": 48703,
        "DescTextMapHash": 1622260013
    },
    {
        "Id": 48704,
        "DescTextMapHash": 1393575253
    },
    {
        "Id": 48705,
        "DescTextMapHash": 132158589
    },
    {
        "Id": 48706,
        "DescTextMapHash": 3318086069
    },
    {
        "Id": 48901,
        "DescTextMapHash": 1577395333
    },
    {
        "Id": 48902,
        "DescTextMapHash": 1320787453
    },
    {
        "Id": 48903,
        "DescTextMapHash": 3797563693
    },
    {
        "Id": 48904,
        "DescTextMapHash": 155367613
    },
    {
        "Id": 49001,
        "DescTextMapHash": 2429317445
    },
    {
        "Id": 49002,
        "DescTextMapHash": 1167442053
    },
    {
        "Id": 49003,
        "DescTextMapHash": 982564045
    },
    {
        "Id": 49004,
        "DescTextMapHash": 3172874813
    },
    {
        "Id": 49005,
        "DescTextMapHash": 2224127517
    },
    {
        "Id": 49006,
        "DescTextMapHash": 248283093
    },
    {
        "Id": 49007,
        "DescTextMapHash": 3474704349
    },
    {
        "Id": 49008,
        "DescTextMapHash": 3130631781
    },
    {
        "Id": 49009,
        "DescTextMapHash": 2387084077
    },
    {
        "Id": 49010,
        "DescTextMapHash": 1517128893
    },
    {
        "Id": 49011,
        "DescTextMapHash": 2278670429
    },
    {
        "Id": 49012,
        "DescTextMapHash": 3638511277
    },
    {
        "Id": 1101101,
        "DescTextMapHash": 1969440829
    },
    {
        "Id": 1101102,
        "DescTextMapHash": 220515069
    },
    {
        "Id": 1101103,
        "DescTextMapHash": 1396355397
    },
    {
        "Id": 1101104,
        "DescTextMapHash": 1211783501
    },
    {
        "Id": 1101105,
        "DescTextMapHash": 2319363157
    },
    {
        "Id": 1101201,
        "DescTextMapHash": 2301257173
    },
    {
        "Id": 1101202,
        "DescTextMapHash": 3304734357
    },
    {
        "Id": 30601,
        "DescTextMapHash": 615569445
    },
    {
        "Id": 30701,
        "DescTextMapHash": 2084539205
    },
    {
        "Id": 30702,
        "DescTextMapHash": 688460285
    },
    {
        "Id": 30801,
        "DescTextMapHash": 3940825229
    },
    {
        "Id": 30802,
        "DescTextMapHash": 2535862901
    },
    {
        "Id": 39001,
        "DescTextMapHash": 3273940957
    },
    {
        "Id": 39002,
        "DescTextMapHash": 1811137253
    },
    {
        "Id": 39003,
        "DescTextMapHash": 1071027349
    },
    {
        "Id": 101101,
        "DescTextMapHash": 850553629
    },
    {
        "Id": 101102,
        "DescTextMapHash": 1756301765
    },
    {
        "Id": 101103,
        "DescTextMapHash": 3580451989
    },
    {
        "Id": 101104,
        "DescTextMapHash": 2303501469
    },
    {
        "Id": 1010101,
        "DescTextMapHash": 3630734333
    },
    {
        "Id": 1010102,
        "DescTextMapHash": 2254936197
    },
    {
        "Id": 1100002,
        "DescTextMapHash": 285023613
    },
    {
        "Id": 35701,
        "DescTextMapHash": 1133213629
    },
    {
        "Id": 39601,
        "DescTextMapHash": 1439317621
    },
    {
        "Id": 39602,
        "DescTextMapHash": 523232445
    },
    {
        "Id": 38901,
        "DescTextMapHash": 2564572997
    },
    {
        "Id": 35501,
        "DescTextMapHash": 3179710165
    },
    {
        "Id": 101201,
        "DescTextMapHash": 3128867053
    },
    {
        "Id": 101202,
        "DescTextMapHash": 3298520301
    },
    {
        "Id": 101601,
        "DescTextMapHash": 3104482317
    },
    {
        "Id": 1020001,
        "DescTextMapHash": 3562687221
    },
    {
        "Id": 1020002,
        "DescTextMapHash": 1925645925
    },
    {
        "Id": 1020003,
        "DescTextMapHash": 4119827029
    },
    {
        "Id": 46401,
        "DescTextMapHash": 2784861045
    },
    {
        "Id": 46501,
        "DescTextMapHash": 3362109725
    },
    {
        "Id": 46502,
        "DescTextMapHash": 4244854877
    },
    {
        "Id": 46503,
        "DescTextMapHash": 2140836013
    },
    {
        "Id": 46601,
        "DescTextMapHash": 3992206973
    },
    {
        "Id": 46602,
        "DescTextMapHash": 3677648381
    },
    {
        "Id": 46603,
        "DescTextMapHash": 4228384741
    },
    {
        "Id": 46604,
        "DescTextMapHash": 3549226461
    },
    {
        "Id": 46605,
        "DescTextMapHash": 817319053
    },
    {
        "Id": 46606,
        "DescTextMapHash": 1574152285
    },
    {
        "Id": 1011001,
        "DescTextMapHash": 3628277501
    },
    {
        "Id": 1011002,
        "DescTextMapHash": 202828525
    },
    {
        "Id": 1011101,
        "DescTextMapHash": 3292357213
    },
    {
        "Id": 1011102,
        "DescTextMapHash": 2473206925
    },
    {
        "Id": 1011103,
        "DescTextMapHash": 1574469909
    },
    {
        "Id": 1011104,
        "DescTextMapHash": 3195447413
    },
    {
        "Id": 1011105,
        "DescTextMapHash": 2860196037
    },
    {
        "Id": 1011301,
        "DescTextMapHash": 674072237
    },
    {
        "Id": 1011302,
        "DescTextMapHash": 2958043085
    },
    {
        "Id": 1011303,
        "DescTextMapHash": 954416165
    },
    {
        "Id": 1200001,
        "DescTextMapHash": 675117733
    },
    {
        "Id": 1200002,
        "DescTextMapHash": 1965801997
    },
    {
        "Id": 1200003,
        "DescTextMapHash": 3401393013
    },
    {
        "Id": 1200004,
        "DescTextMapHash": 733525125
    },
    {
        "Id": 1200005,
        "DescTextMapHash": 4092473429
    },
    {
        "Id": 1200006,
        "DescTextMapHash": 1658044597
    },
    {
        "Id": 1200007,
        "DescTextMapHash": 2145708933
    },
    {
        "Id": 1200008,
        "DescTextMapHash": 1437812589
    },
    {
        "Id": 101501,
        "DescTextMapHash": 1958026157
    },
    {
        "Id": 101502,
        "DescTextMapHash": 3309819069
    },
    {
        "Id": 101503,
        "DescTextMapHash": 3638427981
    },
    {
        "Id": 101504,
        "DescTextMapHash": 2841732469
    },
    {
        "Id": 102001,
        "DescTextMapHash": 624984549
    },
    {
        "Id": 102002,
        "DescTextMapHash": 2793987533
    },
    {
        "Id": 1104101,
        "DescTextMapHash": 827516565
    },
    {
        "Id": 1104501,
        "DescTextMapHash": 2718323117
    },
    {
        "Id": 1104502,
        "DescTextMapHash": 671470941
    },
    {
        "Id": 1104503,
        "DescTextMapHash": 232744125
    },
    {
        "Id": 1102301,
        "DescTextMapHash": 1164056005
    },
    {
        "Id": 1102302,
        "DescTextMapHash": 499497349
    },
    {
        "Id": 1102303,
        "DescTextMapHash": 2596857285
    },
    {
        "Id": 1102304,
        "DescTextMapHash": 1722281253
    },
    {
        "Id": 1102305,
        "DescTextMapHash": 2504455573
    },
    {
        "Id": 1102306,
        "DescTextMapHash": 2781301781
    },
    {
        "Id": 1102401,
        "DescTextMapHash": 2142142597
    },
    {
        "Id": 1103003,
        "DescTextMapHash": 2484166917
    },
    {
        "Id": 1103114,
        "DescTextMapHash": 2205710309
    },
    {
        "Id": 1111101,
        "DescTextMapHash": 4024856501
    },
    {
        "Id": 1111201,
        "DescTextMapHash": 112916741
    },
    {
        "Id": 1110001,
        "DescTextMapHash": 2358374173
    },
    {
        "Id": 1110002,
        "DescTextMapHash": 1633250997
    },
    {
        "Id": 1110003,
        "DescTextMapHash": 2088372869
    },
    {
        "Id": 1110004,
        "DescTextMapHash": 3371694045
    },
    {
        "Id": 1110005,
        "DescTextMapHash": 622840237
    },
    {
        "Id": 1110006,
        "DescTextMapHash": 2211159861
    },
    {
        "Id": 1110007,
        "DescTextMapHash": 1828928413
    },
    {
        "Id": 800001,
        "DescTextMapHash": 1425361677
    },
    {
        "Id": 800002,
        "DescTextMapHash": 4009633597
    },
    {
        "Id": 800003,
        "DescTextMapHash": 1534128989
    },
    {
        "Id": 800004,
        "DescTextMapHash": 101447429
    },
    {
        "Id": 800101,
        "DescTextMapHash": 3088383685
    },
    {
        "Id": 800102,
        "DescTextMapHash": 2063829741
    },
    {
        "Id": 800301,
        "DescTextMapHash": 634150501
    },
    {
        "Id": 800302,
        "DescTextMapHash": 3922113061
    },
    {
        "Id": 1112301,
        "DescTextMapHash": 3444923853
    },
    {
        "Id": 1112302,
        "DescTextMapHash": 3674125197
    },
    {
        "Id": 1112303,
        "DescTextMapHash": 2976442301
    },
    {
        "Id": 1112304,
        "DescTextMapHash": 2205392125
    },
    {
        "Id": 1012008,
        "DescTextMapHash": 2232170501
    },
    {
        "Id": 1012112,
        "DescTextMapHash": 1451898149
    },
    {
        "Id": 1012113,
        "DescTextMapHash": 3058707173
    },
    {
        "Id": 1012206,
        "DescTextMapHash": 1360833365
    },
    {
        "Id": 1012211,
        "DescTextMapHash": 636834381
    }
]