[
    {
        "Id": 10010101,
        "IPKLFAGPLCH": 2574141246,
        "GGFOEKMIHDG": 1199144944,
        "KPDGFHMKHJK": 1578910864,
        "GroupId": 100101,
        "LogicType": "LOGIC_AND",
        "Cond": [
            {
                "Type": "REGION_SEARCH_COND_ACTIVITY_COND",
                "Param": [
                    5020,
                    5020002
                ]
            },
            {
                "Param": [
                    0,
                    0
                ]
            }
        ],
        "RegionList": [
            3102001
        ],
        "RewardId": 3010101,
        "TotalProgress": 15,
        "ReminderId": 600018
    },
    {
        "Id": 10010102,
        "IPKLFAGPLCH": 103706502,
        "GGFOEKMIHDG": 2113245480,
        "KPDGFHMKHJK": 718082312,
        "GroupId": 100101,
        "LogicType": "LOGIC_AND",
        "Cond": [
            {
                "Type": "REGION_SEARCH_COND_ACTIVITY_COND",
                "Param": [
                    5020,
                    5020004
                ]
            },
            {
                "Type": "REGION_SEARCH_COND_FINISH_SEARCH",
                "Param": [
                    10010101,
                    0
                ]
            }
        ],
        "RegionList": [
            3002001
        ],
        "RewardId": 3010102,
        "TotalProgress": 15,
        "ReminderId": 600020
    },
    {
        "Id": 10010103,
        "IPKLFAGPLCH": 3420015438,
        "GGFOEKMIHDG": 1398222568,
        "KPDGFHMKHJK": 1027092128,
        "GroupId": 100101,
        "LogicType": "LOGIC_AND",
        "Cond": [
            {
                "Type": "REGION_SEARCH_COND_ACTIVITY_COND",
                "Param": [
                    5020,
                    5020005
                ]
            },
            {
                "Type": "REGION_SEARCH_COND_FINISH_SEARCH",
                "Param": [
                    10010102,
                    0
                ]
            }
        ],
        "RegionList": [
            3105001
        ],
        "RewardId": 3010103,
        "TotalProgress": 15,
        "ReminderId": 600022
    },
    {
        "Id": 10010104,
        "IPKLFAGPLCH": 3911306934,
        "GGFOEKMIHDG": 2267120984,
        "KPDGFHMKHJK": 223474328,
        "GroupId": 100101,
        "LogicType": "LOGIC_AND",
        "Cond": [
            {
                "Type": "REGION_SEARCH_COND_ACTIVITY_COND",
                "Param": [
                    5020,
                    5020006
                ]
            },
            {
                "Type": "REGION_SEARCH_COND_FINISH_SEARCH",
                "Param": [
                    10010103,
                    0
                ]
            }
        ],
        "RegionList": [
            3104001
        ],
        "RewardId": 3010104,
        "TotalProgress": 15,
        "ReminderId": 600024
    },
    {
        "Id": 10010105,
        "IPKLFAGPLCH": 3072707206,
        "GGFOEKMIHDG": 30987984,
        "KPDGFHMKHJK": 1524244712,
        "GroupId": 100101,
        "LogicType": "LOGIC_AND",
        "Cond": [
            {
                "Type": "REGION_SEARCH_COND_ACTIVITY_COND",
                "Param": [
                    5020,
                    5020007
                ]
            },
            {
                "Type": "REGION_SEARCH_COND_FINISH_SEARCH",
                "Param": [
                    10010104,
                    0
                ]
            }
        ],
        "RegionList": [
            3101001
        ],
        "RewardId": 3010105,
        "TotalProgress": 15,
        "ReminderId": 600026
    }
]