[
    {
        "Id": 30106001,
        "SuitId": 10010,
        "Level": 1,
        "CupId": 60110,
        "LeatherId": 60120,
        "CapId": 60130,
        "FlowerId": 60140,
        "SandId": 60150,
        "SortOrder": 1
    },
    {
        "Id": 30106101,
        "SuitId": 10011,
        "Level": 1,
        "CupId": 61110,
        "LeatherId": 61120,
        "CapId": 61130,
        "FlowerId": 61140,
        "SandId": 61150,
        "SortOrder": 2
    },
    {
        "Id": 30106301,
        "SuitId": 10013,
        "Level": 1,
        "CupId": 63110,
        "LeatherId": 63120,
        "CapId": 63130,
        "FlowerId": 63140,
        "SandId": 63150,
        "SortOrder": 3
    },
    {
        "Id": 30106002,
        "SuitId": 10010,
        "Level": 2,
        "CupId": 60210,
        "LeatherId": 60220,
        "CapId": 60230,
        "FlowerId": 60240,
        "SandId": 60250,
        "SortOrder": 4
    },
    {
        "Id": 30106102,
        "SuitId": 10011,
        "Level": 2,
        "CupId": 61210,
        "LeatherId": 61220,
        "CapId": 61230,
        "FlowerId": 61240,
        "SandId": 61250,
        "SortOrder": 5
    },
    {
        "Id": 30106302,
        "SuitId": 10013,
        "Level": 2,
        "CupId": 63210,
        "LeatherId": 63220,
        "CapId": 63230,
        "FlowerId": 63240,
        "SandId": 63250,
        "SortOrder": 6
    },
    {
        "Id": 30106003,
        "SuitId": 10010,
        "Level": 3,
        "CupId": 60310,
        "LeatherId": 60320,
        "CapId": 60330,
        "FlowerId": 60340,
        "SandId": 60350,
        "SortOrder": 7
    },
    {
        "Id": 30106103,
        "SuitId": 10011,
        "Level": 3,
        "CupId": 61310,
        "LeatherId": 61320,
        "CapId": 61330,
        "FlowerId": 61340,
        "SandId": 61350,
        "SortOrder": 8
    },
    {
        "Id": 30106303,
        "SuitId": 10013,
        "Level": 3,
        "CupId": 63310,
        "LeatherId": 63320,
        "CapId": 63330,
        "FlowerId": 63340,
        "SandId": 63350,
        "SortOrder": 9
    },
    {
        "Id": 30105103,
        "SuitId": 10001,
        "Level": 3,
        "CupId": 51310,
        "LeatherId": 51320,
        "CapId": 51330,
        "FlowerId": 51340,
        "SandId": 51350,
        "SortOrder": 10
    },
    {
        "Id": 30105403,
        "SuitId": 10004,
        "Level": 3,
        "CupId": 54310,
        "LeatherId": 54320,
        "CapId": 54330,
        "FlowerId": 54340,
        "SandId": 54350,
        "SortOrder": 11
    },
    {
        "Id": 30105503,
        "SuitId": 10005,
        "Level": 3,
        "CupId": 55310,
        "LeatherId": 55320,
        "CapId": 55330,
        "FlowerId": 55340,
        "SandId": 55350,
        "SortOrder": 12
    },
    {
        "Id": 30105703,
        "SuitId": 10007,
        "Level": 3,
        "CupId": 57310,
        "LeatherId": 57320,
        "CapId": 57330,
        "FlowerId": 57340,
        "SandId": 57350,
        "SortOrder": 13
    },
    {
        "Id": 30105903,
        "SuitId": 10009,
        "Level": 3,
        "CupId": 59310,
        "LeatherId": 59320,
        "CapId": 59330,
        "FlowerId": 59340,
        "SandId": 59350,
        "SortOrder": 14
    },
    {
        "Id": 30105303,
        "SuitId": 10003,
        "Level": 3,
        "CupId": 53310,
        "LeatherId": 53320,
        "CapId": 53330,
        "FlowerId": 53340,
        "SandId": 53350,
        "SortOrder": 15
    },
    {
        "Id": 30105203,
        "SuitId": 10002,
        "Level": 3,
        "CupId": 52310,
        "LeatherId": 52320,
        "CapId": 52330,
        "FlowerId": 52340,
        "SandId": 52350,
        "SortOrder": 16
    },
    {
        "Id": 30105603,
        "SuitId": 10006,
        "Level": 3,
        "CupId": 56310,
        "LeatherId": 56320,
        "CapId": 56330,
        "FlowerId": 56340,
        "SandId": 56350,
        "SortOrder": 17
    },
    {
        "Id": 30105803,
        "SuitId": 10008,
        "Level": 3,
        "CupId": 58310,
        "LeatherId": 58320,
        "CapId": 58330,
        "FlowerId": 58340,
        "SandId": 58350,
        "SortOrder": 18
    },
    {
        "Id": 30106203,
        "SuitId": 10012,
        "Level": 3,
        "CupId": 62310,
        "LeatherId": 62320,
        "CapId": 62330,
        "FlowerId": 62340,
        "SandId": 62350,
        "SortOrder": 19
    },
    {
        "Id": 30108303,
        "SuitId": 15009,
        "Level": 3,
        "CapId": 83330,
        "SortOrder": 20
    },
    {
        "Id": 30108403,
        "SuitId": 15010,
        "Level": 3,
        "CapId": 84330,
        "SortOrder": 21
    },
    {
        "Id": 30108503,
        "SuitId": 15011,
        "Level": 3,
        "CapId": 85330,
        "SortOrder": 22
    },
    {
        "Id": 30108703,
        "SuitId": 15013,
        "Level": 3,
        "CapId": 87330,
        "SortOrder": 23
    },
    {
        "Id": 30105104,
        "SuitId": 10001,
        "Level": 4,
        "CupId": 51410,
        "LeatherId": 51420,
        "CapId": 51430,
        "FlowerId": 51440,
        "SandId": 51450,
        "SortOrder": 24
    },
    {
        "Id": 30105404,
        "SuitId": 10004,
        "Level": 4,
        "CupId": 54410,
        "LeatherId": 54420,
        "CapId": 54430,
        "FlowerId": 54440,
        "SandId": 54450,
        "SortOrder": 25
    },
    {
        "Id": 30105504,
        "SuitId": 10005,
        "Level": 4,
        "CupId": 55410,
        "LeatherId": 55420,
        "CapId": 55430,
        "FlowerId": 55440,
        "SandId": 55450,
        "SortOrder": 26
    },
    {
        "Id": 30105704,
        "SuitId": 10007,
        "Level": 4,
        "CupId": 57410,
        "LeatherId": 57420,
        "CapId": 57430,
        "FlowerId": 57440,
        "SandId": 57450,
        "SortOrder": 27
    },
    {
        "Id": 30105904,
        "SuitId": 10009,
        "Level": 4,
        "CupId": 59410,
        "LeatherId": 59420,
        "CapId": 59430,
        "FlowerId": 59440,
        "SandId": 59450,
        "SortOrder": 28
    },
    {
        "Id": 30105304,
        "SuitId": 10003,
        "Level": 4,
        "CupId": 53410,
        "LeatherId": 53420,
        "CapId": 53430,
        "FlowerId": 53440,
        "SandId": 53450,
        "SortOrder": 29
    },
    {
        "Id": 30105204,
        "SuitId": 10002,
        "Level": 4,
        "CupId": 52410,
        "LeatherId": 52420,
        "CapId": 52430,
        "FlowerId": 52440,
        "SandId": 52450,
        "SortOrder": 30
    },
    {
        "Id": 30105604,
        "SuitId": 10006,
        "Level": 4,
        "CupId": 56410,
        "LeatherId": 56420,
        "CapId": 56430,
        "FlowerId": 56440,
        "SandId": 56450,
        "SortOrder": 31
    },
    {
        "Id": 30105804,
        "SuitId": 10008,
        "Level": 4,
        "CupId": 58410,
        "LeatherId": 58420,
        "CapId": 58430,
        "FlowerId": 58440,
        "SandId": 58450,
        "SortOrder": 32
    },
    {
        "Id": 30106204,
        "SuitId": 10012,
        "Level": 4,
        "CupId": 62410,
        "LeatherId": 62420,
        "CapId": 62430,
        "FlowerId": 62440,
        "SandId": 62450,
        "SortOrder": 33
    },
    {
        "Id": 30108304,
        "SuitId": 15009,
        "Level": 4,
        "CapId": 83430,
        "SortOrder": 34
    },
    {
        "Id": 30108404,
        "SuitId": 15010,
        "Level": 4,
        "CapId": 84430,
        "SortOrder": 35
    },
    {
        "Id": 30108504,
        "SuitId": 15011,
        "Level": 4,
        "CapId": 85430,
        "SortOrder": 36
    },
    {
        "Id": 30108704,
        "SuitId": 15013,
        "Level": 4,
        "CapId": 87430,
        "SortOrder": 37
    },
    {
        "Id": 30107104,
        "SuitId": 14001,
        "Level": 4,
        "CupId": 71410,
        "LeatherId": 71420,
        "CapId": 71430,
        "FlowerId": 71440,
        "SandId": 71450,
        "SortOrder": 38
    },
    {
        "Id": 30107204,
        "SuitId": 14002,
        "Level": 4,
        "CupId": 72410,
        "LeatherId": 72420,
        "CapId": 72430,
        "FlowerId": 72440,
        "SandId": 72450,
        "SortOrder": 39
    },
    {
        "Id": 30107304,
        "SuitId": 14003,
        "Level": 4,
        "CupId": 73410,
        "LeatherId": 73420,
        "CapId": 73430,
        "FlowerId": 73440,
        "SandId": 73450,
        "SortOrder": 40
    },
    {
        "Id": 30107404,
        "SuitId": 14004,
        "Level": 4,
        "CupId": 74410,
        "LeatherId": 74420,
        "CapId": 74430,
        "FlowerId": 74440,
        "SandId": 74450,
        "SortOrder": 41
    },
    {
        "Id": 30107504,
        "SuitId": 15001,
        "Level": 4,
        "CupId": 75410,
        "LeatherId": 75420,
        "CapId": 75430,
        "FlowerId": 75440,
        "SandId": 75450,
        "SortOrder": 42
    },
    {
        "Id": 30107604,
        "SuitId": 15002,
        "Level": 4,
        "CupId": 76410,
        "LeatherId": 76420,
        "CapId": 76430,
        "FlowerId": 76440,
        "SandId": 76450,
        "SortOrder": 43
    },
    {
        "Id": 30107704,
        "SuitId": 15003,
        "Level": 4,
        "CupId": 77410,
        "LeatherId": 77420,
        "CapId": 77430,
        "FlowerId": 77440,
        "SandId": 77450,
        "SortOrder": 44
    },
    {
        "Id": 30107904,
        "SuitId": 15005,
        "Level": 4,
        "CupId": 79410,
        "LeatherId": 79420,
        "CapId": 79430,
        "FlowerId": 79440,
        "SandId": 79450,
        "SortOrder": 45
    },
    {
        "Id": 30108004,
        "SuitId": 15006,
        "Level": 4,
        "CupId": 80410,
        "LeatherId": 80420,
        "CapId": 80430,
        "FlowerId": 80440,
        "SandId": 80450,
        "SortOrder": 46
    },
    {
        "Id": 30108104,
        "SuitId": 15007,
        "Level": 4,
        "CupId": 81410,
        "LeatherId": 81420,
        "CapId": 81430,
        "FlowerId": 81440,
        "SandId": 81450,
        "SortOrder": 47
    },
    {
        "Id": 30108204,
        "SuitId": 15008,
        "Level": 4,
        "CupId": 82410,
        "LeatherId": 82420,
        "CapId": 82430,
        "FlowerId": 82440,
        "SandId": 82450,
        "SortOrder": 48
    },
    {
        "Id": 30108804,
        "SuitId": 15014,
        "Level": 4,
        "CupId": 88410,
        "LeatherId": 88420,
        "CapId": 88430,
        "FlowerId": 88440,
        "SandId": 88450,
        "SortOrder": 49
    },
    {
        "Id": 30108904,
        "SuitId": 15015,
        "Level": 4,
        "CupId": 89410,
        "LeatherId": 89420,
        "CapId": 89430,
        "FlowerId": 89440,
        "SandId": 89450,
        "SortOrder": 50
    },
    {
        "Id": 30109004,
        "SuitId": 15016,
        "Level": 4,
        "CupId": 90410,
        "LeatherId": 90420,
        "CapId": 90430,
        "FlowerId": 90440,
        "SandId": 90450,
        "SortOrder": 51
    },
    {
        "Id": 30109104,
        "SuitId": 15017,
        "Level": 4,
        "CupId": 91410,
        "LeatherId": 91420,
        "CapId": 91430,
        "FlowerId": 91440,
        "SandId": 91450,
        "SortOrder": 52,
        "ShowOnlyUnlocked": true
    },
    {
        "Id": 30109204,
        "SuitId": 15018,
        "Level": 4,
        "CupId": 92410,
        "LeatherId": 92420,
        "CapId": 92430,
        "FlowerId": 92440,
        "SandId": 92450,
        "SortOrder": 53,
        "ShowOnlyUnlocked": true
    },
    {
        "Id": 30107105,
        "SuitId": 14001,
        "Level": 5,
        "CupId": 71510,
        "LeatherId": 71520,
        "CapId": 71530,
        "FlowerId": 71540,
        "SandId": 71550,
        "SortOrder": 54
    },
    {
        "Id": 30107205,
        "SuitId": 14002,
        "Level": 5,
        "CupId": 72510,
        "LeatherId": 72520,
        "CapId": 72530,
        "FlowerId": 72540,
        "SandId": 72550,
        "SortOrder": 55
    },
    {
        "Id": 30107305,
        "SuitId": 14003,
        "Level": 5,
        "CupId": 73510,
        "LeatherId": 73520,
        "CapId": 73530,
        "FlowerId": 73540,
        "SandId": 73550,
        "SortOrder": 56
    },
    {
        "Id": 30107405,
        "SuitId": 14004,
        "Level": 5,
        "CupId": 74510,
        "LeatherId": 74520,
        "CapId": 74530,
        "FlowerId": 74540,
        "SandId": 74550,
        "SortOrder": 57
    },
    {
        "Id": 30107505,
        "SuitId": 15001,
        "Level": 5,
        "CupId": 75510,
        "LeatherId": 75520,
        "CapId": 75530,
        "FlowerId": 75540,
        "SandId": 75550,
        "SortOrder": 58
    },
    {
        "Id": 30107605,
        "SuitId": 15002,
        "Level": 5,
        "CupId": 76510,
        "LeatherId": 76520,
        "CapId": 76530,
        "FlowerId": 76540,
        "SandId": 76550,
        "SortOrder": 59
    },
    {
        "Id": 30107705,
        "SuitId": 15003,
        "Level": 5,
        "CupId": 77510,
        "LeatherId": 77520,
        "CapId": 77530,
        "FlowerId": 77540,
        "SandId": 77550,
        "SortOrder": 60
    },
    {
        "Id": 30107905,
        "SuitId": 15005,
        "Level": 5,
        "CupId": 79510,
        "LeatherId": 79520,
        "CapId": 79530,
        "FlowerId": 79540,
        "SandId": 79550,
        "SortOrder": 61
    },
    {
        "Id": 30108005,
        "SuitId": 15006,
        "Level": 5,
        "CupId": 80510,
        "LeatherId": 80520,
        "CapId": 80530,
        "FlowerId": 80540,
        "SandId": 80550,
        "SortOrder": 62
    },
    {
        "Id": 30108105,
        "SuitId": 15007,
        "Level": 5,
        "CupId": 81510,
        "LeatherId": 81520,
        "CapId": 81530,
        "FlowerId": 81540,
        "SandId": 81550,
        "SortOrder": 63
    },
    {
        "Id": 30108205,
        "SuitId": 15008,
        "Level": 5,
        "CupId": 82510,
        "LeatherId": 82520,
        "CapId": 82530,
        "FlowerId": 82540,
        "SandId": 82550,
        "SortOrder": 64
    },
    {
        "Id": 30108805,
        "SuitId": 15014,
        "Level": 5,
        "CupId": 88510,
        "LeatherId": 88520,
        "CapId": 88530,
        "FlowerId": 88540,
        "SandId": 88550,
        "SortOrder": 65
    },
    {
        "Id": 30108905,
        "SuitId": 15015,
        "Level": 5,
        "CupId": 89510,
        "LeatherId": 89520,
        "CapId": 89530,
        "FlowerId": 89540,
        "SandId": 89550,
        "SortOrder": 66
    },
    {
        "Id": 30109005,
        "SuitId": 15016,
        "Level": 5,
        "CupId": 90510,
        "LeatherId": 90520,
        "CapId": 90530,
        "FlowerId": 90540,
        "SandId": 90550,
        "SortOrder": 67
    },
    {
        "Id": 30109105,
        "SuitId": 15017,
        "Level": 5,
        "CupId": 91510,
        "LeatherId": 91520,
        "CapId": 91530,
        "FlowerId": 91540,
        "SandId": 91550,
        "SortOrder": 68,
        "ShowOnlyUnlocked": true
    },
    {
        "Id": 30109205,
        "SuitId": 15018,
        "Level": 5,
        "CupId": 92510,
        "LeatherId": 92520,
        "CapId": 92530,
        "FlowerId": 92540,
        "SandId": 92550,
        "SortOrder": 69,
        "ShowOnlyUnlocked": true
    }
]