[
    {
        "Id": 3000001,
        "BeginWay": "TALK_BEGIN_MANUAL",
        "BeginCond": [
            {
                "Type": "QUEST_COND_STATE_EQUAL",
                "Param": [
                    "3000002",
                    "2"
                ]
            },
            {
                "Param": [
                    "",
                    ""
                ]
            },
            {
                "Param": [
                    "",
                    ""
                ]
            }
        ],
        "Priority": 9,
        "NextTalks": [
            3000004,
            3000005
        ],
        "InitDialog": 300000101,
        "NpcId": [
            157701
        ],
        "PerformCfg": "",
        "QuestId": 30000
    },
    {
        "Id": 3000002,
        "BeginWay": "TALK_BEGIN_MANUAL",
        "BeginCondComb": "LOGIC_AND",
        "BeginCond": [
            {
                "Type": "QUEST_COND_STATE_EQUAL",
                "Param": [
                    "3000003",
                    "2"
                ]
            },
            {
                "Type": "QUEST_COND_PACK_HAVE_ITEM",
                "Param": [
                    "{QuestGatherID}",
                    "{QuestGatherNum}"
                ]
            },
            {
                "Param": [
                    "",
                    ""
                ]
            }
        ],
        "NextTalks": [
            3000006,
            3000007,
            3000009
        ],
        "InitDialog": 300000201,
        "NpcId": [
            157701
        ],
        "PerformCfg": "",
        "QuestId": 30000
    },
    {
        "Id": 3000003,
        "BeginWay": "TALK_BEGIN_MANUAL",
        "BeginCondComb": "LOGIC_AND",
        "BeginCond": [
            {
                "Type": "QUEST_COND_STATE_EQUAL",
                "Param": [
                    "3000003",
                    "2"
                ]
            },
            {
                "Type": "QUEST_COND_ITEM_NUM_LESS_THAN",
                "Param": [
                    "{QuestGatherID}",
                    "{QuestGatherNum}"
                ]
            },
            {
                "Param": [
                    "",
                    ""
                ]
            }
        ],
        "NextTalks": [
            3000008,
            3000009
        ],
        "InitDialog": 300000301,
        "NpcId": [
            157701
        ],
        "PerformCfg": "",
        "QuestId": 30000
    },
    {
        "Id": 3000004,
        "BeginCond": [
            {
                "Param": [
                    "",
                    ""
                ]
            },
            {
                "Param": [
                    "",
                    ""
                ]
            },
            {
                "Param": [
                    "",
                    ""
                ]
            }
        ],
        "NextTalks": [],
        "InitDialog": 300000401,
        "NpcId": [
            157701
        ],
        "PerformCfg": "",
        "QuestId": 30000
    },
    {
        "Id": 3000005,
        "BeginCond": [
            {
                "Param": [
                    "",
                    ""
                ]
            },
            {
                "Param": [
                    "",
                    ""
                ]
            },
            {
                "Param": [
                    "",
                    ""
                ]
            }
        ],
        "NextTalks": [],
        "InitDialog": 300000501,
        "NpcId": [
            157701
        ],
        "PerformCfg": "",
        "QuestId": 30000
    },
    {
        "Id": 3000006,
        "BeginCond": [
            {
                "Param": [
                    "",
                    ""
                ]
            },
            {
                "Param": [
                    "",
                    ""
                ]
            },
            {
                "Param": [
                    "",
                    ""
                ]
            }
        ],
        "NextTalks": [
            3000010
        ],
        "InitDialog": 300000601,
        "NpcId": [
            157701
        ],
        "PerformCfg": "",
        "QuestId": 30000
    },
    {
        "Id": 3000007,
        "BeginCond": [
            {
                "Param": [
                    "",
                    ""
                ]
            },
            {
                "Param": [
                    "",
                    ""
                ]
            },
            {
                "Param": [
                    "",
                    ""
                ]
            }
        ],
        "NextTalks": [],
        "InitDialog": 300000701,
        "NpcId": [
            157701
        ],
        "PerformCfg": "",
        "QuestId": 30000
    },
    {
        "Id": 3000008,
        "BeginCond": [
            {
                "Param": [
                    "",
                    ""
                ]
            },
            {
                "Param": [
                    "",
                    ""
                ]
            },
            {
                "Param": [
                    "",
                    ""
                ]
            }
        ],
        "NextTalks": [],
        "InitDialog": 300000801,
        "NpcId": [
            157701
        ],
        "PerformCfg": "",
        "QuestId": 30000
    },
    {
        "Id": 3000009,
        "BeginCond": [
            {
                "Param": [
                    "",
                    ""
                ]
            },
            {
                "Param": [
                    "",
                    ""
                ]
            },
            {
                "Param": [
                    "",
                    ""
                ]
            }
        ],
        "NextTalks": [],
        "InitDialog": 300000901,
        "NpcId": [
            157701
        ],
        "PerformCfg": "",
        "QuestId": 30000
    },
    {
        "Id": 3000010,
        "BeginCondComb": "LOGIC_AND",
        "BeginCond": [
            {
                "Type": "QUEST_COND_STATE_EQUAL",
                "Param": [
                    "3000002",
                    "3"
                ]
            },
            {
                "Param": [
                    "",
                    ""
                ]
            },
            {
                "Param": [
                    "",
                    ""
                ]
            }
        ],
        "NextTalks": [],
        "InitDialog": 300001001,
        "NpcId": [
            157701
        ],
        "PerformCfg": "",
        "QuestId": 30000
    },
    {
        "Id": 3000011,
        "BeginCondComb": "LOGIC_AND",
        "BeginCond": [
            {
                "Type": "QUEST_COND_STATE_EQUAL",
                "Param": [
                    "3000002",
                    "3"
                ]
            },
            {
                "Param": [
                    "",
                    ""
                ]
            },
            {
                "Param": [
                    "",
                    ""
                ]
            }
        ],
        "NextTalks": [],
        "InitDialog": 300001101,
        "NpcId": [
            157701
        ],
        "PerformCfg": "",
        "QuestId": 30000
    },
    {
        "Id": 3000101,
        "BeginWay": "TALK_BEGIN_MANUAL",
        "BeginCond": [
            {
                "Type": "QUEST_COND_STATE_EQUAL",
                "Param": [
                    "3000102",
                    "2"
                ]
            },
            {
                "Param": [
                    "",
                    ""
                ]
            },
            {
                "Param": [
                    "",
                    ""
                ]
            }
        ],
        "Priority": 9,
        "NextTalks": [],
        "InitDialog": 300010101,
        "NpcId": [
            157701
        ],
        "PerformCfg": "",
        "QuestId": 30001
    },
    {
        "Id": 3000201,
        "BeginWay": "TALK_BEGIN_MANUAL",
        "BeginCond": [
            {
                "Type": "QUEST_COND_STATE_EQUAL",
                "Param": [
                    "3000202",
                    "2"
                ]
            },
            {
                "Param": [
                    "",
                    ""
                ]
            },
            {
                "Param": [
                    "",
                    ""
                ]
            }
        ],
        "Priority": 9,
        "NextTalks": [],
        "InitDialog": 300010101,
        "NpcId": [
            152301
        ],
        "PerformCfg": "",
        "QuestId": 30002
    },
    {
        "Id": 3000301,
        "BeginWay": "TALK_BEGIN_MANUAL",
        "BeginCond": [
            {
                "Type": "QUEST_COND_STATE_EQUAL",
                "Param": [
                    "3000302",
                    "2"
                ]
            },
            {
                "Param": [
                    "",
                    ""
                ]
            },
            {
                "Param": [
                    "",
                    ""
                ]
            }
        ],
        "Priority": 9,
        "NextTalks": [],
        "InitDialog": 300010101,
        "NpcId": [
            154901
        ],
        "PerformCfg": "",
        "QuestId": 30003
    },
    {
        "Id": 3000401,
        "BeginWay": "TALK_BEGIN_MANUAL",
        "BeginCond": [
            {
                "Type": "QUEST_COND_STATE_EQUAL",
                "Param": [
                    "3000402",
                    "2"
                ]
            },
            {
                "Param": [
                    "",
                    ""
                ]
            },
            {
                "Param": [
                    "",
                    ""
                ]
            }
        ],
        "Priority": 9,
        "NextTalks": [],
        "InitDialog": 300010101,
        "NpcId": [
            141301
        ],
        "PerformCfg": "",
        "QuestId": 30004
    },
    {
        "Id": 3000501,
        "BeginWay": "TALK_BEGIN_MANUAL",
        "BeginCond": [
            {
                "Type": "QUEST_COND_STATE_EQUAL",
                "Param": [
                    "3000502",
                    "2"
                ]
            },
            {
                "Param": [
                    "",
                    ""
                ]
            },
            {
                "Param": [
                    "",
                    ""
                ]
            }
        ],
        "Priority": 9,
        "NextTalks": [],
        "InitDialog": 300010101,
        "NpcId": [
            154101
        ],
        "PerformCfg": "",
        "QuestId": 30005
    },
    {
        "Id": 3000601,
        "BeginWay": "TALK_BEGIN_MANUAL",
        "BeginCond": [
            {
                "Type": "QUEST_COND_STATE_EQUAL",
                "Param": [
                    "3000602",
                    "2"
                ]
            },
            {
                "Param": [
                    "",
                    ""
                ]
            },
            {
                "Param": [
                    "",
                    ""
                ]
            }
        ],
        "Priority": 9,
        "NextTalks": [],
        "InitDialog": 300010101,
        "NpcId": [
            153901
        ],
        "PerformCfg": "",
        "QuestId": 30006
    },
    {
        "Id": 3000701,
        "BeginWay": "TALK_BEGIN_MANUAL",
        "BeginCond": [
            {
                "Type": "QUEST_COND_STATE_EQUAL",
                "Param": [
                    "3000702",
                    "2"
                ]
            },
            {
                "Param": [
                    "",
                    ""
                ]
            },
            {
                "Param": [
                    "",
                    ""
                ]
            }
        ],
        "Priority": 9,
        "NextTalks": [],
        "InitDialog": 300010101,
        "NpcId": [
            156301
        ],
        "PerformCfg": "",
        "QuestId": 30007
    },
    {
        "Id": 3001101,
        "BeginWay": "TALK_BEGIN_MANUAL",
        "BeginCond": [
            {
                "Type": "QUEST_COND_STATE_EQUAL",
                "Param": [
                    "3001101",
                    "2"
                ]
            },
            {
                "Param": [
                    "",
                    ""
                ]
            },
            {
                "Param": [
                    "",
                    ""
                ]
            }
        ],
        "Priority": 9,
        "NextTalks": [
            3001104,
            3001105
        ],
        "InitDialog": 300110101,
        "NpcId": [
            147901
        ],
        "PerformCfg": "",
        "QuestId": 30011
    },
    {
        "Id": 3001102,
        "BeginWay": "TALK_BEGIN_MANUAL",
        "BeginCondComb": "LOGIC_AND",
        "BeginCond": [
            {
                "Type": "QUEST_COND_STATE_EQUAL",
                "Param": [
                    "3001102",
                    "2"
                ]
            },
            {
                "Type": "QUEST_COND_PACK_HAVE_ITEM",
                "Param": [
                    "{QuestGatherID}",
                    "{QuestGatherNum}"
                ]
            },
            {
                "Param": [
                    "",
                    ""
                ]
            }
        ],
        "Priority": 9,
        "NextTalks": [
            3001106,
            3001107
        ],
        "InitDialog": 300110201,
        "NpcId": [
            147901
        ],
        "PerformCfg": "",
        "QuestId": 30011
    },
    {
        "Id": 3001103,
        "BeginWay": "TALK_BEGIN_MANUAL",
        "BeginCondComb": "LOGIC_AND",
        "BeginCond": [
            {
                "Type": "QUEST_COND_STATE_EQUAL",
                "Param": [
                    "3001102",
                    "2"
                ]
            },
            {
                "Type": "QUEST_COND_ITEM_NUM_LESS_THAN",
                "Param": [
                    "{QuestGatherID}",
                    "{QuestGatherNum}"
                ]
            },
            {
                "Param": [
                    "",
                    ""
                ]
            }
        ],
        "Priority": 9,
        "NextTalks": [],
        "InitDialog": 300110301,
        "NpcId": [
            147901
        ],
        "PerformCfg": "",
        "QuestId": 30011
    },
    {
        "Id": 3001104,
        "BeginCond": [
            {
                "Param": [
                    "",
                    ""
                ]
            },
            {
                "Param": [
                    "",
                    ""
                ]
            },
            {
                "Param": [
                    "",
                    ""
                ]
            }
        ],
        "NextTalks": [],
        "InitDialog": 300110401,
        "NpcId": [
            147901
        ],
        "PerformCfg": "",
        "QuestId": 30011
    },
    {
        "Id": 3001105,
        "BeginCond": [
            {
                "Param": [
                    "",
                    ""
                ]
            },
            {
                "Param": [
                    "",
                    ""
                ]
            },
            {
                "Param": [
                    "",
                    ""
                ]
            }
        ],
        "NextTalks": [],
        "InitDialog": 300110501,
        "NpcId": [
            147901
        ],
        "PerformCfg": "",
        "QuestId": 30011
    },
    {
        "Id": 3001106,
        "BeginCond": [
            {
                "Param": [
                    "",
                    ""
                ]
            },
            {
                "Param": [
                    "",
                    ""
                ]
            },
            {
                "Param": [
                    "",
                    ""
                ]
            }
        ],
        "NextTalks": [],
        "InitDialog": 300110601,
        "NpcId": [
            147901
        ],
        "PerformCfg": "",
        "QuestId": 30011
    },
    {
        "Id": 3001107,
        "BeginCond": [
            {
                "Param": [
                    "",
                    ""
                ]
            },
            {
                "Param": [
                    "",
                    ""
                ]
            },
            {
                "Param": [
                    "",
                    ""
                ]
            }
        ],
        "NextTalks": [],
        "InitDialog": 300110701,
        "NpcId": [
            147901
        ],
        "PerformCfg": "",
        "QuestId": 30011
    },
    {
        "Id": 3001201,
        "BeginWay": "TALK_BEGIN_MANUAL",
        "BeginCond": [
            {
                "Type": "QUEST_COND_STATE_EQUAL",
                "Param": [
                    "3001201",
                    "2"
                ]
            },
            {
                "Param": [
                    "",
                    ""
                ]
            },
            {
                "Param": [
                    "",
                    ""
                ]
            }
        ],
        "Priority": 9,
        "NextTalks": [
            3001204,
            3001205
        ],
        "InitDialog": 300110101,
        "NpcId": [
            143101
        ],
        "PerformCfg": "",
        "QuestId": 30012
    },
    {
        "Id": 3001202,
        "BeginWay": "TALK_BEGIN_MANUAL",
        "BeginCondComb": "LOGIC_AND",
        "BeginCond": [
            {
                "Type": "QUEST_COND_STATE_EQUAL",
                "Param": [
                    "3001202",
                    "2"
                ]
            },
            {
                "Type": "QUEST_COND_PACK_HAVE_ITEM",
                "Param": [
                    "{QuestGatherID}",
                    "{QuestGatherNum}"
                ]
            },
            {
                "Param": [
                    "",
                    ""
                ]
            }
        ],
        "Priority": 9,
        "NextTalks": [
            3001206,
            3001207
        ],
        "InitDialog": 300110201,
        "NpcId": [
            143101
        ],
        "PerformCfg": "",
        "QuestId": 30012
    },
    {
        "Id": 3001203,
        "BeginWay": "TALK_BEGIN_MANUAL",
        "BeginCondComb": "LOGIC_AND",
        "BeginCond": [
            {
                "Type": "QUEST_COND_STATE_EQUAL",
                "Param": [
                    "3001202",
                    "2"
                ]
            },
            {
                "Type": "QUEST_COND_ITEM_NUM_LESS_THAN",
                "Param": [
                    "{QuestGatherID}",
                    "{QuestGatherNum}"
                ]
            },
            {
                "Param": [
                    "",
                    ""
                ]
            }
        ],
        "Priority": 9,
        "NextTalks": [],
        "InitDialog": 300110301,
        "NpcId": [
            143101
        ],
        "PerformCfg": "",
        "QuestId": 30012
    },
    {
        "Id": 3001204,
        "BeginCond": [
            {
                "Param": [
                    "",
                    ""
                ]
            },
            {
                "Param": [
                    "",
                    ""
                ]
            },
            {
                "Param": [
                    "",
                    ""
                ]
            }
        ],
        "NextTalks": [],
        "InitDialog": 300110401,
        "NpcId": [
            143101
        ],
        "PerformCfg": "",
        "QuestId": 30012
    },
    {
        "Id": 3001205,
        "BeginCond": [
            {
                "Param": [
                    "",
                    ""
                ]
            },
            {
                "Param": [
                    "",
                    ""
                ]
            },
            {
                "Param": [
                    "",
                    ""
                ]
            }
        ],
        "NextTalks": [],
        "InitDialog": 300110501,
        "NpcId": [
            143101
        ],
        "PerformCfg": "",
        "QuestId": 30012
    },
    {
        "Id": 3001206,
        "BeginCond": [
            {
                "Param": [
                    "",
                    ""
                ]
            },
            {
                "Param": [
                    "",
                    ""
                ]
            },
            {
                "Param": [
                    "",
                    ""
                ]
            }
        ],
        "NextTalks": [],
        "InitDialog": 300110601,
        "NpcId": [
            143101
        ],
        "PerformCfg": "",
        "QuestId": 30012
    },
    {
        "Id": 3001207,
        "BeginCond": [
            {
                "Param": [
                    "",
                    ""
                ]
            },
            {
                "Param": [
                    "",
                    ""
                ]
            },
            {
                "Param": [
                    "",
                    ""
                ]
            }
        ],
        "NextTalks": [],
        "InitDialog": 300110701,
        "NpcId": [
            143101
        ],
        "PerformCfg": "",
        "QuestId": 30012
    },
    {
        "Id": 3001301,
        "BeginWay": "TALK_BEGIN_MANUAL",
        "BeginCond": [
            {
                "Type": "QUEST_COND_STATE_EQUAL",
                "Param": [
                    "3001301",
                    "2"
                ]
            },
            {
                "Param": [
                    "",
                    ""
                ]
            },
            {
                "Param": [
                    "",
                    ""
                ]
            }
        ],
        "Priority": 9,
        "NextTalks": [
            3001304,
            3001305
        ],
        "InitDialog": 300110101,
        "NpcId": [
            140801
        ],
        "PerformCfg": "",
        "QuestId": 30013
    },
    {
        "Id": 3001302,
        "BeginWay": "TALK_BEGIN_MANUAL",
        "BeginCondComb": "LOGIC_AND",
        "BeginCond": [
            {
                "Type": "QUEST_COND_STATE_EQUAL",
                "Param": [
                    "3001302",
                    "2"
                ]
            },
            {
                "Type": "QUEST_COND_PACK_HAVE_ITEM",
                "Param": [
                    "{QuestGatherID}",
                    "{QuestGatherNum}"
                ]
            },
            {
                "Param": [
                    "",
                    ""
                ]
            }
        ],
        "Priority": 9,
        "NextTalks": [
            3001306,
            3001307
        ],
        "InitDialog": 300110201,
        "NpcId": [
            140801
        ],
        "PerformCfg": "",
        "QuestId": 30013
    },
    {
        "Id": 3001303,
        "BeginWay": "TALK_BEGIN_MANUAL",
        "BeginCondComb": "LOGIC_AND",
        "BeginCond": [
            {
                "Type": "QUEST_COND_STATE_EQUAL",
                "Param": [
                    "3001302",
                    "2"
                ]
            },
            {
                "Type": "QUEST_COND_ITEM_NUM_LESS_THAN",
                "Param": [
                    "{QuestGatherID}",
                    "{QuestGatherNum}"
                ]
            },
            {
                "Param": [
                    "",
                    ""
                ]
            }
        ],
        "Priority": 9,
        "NextTalks": [],
        "InitDialog": 300110301,
        "NpcId": [
            140801
        ],
        "PerformCfg": "",
        "QuestId": 30013
    },
    {
        "Id": 3001304,
        "BeginCond": [
            {
                "Param": [
                    "",
                    ""
                ]
            },
            {
                "Param": [
                    "",
                    ""
                ]
            },
            {
                "Param": [
                    "",
                    ""
                ]
            }
        ],
        "NextTalks": [],
        "InitDialog": 300110401,
        "NpcId": [
            140801
        ],
        "PerformCfg": "",
        "QuestId": 30013
    },
    {
        "Id": 3001305,
        "BeginCond": [
            {
                "Param": [
                    "",
                    ""
                ]
            },
            {
                "Param": [
                    "",
                    ""
                ]
            },
            {
                "Param": [
                    "",
                    ""
                ]
            }
        ],
        "NextTalks": [],
        "InitDialog": 300110501,
        "NpcId": [
            140801
        ],
        "PerformCfg": "",
        "QuestId": 30013
    },
    {
        "Id": 3001306,
        "BeginCond": [
            {
                "Param": [
                    "",
                    ""
                ]
            },
            {
                "Param": [
                    "",
                    ""
                ]
            },
            {
                "Param": [
                    "",
                    ""
                ]
            }
        ],
        "NextTalks": [],
        "InitDialog": 300110601,
        "NpcId": [
            140801
        ],
        "PerformCfg": "",
        "QuestId": 30013
    },
    {
        "Id": 3001307,
        "BeginCond": [
            {
                "Param": [
                    "",
                    ""
                ]
            },
            {
                "Param": [
                    "",
                    ""
                ]
            },
            {
                "Param": [
                    "",
                    ""
                ]
            }
        ],
        "NextTalks": [],
        "InitDialog": 300110701,
        "NpcId": [
            140801
        ],
        "PerformCfg": "",
        "QuestId": 30013
    },
    {
        "Id": 3001401,
        "BeginWay": "TALK_BEGIN_MANUAL",
        "BeginCond": [
            {
                "Type": "QUEST_COND_STATE_EQUAL",
                "Param": [
                    "3001401",
                    "2"
                ]
            },
            {
                "Param": [
                    "",
                    ""
                ]
            },
            {
                "Param": [
                    "",
                    ""
                ]
            }
        ],
        "Priority": 9,
        "NextTalks": [
            3001404,
            3001405
        ],
        "InitDialog": 300110101,
        "NpcId": [
            152101
        ],
        "PerformCfg": "",
        "QuestId": 30014
    },
    {
        "Id": 3001402,
        "BeginWay": "TALK_BEGIN_MANUAL",
        "BeginCondComb": "LOGIC_AND",
        "BeginCond": [
            {
                "Type": "QUEST_COND_STATE_EQUAL",
                "Param": [
                    "3001402",
                    "2"
                ]
            },
            {
                "Type": "QUEST_COND_PACK_HAVE_ITEM",
                "Param": [
                    "{QuestGatherID}",
                    "{QuestGatherNum}"
                ]
            },
            {
                "Param": [
                    "",
                    ""
                ]
            }
        ],
        "Priority": 9,
        "NextTalks": [
            3001406,
            3001407
        ],
        "InitDialog": 300110201,
        "NpcId": [
            152101
        ],
        "PerformCfg": "",
        "QuestId": 30014
    },
    {
        "Id": 3001403,
        "BeginWay": "TALK_BEGIN_MANUAL",
        "BeginCondComb": "LOGIC_AND",
        "BeginCond": [
            {
                "Type": "QUEST_COND_STATE_EQUAL",
                "Param": [
                    "3001402",
                    "2"
                ]
            },
            {
                "Type": "QUEST_COND_ITEM_NUM_LESS_THAN",
                "Param": [
                    "{QuestGatherID}",
                    "{QuestGatherNum}"
                ]
            },
            {
                "Param": [
                    "",
                    ""
                ]
            }
        ],
        "Priority": 9,
        "NextTalks": [],
        "InitDialog": 300110301,
        "NpcId": [
            152101
        ],
        "PerformCfg": "",
        "QuestId": 30014
    },
    {
        "Id": 3001404,
        "BeginCond": [
            {
                "Param": [
                    "",
                    ""
                ]
            },
            {
                "Param": [
                    "",
                    ""
                ]
            },
            {
                "Param": [
                    "",
                    ""
                ]
            }
        ],
        "NextTalks": [],
        "InitDialog": 300110401,
        "NpcId": [
            152101
        ],
        "PerformCfg": "",
        "QuestId": 30014
    },
    {
        "Id": 3001405,
        "BeginCond": [
            {
                "Param": [
                    "",
                    ""
                ]
            },
            {
                "Param": [
                    "",
                    ""
                ]
            },
            {
                "Param": [
                    "",
                    ""
                ]
            }
        ],
        "NextTalks": [],
        "InitDialog": 300110501,
        "NpcId": [
            152101
        ],
        "PerformCfg": "",
        "QuestId": 30014
    },
    {
        "Id": 3001406,
        "BeginCond": [
            {
                "Param": [
                    "",
                    ""
                ]
            },
            {
                "Param": [
                    "",
                    ""
                ]
            },
            {
                "Param": [
                    "",
                    ""
                ]
            }
        ],
        "NextTalks": [],
        "InitDialog": 300110601,
        "NpcId": [
            152101
        ],
        "PerformCfg": "",
        "QuestId": 30014
    },
    {
        "Id": 3001407,
        "BeginCond": [
            {
                "Param": [
                    "",
                    ""
                ]
            },
            {
                "Param": [
                    "",
                    ""
                ]
            },
            {
                "Param": [
                    "",
                    ""
                ]
            }
        ],
        "NextTalks": [],
        "InitDialog": 300110701,
        "NpcId": [
            152101
        ],
        "PerformCfg": "",
        "QuestId": 30014
    },
    {
        "Id": 3001501,
        "BeginWay": "TALK_BEGIN_MANUAL",
        "BeginCond": [
            {
                "Type": "QUEST_COND_STATE_EQUAL",
                "Param": [
                    "3001501",
                    "2"
                ]
            },
            {
                "Param": [
                    "",
                    ""
                ]
            },
            {
                "Param": [
                    "",
                    ""
                ]
            }
        ],
        "Priority": 9,
        "NextTalks": [
            3001504,
            3001505
        ],
        "InitDialog": 300110101,
        "NpcId": [
            157801
        ],
        "PerformCfg": "",
        "QuestId": 30015
    },
    {
        "Id": 3001502,
        "BeginWay": "TALK_BEGIN_MANUAL",
        "BeginCondComb": "LOGIC_AND",
        "BeginCond": [
            {
                "Type": "QUEST_COND_STATE_EQUAL",
                "Param": [
                    "3001502",
                    "2"
                ]
            },
            {
                "Type": "QUEST_COND_PACK_HAVE_ITEM",
                "Param": [
                    "{QuestGatherID}",
                    "{QuestGatherNum}"
                ]
            },
            {
                "Param": [
                    "",
                    ""
                ]
            }
        ],
        "Priority": 9,
        "NextTalks": [
            3001506,
            3001507
        ],
        "InitDialog": 300110201,
        "NpcId": [
            157801
        ],
        "PerformCfg": "",
        "QuestId": 30015
    },
    {
        "Id": 3001503,
        "BeginWay": "TALK_BEGIN_MANUAL",
        "BeginCondComb": "LOGIC_AND",
        "BeginCond": [
            {
                "Type": "QUEST_COND_STATE_EQUAL",
                "Param": [
                    "3001502",
                    "2"
                ]
            },
            {
                "Type": "QUEST_COND_ITEM_NUM_LESS_THAN",
                "Param": [
                    "{QuestGatherID}",
                    "{QuestGatherNum}"
                ]
            },
            {
                "Param": [
                    "",
                    ""
                ]
            }
        ],
        "Priority": 9,
        "NextTalks": [],
        "InitDialog": 300110301,
        "NpcId": [
            157801
        ],
        "PerformCfg": "",
        "QuestId": 30015
    },
    {
        "Id": 3001504,
        "BeginCond": [
            {
                "Param": [
                    "",
                    ""
                ]
            },
            {
                "Param": [
                    "",
                    ""
                ]
            },
            {
                "Param": [
                    "",
                    ""
                ]
            }
        ],
        "NextTalks": [],
        "InitDialog": 300110401,
        "NpcId": [
            157801
        ],
        "PerformCfg": "",
        "QuestId": 30015
    },
    {
        "Id": 3001505,
        "BeginCond": [
            {
                "Param": [
                    "",
                    ""
                ]
            },
            {
                "Param": [
                    "",
                    ""
                ]
            },
            {
                "Param": [
                    "",
                    ""
                ]
            }
        ],
        "NextTalks": [],
        "InitDialog": 300110501,
        "NpcId": [
            157801
        ],
        "PerformCfg": "",
        "QuestId": 30015
    },
    {
        "Id": 3001506,
        "BeginCond": [
            {
                "Param": [
                    "",
                    ""
                ]
            },
            {
                "Param": [
                    "",
                    ""
                ]
            },
            {
                "Param": [
                    "",
                    ""
                ]
            }
        ],
        "NextTalks": [],
        "InitDialog": 300110601,
        "NpcId": [
            157801
        ],
        "PerformCfg": "",
        "QuestId": 30015
    },
    {
        "Id": 3001507,
        "BeginCond": [
            {
                "Param": [
                    "",
                    ""
                ]
            },
            {
                "Param": [
                    "",
                    ""
                ]
            },
            {
                "Param": [
                    "",
                    ""
                ]
            }
        ],
        "NextTalks": [],
        "InitDialog": 300110701,
        "NpcId": [
            157801
        ],
        "PerformCfg": "",
        "QuestId": 30015
    },
    {
        "Id": 3002101,
        "BeginWay": "TALK_BEGIN_MANUAL",
        "BeginCond": [
            {
                "Type": "QUEST_COND_STATE_EQUAL",
                "Param": [
                    "3002101",
                    "2"
                ]
            },
            {
                "Param": [
                    "",
                    ""
                ]
            },
            {
                "Param": [
                    "",
                    ""
                ]
            }
        ],
        "Priority": 9,
        "NextTalks": [
            3002103,
            3002104
        ],
        "InitDialog": 300210101,
        "NpcId": [
            155301
        ],
        "PerformCfg": "",
        "QuestId": 30021
    },
    {
        "Id": 3002102,
        "BeginWay": "TALK_BEGIN_MANUAL",
        "BeginCond": [
            {
                "Type": "QUEST_COND_STATE_EQUAL",
                "Param": [
                    "3002102",
                    "2"
                ]
            },
            {
                "Param": [
                    "",
                    ""
                ]
            },
            {
                "Param": [
                    "",
                    ""
                ]
            }
        ],
        "Priority": 9,
        "NextTalks": [],
        "InitDialog": 300210201,
        "NpcId": [
            140901,
            141101
        ],
        "PerformCfg": "",
        "QuestId": 30021
    },
    {
        "Id": 3002103,
        "BeginCond": [
            {
                "Param": [
                    "",
                    ""
                ]
            },
            {
                "Param": [
                    "",
                    ""
                ]
            },
            {
                "Param": [
                    "",
                    ""
                ]
            }
        ],
        "NextTalks": [],
        "InitDialog": 300210301,
        "NpcId": [
            155301
        ],
        "PerformCfg": "",
        "QuestId": 30021
    },
    {
        "Id": 3002104,
        "BeginCond": [
            {
                "Param": [
                    "",
                    ""
                ]
            },
            {
                "Param": [
                    "",
                    ""
                ]
            },
            {
                "Param": [
                    "",
                    ""
                ]
            }
        ],
        "NextTalks": [],
        "InitDialog": 300210401,
        "NpcId": [
            155301
        ],
        "PerformCfg": "",
        "QuestId": 30021
    },
    {
        "Id": 3002201,
        "BeginWay": "TALK_BEGIN_MANUAL",
        "BeginCond": [
            {
                "Type": "QUEST_COND_STATE_EQUAL",
                "Param": [
                    "3002201",
                    "2"
                ]
            },
            {
                "Param": [
                    "",
                    ""
                ]
            },
            {
                "Param": [
                    "",
                    ""
                ]
            }
        ],
        "Priority": 9,
        "NextTalks": [
            3002203,
            3002204
        ],
        "InitDialog": 300210101,
        "NpcId": [
            155501
        ],
        "PerformCfg": "",
        "QuestId": 30022
    },
    {
        "Id": 3002202,
        "BeginWay": "TALK_BEGIN_MANUAL",
        "BeginCond": [
            {
                "Type": "QUEST_COND_STATE_EQUAL",
                "Param": [
                    "3002202",
                    "2"
                ]
            },
            {
                "Param": [
                    "",
                    ""
                ]
            },
            {
                "Param": [
                    "",
                    ""
                ]
            }
        ],
        "Priority": 9,
        "NextTalks": [],
        "InitDialog": 300210201,
        "NpcId": [
            156301
        ],
        "PerformCfg": "",
        "QuestId": 30022
    },
    {
        "Id": 3002203,
        "BeginCond": [
            {
                "Param": [
                    "",
                    ""
                ]
            },
            {
                "Param": [
                    "",
                    ""
                ]
            },
            {
                "Param": [
                    "",
                    ""
                ]
            }
        ],
        "NextTalks": [],
        "InitDialog": 300210301,
        "NpcId": [
            155501
        ],
        "PerformCfg": "",
        "QuestId": 30022
    },
    {
        "Id": 3002204,
        "BeginCond": [
            {
                "Param": [
                    "",
                    ""
                ]
            },
            {
                "Param": [
                    "",
                    ""
                ]
            },
            {
                "Param": [
                    "",
                    ""
                ]
            }
        ],
        "NextTalks": [],
        "InitDialog": 300210401,
        "NpcId": [
            155501
        ],
        "PerformCfg": "",
        "QuestId": 30022
    },
    {
        "Id": 3002301,
        "BeginWay": "TALK_BEGIN_MANUAL",
        "BeginCond": [
            {
                "Type": "QUEST_COND_STATE_EQUAL",
                "Param": [
                    "3002301",
                    "2"
                ]
            },
            {
                "Param": [
                    "",
                    ""
                ]
            },
            {
                "Param": [
                    "",
                    ""
                ]
            }
        ],
        "Priority": 9,
        "NextTalks": [
            3002303,
            3002304
        ],
        "InitDialog": 300210101,
        "NpcId": [
            156301
        ],
        "PerformCfg": "",
        "QuestId": 30023
    },
    {
        "Id": 3002302,
        "BeginWay": "TALK_BEGIN_MANUAL",
        "BeginCond": [
            {
                "Type": "QUEST_COND_STATE_EQUAL",
                "Param": [
                    "3002302",
                    "2"
                ]
            },
            {
                "Param": [
                    "",
                    ""
                ]
            },
            {
                "Param": [
                    "",
                    ""
                ]
            }
        ],
        "Priority": 9,
        "NextTalks": [],
        "InitDialog": 300210201,
        "NpcId": [
            155501
        ],
        "PerformCfg": "",
        "QuestId": 30023
    },
    {
        "Id": 3002303,
        "BeginCond": [
            {
                "Param": [
                    "",
                    ""
                ]
            },
            {
                "Param": [
                    "",
                    ""
                ]
            },
            {
                "Param": [
                    "",
                    ""
                ]
            }
        ],
        "NextTalks": [],
        "InitDialog": 300210301,
        "NpcId": [
            156301
        ],
        "PerformCfg": "",
        "QuestId": 30023
    },
    {
        "Id": 3002304,
        "BeginCond": [
            {
                "Param": [
                    "",
                    ""
                ]
            },
            {
                "Param": [
                    "",
                    ""
                ]
            },
            {
                "Param": [
                    "",
                    ""
                ]
            }
        ],
        "NextTalks": [],
        "InitDialog": 300210401,
        "NpcId": [
            156301
        ],
        "PerformCfg": "",
        "QuestId": 30023
    },
    {
        "Id": 3002401,
        "BeginWay": "TALK_BEGIN_MANUAL",
        "BeginCond": [
            {
                "Type": "QUEST_COND_STATE_EQUAL",
                "Param": [
                    "3002401",
                    "2"
                ]
            },
            {
                "Param": [
                    "",
                    ""
                ]
            },
            {
                "Param": [
                    "",
                    ""
                ]
            }
        ],
        "Priority": 9,
        "NextTalks": [
            3002403,
            3002404
        ],
        "InitDialog": 300210101,
        "NpcId": [
            153901
        ],
        "PerformCfg": "",
        "QuestId": 30024
    },
    {
        "Id": 3002402,
        "BeginWay": "TALK_BEGIN_MANUAL",
        "BeginCond": [
            {
                "Type": "QUEST_COND_STATE_EQUAL",
                "Param": [
                    "3002402",
                    "2"
                ]
            },
            {
                "Param": [
                    "",
                    ""
                ]
            },
            {
                "Param": [
                    "",
                    ""
                ]
            }
        ],
        "Priority": 9,
        "NextTalks": [],
        "InitDialog": 300210201,
        "NpcId": [
            153701,
            154101
        ],
        "PerformCfg": "",
        "QuestId": 30024
    },
    {
        "Id": 3002403,
        "BeginCond": [
            {
                "Param": [
                    "",
                    ""
                ]
            },
            {
                "Param": [
                    "",
                    ""
                ]
            },
            {
                "Param": [
                    "",
                    ""
                ]
            }
        ],
        "NextTalks": [],
        "InitDialog": 300210301,
        "NpcId": [
            153901
        ],
        "PerformCfg": "",
        "QuestId": 30024
    },
    {
        "Id": 3002404,
        "BeginCond": [
            {
                "Param": [
                    "",
                    ""
                ]
            },
            {
                "Param": [
                    "",
                    ""
                ]
            },
            {
                "Param": [
                    "",
                    ""
                ]
            }
        ],
        "NextTalks": [],
        "InitDialog": 300210401,
        "NpcId": [
            153901
        ],
        "PerformCfg": "",
        "QuestId": 30024
    },
    {
        "Id": 3002501,
        "BeginWay": "TALK_BEGIN_MANUAL",
        "BeginCond": [
            {
                "Type": "QUEST_COND_STATE_EQUAL",
                "Param": [
                    "3002501",
                    "2"
                ]
            },
            {
                "Param": [
                    "",
                    ""
                ]
            },
            {
                "Param": [
                    "",
                    ""
                ]
            }
        ],
        "Priority": 9,
        "NextTalks": [
            3002503,
            3002504
        ],
        "InitDialog": 300210101,
        "NpcId": [
            157901
        ],
        "PerformCfg": "",
        "QuestId": 30025
    },
    {
        "Id": 3002502,
        "BeginWay": "TALK_BEGIN_MANUAL",
        "BeginCond": [
            {
                "Type": "QUEST_COND_STATE_EQUAL",
                "Param": [
                    "3002502",
                    "2"
                ]
            },
            {
                "Param": [
                    "",
                    ""
                ]
            },
            {
                "Param": [
                    "",
                    ""
                ]
            }
        ],
        "Priority": 9,
        "NextTalks": [],
        "InitDialog": 300210201,
        "NpcId": [
            153701,
            154101
        ],
        "PerformCfg": "",
        "QuestId": 30025
    },
    {
        "Id": 3002503,
        "BeginCond": [
            {
                "Param": [
                    "",
                    ""
                ]
            },
            {
                "Param": [
                    "",
                    ""
                ]
            },
            {
                "Param": [
                    "",
                    ""
                ]
            }
        ],
        "NextTalks": [],
        "InitDialog": 300210301,
        "NpcId": [
            157901
        ],
        "PerformCfg": "",
        "QuestId": 30025
    },
    {
        "Id": 3002504,
        "BeginCond": [
            {
                "Param": [
                    "",
                    ""
                ]
            },
            {
                "Param": [
                    "",
                    ""
                ]
            },
            {
                "Param": [
                    "",
                    ""
                ]
            }
        ],
        "NextTalks": [],
        "InitDialog": 300210401,
        "NpcId": [
            157901
        ],
        "PerformCfg": "",
        "QuestId": 30025
    }
]