[
    {
        "Id": 101,
        "SceneTagName": "Hdj",
        "Cond": [
            {
                "CondType": "SCENE_TAG_COND_TYPE_SPECIFIC_ACTIVITY_OPEN",
                "Param1": 1001
            },
            {}
        ]
    },
    {
        "Id": 102,
        "SceneTagName": "JadeChamber",
        "Cond": [
            {
                "CondType": "SCENE_TAG_COND_TYPE_QUEST_GLOBAL_VAR_EQUAL",
                "Param1": 10008,
                "Param2": 1
            },
            {}
        ]
    },
    {
        "Id": 103,
        "SceneTagName": "JadeChamber",
        "Cond": [
            {
                "CondType": "SCENE_TAG_COND_TYPE_QUEST_GLOBAL_VAR_EQUAL",
                "Param1": 10009,
                "Param2": 1
            },
            {}
        ]
    },
    {
        "Id": 104,
        "SceneTagName": "Hdj",
        "Cond": [
            {
                "CondType": "SCENE_TAG_COND_TYPE_ACTIVITY_CONTENT_OPEN",
                "Param1": 2002
            },
            {
                "CondType": "SCENE_TAG_COND_TYPE_QUEST_FINISH",
                "Param1": 1110311
            }
        ]
    },
    {
        "Id": 105,
        "SceneTagName": "Fhj",
        "Cond": [
            {
                "CondType": "SCENE_TAG_COND_TYPE_ACTIVITY_CONTENT_OPEN",
                "Param1": 2003
            },
            {
                "CondType": "SCENE_TAG_COND_TYPE_QUEST_FINISH",
                "Param1": 39604
            }
        ]
    }
]