[
    {
        "Id": 1,
        "NameTextMapHash": 1731946084,
        "SubTabId": 4,
        "ShopType": "SHOP_TYPE_PACKAGE",
        "GoodsIdVec": [],
        "ConfigIdVec": [
            101
        ],
        "CondVec": [
            {
                "Type": "SHOPMALL_RECOMMEND_COND_PLAYER_LEVEL_GE",
                "Param1": 1
            },
            {}
        ],
        "Order": 3,
        "OneCardIconName": "MallPackage_MonthlyCard",
        "ColShowIconName": []
    }
]