[
    {
        "ID": 1,
        "SubTagNameTextMapHash": 2204087482
    },
    {
        "ID": 2,
        "SubTagNameTextMapHash": 507386946
    },
    {
        "ID": 3,
        "SubTagNameTextMapHash": 70083202
    },
    {
        "ID": 4,
        "SubTagNameTextMapHash": 1865916290
    }
]