[
    {
        "LevelId": 1,
        "LevelGroupId": 1,
        "LevelIndex": 1,
        "DungeonId": 3310,
        "Conds": [
            {
                "TowerCondType": "TOWER_COND_CHALLENGE_LEFT_TIME_MORE_THAN",
                "ArgumentList": [
                    1,
                    90
                ]
            },
            {
                "TowerCondType": "TOWER_COND_CHALLENGE_LEFT_TIME_MORE_THAN",
                "ArgumentList": [
                    1,
                    150
                ]
            },
            {
                "TowerCondType": "TOWER_COND_CHALLENGE_LEFT_TIME_MORE_THAN",
                "ArgumentList": [
                    1,
                    210
                ]
            }
        ],
        "TowerBuffConfigStrList": [
            "4:100,23:100,24:100",
            "25:100,28:100,29:100",
            "6:100,7:100,18:100,35:100"
        ],
        "FirstPassRewardId": 621001,
        "MonsterLevel": 24,
        "FirstMonsterList": [
            105,
            106,
            107
        ],
        "SecondMonsterList": []
    },
    {
        "LevelId": 2,
        "LevelGroupId": 1,
        "LevelIndex": 2,
        "DungeonId": 3410,
        "Conds": [
            {
                "TowerCondType": "TOWER_COND_CHALLENGE_LEFT_TIME_MORE_THAN",
                "ArgumentList": [
                    1,
                    90
                ]
            },
            {
                "TowerCondType": "TOWER_COND_CHALLENGE_LEFT_TIME_MORE_THAN",
                "ArgumentList": [
                    1,
                    150
                ]
            },
            {
                "TowerCondType": "TOWER_COND_CHALLENGE_LEFT_TIME_MORE_THAN",
                "ArgumentList": [
                    1,
                    210
                ]
            }
        ],
        "TowerBuffConfigStrList": [
            "4:100,23:100,24:100",
            "20:100,21:100",
            "6:100,7:100,17:100,38:100,31:100,34:100"
        ],
        "FirstPassRewardId": 621002,
        "MonsterLevel": 24,
        "FirstMonsterList": [
            10102,
            10103,
            10104,
            10106,
            10201,
            10202
        ],
        "SecondMonsterList": []
    },
    {
        "LevelId": 3,
        "LevelGroupId": 1,
        "LevelIndex": 3,
        "DungeonId": 3510,
        "Conds": [
            {
                "TowerCondType": "TOWER_COND_CHALLENGE_LEFT_TIME_MORE_THAN",
                "ArgumentList": [
                    1,
                    90
                ]
            },
            {
                "TowerCondType": "TOWER_COND_CHALLENGE_LEFT_TIME_MORE_THAN",
                "ArgumentList": [
                    1,
                    150
                ]
            },
            {
                "TowerCondType": "TOWER_COND_CHALLENGE_LEFT_TIME_MORE_THAN",
                "ArgumentList": [
                    1,
                    210
                ]
            }
        ],
        "TowerBuffConfigStrList": [
            "4:100,23:100,24:100",
            "25:100,28:100,29:100",
            "19:100"
        ],
        "FirstPassRewardId": 621003,
        "MonsterLevel": 24,
        "FirstMonsterList": [
            10104,
            10201,
            106,
            107,
            30301
        ],
        "SecondMonsterList": []
    },
    {
        "LevelId": 4,
        "LevelGroupId": 2,
        "LevelIndex": 1,
        "DungeonId": 3311,
        "Conds": [
            {
                "TowerCondType": "TOWER_COND_CHALLENGE_LEFT_TIME_MORE_THAN",
                "ArgumentList": [
                    1,
                    60
                ]
            },
            {
                "TowerCondType": "TOWER_COND_CHALLENGE_LEFT_TIME_MORE_THAN",
                "ArgumentList": [
                    1,
                    90
                ]
            },
            {
                "TowerCondType": "TOWER_COND_CHALLENGE_LEFT_TIME_MORE_THAN",
                "ArgumentList": [
                    1,
                    180
                ]
            }
        ],
        "TowerBuffConfigStrList": [
            "4:100,23:100,24:100",
            "25:100,28:100,29:100",
            "6:100,7:100,18:100,35:100"
        ],
        "FirstPassRewardId": 621004,
        "MonsterLevel": 39,
        "FirstMonsterList": [
            105,
            106,
            107
        ],
        "SecondMonsterList": []
    },
    {
        "LevelId": 5,
        "LevelGroupId": 2,
        "LevelIndex": 2,
        "DungeonId": 3411,
        "Conds": [
            {
                "TowerCondType": "TOWER_COND_LEFT_HP_GREATER_THAN",
                "ArgumentList": [
                    234101003,
                    3030,
                    20
                ]
            },
            {
                "TowerCondType": "TOWER_COND_LEFT_HP_GREATER_THAN",
                "ArgumentList": [
                    234101003,
                    3030,
                    40
                ]
            },
            {
                "TowerCondType": "TOWER_COND_LEFT_HP_GREATER_THAN",
                "ArgumentList": [
                    234101003,
                    3030,
                    60
                ]
            }
        ],
        "TowerBuffConfigStrList": [
            "4:100,23:100,24:100",
            "20:100,21:100",
            "6:100,7:100,17:100,38:100,31:100,34:100"
        ],
        "FirstPassRewardId": 621005,
        "MonsterLevel": 39,
        "FirstMonsterList": [
            110,
            111,
            10202,
            20103
        ],
        "SecondMonsterList": []
    },
    {
        "LevelId": 6,
        "LevelGroupId": 2,
        "LevelIndex": 3,
        "DungeonId": 3511,
        "Conds": [
            {
                "TowerCondType": "TOWER_COND_CHALLENGE_LEFT_TIME_MORE_THAN",
                "ArgumentList": [
                    1,
                    60
                ]
            },
            {
                "TowerCondType": "TOWER_COND_CHALLENGE_LEFT_TIME_MORE_THAN",
                "ArgumentList": [
                    1,
                    90
                ]
            },
            {
                "TowerCondType": "TOWER_COND_CHALLENGE_LEFT_TIME_MORE_THAN",
                "ArgumentList": [
                    1,
                    180
                ]
            }
        ],
        "TowerBuffConfigStrList": [
            "4:100,23:100,24:100",
            "25:100,28:100,29:100",
            "19:100"
        ],
        "FirstPassRewardId": 621006,
        "MonsterLevel": 39,
        "FirstMonsterList": [
            10301,
            10202,
            20103
        ],
        "SecondMonsterList": []
    },
    {
        "LevelId": 7,
        "LevelGroupId": 3,
        "LevelIndex": 1,
        "DungeonId": 3312,
        "Conds": [
            {
                "TowerCondType": "TOWER_COND_CHALLENGE_LEFT_TIME_MORE_THAN",
                "ArgumentList": [
                    1,
                    60
                ]
            },
            {
                "TowerCondType": "TOWER_COND_CHALLENGE_LEFT_TIME_MORE_THAN",
                "ArgumentList": [
                    1,
                    90
                ]
            },
            {
                "TowerCondType": "TOWER_COND_CHALLENGE_LEFT_TIME_MORE_THAN",
                "ArgumentList": [
                    1,
                    180
                ]
            }
        ],
        "TowerBuffConfigStrList": [
            "4:100,23:100,24:100",
            "25:100,28:100,29:100",
            "6:100,7:100,18:100,35:100"
        ],
        "FirstPassRewardId": 621007,
        "MonsterLevel": 44,
        "FirstMonsterList": [
            108,
            112,
            10105,
            10109,
            10103,
            106,
            109,
            113
        ],
        "SecondMonsterList": []
    },
    {
        "LevelId": 8,
        "LevelGroupId": 3,
        "LevelIndex": 2,
        "DungeonId": 3412,
        "Conds": [
            {
                "TowerCondType": "TOWER_COND_CHALLENGE_LEFT_TIME_MORE_THAN",
                "ArgumentList": [
                    1,
                    60
                ]
            },
            {
                "TowerCondType": "TOWER_COND_CHALLENGE_LEFT_TIME_MORE_THAN",
                "ArgumentList": [
                    1,
                    90
                ]
            },
            {
                "TowerCondType": "TOWER_COND_CHALLENGE_LEFT_TIME_MORE_THAN",
                "ArgumentList": [
                    1,
                    180
                ]
            }
        ],
        "TowerBuffConfigStrList": [
            "4:100,23:100,24:100",
            "20:100,21:100",
            "6:100,7:100,17:100,38:100,31:100,34:100"
        ],
        "FirstPassRewardId": 621008,
        "MonsterLevel": 44,
        "FirstMonsterList": [
            50103,
            50104,
            50105,
            50106,
            50302,
            50601,
            50701
        ],
        "SecondMonsterList": []
    },
    {
        "LevelId": 9,
        "LevelGroupId": 3,
        "LevelIndex": 3,
        "DungeonId": 3512,
        "Conds": [
            {
                "TowerCondType": "TOWER_COND_CHALLENGE_LEFT_TIME_MORE_THAN",
                "ArgumentList": [
                    1,
                    60
                ]
            },
            {
                "TowerCondType": "TOWER_COND_CHALLENGE_LEFT_TIME_MORE_THAN",
                "ArgumentList": [
                    1,
                    90
                ]
            },
            {
                "TowerCondType": "TOWER_COND_CHALLENGE_LEFT_TIME_MORE_THAN",
                "ArgumentList": [
                    1,
                    120
                ]
            }
        ],
        "TowerBuffConfigStrList": [
            "4:100,23:100,24:100",
            "25:100,28:100,29:100",
            "19:100"
        ],
        "FirstPassRewardId": 621009,
        "MonsterLevel": 44,
        "FirstMonsterList": [
            10202,
            40101
        ],
        "SecondMonsterList": []
    },
    {
        "LevelId": 10,
        "LevelGroupId": 4,
        "LevelIndex": 1,
        "DungeonId": 3313,
        "Conds": [
            {
                "TowerCondType": "TOWER_COND_CHALLENGE_LEFT_TIME_MORE_THAN",
                "ArgumentList": [
                    1,
                    60
                ]
            },
            {
                "TowerCondType": "TOWER_COND_CHALLENGE_LEFT_TIME_MORE_THAN",
                "ArgumentList": [
                    1,
                    120
                ]
            },
            {
                "TowerCondType": "TOWER_COND_CHALLENGE_LEFT_TIME_MORE_THAN",
                "ArgumentList": [
                    1,
                    180
                ]
            }
        ],
        "TowerBuffConfigStrList": [
            "4:100,23:100,24:100",
            "25:100,28:100,29:100",
            "6:100,7:100,18:100,35:100"
        ],
        "FirstPassRewardId": 621010,
        "MonsterLevel": 49,
        "FirstMonsterList": [
            110,
            111,
            10102,
            10109,
            20103
        ],
        "SecondMonsterList": []
    },
    {
        "LevelId": 11,
        "LevelGroupId": 4,
        "LevelIndex": 2,
        "DungeonId": 3413,
        "Conds": [
            {
                "TowerCondType": "TOWER_COND_LEFT_HP_GREATER_THAN",
                "ArgumentList": [
                    234103003,
                    3024,
                    20
                ]
            },
            {
                "TowerCondType": "TOWER_COND_LEFT_HP_GREATER_THAN",
                "ArgumentList": [
                    234103003,
                    3024,
                    40
                ]
            },
            {
                "TowerCondType": "TOWER_COND_LEFT_HP_GREATER_THAN",
                "ArgumentList": [
                    234103003,
                    3024,
                    60
                ]
            }
        ],
        "TowerBuffConfigStrList": [
            "4:100,23:100,24:100",
            "20:100,21:100",
            "6:100,7:100,17:100,38:100,31:100,34:100"
        ],
        "FirstPassRewardId": 621011,
        "MonsterLevel": 49,
        "FirstMonsterList": [
            110,
            10102,
            10109,
            10107,
            10202,
            20103
        ],
        "SecondMonsterList": []
    },
    {
        "LevelId": 12,
        "LevelGroupId": 4,
        "LevelIndex": 3,
        "DungeonId": 3513,
        "Conds": [
            {
                "TowerCondType": "TOWER_COND_CHALLENGE_LEFT_TIME_MORE_THAN",
                "ArgumentList": [
                    1,
                    60
                ]
            },
            {
                "TowerCondType": "TOWER_COND_CHALLENGE_LEFT_TIME_MORE_THAN",
                "ArgumentList": [
                    1,
                    90
                ]
            },
            {
                "TowerCondType": "TOWER_COND_CHALLENGE_LEFT_TIME_MORE_THAN",
                "ArgumentList": [
                    1,
                    120
                ]
            }
        ],
        "TowerBuffConfigStrList": [
            "4:100,23:100,24:100",
            "25:100,28:100,29:100",
            "19:100"
        ],
        "FirstPassRewardId": 621012,
        "MonsterLevel": 49,
        "FirstMonsterList": [
            10109,
            10102,
            10301,
            10202,
            20103
        ],
        "SecondMonsterList": []
    },
    {
        "LevelId": 13,
        "LevelGroupId": 5,
        "LevelIndex": 1,
        "DungeonId": 3341,
        "Conds": [
            {
                "TowerCondType": "TOWER_COND_CHALLENGE_LEFT_TIME_MORE_THAN",
                "ArgumentList": [
                    2,
                    180
                ]
            },
            {
                "TowerCondType": "TOWER_COND_CHALLENGE_LEFT_TIME_MORE_THAN",
                "ArgumentList": [
                    2,
                    300
                ]
            },
            {
                "TowerCondType": "TOWER_COND_CHALLENGE_LEFT_TIME_MORE_THAN",
                "ArgumentList": [
                    2,
                    420
                ]
            }
        ],
        "TowerBuffConfigStrList": [
            "1:100,2:100,3:100,21:100,24:100",
            "16:100,35:100,36:100,17:100",
            "6:100,7:100,18:100"
        ],
        "FirstPassRewardId": 621013,
        "MonsterLevel": 54,
        "FirstMonsterList": [
            109,
            10110,
            108
        ],
        "SecondMonsterList": [
            20101
        ]
    },
    {
        "LevelId": 14,
        "LevelGroupId": 5,
        "LevelIndex": 2,
        "DungeonId": 3441,
        "Conds": [
            {
                "TowerCondType": "TOWER_COND_CHALLENGE_LEFT_TIME_MORE_THAN",
                "ArgumentList": [
                    2,
                    90
                ]
            },
            {
                "TowerCondType": "TOWER_COND_CHALLENGE_LEFT_TIME_MORE_THAN",
                "ArgumentList": [
                    2,
                    180
                ]
            },
            {
                "TowerCondType": "TOWER_COND_CHALLENGE_LEFT_TIME_MORE_THAN",
                "ArgumentList": [
                    2,
                    240
                ]
            }
        ],
        "TowerBuffConfigStrList": [
            "1:100,2:100,3:100,21:100,24:100",
            "16:100,35:100,36:100,17:100",
            "6:100,7:100,38:100,34:100"
        ],
        "FirstPassRewardId": 621014,
        "MonsterLevel": 54,
        "FirstMonsterList": [
            50302,
            50303,
            50107,
            50106,
            50202
        ],
        "SecondMonsterList": [
            50701,
            50601,
            50303,
            50103,
            50102
        ]
    },
    {
        "LevelId": 15,
        "LevelGroupId": 5,
        "LevelIndex": 3,
        "DungeonId": 3541,
        "Conds": [
            {
                "TowerCondType": "TOWER_COND_CHALLENGE_LEFT_TIME_MORE_THAN",
                "ArgumentList": [
                    2,
                    180
                ]
            },
            {
                "TowerCondType": "TOWER_COND_CHALLENGE_LEFT_TIME_MORE_THAN",
                "ArgumentList": [
                    2,
                    300
                ]
            },
            {
                "TowerCondType": "TOWER_COND_CHALLENGE_LEFT_TIME_MORE_THAN",
                "ArgumentList": [
                    2,
                    420
                ]
            }
        ],
        "TowerBuffConfigStrList": [
            "1:100,2:100,3:100,21:100,24:100",
            "16:100,35:100,36:100,17:100",
            "19:100"
        ],
        "FirstPassRewardId": 621015,
        "MonsterLevel": 54,
        "FirstMonsterList": [
            30301,
            50107
        ],
        "SecondMonsterList": [
            30201,
            50105
        ]
    },
    {
        "LevelId": 16,
        "LevelGroupId": 6,
        "LevelIndex": 1,
        "DungeonId": 3342,
        "Conds": [
            {
                "TowerCondType": "TOWER_COND_CHALLENGE_LEFT_TIME_MORE_THAN",
                "ArgumentList": [
                    2,
                    30
                ]
            },
            {
                "TowerCondType": "TOWER_COND_CHALLENGE_LEFT_TIME_MORE_THAN",
                "ArgumentList": [
                    2,
                    60
                ]
            },
            {
                "TowerCondType": "TOWER_COND_CHALLENGE_LEFT_TIME_MORE_THAN",
                "ArgumentList": [
                    2,
                    120
                ]
            }
        ],
        "TowerBuffConfigStrList": [
            "1:100,2:100,3:100,21:100,27:100",
            "15:100,16:100,25:100,28:100,29:100,32:100,36:100",
            "6:100,7:100,18:100,35:100"
        ],
        "FirstPassRewardId": 621016,
        "MonsterLevel": 59,
        "FirstMonsterList": [
            60101,
            109,
            10110,
            10102,
            108
        ],
        "SecondMonsterList": [
            60102,
            113,
            10303,
            10109,
            10102,
            112
        ]
    },
    {
        "LevelId": 17,
        "LevelGroupId": 6,
        "LevelIndex": 2,
        "DungeonId": 3442,
        "Conds": [
            {
                "TowerCondType": "TOWER_COND_CHALLENGE_LEFT_TIME_MORE_THAN",
                "ArgumentList": [
                    2,
                    90
                ]
            },
            {
                "TowerCondType": "TOWER_COND_CHALLENGE_LEFT_TIME_MORE_THAN",
                "ArgumentList": [
                    2,
                    180
                ]
            },
            {
                "TowerCondType": "TOWER_COND_CHALLENGE_LEFT_TIME_MORE_THAN",
                "ArgumentList": [
                    2,
                    270
                ]
            }
        ],
        "TowerBuffConfigStrList": [
            "1:100,2:100,3:100,21:100,27:100",
            "15:100,16:100,25:100,28:100,29:100,32:100,36:100",
            "19:100"
        ],
        "FirstPassRewardId": 621017,
        "MonsterLevel": 59,
        "FirstMonsterList": [
            20102,
            10203,
            10202,
            10201,
            10301,
            10105,
            10109,
            10110,
            10106,
            10107,
            10112,
            10103
        ],
        "SecondMonsterList": [
            10302,
            10303,
            113,
            10105,
            10109,
            10110,
            112
        ]
    },
    {
        "LevelId": 18,
        "LevelGroupId": 6,
        "LevelIndex": 3,
        "DungeonId": 3542,
        "Conds": [
            {
                "TowerCondType": "TOWER_COND_CHALLENGE_LEFT_TIME_MORE_THAN",
                "ArgumentList": [
                    2,
                    120
                ]
            },
            {
                "TowerCondType": "TOWER_COND_CHALLENGE_LEFT_TIME_MORE_THAN",
                "ArgumentList": [
                    2,
                    240
                ]
            },
            {
                "TowerCondType": "TOWER_COND_CHALLENGE_LEFT_TIME_MORE_THAN",
                "ArgumentList": [
                    2,
                    330
                ]
            }
        ],
        "TowerBuffConfigStrList": [
            "1:100,2:100,3:100,21:100,27:100",
            "15:100,16:100,25:100,28:100,29:100,32:100,36:100",
            "19:100"
        ],
        "FirstPassRewardId": 621018,
        "MonsterLevel": 59,
        "FirstMonsterList": [
            10205,
            10109,
            10110,
            10304,
            10112
        ],
        "SecondMonsterList": [
            20101,
            113
        ]
    },
    {
        "LevelId": 19,
        "LevelGroupId": 7,
        "LevelIndex": 1,
        "DungeonId": 3343,
        "Conds": [
            {
                "TowerCondType": "TOWER_COND_CHALLENGE_LEFT_TIME_MORE_THAN",
                "ArgumentList": [
                    2,
                    120
                ]
            },
            {
                "TowerCondType": "TOWER_COND_CHALLENGE_LEFT_TIME_MORE_THAN",
                "ArgumentList": [
                    2,
                    300
                ]
            },
            {
                "TowerCondType": "TOWER_COND_CHALLENGE_LEFT_TIME_MORE_THAN",
                "ArgumentList": [
                    2,
                    420
                ]
            }
        ],
        "TowerBuffConfigStrList": [
            "1:100,4:100,5:100,20:100,23:100",
            "15:100,16:100,25:100,28:100,29:100,32:100,36:100",
            "6:100,7:100,18:100,35:100"
        ],
        "FirstPassRewardId": 621019,
        "MonsterLevel": 64,
        "FirstMonsterList": [
            30101,
            30102,
            30103
        ],
        "SecondMonsterList": [
            30101,
            30106,
            30105
        ]
    },
    {
        "LevelId": 20,
        "LevelGroupId": 7,
        "LevelIndex": 2,
        "DungeonId": 3443,
        "Conds": [
            {
                "TowerCondType": "TOWER_COND_CHALLENGE_LEFT_TIME_MORE_THAN",
                "ArgumentList": [
                    2,
                    120
                ]
            },
            {
                "TowerCondType": "TOWER_COND_CHALLENGE_LEFT_TIME_MORE_THAN",
                "ArgumentList": [
                    2,
                    300
                ]
            },
            {
                "TowerCondType": "TOWER_COND_CHALLENGE_LEFT_TIME_MORE_THAN",
                "ArgumentList": [
                    2,
                    390
                ]
            }
        ],
        "TowerBuffConfigStrList": [
            "1:100,4:100,5:100,20:100,23:100",
            "15:100,16:100,25:100,28:100,29:100,32:100,36:100",
            "19:100"
        ],
        "FirstPassRewardId": 621020,
        "MonsterLevel": 64,
        "FirstMonsterList": [
            30101,
            30104,
            30103
        ],
        "SecondMonsterList": [
            30104,
            30106,
            30105
        ]
    },
    {
        "LevelId": 21,
        "LevelGroupId": 7,
        "LevelIndex": 3,
        "DungeonId": 3543,
        "Conds": [
            {
                "TowerCondType": "TOWER_COND_CHALLENGE_LEFT_TIME_MORE_THAN",
                "ArgumentList": [
                    2,
                    120
                ]
            },
            {
                "TowerCondType": "TOWER_COND_CHALLENGE_LEFT_TIME_MORE_THAN",
                "ArgumentList": [
                    2,
                    330
                ]
            },
            {
                "TowerCondType": "TOWER_COND_CHALLENGE_LEFT_TIME_MORE_THAN",
                "ArgumentList": [
                    2,
                    450
                ]
            }
        ],
        "TowerBuffConfigStrList": [
            "1:100,4:100,5:100,20:100,23:100",
            "15:100,16:100,25:100,28:100,29:100,32:100,36:100",
            "19:100"
        ],
        "FirstPassRewardId": 621021,
        "MonsterLevel": 64,
        "FirstMonsterList": [
            30102,
            30103,
            30105
        ],
        "SecondMonsterList": [
            30106,
            30103,
            30105
        ]
    },
    {
        "LevelId": 22,
        "LevelGroupId": 8,
        "LevelIndex": 1,
        "DungeonId": 3344,
        "Conds": [
            {
                "TowerCondType": "TOWER_COND_CHALLENGE_LEFT_TIME_MORE_THAN",
                "ArgumentList": [
                    2,
                    180
                ]
            },
            {
                "TowerCondType": "TOWER_COND_CHALLENGE_LEFT_TIME_MORE_THAN",
                "ArgumentList": [
                    2,
                    330
                ]
            },
            {
                "TowerCondType": "TOWER_COND_CHALLENGE_LEFT_TIME_MORE_THAN",
                "ArgumentList": [
                    2,
                    420
                ]
            }
        ],
        "TowerBuffConfigStrList": [
            "1:100,2:100,3:100,21:100,27:100",
            "15:100,16:100,28:100,32:100,36:100,17:100",
            "6:100,7:100,18:100,35:100"
        ],
        "FirstPassRewardId": 621022,
        "MonsterLevel": 69,
        "FirstMonsterList": [
            20103,
            20102
        ],
        "SecondMonsterList": [
            20101
        ]
    },
    {
        "LevelId": 23,
        "LevelGroupId": 8,
        "LevelIndex": 2,
        "DungeonId": 3444,
        "Conds": [
            {
                "TowerCondType": "TOWER_COND_CHALLENGE_LEFT_TIME_MORE_THAN",
                "ArgumentList": [
                    2,
                    180
                ]
            },
            {
                "TowerCondType": "TOWER_COND_CHALLENGE_LEFT_TIME_MORE_THAN",
                "ArgumentList": [
                    2,
                    300
                ]
            },
            {
                "TowerCondType": "TOWER_COND_CHALLENGE_LEFT_TIME_MORE_THAN",
                "ArgumentList": [
                    2,
                    360
                ]
            }
        ],
        "TowerBuffConfigStrList": [
            "1:100,2:100,3:100,21:100,27:100",
            "15:100,16:100,28:100,32:100,35:100,36:100",
            "6:100,7:100,17:100,38:100"
        ],
        "FirstPassRewardId": 621023,
        "MonsterLevel": 69,
        "FirstMonsterList": [
            40101,
            10109,
            10104,
            10103,
            10102
        ],
        "SecondMonsterList": [
            40101,
            10105,
            10107,
            10106
        ]
    },
    {
        "LevelId": 24,
        "LevelGroupId": 8,
        "LevelIndex": 3,
        "DungeonId": 3544,
        "Conds": [
            {
                "TowerCondType": "TOWER_COND_CHALLENGE_LEFT_TIME_MORE_THAN",
                "ArgumentList": [
                    2,
                    60
                ]
            },
            {
                "TowerCondType": "TOWER_COND_CHALLENGE_LEFT_TIME_MORE_THAN",
                "ArgumentList": [
                    2,
                    120
                ]
            },
            {
                "TowerCondType": "TOWER_COND_CHALLENGE_LEFT_TIME_MORE_THAN",
                "ArgumentList": [
                    2,
                    180
                ]
            }
        ],
        "TowerBuffConfigStrList": [
            "1:100,2:100,3:100,21:100,27:100",
            "15:100,16:100,28:100,32:100,35:100,36:100,17:100",
            "19:100"
        ],
        "FirstPassRewardId": 621024,
        "MonsterLevel": 69,
        "FirstMonsterList": [
            60201
        ],
        "SecondMonsterList": [
            60202
        ]
    },
    {
        "LevelId": 25,
        "LevelGroupId": 9,
        "LevelIndex": 1,
        "DungeonId": 3371,
        "Conds": [
            {
                "TowerCondType": "TOWER_COND_CHALLENGE_LEFT_TIME_MORE_THAN",
                "ArgumentList": [
                    2,
                    60
                ]
            },
            {
                "TowerCondType": "TOWER_COND_CHALLENGE_LEFT_TIME_MORE_THAN",
                "ArgumentList": [
                    2,
                    180
                ]
            },
            {
                "TowerCondType": "TOWER_COND_CHALLENGE_LEFT_TIME_MORE_THAN",
                "ArgumentList": [
                    2,
                    300
                ]
            }
        ],
        "TowerBuffConfigStrList": [
            "4:100,20:100,23:100,24:100",
            "15:100,16:100,25:100,28:100,29:100,32:100,36:100",
            "6:100,7:100,18:100,35:100"
        ],
        "FirstPassRewardId": 621025,
        "MonsterLevel": 71,
        "FirstMonsterList": [
            113,
            106,
            107
        ],
        "SecondMonsterList": [
            106,
            107,
            113
        ]
    },
    {
        "LevelId": 26,
        "LevelGroupId": 9,
        "LevelIndex": 2,
        "DungeonId": 3471,
        "Conds": [
            {
                "TowerCondType": "TOWER_COND_CHALLENGE_LEFT_TIME_MORE_THAN",
                "ArgumentList": [
                    2,
                    60
                ]
            },
            {
                "TowerCondType": "TOWER_COND_CHALLENGE_LEFT_TIME_MORE_THAN",
                "ArgumentList": [
                    2,
                    180
                ]
            },
            {
                "TowerCondType": "TOWER_COND_CHALLENGE_LEFT_TIME_MORE_THAN",
                "ArgumentList": [
                    2,
                    300
                ]
            }
        ],
        "TowerBuffConfigStrList": [
            "4:100,20:100,23:100,24:100",
            "15:100,16:100,25:100,28:100,29:100,32:100,36:100",
            "6:100,7:100,17:100,38:100,31:100,34:100"
        ],
        "FirstPassRewardId": 621026,
        "MonsterLevel": 73,
        "FirstMonsterList": [
            30301,
            50303,
            50105,
            50103,
            50106,
            50102
        ],
        "SecondMonsterList": [
            30101,
            30103,
            30104,
            30105
        ]
    },
    {
        "LevelId": 27,
        "LevelGroupId": 9,
        "LevelIndex": 3,
        "DungeonId": 3571,
        "Conds": [
            {
                "TowerCondType": "TOWER_COND_CHALLENGE_LEFT_TIME_MORE_THAN",
                "ArgumentList": [
                    2,
                    180
                ]
            },
            {
                "TowerCondType": "TOWER_COND_CHALLENGE_LEFT_TIME_MORE_THAN",
                "ArgumentList": [
                    2,
                    300
                ]
            },
            {
                "TowerCondType": "TOWER_COND_CHALLENGE_LEFT_TIME_MORE_THAN",
                "ArgumentList": [
                    2,
                    420
                ]
            }
        ],
        "TowerBuffConfigStrList": [
            "4:100,20:100,23:100,24:100",
            "15:100,16:100,25:100,28:100,29:100,32:100,36:100",
            "19:100"
        ],
        "FirstPassRewardId": 621027,
        "MonsterLevel": 75,
        "FirstMonsterList": [
            60301,
            10205
        ],
        "SecondMonsterList": [
            40101
        ]
    },
    {
        "LevelId": 28,
        "LevelGroupId": 10,
        "LevelIndex": 1,
        "DungeonId": 3375,
        "Conds": [
            {
                "TowerCondType": "TOWER_COND_CHALLENGE_LEFT_TIME_MORE_THAN",
                "ArgumentList": [
                    2,
                    60
                ]
            },
            {
                "TowerCondType": "TOWER_COND_CHALLENGE_LEFT_TIME_MORE_THAN",
                "ArgumentList": [
                    2,
                    180
                ]
            },
            {
                "TowerCondType": "TOWER_COND_CHALLENGE_LEFT_TIME_MORE_THAN",
                "ArgumentList": [
                    2,
                    300
                ]
            }
        ],
        "TowerBuffConfigStrList": [
            "1:100,2:100,3:100,21:100,24:100",
            "16:100,25:100,28:100,29:100,32:100,36:100",
            "31:100"
        ],
        "FirstPassRewardId": 621028,
        "MonsterLevel": 79,
        "FirstMonsterList": [
            10202,
            113,
            10107
        ],
        "SecondMonsterList": [
            20101,
            10202
        ]
    },
    {
        "LevelId": 29,
        "LevelGroupId": 10,
        "LevelIndex": 2,
        "DungeonId": 3475,
        "Conds": [
            {
                "TowerCondType": "TOWER_COND_CHALLENGE_LEFT_TIME_MORE_THAN",
                "ArgumentList": [
                    2,
                    60
                ]
            },
            {
                "TowerCondType": "TOWER_COND_CHALLENGE_LEFT_TIME_MORE_THAN",
                "ArgumentList": [
                    2,
                    180
                ]
            },
            {
                "TowerCondType": "TOWER_COND_CHALLENGE_LEFT_TIME_MORE_THAN",
                "ArgumentList": [
                    2,
                    300
                ]
            }
        ],
        "TowerBuffConfigStrList": [
            "1:100,2:100,3:100,21:100,24:100,27:100",
            "16:100,25:100,28:100,29:100,32:100,36:100",
            "19:100"
        ],
        "FirstPassRewardId": 621029,
        "MonsterLevel": 81,
        "FirstMonsterList": [
            10202,
            60102,
            10106,
            10102
        ],
        "SecondMonsterList": [
            20101,
            10202,
            10105
        ]
    },
    {
        "LevelId": 30,
        "LevelGroupId": 10,
        "LevelIndex": 3,
        "DungeonId": 3575,
        "Conds": [
            {
                "TowerCondType": "TOWER_COND_CHALLENGE_LEFT_TIME_MORE_THAN",
                "ArgumentList": [
                    2,
                    180
                ]
            },
            {
                "TowerCondType": "TOWER_COND_CHALLENGE_LEFT_TIME_MORE_THAN",
                "ArgumentList": [
                    2,
                    300
                ]
            },
            {
                "TowerCondType": "TOWER_COND_CHALLENGE_LEFT_TIME_MORE_THAN",
                "ArgumentList": [
                    2,
                    420
                ]
            }
        ],
        "TowerBuffConfigStrList": [
            "1:100,2:100,3:100,21:100,24:100,27:100",
            "16:100,25:100,28:100,29:100,32:100,36:100",
            "19:100"
        ],
        "FirstPassRewardId": 621030,
        "MonsterLevel": 84,
        "FirstMonsterList": [
            30105,
            30106
        ],
        "SecondMonsterList": [
            20101,
            10302,
            10105,
            60102
        ]
    },
    {
        "LevelId": 31,
        "LevelGroupId": 11,
        "LevelIndex": 1,
        "DungeonId": 3373,
        "Conds": [
            {
                "TowerCondType": "TOWER_COND_CHALLENGE_LEFT_TIME_MORE_THAN",
                "ArgumentList": [
                    2,
                    60
                ]
            },
            {
                "TowerCondType": "TOWER_COND_CHALLENGE_LEFT_TIME_MORE_THAN",
                "ArgumentList": [
                    2,
                    180
                ]
            },
            {
                "TowerCondType": "TOWER_COND_CHALLENGE_LEFT_TIME_MORE_THAN",
                "ArgumentList": [
                    2,
                    300
                ]
            }
        ],
        "TowerBuffConfigStrList": [
            "1:100,2:100,3:100,21:100,27:100",
            "15:100,16:100,25:100,28:100,29:100,32:100,36:100,17:100",
            "6:100,7:100,18:100,35:100"
        ],
        "FirstPassRewardId": 621031,
        "MonsterLevel": 87,
        "FirstMonsterList": [
            109,
            106,
            107,
            10109,
            10103
        ],
        "SecondMonsterList": [
            30301,
            20102,
            10301,
            10109,
            10110
        ]
    },
    {
        "LevelId": 32,
        "LevelGroupId": 11,
        "LevelIndex": 2,
        "DungeonId": 3473,
        "Conds": [
            {
                "TowerCondType": "TOWER_COND_LEFT_HP_GREATER_THAN",
                "ArgumentList": [
                    234703002,
                    2016,
                    20
                ]
            },
            {
                "TowerCondType": "TOWER_COND_LEFT_HP_GREATER_THAN",
                "ArgumentList": [
                    234703002,
                    2016,
                    40
                ]
            },
            {
                "TowerCondType": "TOWER_COND_LEFT_HP_GREATER_THAN",
                "ArgumentList": [
                    234703002,
                    2016,
                    60
                ]
            }
        ],
        "TowerBuffConfigStrList": [
            "1:100,2:100,3:100,21:100,27:100",
            "15:100,16:100,25:100,28:100,29:100,32:100,35:100,36:100",
            "6:100,7:100,17:100,38:100,31:100,34:100"
        ],
        "FirstPassRewardId": 621032,
        "MonsterLevel": 89,
        "FirstMonsterList": [
            10202,
            10203,
            10106,
            10112
        ],
        "SecondMonsterList": [
            10202,
            10203,
            106,
            107,
            10110,
            10109
        ]
    },
    {
        "LevelId": 33,
        "LevelGroupId": 11,
        "LevelIndex": 3,
        "DungeonId": 3573,
        "Conds": [
            {
                "TowerCondType": "TOWER_COND_CHALLENGE_LEFT_TIME_MORE_THAN",
                "ArgumentList": [
                    2,
                    180
                ]
            },
            {
                "TowerCondType": "TOWER_COND_CHALLENGE_LEFT_TIME_MORE_THAN",
                "ArgumentList": [
                    2,
                    300
                ]
            },
            {
                "TowerCondType": "TOWER_COND_CHALLENGE_LEFT_TIME_MORE_THAN",
                "ArgumentList": [
                    2,
                    420
                ]
            }
        ],
        "TowerBuffConfigStrList": [
            "1:100,2:100,3:100,21:100,27:100",
            "15:100,16:100,25:100,28:100,29:100,32:100,35:100,36:100,17:100",
            "19:100"
        ],
        "FirstPassRewardId": 621033,
        "MonsterLevel": 91,
        "FirstMonsterList": [
            30101,
            30104,
            30105
        ],
        "SecondMonsterList": [
            30103,
            30105,
            30104
        ]
    },
    {
        "LevelId": 34,
        "LevelGroupId": 12,
        "LevelIndex": 1,
        "DungeonId": 3374,
        "Conds": [
            {
                "TowerCondType": "TOWER_COND_CHALLENGE_LEFT_TIME_MORE_THAN",
                "ArgumentList": [
                    2,
                    60
                ]
            },
            {
                "TowerCondType": "TOWER_COND_CHALLENGE_LEFT_TIME_MORE_THAN",
                "ArgumentList": [
                    2,
                    180
                ]
            },
            {
                "TowerCondType": "TOWER_COND_CHALLENGE_LEFT_TIME_MORE_THAN",
                "ArgumentList": [
                    2,
                    300
                ]
            }
        ],
        "TowerBuffConfigStrList": [
            "1:100,2:100,21:100,24:100",
            "15:100,16:100,25:100,28:100,29:100,32:100,36:100",
            "6:100,7:100,18:100,35:100"
        ],
        "FirstPassRewardId": 621034,
        "MonsterLevel": 94,
        "FirstMonsterList": [
            10201,
            109,
            60101
        ],
        "SecondMonsterList": [
            20102,
            109,
            10109
        ]
    },
    {
        "LevelId": 35,
        "LevelGroupId": 12,
        "LevelIndex": 2,
        "DungeonId": 3474,
        "Conds": [
            {
                "TowerCondType": "TOWER_COND_LEFT_HP_GREATER_THAN",
                "ArgumentList": [
                    234704003,
                    3024,
                    20
                ]
            },
            {
                "TowerCondType": "TOWER_COND_LEFT_HP_GREATER_THAN",
                "ArgumentList": [
                    234704003,
                    3024,
                    40
                ]
            },
            {
                "TowerCondType": "TOWER_COND_LEFT_HP_GREATER_THAN",
                "ArgumentList": [
                    234704003,
                    3024,
                    60
                ]
            }
        ],
        "TowerBuffConfigStrList": [
            "1:100,2:100,21:100,24:100",
            "15:100,16:100,25:100,28:100,29:100,32:100,36:100",
            "6:100,7:100,17:100,38:100,31:100,34:100"
        ],
        "FirstPassRewardId": 621035,
        "MonsterLevel": 97,
        "FirstMonsterList": [
            60101,
            10105,
            10109
        ],
        "SecondMonsterList": [
            20102,
            10201,
            109,
            10109,
            10110,
            10105
        ]
    },
    {
        "LevelId": 36,
        "LevelGroupId": 12,
        "LevelIndex": 3,
        "DungeonId": 3574,
        "Conds": [
            {
                "TowerCondType": "TOWER_COND_CHALLENGE_LEFT_TIME_MORE_THAN",
                "ArgumentList": [
                    2,
                    180
                ]
            },
            {
                "TowerCondType": "TOWER_COND_CHALLENGE_LEFT_TIME_MORE_THAN",
                "ArgumentList": [
                    2,
                    300
                ]
            },
            {
                "TowerCondType": "TOWER_COND_CHALLENGE_LEFT_TIME_MORE_THAN",
                "ArgumentList": [
                    2,
                    420
                ]
            }
        ],
        "TowerBuffConfigStrList": [
            "1:100,2:100,21:100,24:100",
            "15:100,16:100,25:100,28:100,29:100,32:100,36:100",
            "19:100"
        ],
        "FirstPassRewardId": 621036,
        "MonsterLevel": 99,
        "FirstMonsterList": [
            30101,
            30103,
            30105
        ],
        "SecondMonsterList": [
            30101,
            30103,
            30105,
            30104
        ]
    },
    {
        "LevelId": 37,
        "LevelGroupId": 13,
        "LevelIndex": 1,
        "DungeonId": 3376,
        "Conds": [
            {
                "TowerCondType": "TOWER_COND_CHALLENGE_LEFT_TIME_MORE_THAN",
                "ArgumentList": [
                    2,
                    60
                ]
            },
            {
                "TowerCondType": "TOWER_COND_CHALLENGE_LEFT_TIME_MORE_THAN",
                "ArgumentList": [
                    2,
                    180
                ]
            },
            {
                "TowerCondType": "TOWER_COND_CHALLENGE_LEFT_TIME_MORE_THAN",
                "ArgumentList": [
                    2,
                    300
                ]
            }
        ],
        "TowerBuffConfigStrList": [
            "4:100,20:100,23:100,24:100",
            "15:100,16:100,25:100,28:100,29:100,32:100,36:100",
            "6:100,7:100,18:100,35:100"
        ],
        "FirstPassRewardId": 621025,
        "MonsterLevel": 71,
        "FirstMonsterList": [
            10206,
            10114,
            109
        ],
        "SecondMonsterList": [
            20102,
            10206,
            10305,
            10109
        ]
    },
    {
        "LevelId": 38,
        "LevelGroupId": 13,
        "LevelIndex": 2,
        "DungeonId": 3476,
        "Conds": [
            {
                "TowerCondType": "TOWER_COND_CHALLENGE_LEFT_TIME_MORE_THAN",
                "ArgumentList": [
                    2,
                    60
                ]
            },
            {
                "TowerCondType": "TOWER_COND_CHALLENGE_LEFT_TIME_MORE_THAN",
                "ArgumentList": [
                    2,
                    180
                ]
            },
            {
                "TowerCondType": "TOWER_COND_CHALLENGE_LEFT_TIME_MORE_THAN",
                "ArgumentList": [
                    2,
                    300
                ]
            }
        ],
        "TowerBuffConfigStrList": [
            "4:100,20:100,23:100,24:100",
            "15:100,16:100,25:100,28:100,29:100,32:100,36:100",
            "6:100,7:100,17:100,38:100,31:100,34:100"
        ],
        "FirstPassRewardId": 621026,
        "MonsterLevel": 73,
        "FirstMonsterList": [
            10206,
            10114,
            10113,
            109
        ],
        "SecondMonsterList": [
            30101,
            30103,
            30105
        ]
    },
    {
        "LevelId": 39,
        "LevelGroupId": 13,
        "LevelIndex": 3,
        "DungeonId": 3576,
        "Conds": [
            {
                "TowerCondType": "TOWER_COND_CHALLENGE_LEFT_TIME_MORE_THAN",
                "ArgumentList": [
                    2,
                    180
                ]
            },
            {
                "TowerCondType": "TOWER_COND_CHALLENGE_LEFT_TIME_MORE_THAN",
                "ArgumentList": [
                    2,
                    300
                ]
            },
            {
                "TowerCondType": "TOWER_COND_CHALLENGE_LEFT_TIME_MORE_THAN",
                "ArgumentList": [
                    2,
                    420
                ]
            }
        ],
        "TowerBuffConfigStrList": [
            "4:100,20:100,23:100,24:100",
            "15:100,16:100,25:100,28:100,29:100,32:100,36:100",
            "19:100"
        ],
        "FirstPassRewardId": 621027,
        "MonsterLevel": 75,
        "FirstMonsterList": [
            10204,
            10109
        ],
        "SecondMonsterList": [
            20102,
            10206
        ]
    },
    {
        "LevelId": 40,
        "LevelGroupId": 14,
        "LevelIndex": 1,
        "DungeonId": 3377,
        "Conds": [
            {
                "TowerCondType": "TOWER_COND_CHALLENGE_LEFT_TIME_MORE_THAN",
                "ArgumentList": [
                    2,
                    60
                ]
            },
            {
                "TowerCondType": "TOWER_COND_CHALLENGE_LEFT_TIME_MORE_THAN",
                "ArgumentList": [
                    2,
                    180
                ]
            },
            {
                "TowerCondType": "TOWER_COND_CHALLENGE_LEFT_TIME_MORE_THAN",
                "ArgumentList": [
                    2,
                    300
                ]
            }
        ],
        "TowerBuffConfigStrList": [
            "1:100,2:100,3:100,21:100,24:100",
            "16:100,25:100,28:100,29:100,32:100,36:100",
            "31:100"
        ],
        "FirstPassRewardId": 621028,
        "MonsterLevel": 79,
        "FirstMonsterList": [
            20102,
            10113,
            109
        ],
        "SecondMonsterList": [
            30301,
            20102,
            10301
        ]
    },
    {
        "LevelId": 41,
        "LevelGroupId": 14,
        "LevelIndex": 2,
        "DungeonId": 3477,
        "Conds": [
            {
                "TowerCondType": "TOWER_COND_CHALLENGE_LEFT_TIME_MORE_THAN",
                "ArgumentList": [
                    2,
                    60
                ]
            },
            {
                "TowerCondType": "TOWER_COND_CHALLENGE_LEFT_TIME_MORE_THAN",
                "ArgumentList": [
                    2,
                    180
                ]
            },
            {
                "TowerCondType": "TOWER_COND_CHALLENGE_LEFT_TIME_MORE_THAN",
                "ArgumentList": [
                    2,
                    300
                ]
            }
        ],
        "TowerBuffConfigStrList": [
            "1:100,2:100,3:100,21:100,24:100,27:100",
            "16:100,25:100,28:100,29:100,32:100,36:100",
            "19:100"
        ],
        "FirstPassRewardId": 621029,
        "MonsterLevel": 81,
        "FirstMonsterList": [
            10206,
            10114,
            10113
        ],
        "SecondMonsterList": [
            30401,
            50105,
            50106
        ]
    },
    {
        "LevelId": 42,
        "LevelGroupId": 14,
        "LevelIndex": 3,
        "DungeonId": 3577,
        "Conds": [
            {
                "TowerCondType": "TOWER_COND_CHALLENGE_LEFT_TIME_MORE_THAN",
                "ArgumentList": [
                    2,
                    180
                ]
            },
            {
                "TowerCondType": "TOWER_COND_CHALLENGE_LEFT_TIME_MORE_THAN",
                "ArgumentList": [
                    2,
                    300
                ]
            },
            {
                "TowerCondType": "TOWER_COND_CHALLENGE_LEFT_TIME_MORE_THAN",
                "ArgumentList": [
                    2,
                    420
                ]
            }
        ],
        "TowerBuffConfigStrList": [
            "1:100,2:100,3:100,21:100,24:100,27:100",
            "16:100,25:100,28:100,29:100,32:100,36:100",
            "19:100"
        ],
        "FirstPassRewardId": 621030,
        "MonsterLevel": 84,
        "FirstMonsterList": [
            30401,
            30201
        ],
        "SecondMonsterList": [
            10204
        ]
    },
    {
        "LevelId": 43,
        "LevelGroupId": 15,
        "LevelIndex": 1,
        "DungeonId": 3379,
        "Conds": [
            {
                "TowerCondType": "TOWER_COND_CHALLENGE_LEFT_TIME_MORE_THAN",
                "ArgumentList": [
                    2,
                    60
                ]
            },
            {
                "TowerCondType": "TOWER_COND_CHALLENGE_LEFT_TIME_MORE_THAN",
                "ArgumentList": [
                    2,
                    180
                ]
            },
            {
                "TowerCondType": "TOWER_COND_CHALLENGE_LEFT_TIME_MORE_THAN",
                "ArgumentList": [
                    2,
                    300
                ]
            }
        ],
        "TowerBuffConfigStrList": [
            "1:100,2:100,21:100,24:100",
            "15:100,16:100,25:100,28:100,29:100,32:100,36:100",
            "6:100,7:100,18:100,35:100"
        ],
        "FirstPassRewardId": 621031,
        "MonsterLevel": 87,
        "FirstMonsterList": [
            20103,
            106,
            107,
            111
        ],
        "SecondMonsterList": [
            10203,
            10202
        ]
    },
    {
        "LevelId": 44,
        "LevelGroupId": 15,
        "LevelIndex": 2,
        "DungeonId": 3479,
        "Conds": [
            {
                "TowerCondType": "TOWER_COND_LEFT_HP_GREATER_THAN",
                "ArgumentList": [
                    234709003,
                    3024,
                    20
                ]
            },
            {
                "TowerCondType": "TOWER_COND_LEFT_HP_GREATER_THAN",
                "ArgumentList": [
                    234709003,
                    3024,
                    40
                ]
            },
            {
                "TowerCondType": "TOWER_COND_LEFT_HP_GREATER_THAN",
                "ArgumentList": [
                    234709003,
                    3024,
                    60
                ]
            }
        ],
        "TowerBuffConfigStrList": [
            "1:100,2:100,21:100,24:100",
            "15:100,16:100,25:100,28:100,29:100,32:100,36:100",
            "6:100,7:100,17:100,38:100,31:100,34:100"
        ],
        "FirstPassRewardId": 621032,
        "MonsterLevel": 89,
        "FirstMonsterList": [
            10201,
            10202,
            10112,
            10107,
            10110,
            10105
        ],
        "SecondMonsterList": [
            30301,
            30201,
            50302,
            50601,
            50701,
            50103,
            50104
        ]
    },
    {
        "LevelId": 45,
        "LevelGroupId": 15,
        "LevelIndex": 3,
        "DungeonId": 3579,
        "Conds": [
            {
                "TowerCondType": "TOWER_COND_CHALLENGE_LEFT_TIME_MORE_THAN",
                "ArgumentList": [
                    2,
                    180
                ]
            },
            {
                "TowerCondType": "TOWER_COND_CHALLENGE_LEFT_TIME_MORE_THAN",
                "ArgumentList": [
                    2,
                    300
                ]
            },
            {
                "TowerCondType": "TOWER_COND_CHALLENGE_LEFT_TIME_MORE_THAN",
                "ArgumentList": [
                    2,
                    420
                ]
            }
        ],
        "TowerBuffConfigStrList": [
            "1:100,2:100,21:100,24:100",
            "15:100,16:100,25:100,28:100,29:100,32:100,36:100",
            "19:100"
        ],
        "FirstPassRewardId": 621033,
        "MonsterLevel": 91,
        "FirstMonsterList": [
            30105,
            30103,
            30104,
            30102
        ],
        "SecondMonsterList": [
            30201,
            30301
        ]
    },
    {
        "LevelId": 46,
        "LevelGroupId": 16,
        "LevelIndex": 1,
        "DungeonId": 3378,
        "Conds": [
            {
                "TowerCondType": "TOWER_COND_CHALLENGE_LEFT_TIME_MORE_THAN",
                "ArgumentList": [
                    2,
                    60
                ]
            },
            {
                "TowerCondType": "TOWER_COND_CHALLENGE_LEFT_TIME_MORE_THAN",
                "ArgumentList": [
                    2,
                    180
                ]
            },
            {
                "TowerCondType": "TOWER_COND_CHALLENGE_LEFT_TIME_MORE_THAN",
                "ArgumentList": [
                    2,
                    300
                ]
            }
        ],
        "TowerBuffConfigStrList": [
            "1:100,2:100,3:100,21:100,27:100",
            "15:100,16:100,25:100,28:100,29:100,32:100,36:100,17:100",
            "6:100,7:100,18:100,35:100"
        ],
        "FirstPassRewardId": 621034,
        "MonsterLevel": 94,
        "FirstMonsterList": [
            10203,
            10202,
            10112
        ],
        "SecondMonsterList": [
            40101,
            201
        ]
    },
    {
        "LevelId": 47,
        "LevelGroupId": 16,
        "LevelIndex": 2,
        "DungeonId": 3478,
        "Conds": [
            {
                "TowerCondType": "TOWER_COND_CHALLENGE_LEFT_TIME_MORE_THAN",
                "ArgumentList": [
                    2,
                    60
                ]
            },
            {
                "TowerCondType": "TOWER_COND_CHALLENGE_LEFT_TIME_MORE_THAN",
                "ArgumentList": [
                    2,
                    180
                ]
            },
            {
                "TowerCondType": "TOWER_COND_CHALLENGE_LEFT_TIME_MORE_THAN",
                "ArgumentList": [
                    2,
                    300
                ]
            }
        ],
        "TowerBuffConfigStrList": [
            "1:100,2:100,3:100,21:100,27:100",
            "15:100,16:100,25:100,28:100,29:100,32:100,35:100,36:100",
            "6:100,7:100,17:100,38:100,31:100,34:100"
        ],
        "FirstPassRewardId": 621035,
        "MonsterLevel": 97,
        "FirstMonsterList": [
            50302,
            50303,
            50107,
            50601,
            50701
        ],
        "SecondMonsterList": [
            30201
        ]
    },
    {
        "LevelId": 48,
        "LevelGroupId": 16,
        "LevelIndex": 3,
        "DungeonId": 3578,
        "Conds": [
            {
                "TowerCondType": "TOWER_COND_CHALLENGE_LEFT_TIME_MORE_THAN",
                "ArgumentList": [
                    2,
                    180
                ]
            },
            {
                "TowerCondType": "TOWER_COND_CHALLENGE_LEFT_TIME_MORE_THAN",
                "ArgumentList": [
                    2,
                    300
                ]
            },
            {
                "TowerCondType": "TOWER_COND_CHALLENGE_LEFT_TIME_MORE_THAN",
                "ArgumentList": [
                    2,
                    420
                ]
            }
        ],
        "TowerBuffConfigStrList": [
            "1:100,2:100,3:100,21:100,27:100",
            "15:100,16:100,25:100,28:100,29:100,32:100,35:100,36:100,17:100",
            "19:100"
        ],
        "FirstPassRewardId": 621036,
        "MonsterLevel": 99,
        "FirstMonsterList": [
            30301,
            10203,
            50103,
            50106
        ],
        "SecondMonsterList": [
            30201,
            10203
        ]
    },
    {
        "LevelId": 49,
        "LevelGroupId": 17,
        "LevelIndex": 1,
        "DungeonId": 3380,
        "Conds": [
            {
                "TowerCondType": "TOWER_COND_CHALLENGE_LEFT_TIME_MORE_THAN",
                "ArgumentList": [
                    2,
                    180
                ]
            },
            {
                "TowerCondType": "TOWER_COND_CHALLENGE_LEFT_TIME_MORE_THAN",
                "ArgumentList": [
                    2,
                    300
                ]
            },
            {
                "TowerCondType": "TOWER_COND_CHALLENGE_LEFT_TIME_MORE_THAN",
                "ArgumentList": [
                    2,
                    420
                ]
            }
        ],
        "TowerBuffConfigStrList": [
            "1:100,2:100,3:100,21:100,27:100",
            "15:100,16:100,25:100,28:100,29:100,32:100,36:100,17:100",
            "6:100,7:100,18:100,35:100"
        ],
        "FirstPassRewardId": 621034,
        "MonsterLevel": 94,
        "FirstMonsterList": [
            60401
        ],
        "SecondMonsterList": [
            60401
        ]
    },
    {
        "LevelId": 50,
        "LevelGroupId": 17,
        "LevelIndex": 2,
        "DungeonId": 3480,
        "Conds": [
            {
                "TowerCondType": "TOWER_COND_CHALLENGE_LEFT_TIME_MORE_THAN",
                "ArgumentList": [
                    2,
                    180
                ]
            },
            {
                "TowerCondType": "TOWER_COND_CHALLENGE_LEFT_TIME_MORE_THAN",
                "ArgumentList": [
                    2,
                    300
                ]
            },
            {
                "TowerCondType": "TOWER_COND_CHALLENGE_LEFT_TIME_MORE_THAN",
                "ArgumentList": [
                    2,
                    420
                ]
            }
        ],
        "TowerBuffConfigStrList": [
            "1:100,2:100,3:100,21:100,27:100",
            "15:100,16:100,25:100,28:100,29:100,32:100,35:100,36:100",
            "6:100,7:100,17:100,38:100,31:100,34:100"
        ],
        "FirstPassRewardId": 621035,
        "MonsterLevel": 97,
        "FirstMonsterList": [
            30301,
            30401
        ],
        "SecondMonsterList": [
            30201,
            50302
        ]
    },
    {
        "LevelId": 51,
        "LevelGroupId": 17,
        "LevelIndex": 3,
        "DungeonId": 3580,
        "Conds": [
            {
                "TowerCondType": "TOWER_COND_CHALLENGE_LEFT_TIME_MORE_THAN",
                "ArgumentList": [
                    2,
                    180
                ]
            },
            {
                "TowerCondType": "TOWER_COND_CHALLENGE_LEFT_TIME_MORE_THAN",
                "ArgumentList": [
                    2,
                    300
                ]
            },
            {
                "TowerCondType": "TOWER_COND_CHALLENGE_LEFT_TIME_MORE_THAN",
                "ArgumentList": [
                    2,
                    420
                ]
            }
        ],
        "TowerBuffConfigStrList": [
            "1:100,2:100,3:100,21:100,27:100",
            "15:100,16:100,25:100,28:100,29:100,32:100,35:100,36:100,17:100",
            "19:100"
        ],
        "FirstPassRewardId": 621036,
        "MonsterLevel": 99,
        "FirstMonsterList": [
            40101
        ],
        "SecondMonsterList": [
            40103
        ]
    },
    {
        "LevelId": 52,
        "LevelGroupId": 18,
        "LevelIndex": 1,
        "DungeonId": 3381,
        "Conds": [
            {
                "TowerCondType": "TOWER_COND_LEFT_HP_GREATER_THAN",
                "ArgumentList": [
                    233711003,
                    3024,
                    20
                ]
            },
            {
                "TowerCondType": "TOWER_COND_LEFT_HP_GREATER_THAN",
                "ArgumentList": [
                    233711003,
                    3024,
                    40
                ]
            },
            {
                "TowerCondType": "TOWER_COND_LEFT_HP_GREATER_THAN",
                "ArgumentList": [
                    233711003,
                    3024,
                    60
                ]
            }
        ],
        "TowerBuffConfigStrList": [
            "1:100,2:100,3:100,21:100,27:100",
            "15:100,16:100,25:100,28:100,29:100,32:100,36:100,17:100",
            "6:100,7:100,18:100,35:100"
        ],
        "FirstPassRewardId": 621034,
        "MonsterLevel": 87,
        "FirstMonsterList": [
            50701,
            50601,
            50202
        ],
        "SecondMonsterList": [
            50302,
            50303,
            50107,
            50103,
            50104,
            50105,
            50106
        ]
    },
    {
        "LevelId": 53,
        "LevelGroupId": 18,
        "LevelIndex": 2,
        "DungeonId": 3481,
        "Conds": [
            {
                "TowerCondType": "TOWER_COND_CHALLENGE_LEFT_TIME_MORE_THAN",
                "ArgumentList": [
                    2,
                    120
                ]
            },
            {
                "TowerCondType": "TOWER_COND_CHALLENGE_LEFT_TIME_MORE_THAN",
                "ArgumentList": [
                    2,
                    240
                ]
            },
            {
                "TowerCondType": "TOWER_COND_CHALLENGE_LEFT_TIME_MORE_THAN",
                "ArgumentList": [
                    2,
                    360
                ]
            }
        ],
        "TowerBuffConfigStrList": [
            "1:100,2:100,3:100,21:100,27:100",
            "15:100,16:100,25:100,28:100,29:100,32:100,35:100,36:100",
            "6:100,7:100,17:100,38:100,31:100,34:100"
        ],
        "FirstPassRewardId": 621035,
        "MonsterLevel": 89,
        "FirstMonsterList": [
            30103,
            30102,
            30105
        ],
        "SecondMonsterList": [
            30103,
            30102,
            30104
        ]
    },
    {
        "LevelId": 54,
        "LevelGroupId": 18,
        "LevelIndex": 3,
        "DungeonId": 3581,
        "Conds": [
            {
                "TowerCondType": "TOWER_COND_CHALLENGE_LEFT_TIME_MORE_THAN",
                "ArgumentList": [
                    2,
                    180
                ]
            },
            {
                "TowerCondType": "TOWER_COND_CHALLENGE_LEFT_TIME_MORE_THAN",
                "ArgumentList": [
                    2,
                    300
                ]
            },
            {
                "TowerCondType": "TOWER_COND_CHALLENGE_LEFT_TIME_MORE_THAN",
                "ArgumentList": [
                    2,
                    420
                ]
            }
        ],
        "TowerBuffConfigStrList": [
            "1:100,2:100,3:100,21:100,27:100",
            "15:100,16:100,25:100,28:100,29:100,32:100,35:100,36:100,17:100",
            "19:100"
        ],
        "FirstPassRewardId": 621036,
        "MonsterLevel": 91,
        "FirstMonsterList": [
            30301,
            30401
        ],
        "SecondMonsterList": [
            20201
        ]
    },
    {
        "LevelId": 55,
        "LevelGroupId": 19,
        "LevelIndex": 1,
        "DungeonId": 3382,
        "Conds": [
            {
                "TowerCondType": "TOWER_COND_CHALLENGE_LEFT_TIME_MORE_THAN",
                "ArgumentList": [
                    2,
                    180
                ]
            },
            {
                "TowerCondType": "TOWER_COND_CHALLENGE_LEFT_TIME_MORE_THAN",
                "ArgumentList": [
                    2,
                    300
                ]
            },
            {
                "TowerCondType": "TOWER_COND_CHALLENGE_LEFT_TIME_MORE_THAN",
                "ArgumentList": [
                    2,
                    420
                ]
            }
        ],
        "TowerBuffConfigStrList": [
            "1:100,2:100,3:100,21:100,27:100",
            "15:100,16:100,25:100,28:100,29:100,32:100,36:100,17:100",
            "6:100,7:100,18:100,35:100"
        ],
        "FirstPassRewardId": 621034,
        "MonsterLevel": 94,
        "FirstMonsterList": [
            60401,
            60102
        ],
        "SecondMonsterList": [
            60401,
            60101
        ]
    },
    {
        "LevelId": 56,
        "LevelGroupId": 19,
        "LevelIndex": 2,
        "DungeonId": 3482,
        "Conds": [
            {
                "TowerCondType": "TOWER_COND_CHALLENGE_LEFT_TIME_MORE_THAN",
                "ArgumentList": [
                    2,
                    180
                ]
            },
            {
                "TowerCondType": "TOWER_COND_CHALLENGE_LEFT_TIME_MORE_THAN",
                "ArgumentList": [
                    2,
                    300
                ]
            },
            {
                "TowerCondType": "TOWER_COND_CHALLENGE_LEFT_TIME_MORE_THAN",
                "ArgumentList": [
                    2,
                    420
                ]
            }
        ],
        "TowerBuffConfigStrList": [
            "1:100,2:100,3:100,21:100,27:100",
            "15:100,16:100,25:100,28:100,29:100,32:100,35:100,36:100",
            "6:100,7:100,17:100,38:100,31:100,34:100"
        ],
        "FirstPassRewardId": 621035,
        "MonsterLevel": 97,
        "FirstMonsterList": [
            60501
        ],
        "SecondMonsterList": [
            60501
        ]
    },
    {
        "LevelId": 57,
        "LevelGroupId": 19,
        "LevelIndex": 3,
        "DungeonId": 3582,
        "Conds": [
            {
                "TowerCondType": "TOWER_COND_CHALLENGE_LEFT_TIME_MORE_THAN",
                "ArgumentList": [
                    2,
                    180
                ]
            },
            {
                "TowerCondType": "TOWER_COND_CHALLENGE_LEFT_TIME_MORE_THAN",
                "ArgumentList": [
                    2,
                    300
                ]
            },
            {
                "TowerCondType": "TOWER_COND_CHALLENGE_LEFT_TIME_MORE_THAN",
                "ArgumentList": [
                    2,
                    420
                ]
            }
        ],
        "TowerBuffConfigStrList": [
            "1:100,2:100,3:100,21:100,27:100",
            "15:100,16:100,25:100,28:100,29:100,32:100,35:100,36:100,17:100",
            "19:100"
        ],
        "FirstPassRewardId": 621036,
        "MonsterLevel": 99,
        "FirstMonsterList": [
            20301
        ],
        "SecondMonsterList": [
            30201,
            30301,
            30401
        ]
    }
]