[
    {
        "ScheduleId": 5002001,
        "AvatarIndexIdList": [
            1,
            2,
            3,
            0,
            0
        ],
        "RewardIdList": [
            480001,
            480002,
            480003,
            0,
            0
        ]
    },
    {
        "ScheduleId": 5002002,
        "AvatarIndexIdList": [
            4,
            5,
            6,
            0,
            0
        ],
        "RewardIdList": [
            480001,
            480002,
            480003,
            0,
            0
        ]
    },
    {
        "ScheduleId": 5002003,
        "AvatarIndexIdList": [
            7,
            12,
            9,
            13,
            0
        ],
        "RewardIdList": [
            480001,
            480002,
            480003,
            480004,
            0
        ]
    },
    {
        "ScheduleId": 5002004,
        "AvatarIndexIdList": [
            11,
            8,
            14,
            10,
            0
        ],
        "RewardIdList": [
            480001,
            480002,
            480003,
            480004,
            0
        ]
    },
    {
        "ScheduleId": 5002005,
        "AvatarIndexIdList": [
            16,
            18,
            19,
            20,
            0
        ],
        "RewardIdList": [
            480001,
            480002,
            480003,
            480004,
            0
        ]
    },
    {
        "ScheduleId": 5002006,
        "AvatarIndexIdList": [
            15,
            17,
            0,
            0,
            0
        ],
        "RewardIdList": [
            480001,
            480002,
            0,
            0,
            0
        ]
    },
    {
        "ScheduleId": 5002007,
        "AvatarIndexIdList": [
            22,
            31,
            24,
            25,
            0
        ],
        "RewardIdList": [
            480001,
            480002,
            480003,
            480004,
            0
        ]
    },
    {
        "ScheduleId": 5002008,
        "AvatarIndexIdList": [
            21,
            27,
            28,
            0,
            0
        ],
        "RewardIdList": [
            480001,
            480002,
            480003,
            0,
            0
        ]
    },
    {
        "ScheduleId": 5002009,
        "AvatarIndexIdList": [
            1,
            19,
            14,
            0,
            0
        ],
        "RewardIdList": [
            480001,
            480002,
            480003,
            0,
            0
        ]
    },
    {
        "ScheduleId": 5002010,
        "AvatarIndexIdList": [
            7,
            29,
            18,
            0,
            0
        ],
        "RewardIdList": [
            480001,
            480002,
            480003,
            0,
            0
        ]
    },
    {
        "ScheduleId": 5002011,
        "AvatarIndexIdList": [
            30,
            23,
            26,
            0,
            0
        ],
        "RewardIdList": [
            480001,
            480002,
            480003,
            0,
            0
        ]
    },
    {
        "ScheduleId": 5002012,
        "AvatarIndexIdList": [
            11,
            32,
            31,
            0,
            0
        ],
        "RewardIdList": [
            480001,
            480002,
            480003,
            0,
            0
        ]
    },
    {
        "ScheduleId": 5002013,
        "AvatarIndexIdList": [
            33,
            25,
            27,
            24,
            0
        ],
        "RewardIdList": [
            480001,
            480002,
            480003,
            480004,
            0
        ]
    }
]